







 
 
    

 
           
 
 
		   
 

        
	PRIHLÁSENIE PRE KLIENTOV   MENO  
	  
	HESLO 
	    
	          
	  
 
        
      
  
 
 

 

  
    
  


 
    
 
  Hlavná stránka 
  Prečo mať trénera? 
  Športová diagnostika 
  Tréning 
  
  Referencie 
  O nás 
  Naša filozofia 
  Kontakt 
  2% z daní 
     	
    
 
    
 
    

	

 

 
 
PROefekt Elite team
 
       
                 
 
 
 Višnovský  Tomáš 
 Fačkovec Matej 
 Salák Tomáš 
 Sklenárik Filip 
 Nagy Tomáš 
 Hladík Marek 
 Kais Martin 
 Juraj Karas   
 
  
 
 

 
PROefekt Hobby team
 
       
                 
 
 
 Posch Helmut 
 Padyšák Matúš 
 Pašek Ivan 
 Hojdík Vladimír 
 Heššo Peter 
 Mužila Roman 
 Košút Peter 
 Čarnoký Daniel 
 Szenyan Ivan 
 Schwarzkopf Róbert 
 Vicen Erik 
 Ďuriač Peter 
 Juriš Dominik 
 Jusko Lukáš 
 Oravec Ľuboš   
 
  
 
 



 
PROefekt Junior
 
       
 
 
 
 Kováč Milan 
 Szász Adam 
 Sanetrik Štefan 
 Zboja Samo 
 Žigo Dávid 
 Szirmai Rudolf 
 Mikula Miroslav 
 Gajdoš Rastislav 
 Tomša Juraj 
 Furdan Michal 
 Zeman Filip   
 
  
 
 

 
PROefekt Woman
 
       
 
 
 
 Bušíková Soňa 
 Kuštárová Tamara 
 Dudášová Zuzana 
 Szucsová Denisa 
 Pešková Lucia   
 
  
 
 

 
PROefekt Zverenci
 
 

 
 

 
Články 
                
 
 
				
  PROefekt team   Odborné články   Ostatné 
 
 
  
 
 
 
 

 
Najoblúbenejšie články 
                
 
 
				
  Prečo je Sagan Saganom? Počet čítaní: 13057   Štruktúra športového výkonu v cestnej cyklistike v disciplíne časovka jednotlivcov  Počet čítaní: 5198   Lance Armstrong vs doping + video záznam priznania Počet čítaní: 5122   Utorkový tréningový simulovaný pretek aj s Vargom Počet čítaní: 4547   Virtuálny tréningový systém PROefektu Počet čítaní: 4223   Tréner PROefektu sa stal „naozajstným“ cyklistom Počet čítaní: 4185   Komplexný pohľad na SPINNING očami cyklistov Počet čítaní: 4085   Helmut Posch - "Boli dni kedy som sa tešil do školy, lebo som nemusel ísť na tréning!" Počet čítaní: 3602   Laktátová krivka: vy sa pýtate, my odpovedáme Počet čítaní: 3523   Potvrdí Peter Sagan tohtoročnú formu aj na MS? Počet čítaní: 3306 
 
 
  
 
 

           
 
  
 

 
Články 
               
 

  Teambuildingový kemp PROefektu do sezóny 2014   12.11.2013  
	 
   
 
	Uplynulý vikend 9. a 10. novembra si dal PROefekt team zraz v romantickom mestečku Skalica. Hlavným cieľom kempu bolo spoznanie a zblíženie sa do nadchádzajúcej sezóny. Tým nemenej dôležitým nasmerovanie chalanov do zimného tréningu. Môžem skonštatovať, že bolo vynikajúco po všetkých stránkach a víkend sme využili naplno. 
 
	  
 
	 
 
	PROefekt Peško drtič :) 
 
	  
 
	  
 
	 
 
	V posilke bolo tak fajn, že sa tam i papalo :) 
 
	  
 
	  
 
	 
 
	Ľuboš "kápo" hostiteľ 
 
	  
 
	  
 
	 
 
	Nočný "tréning" za Skalickou kultúrou :) 
 
	  
 
	  
 
	 
 
	Dlhá prechádzka 
 
	  
 
	  
 
	 
 
	Ej bača, nejak ťa zalamuje 
 
	  
 
	  
 
	 
 
	Vyskákaní po lekcii Jumpingu 
 
	  
 
	  
 
	 
 
	Všetci spolu 
 
	  
 
	 
 
	Turistika v Bielych Karpatoch 
 
	  
 
	 
 
	Obrovská váha 
 
	  
 
	 
 
	Rozcvička 
 
	  
 
	PROefekt 
  
  
Zdieľať na Facebooku
 

 Späť   
   Komentáre  
	 Nekonštruktívne alebo článok znehodnocujúce komentáre, ktoré nie sú podpísané menom a priezviskom, budú vymazané. 
  
			

			 Pridal:  tajny jazdec  13.11.2013 09:45:59 
			

			 Obsah: Pozeram, ze Tomas bol trenerom na nocnom treningu:D. Ta turistika vyzera super :) 
			

 
 
Na začiatok 1 |  Na koniec

 
	Pridať komentár  
	

	
	 


	 Váš nick 




	   
	
 Váš komentár 


   

Sem napíšte číslo z obrázku




	   

	


   
	   - Pozor! Všetky polia musia byť vyplnené!
	

   

           

 
  
 
  


 

 

 
novinky 
                
 

Soňa Bušíkova v súťaži Miss slovenskej cyklistiky 2014 06.12.2014 o 21:39 Študentský beh 2014 16.11.2014 o 19:38 Vyhodnotenie celkového poradia Slovenského pohára v MTB XCO 2014 24.09.2014 o 19:16 Prečítajte si rozhovor s Jurajom Tomšom o MS v triatlone na Hawaii 19.09.2014 o 18:44 Bohatý pretekový víkend 13. - 14.9.2014 15.09.2014 o 20:32             
 		

  
 

 

 
Bilancia sezóny 
                
 

 Bilancujeme sezónu 2014. Sumarizáciu výsledkov si môžete pozrieť v článku. 
 
 Celý článok TU
            
 		

  
 

 
				   	
 
Video 
                
 

				

	   Vznik PROefekt teamu 
 
    Zobraziť viac videií 
 
  
 

 

 
facebook 
                
 
                    
 			   
  
 
 
Zdieľať na Facebooku
 

	

 		

  
 
			
 
  
 

 

  
 
				
 

  
 

 

  
 

 

  
 
				
	
			
        
 
  
  
 

 

         
        	 Hlavná stránka 
			 Prečo mať trénera 
                         Športová diagnostika 
                         Tréning 
                         PROefekt team 
                         Referencie 
						 O mne 
						 Kontakt 
						
						 Prihlásenie pre klientov                        
         
    
        © 2012 — 2015 PROefekt. All rights reserved.  
        
    
      
  


