

 //W3C//DTD HTML 4.0 Transitional//EN"" ""http://www.w3.org/TR/REC-html40/loose.dtd""&gt;

 
BBC NEWS | Middle East | Israeli PM's aide in graft probe






    
    











	






 



 






	
	 
	 
	 

	
	
	
	
	
	
	
	
	
	
	
 
		  
		 
 
  Home  
  News  
  Sport  
  Radio  
  TV  
  Weather  
  Languages  
 
 
 
		 
	
		
	 
	
	

		 
 
	 
 




 
 
	 
			UK versionInternational version|About the versions
	 
	 
Low graphics|Accessibility help
	 
 
 
 


	
		
		

		
		
		
		
							
		The News in 2 minutes 
		
		
		
		
		
				
		
			
			
						
			 
			
				                
					News services
					 Your news when you want it		
			
			 
			 
					
			
			
			
					
		
	






    
        
    

			

 
	
		
	
	
	
	
		
			
			
				 
					
					News Front Page
				 
				 
					
				 
			
			
			
		
		
	
	
	




	
	
	
	
		
			
			
				 
					
					Africa
				 
				
			
			
			
		
		
	
	
	




	
	
	
	
		
			
			
				 
					
					Americas
				 
				
			
			
			
		
		
	
	
	




	
	
	
	
		
			
			
				 
					
					Asia-Pacific
				 
				
			
			
			
		
		
	
	
	




	
	
	
	
		
			
			
				 
					
					Europe
				 
				
			
			
			
		
		
	
	
	




	
	
	
	
		
			
				 
					
					Middle East
				 
				
				

			
			
			
			
		
		
	
	
	




	
	
	
	
		
			
			
				 
					
					South Asia
				 
				
			
			
			
		
		
	
	
	




	
	
	
	
		
			
			
				 
					
					UK
				 
				
			
			
			
		
		
	
	
	




	
	
	
	
		
			
			
				 
					
					Business
				 
				
			
			
			
		
		
	
	
	




	
	
	
	
		
			
			
				 
					
					Health
				 
				
			
			
			
		
		
	
	
	




	
	
	
	
		
			
			
				 
					
					Science/Nature
				 
				
			
			
			
		
		
	
	
	




	
	
	
	
		
			
			
				 
					
					Technology
				 
				
			
			
			
		
		
	
	
	




	
	
	
	
		
			
			
				 
					
					Entertainment
				 
				
			
			 ----------------- 
			
		
		
	
	
	




	
	
	
	
		
			
			
				 
					
					Video and Audio
				 
				
			
			 ----------------- 
			
		
		
	
	
	




	
	
	
	




	
	
	
	
		
			
			
				 
					
					Have Your Say
				 
				
			
			
			
		
		
	
	
	




	
	
	
	
		
			
			
				 
					
					In Pictures
				 
				
			
			
			
		
		
	
	
	




	
	
	
	
		
			
			
				 
					
					Country Profiles
				 
				
			
			
			
		
		
	
	
	




	
	
	
	
		
			
			
				 
					
					Special Reports
				 
				
			
			
			
		
		
	
	
	




	
	
	
	





	
 




    

		 
 
 RELATED BBC SITES 
 
	 SPORT 
	 WEATHER 
	 ON THIS DAY 
	 EDITORS' BLOG 	
 
 

	
		 LANGUAGES 
 
	 Arabic 
	 Persian 
	 Pashto 
	 Turkish 
	 French 	
	 More 
 




        
        
            
                
                    
			
                        
                        
Last Updated: Saturday, 10 February 2007, 22:51 GMT

  

	


                        
    
         
            
                
                E-mail this to a friend
            
            
	       	
	 	Printable version
            
         
    
    


                        
                    
                
            
            
		
                
		
		
			
			 
				 
					Israeli PM's aide in graft probe
				 
			 
		
		
    		
		

                
                    
                        
	
		
                    	
		
			

	
		
			
			 
				
				 Ehud Olmert is not a suspect, police say 
			 
			
		
		
	

	


A top aide to Israeli Prime Minister Ehud Olmert has been suspended from her job for six months while a corruption inquiry is conducted, officials say.
 
Shula Zaken, Mr Olmert's personal secretary, is being investigated by police over alleged bribe-taking that involved the tax authorities. 
 
 
Mrs Zaken was already placed under house arrest for 10 days in January. She has not been charged. 
 
 
Police say that Mr Olmert is not  suspected of involvement in the case.

 
 
In all, more than people, including senior officials, are being investigated as part of the same case. They all deny any wrongdoing.
 
 
 'Advanced stage'
 
 
Police have for several months been investigating allegations that top government officials had either received or given bribes to win tax breaks for companies.
 
 
""The investigation into the tax authority affair is at an advanced stage, and existing evidence has led to the suspension of several people, including Mrs Zaken,"" state prosecutor Eran Shendar told Israeli's Channel Two television on Saturday.
 
 
Mrs Zaken is suspected of abusing her position to influence the appointment of some tax officials in return for tax benefits. 
 
 
Mrs Zaken has been one of Mr Olmert's close aides for 30 years.
 
 
Correspondents say Mr Olmert has been dogged by allegations of corruption since he came to office, but he has never been charged.
 
 
Last month, state prosecutors ordered an investigation into his role in the privatisation of a bank in 2005 two years ago. 
 
 
Mr Olmert - who was the finance minister at the time - has denied any wrongdoing.
		
                    	 
		
	
	
  
                        
    
         
            
                
                E-mail this to a friend
            
            
	       	
	 	Printable version
            
         
    
    


                         
    


    
 
 
                    
                    
                    
			
			
                        
        

        


        
        	

	
                
                         
                                SEE ALSO
                         
                
                
		
			
				 
					
	
		
			
			
			
			Olmert aide in corruption inquiry
			
		
		
			 
		
	

					
						
							
								03 Jan 07 | 
								Middle East
								
							
						
					
					
				 
			
				 
					
	
		
			
			
			
			Olmert faces bribery allegations
			
		
		
			 
		
	

					
						
							
								25 Oct 06 | 
								Middle East
								
							
						
					
					
				 
			
				 
					
	
		
			
			
			
			Katsav avoids parliament opening
			
		
		
			 
		
	

					
						
							
								16 Oct 06 | 
								Middle East
								
							
						
					
					
				 
			
				 
					
	
		
			
			
			
			Israeli press turns on Katsav
			
		
		
			 
		
	

					
						
							
								16 Oct 06 | 
								Middle East
								
							
						
					
					
				 
			
				 
					
	
		
			
			
			
			Israel president's home searched
			
		
		
			 
		
	

					
						
							
								22 Aug 06 | 
								Middle East
								
							
						
					
					
				 
			
				 
					
	
		
			
			
			
			Sharon son jailed for corruption
			
		
		
			 
		
	

					
						
							
								14 Feb 06 | 
								Middle East
								
							
						
					
					
				 
			
				 
					
	
		
			
			
			
			Israeli bank investigation widens
			
		
		
			 
		
	

					
						
							
								07 Mar 05 | 
								Business
								
							
						
					
					
				 
			
		
		
	

	

 

 
        
        	
        	
	

	
		
		
                        
                                 
                                        RELATED INTERNET LINKS
                                        
                                 
                        
                        
                                
                                         
                                                
                                                        Israeli government portal
                                                        
                                                
                                         
                                
                        
                        
                                
                                         
                                                The BBC is not responsible for the content of external internet sites
                                         
                                        
                                
                        
                
	



 
        

        


        
        	
    

			

    
        
		
                    
                         
                            TOP MIDDLE EAST STORIES
                         
                    
                    
                        
                             
	
		
			
			
			
			US accuses Iran over Iraq bombs
			
		
		
			 
		
	
 
                        
                             
	
		
			
			
			
			Iran insists on nuclear programme
			
		
		
			 
		
	
 
                        
                             
	
		
			
			
			
			Israel to continue holy site work
			
		
		
			 
		
	
 
                        
			
                    
		
        

	
    




    
 
        
        
         
 
 MOST POPULAR STORIES NOW 

 
 



 	
	 
		 MOST E-MAILED 
		 MOST READ 
	 
 
   
    Sea change in UK-India relations
   
   
    US accuses Iran over Iraq bombs
   
   
    Allergy to hair dye 'increasing'
   
   
    Free house as part of mural sale
   
   
    In pictures: US snow storms
   
 
Most popular now, in detail
 
 
 
		 MOST E-MAILED 
		 MOST READ 
	 
 
   
    US accuses Iran over Iraq bombs
   
   
    Six die in Canary Islands tunnel
   
   
    US deflates Putin 'unipolar' speech
   
   
    France's Royal unveils manifesto
   
   
    China to measure the Great Wall
   
 
Most popular now, in detail
 
 
 




                    
                
                  
    

	 
      
    
        
        
	
            
            
		
            
              
            
                
                    
                
            
	
	
    
 
    
         
        
	
            
            
		
            
            
	 
		
                    
                    FEATURES, VIEWS, ANALYSIS
		
	 

            
                
                    
                
            
	
	 
    

    

  
    
      
    
        
        
	
            
            
		
            
            
	
    
    

			




 
 

		
			
			
                        
				Floods aftermath Tens of thousands of Burundi families face a looming food crisis
			
		
		 

 
 



            
                
                    
                
            
	
	
    



    
        
        
	
            
            
		
            
            
	
    
    

			




 
 

		
			
			
                        
				White House race Upbeat Barack Obama launches US presidency bid
			
		
		 

 
 



            
                
                    
                
            
	
	
    



    
        
        
	
            
            
		
            
            
	
    
    

			




 
 

		
			
			
                        
				Blunt speaking US brushes aside critical speech by Russian president
			
		
		 

 
 



            
                
                    
                
            
	
	
    

    
  
 
  
    
      

    
  

 

    
  
            
        
    


	
        
 
 
	 PRODUCTS AND SERVICES 
	 
		 E-mail news 
		 Mobiles 
		 Alerts 
		 News feeds 		
		 Podcasts 
	 
 
 
        
         
	 
		 BBC Copyright Notice 
		


 
Most Popular Now | 43,214 pages were read in the last minute.
 

		 Back to top ^^ 
	 
	 
		 Help 
		 Privacy and cookies policy 
		 News sources 
		 About the BBC 
		 Contact us 		
	 
 



















 








 
   

         
	




