

 //W3C//DTD XHTML 1.0 Strict//EN"" ""http://www.w3.org/TR/xhtml1/DTD/xhtml1-strict.dtd""&gt;

 

Spartans WR Love takes care of academic business, now practice field































  















 


	 
	
	
		 
			  
		
		
		
		 
		
	
	 

	 
	
	
		 
		
			 
				 Freep.com 
				 • 
				 Weather 
				 • 
				 Jobs 
				 • 
				 Cars 
				 • 
				 Real Estate 
				 • 
				 Apartments 
				 • 
				 Shopping 
				 • 
				 Classifieds 
				 • 
				 Dating 
			 

		 
		
		 
		
		
			
				 
					 
						 Emails 
						 RSS 
						 Text Me Freep 
						 Mobile 
					 
					 
						 Subscribe to the Free Press 
						 Manage My Account 
						 Place an Ad 
						 Contact Us 
					 
				
					 
					
					
Search Detroit:
	
			All
			Recent News
			Business Directories
			Classifieds
			Cars
			Jobs
			Shopping
		
	

	

	
					 
				
				 
		
			  
			
			 
			
		
		 
	
	
	 
	
			 
		 
LOCAL NEWS
		 
			 Front 
			 Community 
			 Metro 
			 Detroit 
			 Wayne 
			 Oakland 
			 Macomb 
			 Michigan 
			 Roadwork &amp; Traffic 
		 
	
		 
	
		 
NATION/WORLD
	
		 
			 Front 
			 USA Today 
			 AP Wire 
		 
	
		 
	
		 
SPORTS
	
		 
			 Front 
			 Scores 
			 Lions/NFL 
			 Red Wings/NHL 
			 Tigers/MLB 
			 Pistons/NBA 
			 Shock/WNBA 
			 U-M 
			 MSU 
			 Other Colleges 
			 Preps 
			 Outdoors 
			 Olympics 
			 Auto Racing 
			 Golf 
			 Fan Shop 
		 
	
		 
		
		 
ENTERTAINMENT
	
		 
			 Front 
			 Movie Showtimes 
			 Arts 
			 Movies 
			 DVD 
			 Music 
			 Names &amp; Faces 
			 Dining Out 
			 Nightlife 
			 Casinos 
			 TV &amp; Radio 
			 Video Games 
		 
	
		 
		
		 
BUSINESS
	
		 
			 Front 
			 Michigan 
			 Nation/World 
			 My Market Watch 
			 Air Travel 
			 Technology 
			 Real Estate 
		 
	
		 
		
		 
AUTOS
	
		 
			 Front 
			 Auto Reviews 
			 Auto Shows 
			
		 
	
		 
		
		 
FEATURES
	
		 
			 Front 
			 Lifestyles 
			 Books 
			 Fashion 
			 Food 
			 Gardening 
			 Health 
			 Comics 
			 Twist 
			 Yak's Corner 
			 Pets 
			 College Guide 
		 
	
		 
		
		 
TRAVEL
	
		 
			 Front 
			 USA Today 
		 
	
		 
		
		 
OBITUARIES
	
		 
			 Front 
			 Death Notices 
		 
	
		 
		
		 
OPINION
	
		 
			 Front 
			 Editorials 
			 Letters 
			 Editorial Cartoons 
			 Bloggers 
			 Columnists 
			 Forums 
		 
	
		 
		
		 
TWIST

	
		 
		
	 
		
	 
	
	 
	
	
		 
			
			



						 
			
				
				 
				
				 
  
				 
				 
				 Homepage 
				 
				
				 
 Forums 
				 RSS 
 
				
				 
				
				 
				 Email This Story 
				 Printable Format 
				 
				
			
			 
			
			 
			
				
				

			
				
			
			
			
			
			
		
		 
		
								
		
				

				

				
				
				
				
				
		
				
				
				
			
			
			 
			 SHOPPING 





 Carrying over 50,000 unique team and 
league licensed products, we offer merchandise for NFL, College, MLB, NBA, NASCAR, 
and NHL teams. Shop for MSU Gear &gt; 



 





Free Press Bookstore
 Click here for sports books and posters, sports wearables, cookbooks and more! 




 
			 
			
			 
			
			
				 MORE ON FREEP.COM 
				
				 Most Popular: 
						
 
						
							 DETROIT 9, NEW YORK 6 (11 INNINGS): THE LONGEST WIN: Guillen's 3-run HR beats Yanks after huge rain delay 
						
							 Homes damaged, streets flooded after tornadoes, storms rake area 
						
							 RAIN DELAY FUN: Fans wait 8-plus hours; kids stay up late; lots of beverages served 
						
							 Photo Gallery - Tornados, storms rake metro Detroit 
						
							 TODD JONES: What players do during rain delays 



 


				 Latest Updates: 
					
					 
						
	
	 
Sheriff says suspected drugs found in rapper's home - 5:28 pm
 
	

	
	 
Workouts to go - 5:13 pm
 
	

	
	 
Mushroom burgers pop with flavor - 4:47 pm
 
	

	
	 
It's just between us ... - 4:42 pm
 
	

	
	 
Room with a view - 4:34 pm
 
	
 
					 			
				
			
			 
			
			
			 
					
				  
				 Hot Careers 
				   
				 
					 
						 CAREER FAIR - Look who's hiring! 
					  - Out of State 
					  - Engineering 
					  - Info Tech 
					  - Healthcare 
					  - Education 
					  - Manufacturing 
					  - Sales/Marketing 
					  - Construction/Skilled Trades 
					  - Public Services 
					 HR Recruiter 
					 Case Management 
					 Radiology Tech 
					 Nursing 
					 Business Account Executive 
					 Faculty Mathematics 
					 Powertrain Engineers - Chrysler 
					 Controller 
					  -&gt;CAREER TRAINING - FIND OUT MORE 
					 
				 
				 
					 BUY A LINK HERE 
				 
			
			 


		
		
		 
		
		 
		
		
			 
			
				
				 
				 
					 Freep.com 
										 » 
					 Sports 
					 » 
					 Spartans 		
				 
				 
				
								
				
								
				 Spartans WR Love takes care of academic business, now practice field 
				
				
				 August 22, 2007 
				
				 BY SHANNON SHELTON 
				
 FREE PRESS SPORTS WRITER 

				 


EAST LANSING -- Terry Love has been staying on his own this summer, away from his Michigan State teammates who are in Case Hall for preseason camp. 
 


Because of academic ineligibility, Love, a senior receiver, was not allowed to participate in the preseason exercises until he passed a required history course. It hurt to see his teammates heading to practice each day, he said. 
 


 

	
		
			 Advertisement 
		
			
			
			
		
	


Just as coach Mark Dantonio wanted, Love got the message. 


""Take care of business first, and like Coach Dantonio always preaches, you have to be very accountable,"" Love said. 
 


After passing his course and returning last week, Love is looking to work his way back up the depth chart. With the departure of three seniors from last year, Love was expected to compete for a starting wide receiver spot. He had 18 catches for 234 yards last season. But he was listed fourth in the preseason behind junior Devin Thomas, redshirt freshman David Williams and junior Carl Grimes. 
 


Dantonio, however, said Tuesday that Love was working with the second-string offense. 
 


""I think Terry took care of his business like we wanted him to,"" he said. ""He did what he needed to do, so we're gonna move him forward. He's a senior and he deserves that opportunity."" 
 


Thomas has had a strong preseason and could retain a starting position, but Love will at least give the Spartans some needed depth. At the other receiver, MSU is still without T.J. Williams, who is not expected to return to the team until next week. He was barred from camp for undisclosed disciplinary reasons. 
 


""I understand exactly where (Dantonio) was coming from,"" Love said. ""I think I was treated fair and there's no hard feelings. I'm really just working hard right now. 
 


""Coach D is real cool."" 
 


NOTEBOOK: Dantonio said the Spartans had suffered minimal injuries during camp and should be healthy for the Sept. 1 opener against Alabama-Birmingham. On Tuesday, MSU started working on game-day prep. ... Center John Masters bruised his leg during the team's second scrimmage last Saturday, but Dantonio said Masters should be fine for the first game. ... 
 


UAB coach Neil Callaway told Birmingham media that two quarterbacks would rotate against MSU. Senior Sam Hunt will start at QB and sophomore Joseph Webb will start at receiver, although Webb also should see time under center. ... Dantonio said the two-deep chart was close to being finalized. 
 


Contact SHANNON SHELTON at 313-223-3215 or slshelton@freepress.com. Check out her Spartans blog at www.freep.com/sports. 
				
				
				
				
				
				
				 
				
				
				.
 
 

 


	 
    	 
Post a Comment
 
      	 
View All Comments
 
	 
 

 

 


 tburk  
Very insightful bigmike. It would be humorous if it wasn't such a played out joke. We'll worry about making a bowl game. You worry about not getting smoked in yours. Deal?  
Posted: Fri Aug 24, 2007 12:46 pm 

 


 jynx  
Dear Freep:
 
 Thanks for the positive story about an athlete taking care of business instead of getting into trouble.  I knew they were out there!
 
 Good work, Mr. Love, and good luck this season.  
Posted: Thu Aug 23, 2007 7:41 pm 

 


 bigmike76  
Yea, pull off a few surprises and instead of spending the holidays in EL you will spend them in lovely downtown Detroit.
 
 FIRE TONY ORTIZ!!!!!!!!!     
Posted: Thu Aug 23, 2007 10:13 am 

 


 Spartanalyst  
This team looks better everyday. We may surprise a few people.  
Posted: Wed Aug 22, 2007 11:53 am 

 



 
     
Post a Comment
 
     
View All Comments
 
 

 

 

				
				 
					
				
			
			 
		
			 
		
		
		 
	
	
	 
	
	 
	
		
		 
			 Site index 
		 
		
		
		
			
 News 
				 
					 Front 
					 Community 
					 Metro 
					 Detroit 
					 Wayne 
					 Oakland 
					 Macomb 
					 Michigan 					
					 Nation/World 
					 Roadwork &amp; Traffic 
					 Weather 
					 Obituaries 
					 Death Notices 
				 
			
			
			
 Sports 
				 
					 Front 
					 Scores 
					 Lions/NFL 
					 Red Wings/NHL 
					 Tigers/MLB 
					 Pistons/NBA 
					 Shock/WNBA 
					 U-M 
					 MSU 
					 Other Colleges 
					 Preps 
					 Outdoors 
					 Olympics 
					 Auto Racing 
					 Golf 
				 
			
			
			
 Entertainment 
				 
					 Front 
					 Arts 
					 Movies 
					 DVD 
					 Music 
					 Names &amp; Faces 
					 Dining Out 
					 Nightlife 
					 Casinos 
					 TV &amp; Radio 
					 Video Games 
				 
			
			
			
 Business 
				 
					 Front 
					 Michigan 
					 Nation/World 
					 My Market Watch 
					 Air Travel 
					 Technology 
					 Real Estate 
				 
				

			
 Autos 
				 
					 Front 
					 Auto Reviews 
					 Auto Shows 
					
				 
			
			
			
 Features 
				 
					 Front 
					 Lifestyles 
					 Travel 
					 Books 
					 Fashion 
					 Food 
					 Gardening 
					 Health 
					 Comics 
					 Yak's Corner 
					 Pets 
					 Twist 
				 
			
			
			
 More 
				 
					 Print Edition 
					 Subscribe 
					 Contact Us 
					 Send a News Tip 
					 Freep Bookstore 
					 Order a Photo 
					 Jobs In Journalism 
					 Text Me Freep 
					 Mobile 
					 Submit a Photo 
					 Photo Galleries 
					 Videos 
				 
			
			
			
 Opinion 
				 
					 Front 
					 Editorials 
					 Letters 
					 Editorial Cartoons 
					 Bloggers 
					 Columnists 
					 Forums 
				 
			

			
			
 Classifieds 
				 
					 Front 
					 Find a Job 
					 Find a Car 
					 Find a Home 
					 Find an Apartment 
					 Contests 
					 Shopping 
					 Dating 
					 Pets 
					 Place an Ad 
					 How to Advertise 
				 
			
		
		
		
	
	 
	
	 
	
		
		 
		
			 
				 Partners:  Jobs: CareerBuilder.com
 
				 • 
				 Cars: Cars.com
 
				 • 
				 Apartments: Apartments.com
 
				 • 
				 Shopping: ShopLocal.com
 
			 
			 
				 Customer Service 
				 Terms of Service 
				 Send feedback 
				 Subscribe Now 
				 Jobs In Journalism 
			 
			
			 Copyright ©2007 the Detroit Free Press. All rights reserved. Users of this site agree to the Terms of Service and 
			Privacy Policy/Your California Privacy Rights (Terms updated March 2007) 
			
			 
				 USA Today 
				 USA Weekend 
				 Gannett Co. Inc. 
				 Gannett Foundation 
			 
		
		 
		
	
	
	
		
	
	 


 
























