

 //W3C//DTD XHTML 1.0 Strict//EN"" ""http://www.w3.org/TR/xhtml1/DTD/xhtml1-strict.dtd""&gt;

 

LIONS NOTEBOOK: Kitna, Rogers are iffy, but White will debut































  















 


	 
	
	
		 
			  
		
		
		
		 
		
	
	 

	 
	
	
		 
		
			 
				 Freep.com 
				 • 
				 Weather 
				 • 
				 Jobs 
				 • 
				 Cars 
				 • 
				 Real Estate 
				 • 
				 Apartments 
				 • 
				 Shopping 
				 • 
				 Classifieds 
				 • 
				 Dating 
			 

		 
		
		 
		
		
			
				 
					 
						 Emails 
						 RSS 
						 Text Me Freep 
						 Mobile 
					 
					 
						 Subscribe to the Free Press 
						 Manage My Account 
						 Place an Ad 
						 Contact Us 
					 
				
					 
					
					
Search Detroit:
	
			All
			Recent News
			Business Directories
			Classifieds
			Cars
			Jobs
			Shopping
		
	

	

	
					 
				
				 
		
			  
			
			 
			
		
		 
	
	
	 
	
			 
		 
LOCAL NEWS
		 
			 Front 
			 Community 
			 Metro 
			 Detroit 
			 Wayne 
			 Oakland 
			 Macomb 
			 Michigan 
			 Roadwork &amp; Traffic 
		 
	
		 
	
		 
NATION/WORLD
	
		 
			 Front 
			 USA Today 
			 AP Wire 
		 
	
		 
	
		 
SPORTS
	
		 
			 Front 
			 Scores 
			 Lions/NFL 
			 Red Wings/NHL 
			 Tigers/MLB 
			 Pistons/NBA 
			 Shock/WNBA 
			 U-M 
			 MSU 
			 Other Colleges 
			 Preps 
			 Outdoors 
			 Olympics 
			 Auto Racing 
			 Golf 
			 Fan Shop 
		 
	
		 
		
		 
ENTERTAINMENT
	
		 
			 Front 
			 Movie Showtimes 
			 Arts 
			 Movies 
			 DVD 
			 Music 
			 Names &amp; Faces 
			 Dining Out 
			 Nightlife 
			 Casinos 
			 TV &amp; Radio 
			 Video Games 
		 
	
		 
		
		 
BUSINESS
	
		 
			 Front 
			 Michigan 
			 Nation/World 
			 My Market Watch 
			 Air Travel 
			 Technology 
			 Real Estate 
		 
	
		 
		
		 
AUTOS
	
		 
			 Front 
			 Auto Reviews 
			 Auto Shows 
			
		 
	
		 
		
		 
FEATURES
	
		 
			 Front 
			 Lifestyles 
			 Books 
			 Fashion 
			 Food 
			 Gardening 
			 Health 
			 Comics 
			 Twist 
			 Yak's Corner 
			 Pets 
			 College Guide 
		 
	
		 
		
		 
TRAVEL
	
		 
			 Front 
			 USA Today 
		 
	
		 
		
		 
OBITUARIES
	
		 
			 Front 
			 Death Notices 
		 
	
		 
		
		 
OPINION
	
		 
			 Front 
			 Editorials 
			 Letters 
			 Editorial Cartoons 
			 Bloggers 
			 Columnists 
			 Forums 
		 
	
		 
		
		 
TWIST

	
		 
		
	 
		
	 
	
	 
	
	
		 
			
			



						 
			
				
				 
				
				 
  
				 
				 
				 Homepage 
				 
				
				 
 Forums 
				 RSS 
 
				
				 
				
				 
				 Email This Story 
				 Printable Format 
				 
				
			
			 
			
			 
			
				
				

				
			

			

			
			

			
			 
			

			


			
			

			
			 RELATED STORIES 
					

 Marinelli preaches to the faithful: 'A championship football team' 


 

			
			
	
			
			
			
			
			 ADDITIONAL INFORMATION 

 LIVE BLOG TONIGHT! 
				
 While you watch the game, check out our live blog tonight on freep.com. 


	


			
				
			 Five things to watch tonight 
				
 
 Defense: Peyton Manning, Marvin Harrison and company should get a significant amount of playing time. Can the Lions stop -- or even slow down -- the Colts? 
  Defensive line: On the ends, Dewayne White will make his Lions debut and Kalimba Edwards will return. In the middle, Shaun Rogers could play for the first time since October. 
  Quarterbacks: If Jon Kitna sits out, J. T. O'Sullivan will get to show what he's got with the first-team offense. He probably would play the whole game. 
  Returners: Now that Eddie Drummond is gone, Troy Walters, Aveion Cason and Brian Calhoun will return kicks. Walters, Shaun McDonald and maybe Mike Furrey will return punts. 
  Everything: The last two years, the third exhibition -- the real dress rehearsal for the regular season -- has been a harbinger of disaster. Two years ago, the Lions were blown out by St. Louis on Monday Night Football. Last year, they were embarrassed at Oakland. How will they stack up against the Super Bowl champs? 
  NICHOLAS J. COTSONIKA 
  
 

			
			
			
			

			
		
		 
		
								
		
				

				

				
				
				
				
				
		
				
				
				
			
			
			 
			 SHOPPING 





 Carrying over 50,000 unique team and 
league licensed products, we offer merchandise for NFL, College, MLB, NBA, NASCAR, 
and NHL teams. Shop for Lions Gear &gt; 




 






 Free Press Bookstore 
 Click here for sports books and posters, sports wearables, cookbooks and more! 




 
			 
			
			 
			
			
				 MORE ON FREEP.COM 
				
				 Most Popular: 
						
 
						
							 DETROIT 9, NEW YORK 6 (11 INNINGS): THE LONGEST WIN: Guillen's 3-run HR beats Yanks after huge rain delay 
						
							 Homes damaged, streets flooded after tornadoes, storms rake area 
						
							 RAIN DELAY FUN: Fans wait 8-plus hours; kids stay up late; lots of beverages served 
						
							 Photo Gallery - Tornados, storms rake metro Detroit 
						
							 TODD JONES: What players do during rain delays 



 


				 Latest Updates: 
					
					 
						
	
	 
Sheriff says suspected drugs found in rapper's home - 5:28 pm
 
	

	
	 
Workouts to go - 5:13 pm
 
	

	
	 
Mushroom burgers pop with flavor - 4:47 pm
 
	

	
	 
It's just between us ... - 4:42 pm
 
	

	
	 
Room with a view - 4:34 pm
 
	
 
					 			
				
			
			 
			
			
			 
					
				  
				 Hot Careers 
				   
				 
					 
						 CAREER FAIR - Look who's hiring! 
					  - Out of State 
					  - Engineering 
					  - Info Tech 
					  - Healthcare 
					  - Education 
					  - Manufacturing 
					  - Sales/Marketing 
					  - Construction/Skilled Trades 
					  - Public Services 
					 HR Recruiter 
					 Case Management 
					 Radiology Tech 
					 Nursing 
					 Business Account Executive 
					 Faculty Mathematics 
					 Powertrain Engineers - Chrysler 
					 Controller 
					  -&gt;CAREER TRAINING - FIND OUT MORE 
					 
				 
				 
					 BUY A LINK HERE 
				 
			
			 


		
		
		 
		
		 
		
		
			 
			
				
				 
				 
					 Freep.com 
										 » 
					 Sports 
					 » 
					 Lions 		
				 
				 
				
								
				
								
				 LIONS NOTEBOOK: Kitna, Rogers are iffy, but White will debut 
				 Lions take it slow with QB and DT 
				
				 August 25, 2007 
				
				 BY NICHOLAS J. COTSONIKA 
				
 FREE PRESS SPORTS WRITER 

				 


The Lions will wait until today to decide whether quarterback Jon Kitna will play in tonight's exhibition at Indianapolis. 
 


Kitna left practice Tuesday with back spasms, then didn't practice Wednesday and Thursday. Coach Rod Marinelli classified Kitna as questionable Friday. 
 


 

	
		
			 Advertisement 
		
			
			
			
		
	


""He's just stiff,"" Marinelli said. ""During the day he started feeling really good, and then it was, he'd go to bed and he wakes up a little stiff. 


""So we're going to see how he wakes up maybe tomorrow and see how he feels. And we'll be smart. We're going to be smart with him."" 
 


The Lions will be much more cautious than they would for a regular-season game. 
 


""I'm not going to put him in there if he's not right,"" Marinelli said. 
 


Defensive tackle Shaun Rogers (knee) is probable, but Marinelli said he will wait until today to make a final decision. Rogers returned to practice this week for the first time since October. If he plays, he will play only about eight snaps, Marinelli said. 
 


Defensive end Dewayne White (groin) will make his Lions debut after sitting out the first two exhibitions. 
 


Linebacker Paris Lenon (knee) and placekicker Jason Hanson (hamstring) are probable. Quarterback Dan Orlovsky (toe) and offensive linemen Damien Woody (ankle) and Frank Davis (knee) are out. 
 


A KIND CUT: President Matt Millen tried to trade return specialist Eddie Drummond but couldn't find a deal, so the Lions released him Thursday. 
 


The timing of the release gives Drummond a better opportunity to find another job. 
 


""I think Matt looked around, but I didn't want to keep waiting,"" Marinelli said. ""We've got to be fair to him, too. I thought that was the fair thing to do. He's been a good player here. 
 


""It's nothing about him. He's a heck of a returner. I don't want to suit up four specialists in a game. It's hard."" 
 


The Lions already had three players who contribute only on special teams: Hanson, punter Nick Harris and long snapper Don Muhlbach. The regular-season roster is limited to 53 players. 
 


Drummond wanted to play receiver, but he fell out of favor with offensive coordinator Mike Martz early last season and got virtually no reps at receiver during the off-season and training camp. 
 


""We really like our receiving corps right now,"" Marinelli said. 
 


The Lions will look at receiver Troy Walters and running backs Aveion Cason and Brian Calhoun on kickoff returns. They will look at Walters and receivers Shaun McDonald and Mike Furrey on punt returns.  Contact NICHOLAS J. COTSONIKA at 313-222-8831 or ncotsonika@freepress.com. Check out his Lions blog at www.freep.com/sports. 
				
				
				
				
				
				
				 
				
				
				.
 
 

 


	 
    	 
Post a Comment
 
      	 
View All Comments
 
	 
 

 

 


 Bob M.  
At this point and time all Lions games are important and fortunate for me I will get to watch the them live on the NFL network.  Yes it is against the Colts but I'll be more interested in the Defense and Special teams then the score.  This will be the pivotal game that makes or breaks who will be around on September 9th.  This game will show us what the Lions are really made of and what we can expect from them when the real season kicks in so go Lions!  At least once and for all before I take that last trip to where ever we go on that last trip.  
Posted: Sat Aug 25, 2007 8:35 am 

 



 
     
Post a Comment
 
     
View All Comments
 
 

 

 

				
				 
					
				
			
			 
		
			 
		
		
		 
	
	
	 
	
	 
	
		
		 
			 Site index 
		 
		
		
		
			
 News 
				 
					 Front 
					 Community 
					 Metro 
					 Detroit 
					 Wayne 
					 Oakland 
					 Macomb 
					 Michigan 					
					 Nation/World 
					 Roadwork &amp; Traffic 
					 Weather 
					 Obituaries 
					 Death Notices 
				 
			
			
			
 Sports 
				 
					 Front 
					 Scores 
					 Lions/NFL 
					 Red Wings/NHL 
					 Tigers/MLB 
					 Pistons/NBA 
					 Shock/WNBA 
					 U-M 
					 MSU 
					 Other Colleges 
					 Preps 
					 Outdoors 
					 Olympics 
					 Auto Racing 
					 Golf 
				 
			
			
			
 Entertainment 
				 
					 Front 
					 Arts 
					 Movies 
					 DVD 
					 Music 
					 Names &amp; Faces 
					 Dining Out 
					 Nightlife 
					 Casinos 
					 TV &amp; Radio 
					 Video Games 
				 
			
			
			
 Business 
				 
					 Front 
					 Michigan 
					 Nation/World 
					 My Market Watch 
					 Air Travel 
					 Technology 
					 Real Estate 
				 
				

			
 Autos 
				 
					 Front 
					 Auto Reviews 
					 Auto Shows 
					
				 
			
			
			
 Features 
				 
					 Front 
					 Lifestyles 
					 Travel 
					 Books 
					 Fashion 
					 Food 
					 Gardening 
					 Health 
					 Comics 
					 Yak's Corner 
					 Pets 
					 Twist 
				 
			
			
			
 More 
				 
					 Print Edition 
					 Subscribe 
					 Contact Us 
					 Send a News Tip 
					 Freep Bookstore 
					 Order a Photo 
					 Jobs In Journalism 
					 Text Me Freep 
					 Mobile 
					 Submit a Photo 
					 Photo Galleries 
					 Videos 
				 
			
			
			
 Opinion 
				 
					 Front 
					 Editorials 
					 Letters 
					 Editorial Cartoons 
					 Bloggers 
					 Columnists 
					 Forums 
				 
			

			
			
 Classifieds 
				 
					 Front 
					 Find a Job 
					 Find a Car 
					 Find a Home 
					 Find an Apartment 
					 Contests 
					 Shopping 
					 Dating 
					 Pets 
					 Place an Ad 
					 How to Advertise 
				 
			
		
		
		
	
	 
	
	 
	
		
		 
		
			 
				 Partners:  Jobs: CareerBuilder.com
 
				 • 
				 Cars: Cars.com
 
				 • 
				 Apartments: Apartments.com
 
				 • 
				 Shopping: ShopLocal.com
 
			 
			 
				 Customer Service 
				 Terms of Service 
				 Send feedback 
				 Subscribe Now 
				 Jobs In Journalism 
			 
			
			 Copyright ©2007 the Detroit Free Press. All rights reserved. Users of this site agree to the Terms of Service and 
			Privacy Policy/Your California Privacy Rights (Terms updated March 2007) 
			
			 
				 USA Today 
				 USA Weekend 
				 Gannett Co. Inc. 
				 Gannett Foundation 
			 
		
		 
		
	
	
	
		
	
	 


 
























