

 //W3C//DTD HTML 4.01 Transitional//EN"" ""http://www.w3.org/TR/html4/loose.dtd""&gt;

 
KEVIN: NO BRITNEY SEX TAPE |  | Gossip | Celebrity Gossip | Photos

























 
  
 
  
  













				  

 
 
  
 
 

 
     
	 	
	
 

		 
		NYC Weather 80 ° CLEAR 		 
		
		
     
    
     
	         
    
     
		 
		Sunday, August 26, 2007  
		Last Update: 
		12:10 AM EDT 
		 
         
         
         
                 
              
         


			Recent
			30 days+
			The Web
			

      
 




       
            
            
			 
				Story Index
				Summer of '77
			 
			
            
           
            
            
            
            
          
               
               
               
          
          
            Post An Ad
            Marketplace
            Autos
            Dating
            Jobs
            Real Estate
          
          
            Sports Blogs
            Fashion
            Harry Potter
            Make Us Rich
            Movies
            Travel
            NYP Home Page
            Tempo
            TV
            Video Games
            Health: IVF
            Weight Loss
          
          
            Past Editions
            Archives
            AvantGo
            Classroom Extra
            Coupons
            E-Edition
            Past Editions
            Liberty Medals
            
            Parade Magazine
            Site Map
            Special Sections
            Story Index
            Tempo
            Weekend Guide
          
         
       
 
   Page Six Home
   Cindy Adams
   Liz Smith
   Celebrity Photos
   Celebrity Sightings
   Page Six Magazine
   Cartoon
   Braden Keil
   Michael Riedel
 
 
    
       
	
	
       
       
          
         
          WHERE THEY'RE HAVING TURKEYS 
          ROSIE O'Donnell's Thanksgivinging in Florida with Kelli the missus' family. That's two parents, six...         more &gt; 
          
         
          SMOOCHING FOREVER 
          'THE COUPLE sealed the deal with a three-minute kiss in front of A-list buddies," reports the Washington Post...         more &gt; 

         
       
    
    

       
                	
	
       

       
          
            KEVIN: NO BRITNEY SEX TAPE     
          
          
             

              
               
 
             November 22, 2006 -- KEVIN Federline may be sleazy, but he doesn't do porn. Britney Spears' dumped hubby insisted through his lawyer yesterday that there is no XXX home video of him and the pop tart engaging in wild sex acts, and shot down reports that he planned to sell such a tape for tens of millions of dollars. Two weeks ago, a tape hit the Internet that showed a blonde who looked like Spears in the act with a man whose face could not be seen. Meanwhile, as Spears partied in Las Vegas last weekend, her trashtastic "rapper" ex was in Miami. But he didn't receive half the celebrity attention down there that Spears did in Sin City. While she was dancing with Paris Hilton and shopping with George Maloof of The Palm, Fed-ex arrived by bus (Spears took away his jet privileges). He hosted a party at Mansion, where he gave the finger to clubgoers who booed him. Then he was turned down for a dinner reservation at hotspot Social Miami. "They will always make exceptions for celebrities," said our source. "But they flat-out rejected him."  
   
 
             Have you met Zanessa? 
 Photo Gallery: Mary-Jane Olsen 
 NYPost Fashion Editors: "Deal of the Day" 
 Purse Extravaganza 
 Double Trouble: Lindsay and Nicole's Hard-ly Times 
 This Week's "Haute List" 




             Read Keith Kelly and get the scoop on NY's biggest media movers! 
            
            
               next item &gt;            
          
          
            view all on one page &gt;            
             
                
 Kevin: No Britney Sex Tape 
 'Real' Mad At Wall St. Mogul 
 Who's A Moron? 
 Bold Robbery 
 Fit To Be Taye'd 
 Desperate Sign 
              
             
                
 Fusion Feast 
 Date With Paris 
 Debutantes Are Descending On Paris 
 Now That's A Bawdy Bible 
 Feast Worth $1M 
              
          



       
       
                
	
          
 

 
		 
  
  
   
 
08/24: Ciara, J. Lo, Ivanka Trump... &gt;08/23: Elle Macpherson, Alicia Keys... &gt;
 
Celebrity Photos Homepage &gt;
 
           
       
     
    
 
	
	 
		News
		 
			 Local News 
			 National News 
			 International News 
			 News Columnists 
			 Weird But True 
			 NYPD Daily Blotter 
			 Liberty Medals 
			 Traffic &amp; Transit 
			 Lottery 
			 Classroom Extra 
		 
	 	
	 
		Sports
		 
			 Yankees 
			 Mets 
			 Giants 
			 Jets 
			 Knicks 
			 Nets 
			 Rangers 
			 Islanders 
			 Devils 
			 Sports Blogs 
			 Columnists 
			 
Bettor's Guide
			 
 Horse Racing Picks 
			 Post Line 
		 
	 	
	 
		Page Six
		 
			 Cindy Adams 
			 Liz Smith 
			 Braden Keil 
			 Michael Riedel 
			 Celebrity Photos 
			 Celebrity Sightings 
			 Page Six Magazine 
			 Delonas Cartoons 
		 
 
		Business
		 
			 Business Columnists 
			 Real Estate 
			 Stock Quotes 
		 
	 	
	 
		Entertainment
		 
			 Movies 
			 Movies Blog 
			 Oscars 
			 Food 
			 Fashion 
			 Fashion Blog 
			 Music 
			 Theater 
			 Health 
			 Travel 
			 Travel Blog 
			 Horoscope 
			 Weddings 
			 Dating 
			 Weekend Guide 
			 Comics &amp; Games 
			 Post Game Report 
			 Tempo 
		 
	 	
	 
		Post Opinion
		 
			 Editorials 
			 Oped Columnists 
			 Letters 
			 Books 
			 Ramirez Cartoons 
			 Send a Letter 
		 
 
		TV
		 
			 Linda Stasi 
			 Starr Report 
			 Adam Buckman 
			 Reviews 
			 TV Listings 
			 LIVE: The TV Blog 
		 
	 	
	 
		Classifieds
		 
			 Cars 
			 Dating 
			 Jobs 
			 Real Estate 
			 Marketplace 
			 Place an Ad 
		 
 
		Miscellaneous
		 
			 Contests 
			 Coupons 
			 Media Kit 
			 Parade Magazine 
			 RSS 
			 Special Sections 
			 Privacy Policy 
			 Terms of Use 
		 
	 	
	 
		User Services
		 
			 Contact Us 
			 FAQ 
			 Daily Newsletter 
			 Home Delivery 
			 Avant Go 
			 E-Edition 
			 Archives 
			 Back Issues 
			 Reprints 
			 Story Index 
			 Last 30 Days 
		 
	 	
	
 
 
sign insubscribeprivacy policyrss 
 
 
 
  

 

 NEW YORK POST is a registered trademark of NYP Holdings, Inc. NYPOST.COM, NYPOSTONLINE.COM, and NEWYORKPOST.COM are trademarks of NYP Holdings, Inc. 
 Copyright 2007NYP Holdings, Inc. All rights reserved. 
 

 


