

 "










//W3C//DTD XHTML 1.0 Transitional//EN"" ""http://www.w3.org/TR/xhtml1/DTD/xhtml1-transitional.dtd""&gt;









 

Cheryl and Ashley Cole to 'marry' again | Metro.co.uk








  

 



















	
	
	
	
	
	 	
	 
	
	
	
	
	
	
	
	
	
	
	
	
        
        
    
           



        
        
         
        
        

	
	
	


	
	
         


       
	
	
		
		 
         




 













 




	 
	 
	 
	 
	 
	 
	 
	 
	 
	 
	 
	 
	 
	 
	 
	 
	 
	 
	 
	 
	 
	 
	  
















 

 

















 

 
	






 

	


	 
		





 
 








		






	 
	 
	 	
	 
	

	
	 
	 
		 
 Home 
 News 
 Sport 
 Fame 
 Weird 
 MetroLife 
 ME  
 ME  
 Money 
 Metrosexual 
 Lifestyle 
 Travel 
 Games 
 Gimme 
 Shop 
 Too Much? 
 
 

 

60 Seconds


Celebrity pictures


Gossip Blog


Headlines


Chat


Video

 








 

	 
	 

	
	

 
 
	
		

 

			


 
 

 

			   





Your views (3)


 
  Cheryl and Ashley Cole to 'marry' again 
Tuesday, October   28, 2008
 
  The couple plan to renew their wedding vows 
 
 
 They haven't even been married for three years yet, but Ashley and Cheryl Cole are already planning to renew their wedding vows.
 
 
The couple's marriage was rocked when it was reported that Ashley, 27, cheated on his 25-year-old wife with a blond hairdresser in January this year.
 
 
  
 
 
RELATED ITEMS 
 
  Latest showbiz bulletin 
 Today's top showbiz headlines 
 Cheryl shows she has the Wobble Factor 
 
 
 
 
 
After a media frenzy the Girls Aloud star and the Chelsea defender patched up the cracks in their relationship to and finally put their marriage back on the tracks.
 
 
 
 We're going to build our married life together, not thinking about what if it ever ends 
 
But after their multi-million pound wedding, they are now planning to hold a low-key secret ceremony with family and friends to rekindle their love. 
 
 
Cheryl told OK! magazine: ?We're a work in progress. 
 
 
?We're going to build our married life together, not thinking about what if it ever ends. 
 
 
?I wasn't looking for a relationship when I met Ashley and certainly not a long-term one. But pretty soon after I met him I knew something was different and I knew I had never felt that before. 
 
 
?He does little things now that he doesn't even know he's doing. My heart goes and I just think, God you're so perfect.? 
 
 

 
 
     
                    Share this article  
                     
                   Diggit 
                     
                   Reddit 
                     
                   Delicious 
                     
                   Farkit 
                     
                   Stumble 
                     
                   Facebook 
                     

                     

                     
                     
                     
                     

                    Metro Headlines  
                    
                    Add breaking news to your Facebook  
                     
                     
                     
                     
                     

                     

                       
 
MORE METRO 
 
  Madge 'offers Guy ?20m' in divorce battle  
 Britney hits the gym to get back body  
 Take That announce UK tour  
 Sarah Harding: 'I eat like a horse'  
 Stripped off Zac Efron shows his six-pack  

 
 
 
 


 PRINT
 EMAIL A FRIEND
 TALK
 WRITE HERE

 RSS  | WHAT IS RSS?



  

 
 








  







 Add your comment 






 Your views  

 
 

         3 readers have commented on this story so far. 

           Tell us what you think below!

 


    Here's a sample of the latest comments published. 
   
      You can click view all to read all comments that readers have sent in.

    

 





 



Oh Cheryl, you can do so much better than that! Dump him! He's not even hot! And we are talking about a footballer here, so not the brightest one either. 
 
- Sally, Ealing, London 





 



Good for them! It shouldn't matter how long you've been married, you can renew your vows anytime, and what better time than any after there has been some trouble, it's about starting again. 
 
- Rebecca, Yorkshire 





 



Can anybody else say MUG!! 
 
- Katy, London 







  










 
Add your comment 
 


  
 
	
  			









 Name: 

 Your email address will not be publishedEmail:
 

 Town and country: 



 
Terms and conditionsYour comment:
 
make text area bigger
You have  characters left. 
 

 
Remember me - this will save your name, location and email address for when you leave your next comment. 

 
 Email me a link to these comments. 
     
 IMPORTANT NOTICE: Please read our warranties before submitting any material  
    


 
  

 
  












			

 
		
			





 
 
 
 
     
 
 
  
  
  
  
  
  
 
 
 PLAY Click thumbnails to view the videos 
 
 
    
 
     
 
News
 
 
Sport
 
 
Fame
 
 
MEView
 
 
Metro TV
 
 
   
    
   
    
      
     
 







 
Forward     Back
 
 
 
 Hunky Zac Efron shows off his six pack 
 X Factor star is No.1 with Metro
 
 GLAM! Post pregnant J-Lo looking fab  
 SHOCK! Sarah Harding not partying hard 
 NAT'S NOT RIGHT - Nooooo Natalie 
 Guy on the lash with the lads 
 Paris and Jordan buddies? Par-dan? 
 
 
 
 
 
 
 
 
 
 
   
 

  

 
  
  
   
 
 
 
 Editors Choice

 
 Most Read

 
 Most Comments

 
 
 
   
 
  
	 
 
 Exclusive: Watchmen footage
 
 
 Britney's new fitness video
 
 
 Female fantasies revealed
 
 
 World's longest dreadlock
 
 
 Ear found under rollercoaster
 
 
 
 
 
   
 
	 
 
 Dead Set makes a bloody big bother
 
 
 Prosthetic ear found under rollercoaster
 
 
 Half-ton man's big fat Mexican wedding
 
 
 Stripped off Zac Efron shows his six-pack
 
 
 Fancy a little bite to eat?
 
 
 
 
 
   
 
	 
 
 Ofcom to probe Russell Brand's sex calls
 
 
 X Factor star is No.1 with Metro
 
 
 Sarah Harding: 'I eat like a horse'
 
 
 Stripped off Zac Efron shows his six-pack
 
 
 Madge 'offers Guy ?20m' in divorce battle
 
 
 
 
 
   
 
  
  
 

       
   
 Vote for your celeb of the year 2008! 
 
It's been one hell of a year for our bruised and battered celebs. So now comes the time to decide who you want to be crowned Metro's Celebrity Of The Year.  Vote here...
 
   
     
       
   
 CELEBRITY SQUARES 
 
We pick nine of the best and worst celebrity pictures. From Crazy Amy to Geek Chic - laugh or grimace at the celebs  here
 
   
     
       
   
 MIXED BAG 
 
Bag all your glamour, gossip or even your next free ride to a favourite gig, right here. Plus go star-spotting and win our weekly glamour Friday night out below! 
 More here
 
   
     
        
  
 60 SECONDS ARCHIVE 




 
 



 
Choose category
Actors
Adventurers
Artists
Authors
Business People
Celebrities
Comedians
Cult
Current Affairs
Female Musicians
Glamour
Icons
Male Musicians
Models
Presenters
Sports
TV and Film


 

   
     
   
  

    






 







 
		
		

 
		
		





 
   

    

  

    








 
		
	 
 




	  
	
     
     
      
        Top of page 
      
      ©2008 Associated Newspapers Limited   
      Advertising.metro.co.uk
      Terms and conditions
      Contact us
      About Metro
      AND
      
        
      
      
      Site map

	 
	 
	 
	 
This is Money|   This is London|   Daily Mail|   This is Travel
 	 
	 
	
	 
	 
      
	 
	 



   



 





















  





	
	
	



	


















 
 





