

 "//W3C//DTD XHTML 1.0 Transitional//EN"" ""http://www.w3.org/TR/xhtml1/DTD/xhtml1-transitional.dtd""&gt;


 
People.co.uk - BANK THAT'S OPEN ALL HOURS  
	
	
	
	
	
	
	
	
	
	
	
	

	
	
	

	
	

	
	
	
	 
				
				
			
			
			
				
				
				
			
		 
	 
		
		

			
			
				
				
				
			
		
		
	 

	
	 
		
			
				
				
				
					Search
					
					
				
			 
		
	 


 



Home
	 | 
News
|
Sport
|
People Money
|
Showbiz
|
Lotto
|
Bingo
|
Dating
	|
	More &gt;
	

	
	 

		 
		
		
	
News  &gt;
Eamonn Holmes
|
Voice of the People
|
Letters
	
	
	 
	
	 
	
 
		
		
		
	 
	













































 

	
		
		

		
			
		
	
	




	
	

	
	

	

	
		
		
		
			
				
			
		
			
				
			
		
		
		
		
		
		
		



		
		
			
			
		


		

		
		
		
		

		
		

		
	 
	




	 
	
	 
 26 October 2008 
	 BANK THAT'S OPEN ALL HOURS  
	 By Fiona May  
 This is the man who found his local bank UNLOCKED after hours.  
 Dave Naughton, 51, was posting a cheque at the NatWest branch when the doors swung open triggering an alarm.  
 It was almost 6pm - 11/2 hours after the bank in Dewsbury, West Yorks, closed. The dad of two thought cleaners had left it open. So he waited in vain for police to arrive.  
 
 
 Advertisement 
 
	
	
	
	
	
	
	 
 
 Eventually, he shut the doors and went to a nearby police station where cops did not know about the alarm. Officers got to the bank within minutes and alerted NatWest.  
 
 The firm said: ""Any breach is totally unacceptable and is investigated.""  
 
 At least their doziness gave some folk a giggle - here are some more jokes to help you through the credit crunch...  

 
	 
Print article  

	Email to a friend
	 
	 
	 
 
 
 
		
		
		 
		
		
		
	

	
	
	
	 
		 Sponsored Links 
			 
				
				
		 
	 

 
 
		
		
		
			
			 
				
				 Recommended Searches 
					 
						
						   
					 
			 
	
		
		
		
 
 
		 
		
		
		 
 Advertisement 
 
			
			
				
				
				
			
		 
 
		
		
		
 
	 

	
		
			
				 
				 
		
		 
		
		
		
		Motoring
|
Fun &amp; Games
|
Gaming
|
Pets &amp; People
|
Competitions
|
Holidays
|
Ticketmaster
|
Leisure Guide
				|
				More &gt;
				
		

 
		
 
Home | 



	News
	 |  
	
	Sport
	 |  
	
	People Money
	 |  
	
	Showbiz
	 |  
	
	Lotto
	 |  
	
	Bingo
	 |  
	
	Dating
	 |  
	
	Motoring
	 |  
	
	Fun &amp; Games
	 |  
	
	Gaming
	 |  
	
	Pets &amp; People
	 |  
	
	Competitions
	 |  
	
	Holidays
	 |  
	
	Ticketmaster
	 |  
	
	Leisure Guide
	 |  
	
	Real Life
	 |  
	
	Contact Us
	 |  
	
	Horoscopes
	 |  
	
	Terms and Conditions
	 |  
	
	Privacy Policy
	 |  
	
	Site Map
	 
	 

		
	
	 
			
			
				
				
				
			
		 
 
			
			
				
				
				
			
		 
	
		
	
		
	
	
	
	
	
	
	
	







		
		
		



		
	


