

 "//W3C//DTD XHTML 1.0 Transitional//EN"" ""http://www.w3.org/TR/xhtml1/DTD/xhtml1-transitional.dtd""&gt;


 
People.co.uk - Hollywood for Dannii  
	
	
	
	
	
	
	
	
	
	
	
	

	
	
	

	
	

	
	
	
	 
				
				
			
			
			
				
				
				
			
		 
	 
		
		

			
			
				
				
				
			
		
		
	 

	
	 
		
			
				
				
				
					Search
					
					
				
			 
		
	 


 



Home
	 | 
News
|
Sport
|
People Money
|
Showbiz
|
Lotto
|
Bingo
|
Dating
	|
	More &gt;
	

	
	 

		 
		
		
	
News  &gt;
Eamonn Holmes
|
Voice of the People
|
Letters
	
	
	 
	
	 
	
 
		
		
		
	 
	













































 

	
		
		

		
			
		
	
	




	
	

	
	

	

	
		
		
		
			
				
			
		
			
				
			
		
		
		
		
		
		
		



		
		
			
			
		


		

		
		
		
		

		
		

		
	 
	




	 
	
	 
 26 October 2008 
	 Hollywood for Dannii  
	 Mum reveals favourite's childhood album and tells how success has eased family pain  
 Dannii Minogue has hinted she may quit at the end of this series - to try her luck at acting.  
 In an exclusive People interview, the 36-year-old judge revealed she's planning to move to Hollywood and it's all down to the ITV1 show.  
 Dannii told us: ""I've never done acting before because I didn't have the confidence but I do now and that is thanks to The X Factor. It has enabled me to do things I wouldn't have done before.""  
 
 
 Advertisement 
 
	
	
	
	
	
	
	 
 
 Dannii has been replaced as the show's darling by Cheryl but says her private life couldn't be better now she's just started dating Mancunian rugby league star Kris Smith, 30. She adds: ""I am the happiest I've ever been. I'm on a high, life is so good I'm tiptoeing around.""  

 
	 
Print article  

	Email to a friend
	 
	 
	 
 
 
 
		
		
		 
		
		
		
	

	
	
	
	 
		 Sponsored Links 
			 
				
				
		 
	 

 
 
		
		
		
			
			 
				
				 Recommended Searches 
					 
						
						   
					 
			 
	
		
		
		
 
 
		 
		
		
		 
 Advertisement 
 
			
			
				
				
				
			
		 
 
		
		
		
 
	 

	
		
			
				 
				 
		
		 
		
		
		
		Motoring
|
Fun &amp; Games
|
Gaming
|
Pets &amp; People
|
Competitions
|
Holidays
|
Ticketmaster
|
Leisure Guide
				|
				More &gt;
				
		

 
		
 
Home | 



	News
	 |  
	
	Sport
	 |  
	
	People Money
	 |  
	
	Showbiz
	 |  
	
	Lotto
	 |  
	
	Bingo
	 |  
	
	Dating
	 |  
	
	Motoring
	 |  
	
	Fun &amp; Games
	 |  
	
	Gaming
	 |  
	
	Pets &amp; People
	 |  
	
	Competitions
	 |  
	
	Holidays
	 |  
	
	Ticketmaster
	 |  
	
	Leisure Guide
	 |  
	
	Real Life
	 |  
	
	Contact Us
	 |  
	
	Horoscopes
	 |  
	
	Terms and Conditions
	 |  
	
	Privacy Policy
	 |  
	
	Site Map
	 
	 

		
	
	 
			
			
				
				
				
			
		 
 
			
			
				
				
				
			
		 
	
		
	
		
	
	
	
	
	
	
	
	







		
		
		



		
	

