"A not too hot, not too cold obit</h2>

</div>





<div id=""author"">
<p class=""byline"">



			
					
				
	
			
					
				
	
			
					
				
	
			
					
				
	
			
					
				
	
			
					
				
	
			
					
				
	
			
					
				
	
			
					
				
	
			
					
				
	
			
					
				
	
			
					
				
	
			
					
				
	
			
					
				
	
			
					
				
	
			
					
				
	
			
					
				
	
			
					
				
	
			
					
				
	
			
					
				
	
			
					
				
	
			
					
				
	
			
					
				
	
			
					
				
	
			
					
				
	
			
					
				
	
			
					
				
	
			
					
				
	
			
					
				
	
			
					
				
	
			
					
				
	
			
					
				
	
			
					
				
	
			
					
				
	
			
					
				
	
			
					
				
	
			
					
				
	
			
					
				
	
			
					
				
	
			
					
				
	
			
					
				
	
			
					
				
	
			
					
				
	
			
					
				
	
			
					
				
	
			
					
				
	
			
					
				
	
			
					
				
	
			
					
				
	
			
					
				
	
			
					
				
	
			
					
				
	
			
					
				
	
			
					
				
	
			
					
				
	
			
					
				
	
			
					
				
	
			
					
				
	
			
					
				
	
			
					
				
	
			
					
				
	
			
					
				
	
			
					
				
	
			
					
				
	
			
					
				
	
			
					
				
	
			
					
				
	
			
					
				
	
			
					
				
	
			
					
				
	
			
					
				
	
			
					
				
	
			
					
				
	
			
					
				
	
			
					
				
	
			
					
				
	
			
					
				
	
			
					
				
	
			
					
				
	
			
					
				
	
			
					
				
	
			
					
				
	
			
					
				
	
			
					
				
	
			
					
				
	
			
					
				
	
			
					
				
	
			
					
				
	
			
					
				
	
			
					
				
	
			
					
				
	
			
					
				
	
			
					
				
	
			
					
							
							
							
							
							
							
						
				
	
			
	
			
	
			
	
			
	
			
	
			
	
			
	
			
	
			
	
			
	
			
	
			
	
			
	
			
	
			
	
			
	
			
	
			
	
			
	
			
	
			
	
			
	
			
	
			
	
			
	
			
	
			
	
			
	
			
	
			
	
			
	
			
	
			
	
			
	
			
	
			
	
			
	
			
	
			
	
			
	
			
	
			
	
			
	
			
	
			
	
			
	
			
	
			
	
			
	
			
	
			
	
			
	
			
	
			
	
			
	
			
	
			
	
			
	
			
	
			
	
			
	
			
	
			
	
			
	
			
	
			
	
			
	
			
	
			
	
			
	
			
	
			
	
			
	
			
	
Andrew Willis, <span class=""article-date"">today at 4:11 PM EDT</span></p>
</div>

<div id=""article"">



<ul class=""commentsSkipTo"">

	<li><a href=""#post"">Post the first comment</a></li>


	<li class=""last""><a href=""http://www.theglobeandmail.com/blogs/streetwise"" title=""Read the latest posts to Streetwise"">Back to the blog</a></li>
</ul>


<div class=""post clearfix"">





            <P>You won't be seeing this obituary in the Globe and Mail any time soon. But&nbsp;the joke e-mail is&nbsp;making the rounds in the financial community, and is a distraction&nbsp;as we all&nbsp;wait on Wednesday's interest rate decision from the U.S. Federal Reserve:</P>
<P>Goldilocks, 8, Economic Pioneer, Dies</P>
<P>October 28, 2008</P>
<P>Goldilocks, beloved daughter of the modern economy, died peacefully at her Greenwich, CT home this morning. She is survived by her father, Alan Greenspan, and her adopted siblings the three bears. She will be best remembered for economic developments such as the &#8220;jobless recovery,&#8221; exotic derivatives and grossly irresponsible lending and borrowing.</P>
<P>Goldie, as her closest companions referred to her, brought much joy to the lives of millions of borrowers as well as a legion of financial gurus. Moreover, she managed to completely eradicate risk on Wall Street.</P>
<P>Born in late 2000 in a run-down tenement in Silicon Valley to Mr. Alan Greenspan and his wife Pollyanna, Goldilocks gained notoriety in 2002 helping the domestic economy claw out of a recession using her flowing locks to cushion the fall, creating a soft landing. Prosperity followed as boardrooms across the country soon found themselves rich beyond their wildest dreams.</P>
<P>Wiping his tears with a hundred dollar bill, a CEO of a major financial institution attending the memorial service gave a touching eulogy remembering the time that he and Goldie spent a two-week getaway in the Greek Islands aboard his yacht &#8220;SarbOx&#8221;.</P>
<P>Bedridden since early October, Goldilocks had been suffering from pneumonia thought to be brought on by the freezing of the credit markets. Vigorous efforts by Doctors Bernanke and Paulson, two of the economy's eminent physicians, failed to revive the stricken little girl. Goldie's three closest companions, the three bears are enraged.</P>
<P>Papa bear, hot under the collar, stated at the memorial that he intends to make those responsible for the death of his darling Goldilocks pay. Mama Bear coldly stood by his side while Baby Bear stated that whatever happens to the stock market will, in his eyes, be &#8220;just right.&#8221; Rest in peace Goldilocks. We on Wall Street will remember you fondly."
"7993","



			
					
				
	
			
					
				
	
			
					
				
	
			
					
				
	
			
					
				
	
			
					
				
	
			
					
				
	
			
					
				
	
			
					
				
	
			
					
				
	
			
					
				
	
			
					
				
	
			
					
				
	
			
					
				
	
			
					
				
	
			
					
				
	
			
					
				
	
			
					
				
	
			
					
				
	
			
					
				
	
			
					
				
	
			
					
				
	
			
					
				
	
			
					
				
	
			
					
				
	
			
					
				
	
			
					
				
	
			
					
				
	
			
					
				
	
			
					
				
	
			
					
				
	
			
					
				
	
			
					
				
	
			
					
				
	
			
					
				
	
			
					
				
	
			
					
				
	
			
					
				
	
			
					
				
	
			
					
				
	
			
					
				
	
			
					
				
	
			
					
				
	
			
					
				
	
			
					
				
	
			
					
				
	
			
					
				
	
			
					
				
	
			
					
				
	
			
					
				
	
			
					
				
	
			
					
				
	
			
					
				
	
			
					
				
	
			
					
				
	
			
					
				
	
			
					
				
	
			
					
				
	
			
					
				
	
			
					
				
	
			
					
				
	
			
					
				
	
			
					
				
	
			
					
				
	
			
					
				
	
			
					
				
	
			
					
				
	
			
					
				
	
			
					
				
	
			
					
				
	
			
					
				
	
			
					
				
	
			
					
				
	
			
					
				
	
			
					
				
	
			
					
				
	
			
					
				
	
			
					
				
	
			
					
				
	
			
					
				
	
			
					
				
	
			
					
				
	
			
					
				
	
			
					
				
	
			
					
				
	
			
					
				
	
			
					
				
	
			
					
				
	
			
					
				
	
			
					
				
	
			
					
				
	
			
					
				
	
			
					
				
	
			
					
							
							
							
							
							
							
						
				
	
			
	
			
	
			
	
			
	
			
	
			
	
			
	
			
	
			
	
			
	
			
	
			
	
			
	
			
	
			
	
			
	
			
	
			
	
			
	
			
	
			
	
			
	
			
	
			
	
			
	
			
	
			
	
			
	
			
	
			
	
			
	
			
	
			
	
			
	
			
	
			
	
			
	
			
	
			
	
			
	
			
	
			
	
			
	
			
	
			
	
			
	
			
	
			
	
			
	
			
	
			
	
			
	
			
	
			
	
			
	
			
	
			
	
			
	
			
	
			
	
			
	
			
	
			
	
			
	
			
	
			
	
			
	
			
	
			
	
			
	
			
	
			
	
			
	
			
	
Andrew Willis, <span class=""article-date"">today at 4:11 PM EDT</span></p>
</div>

<div id=""article"">



<ul class=""commentsSkipTo"">

	<li><a href=""#post"">Post the first comment</a></li>


	<li class=""last""><a href=""http://www.theglobeandmail.com/blogs/streetwise"" title=""Read the latest posts to Streetwise"">Back to the blog</a></li>
</ul>


<div class=""post clearfix"">





            <P>You won't be seeing this obituary in the Globe and Mail any time soon. But&nbsp;the joke e-mail is&nbsp;making the rounds in the financial community, and is a distraction&nbsp;as we all&nbsp;wait on Wednesday's interest rate decision from the U.S. Federal Reserve:</P>
<P>Goldilocks, 8, Economic Pioneer, Dies</P>
<P>October 28, 2008</P>
<P>Goldilocks, beloved daughter of the modern economy, died peacefully at her Greenwich, CT home this morning. She is survived by her father, Alan Greenspan, and her adopted siblings the three bears. She will be best remembered for economic developments such as the &#8220;jobless recovery,&#8221; exotic derivatives and grossly irresponsible lending and borrowing.</P>
<P>Goldie, as her closest companions referred to her, brought much joy to the lives of millions of borrowers as well as a legion of financial gurus. Moreover, she managed to completely eradicate risk on Wall Street.</P>
<P>Born in late 2000 in a run-down tenement in Silicon Valley to Mr. Alan Greenspan and his wife Pollyanna, Goldilocks gained notoriety in 2002 helping the domestic economy claw out of a recession using her flowing locks to cushion the fall, creating a soft landing. Prosperity followed as boardrooms across the country soon found themselves rich beyond their wildest dreams.</P>
<P>Wiping his tears with a hundred dollar bill, a CEO of a major financial institution attending the memorial service gave a touching eulogy remembering the time that he and Goldie spent a two-week getaway in the Greek Islands aboard his yacht &#8220;SarbOx&#8221;.</P>
<P>Bedridden since early October, Goldilocks had been suffering from pneumonia thought to be brought on by the freezing of the credit markets. Vigorous efforts by Doctors Bernanke and Paulson, two of the economy's eminent physicians, failed to revive the stricken little girl. Goldie's three closest companions, the three bears are enraged.</P>
<P>Papa bear, hot under the collar, stated at the memorial that he intends to make those responsible for the death of his darling Goldilocks pay. Mama Bear coldly stood by his side while Baby Bear stated that whatever happens to the stock market will, in his eyes, be &#8220;just right.&#8221; Rest in peace Goldilocks. We on Wall Street will remember you fondly.