URL: http://blog.wenxuecity.com/archives.php?date=200506&blogID=1854&wid=2

   [pixel_trans.gif] 文学城首页 | 新闻直通车 | 我的文学城 | 热点论坛 |
   使用帮助 | 进意见区 | 分类广告 | 比价购物 简体版 | 繁体版
   [pixel_trans.gif]
   [pixel_trans.gif]

                             [pixel_trans.gif]

   我的文学城

   首 页 | 帐 号 | 浏 览 | 搜 索 | 日 记 | 博 客 | 书 签 | 悄悄话 | 相 册
   | 活 动 | 组 群 | 排 名

   [pixel_trans.gif]
     文学城博客 博客首页 | 注册新的博客 | 控制面板 | 博客论坛 | 博客分类
   | 博客搜索 | 新手入门 | 下一个博客
   [pixel_trans.gif]
        博客书架

   IFRAME:
   http://blog.wenxuecity.com/_public/hotblogger.php?blogid=1854#1854

   [pixel_trans.gif]
   [pixel_trans.gif]
   文学城注册笔名： ____________ 密码： ____________ [_] 自动登陆
   登陆帐号 ( 还没有注册？ )
   [pixel_trans.gif]

                            [bamboo-spacer.gif]

   [bamboo-spacer.gif]
   博客标题 [up.gif]
   海那边的姑娘 
   我是一个简单的女生,一个喜欢大海的女生.
   如果我们是知己,也许我们可以一起去海边走走,看看，听听海的声音.
   [bamboo-line.gif]
   个人信息 [up.gif]

                                  海姑娘 

                                 <照片管理>

   海姑娘, 27岁
   澳大利亚, 墨尔本地区
   >点击查看我的个人资料
   [bamboo-line.gif]
   最新文章 [up.gif]
   o   明天出远门了 
   o   珍惜生命-看望我一个朋友有感 
   o   这几天我很充实， 也很开心 
   o   离开文学城论坛， 但是我会想念大家的 
   o   天边的星星再给我的诗歌 
   o   朋友和LG 都不许我剪发 
   o   天下没有不散的宴席（为星星的离开而哭） 
   o   上班真忙， 时间真累 
   o   我剪哪个短发会好看呢 
   o   谢谢你，我还是我 
   o   天边的星星给我的祝福 
   o   没想到，今天晚上戴娆会给我打电话 
   o   混在BBS 
   o   周末胡说：我所感激的人（源矗 
   o   冬天里也有阳光Ｉ⑽模歌声祝福冬日阳光以及ＳＨＥＮＧＬＩ生日快乐 
   [bamboo-line.gif]
   归档备份 [up.gif]
   12/01/2004 - 01/01/2005
   01/01/2005 - 2/01/2005
   02/01/2005 - 3/01/2005
   03/01/2005 - 4/01/2005
   04/01/2005 - 5/01/2005
   05/01/2005 - 6/01/2005
   06/01/2005 - 7/01/2005
   07/01/2005 - 8/01/2005
   08/01/2005 - 9/01/2005
   09/01/2005 - 10/01/2005
   10/01/2005 - 11/01/2005
   11/01/2005 - 12/01/2005
   12/01/2005 - 01/01/2006
   01/01/2006 - 2/01/2006
   02/01/2006 - 3/01/2006
   03/01/2006 - 4/01/2006
   04/01/2006 - 5/01/2006
   05/01/2006 - 6/01/2006
   06/01/2006 - 7/01/2006
   07/01/2006 - 8/01/2006
   08/01/2006 - 9/01/2006
   09/01/2006 - 10/01/2006
   10/01/2006 - 11/01/2006
   11/01/2006 - 12/01/2006
   12/01/2006 - 01/01/2007
   [bamboo-line.gif]
   文章分类 [up.gif]
   【我的文章】
   o   明天出远门了 
   【海姑娘的特别推荐】
   o   海姑娘的博客里的主要文章以及友情连接 
   o   华夏优秀民歌系列100 +10 
   o   周末疑案一周年完全记录以及答案 
   o   我当脑坛斑竹一周年的回忆和分享(源) (图) 
   【海那边的姑娘】
   o   珍惜生命-看望我一个朋友有感 
   o   这几天我很充实， 也很开心 
   o   离开文学城论坛， 但是我会想念大家的 
   o   朋友和LG 都不许我剪发 
   o   天下没有不散的宴席（为星星的离开而哭） 
   【同一星空想写就写】
   o   想写就写系列10：海姑娘曾镜男⌒难 
   o   海姑娘曾景盗倒的一个男孩子 (图) 
   o   想写就写系列八： 第三眼美女（源矗 (图) 
   o   同一星空下的澳洲华人系列九：P叔叔和他的赌博生涯（源矗 (图) 
   o   一元钱的温暖（源矗 (图) 
   【海姑娘的歌声】
   o   送一首歌“甜甜小妹”给小妹和水妹 
   o   双双飞--海姑娘&甜甜, 顺祝冬日帅哥生日快乐!! 
   o   心雨 小海&小T共祝大家火鸡节快乐 
   o   六个梦 ＃ 海姑娘 & Annya 
   o   出国后学的第一首歌《天黑天蓝》送冬日马甲，祝他生日快乐 (图) 
   【海姑娘的智慧小屋】
   o   小朋友海姑娘的儿歌 
   o   海姑娘和长发小妹逛商场(难度：★★；脑筋急转) 
   o   海姑娘的尺子（2.5星） 
   o   聪明的小学生海姑娘 
   o   海姑娘开车 (图) 
   【海姑娘的民歌天地】
   o   华夏优秀民歌系列50: 贵州民歌-贵州山歌 
   o   华夏优秀民歌系列100: 安徽民歌-夫妻双双把家还(完) 
   o   华夏优秀民歌系列99: 陕西民歌-南泥湾 (图) 
   o   华夏优秀民歌系列98: 内蒙民歌-草陨仙起不落的太阳 
   o   华夏优秀民歌系列97:台湾民歌-娜鲁湾情歌 
   【周末疑案系列】
   o   IDIOT94侦探剧场:死日 
   o   两只黄鹂侦探剧场:情人热线的哀呼 
   o   脑贼侦探剧场:真假毒蘑菇 
   o   给横冲都生日出的侦探题目:视频里的杀人鬼 
   o   周中探案： 养猫的女子（答案） 
   【海姑娘喜欢的歌曲】
   o   冬日阳光的歌曲集 
   o   绽放-戴娆最新专集主打歌 
   o   新歌推荐: 曹操-林俊杰 
   o   歌曲: 第一次爱的人(王心凌) 
   o   歌曲:雅鲁藏布大峡谷 
   【海姑娘的礼物】
   o   天边的星星再给我的诗歌 
   o   uh-oh的文学城演义里的海姑娘 
   o   SYDNEY999对我感觉 
   o   天边的星星再给我的诗歌 
   o   文学城网友对这个海姑娘的印象（大部分人的印象） (图) 
   【澳洲生活指南大全】
   o   清洁工生意初探 Cleaning Business 
   o   澳大利亚买房子步骤指南 
   o   国际会计术语英汉对照 
   o   几个值得推荐的免费小软件 
   o   澳洲公共假期大全。 
   【小说连续作品】
   【海姑娘的影评世界】
   o   超女结果大失所望 
   o   变味的超女女生-看6强产生有感 
   o   （06超女）和一位善良的落选超女聊天 (图) 
   o   看影片“理发师” 有感 
   o   （06超女）超女到底流行什么歌 
   【海姑娘的博客历史】
   o   档案再保存 
   o   海姑娘博客精选文章一(截止2006年8月10日) 
   [bamboo-line.gif]
   最新评论 [up.gif]
   [bamboo-line.gif]
   [bamboo-spacer.gif]
   
                              查看我的博客目录

   你是第 你是第 344522 位访问者 位访问者

博客导读

     我当脑坛斑竹一周年的回忆和分享

     文学城史记（一）海姑娘本纪(凸子)

     老鲍其人

     一个墨尔本留学生之死

     象海豚一样去寻梦

     十年

     爱海的海姑娘

     为澳洲总理大选而工作

     外婆曾来澳洲3个月

     海姑娘曾景盗倒的一个男孩子

更多文章目录， 请点这看海姑娘的主要文章索引
     _________________________________________________________________

我的另外2个博客

     望月小筑(我的转摘博客)

     小茶妹的歌声(我唱的歌)
     _________________________________________________________________

   [bamboo-spacer.gif]
   [bamboo-spacer.gif]
   [bamboo-spacer.gif] 控制面板 [bamboo-spacer.gif] 发表文章
   [bamboo-spacer.gif] 文章编 [bamboo-spacer.gif] 评论管理
   [bamboo-spacer.gif] 更新资料 [bamboo-spacer.gif] 订制模板
   [bamboo-spacer.gif]
   [查看我的博客目录] [加入个人书签]
   湘菜粤菜 兵分两路 (图) 2005-06-14 03:25:55 [arrow-up.gif]

                [U114P52T40D10373F1289DT20050614101229.jpg]

                [U114P52T40D10375F1289DT20050614101232.jpg]

                [U114P52T40D10377F1289DT20050614101235.jpg]

   [U114P52T40D10372F1289DT20050614101226.jpg]
   湘菜粤菜兵分两路，新鲜的是，湘菜浓妆的ǎ粤菜却是明艳照人。
   虽然湖南人喜欢吃辣，但坝诠愣的炎热气候，不得不多吃清淡
   的菜肴，为解他们思乡之苦，现在会多做保持湖南物料灾原
   味的菜肴，家乡炖的老鸡汤香味浓郁，清润有益，成为主打新菜之一。湖南常德
   10月份盛产的芋头仔，利用真空包装的技术，可以保持常年供应，它们个头小而
   圆滑，剥皮以后有如鹌鹑蛋一样可爱，放入熬制好的浓鸡汤里面蒸熟，吃起来相
   当清爽。鸡汤煨长寿笋，味鲜醇厚，长寿笋产自福建，晒干以后特别白净，吸收
   浓汤以后又变鲜嫩。对锅巴的香还记忆犹新？那一定要吃师傅新创的泡饭，饭蒸
   熟了要晾干，然后过油，再晾干，乡下的吃法就是这样，物料本不精，做工却不
   少。吃的时候一泡进浓汤里面就要马上分吃，米饭粒粒分明，伴有肉粒，又透出
   油炸的香味。因有如此繁琐的做工，米饭并不会上火，软软韧韧的口感令人回味
   再三。
   　　小炒则是粤菜的风味。冬天吃腌制的坛子菜，夏天换种吃法，炒黄瓜皮就是
   这么一道小菜，其实并非真的只吃皮不吃肉，只是黄瓜去籽、用盐腌制一天以后
   ，瓜肉收缩起来，有如薄皮，吃的时候无需再放调料，稍加爆炒即可，瓜肉爽脆
   ，瓜皮韧韧的，口感特别。海鲜小炒，最丰盛的要数北极贝拌三鲜，北极贝煮熟
   了以后拌日式芥末，成了凉拌，虾仁、鲍贝、带子跟西芹、百合一起炒，一道外
   冷内热的小炒就新鲜出炉，这样的做法还真是令人耳目一新。
   [U114P52T40D10374F1289DT20050614101230.jpg]

   [打印]

   由海姑娘张贴 @ 2005-06-14 03:25:55 (370) 共 11 篇评论 发表评论 >>>
   澳坛真的累了 2005-06-13 15:00:14 [arrow-up.gif]

   我真的累了.

   当斑竹半年来, 没有功劳也有苦劳, 而一切都怪我太认真.

   当斑竹的好处，也许是一个，就是查IP,  但是知道IP后往往更气,
   因为往往伤害我的都是我信任或者相信的或者以为是好人.
   就如一个也是文学成博客常客, 一个写的很好文章的女士,
   一个我曾挺喜欢的她文笔的人， 一个我曾还在我博客推广她博客的人，
   竟然用马甲很恶意的来伤我, 侮辱我.   我现在才明白70坛 临较傻脑经
   对伤害她马甲说的话，真是同在胶， 现在我才那么的理解了.

   我爱写文章,  我的性格也太露, 尽管我很负责,
   但是却造成了小部分马甲攻击我的砸,
   而攻击我的往往是女生或者是我不和他们说话的男生.

   给俏美佳人, 一直以为我和你之间没有恩怨, 我也粤履阋郧暗乃作所为,
   也一直不希望那个人是你， 可是为什么每次总是你的"朋友"
   一次次那么刻薄的伤害我?  我一直认为你是个单纯, 善良,
   很有才华的小姑娘.   或者是一些所谓的"小人" 利用我们曾有的矛盾而挑拨，
   可是为什么"小人"都是你最要好的人?

   我好累, 真的， 我一直以为我做的很满意了， 当张思德不来给我捣乱,
   而算是"帮"我们兴隆论坛时候， 我曾很高兴。事实上，
   这个所谓文学城"钉子"的人其实一点也不坏.  而比他坏的人真的很多很多.
   其实也怪我， 怪我真的很认真, 而也正是认真才让我那么累.

   我不想认真了，我情愿和男朋友看看海, 一起出去走走，
   我也知道他在论坛上帮过我很多， 但是他不骂人,  我的几个室友也一直帮我,
   他们也帮着澳坛写好文章, 帮着兴旺澳坛.  谢谢他们支持我.

   在这里, 我也告诉俏美佳人,
   我不知道你通过什么手段看到我的IP以及其中一个帮我的人的IP了，
   我本来不想和你解释的, 既然这样, 我也解释给你以及网管, 她是我的室友,
   她的文章写的比我好很多,  但是我们HOUSE 用宽带, 8个人SHARE,
   其中5个上文学城.

   我不多说了， 累了就走人， 没什么大不了的,  我还有个脑坛呢，
   在那一样可以开开心心的过日子.









   [打印]

   由海姑娘张贴 @ 2005-06-13 15:00:14 (697) 共 29 篇评论 发表评论 >>>
   (源)爱上侦探小说,侦探电影等 2005-06-11 14:05:50 [arrow-up.gif]

   读小学的时候，我就爱看侦探小说， 以及侦探电影.  虽然看不懂,
   但是也觉得有味道, 卡通方面也爱看这类的.

   那时候读初中, 广播里境７诺氖"刑警803" 系列, 每天放学后就开始听,
   一集也没漏掉, 每集都很悬念, 每次都带着悬念去推理, 去思考.
   可惜出国后再也无法听到这么好的广播剧了.

   如今的我， 还是喜欢看侦探小说以及电影电视等, 每次借碟,
   还是以侦探片为主.  而每次的侦探片, 我总爱看2次,
   而且目不转睛的去看.    侦探小说, 如福尔摸丝, 柯南,
   霍桑等系列也是我必读作品.

   小破案故事总是挺有意思的, 所以我爱看以及收集这方面的题目,
   让大家一起分享一下.
   虽然很简单, 但是简单中却包含了很多意义.

   海姑娘写于2005年6月12日




   [打印]

   由海姑娘张贴 @ 2005-06-11 14:05:50 (924) 共 17 篇评论 发表评论 >>>
   回忆童年的露天电影院以及可爱的小伙伴 (图) 2005-06-10 05:53:20
   [arrow-up.gif]

                           [sf_2005220173321.jpg]

                                  [51.jpg]

                                [jzt2-1.jpg]

                                  [EMBED]

   2004年11月14日，回国探亲时候，我和外婆再次去了侥弦桓鲂∠绱澹
   那是我外婆养子，我的胜舅舅的家。 胜舅舅的小儿子，
   我的小表哥，耀表哥和他的太太开车从城里接我们去的。 一路上， 江
   南的变化让我感觉太美丽了， 一切是那么熟悉， 一切又是那么陌生。
   秋天的风很凉爽， 侥系奶炜沼质呛芮逅，
   我打开车窗，任凭秋风吹动我的长发， 才发现我喜欢上这样的空气了。
   2边的道路宽了， 路边的农田也越来越现代化， 还有那个大草坪。
   那个大草坪， 我想起小时候， 我曾在那个大草坪里， 看过露天电影院，
   那是什么时候呢， 80年代末， 我小学时代， 憨厚的耀表哥，
   还有丽表姐，对， 那个美丽的丽表姐， 还有很多小伙伴。 这一切，
   还会重现眼前吗？ 80年代末的一个暑假， 外婆说要去胜舅舅家去避暑，
   说把我也带去。 我带好我的暑假作业， 很不情愿的去了乡下。 我很不高兴，
   因为那里没有我的同学，没有好看的蝴蝶结，也没有玩具。
   我只知道只有可怕的狗和苍蝇， 这些都是我当时最讨厌的。 去了那，
   我才发现那里才是我真正的乐趣，胜舅舅的2个儿子可不象很多城里的男孩子，
   他们勇敢能干， 这么小的年纪就帮大人下地干活， 真的象个哥哥一样的帮我，
   不象当初我城里班上的男生总爱欺负女声。 耀表哥比我大2岁，
   却和我读一个年级， 到是我总欺负他， 加上他害羞， 害他不爱和我玩。
   到是他的表姐， 比我大3岁的丽表姐总爱和我一起玩。
   我觉得丽表姐当时和城里的人很不同， 她也只读小学， 但是却会织毛衣，
   玩刺绣， 下地干活， 河里摸鱼。 并且分担家里很多家务，
   帮着照顾她的几个弟弟妹妹。 他们读书很不方便，
   小小年纪每天要步行好几十公里去上学，读书条件也不好，
   没有好看的铅笔盒， 没有好看的包书纸， 但是她的功课仍然那么优秀，
   她是班上的大队长，县三好学生， 他们村里的骄傲。 每天做完暑假作业，
   我总和丽表姐去河边玩， 看耀表哥和丽表姐等下到河里， 抓几只螺丝上来，
   又看他们去喂猪。 而最高兴的，
   莫过于他们带我去看村里偶然才有的一次露天电影。
   第一看露天电影，我没什么概念， 大人们都不去，
   胜舅舅就让耀表哥和丽表姐带我去。 丽表姐带着她的弟弟妹妹， 一共大约6，7
   个小孩子浩浩荡荡的走去附近的大草裕 每个人手里一个小凳子，
   耀表哥他们都带高些的大点的凳子， 我偷懒带个最小的， 才发现自己原
   来很笨。 到了 草坪前， 看到一块好大的白色屏幕， 已经
   坐满了很多大人和小孩， 而小孩子和老人占了多数。 天终于黑了，
   电影也开始了， 那是个外国电影， 具体什么我忘了，
   因为我当时我没注意到电影情节，
   而是喜欢天上的星星，因为那是个星月夜的夜晚。 我觉得很有意思，
   和城里的电影院完全不一样， 伴随荧幕边的是月亮， 是星星，
   还有大屏幕边各种各样的人， 以及各种各样的凳子， 以及各种各样的表情。
   另外蚊子也是露天电影院的忠实观众， 它们不停的在你耳边唱歌。
   丽表姐他们看的津津有味， 因为当时他们能看场电影也很不容易了。 汽车已经
   穿过了大草坪，思绪又回到了现在， 我问耀表哥， 丽表姐呢，
   回答确是几年前刚新婚不久以及刚怀孕的丽表姐遇车祸上天堂了，
   我听了何其难过。 想到露天电影，就会想到我和她一起看电影的日子。
   车子到了胜舅舅家， 门前那曾捉螺丝的小河，
   那我们曾捉迷藏瓦房依旧呈现在我面前，
   耀表哥那4岁活泼勇敢的儿子亲切的叫我姑姑，
   带我参观他们家附近的一切一切， 而每一处就让我想到童年的情景。 翻
   肪烧掌， 看看丽表姐当年的照片， 还有童年的印象，我的鼻子就酸了。
   我想，现在已经
   再也没有露天电影院了，很多乡镇都也有了自己的电影院，而城市的电影院已经
   是越来越高级， 更有雅座等， 电影院的门票也越来越贵。
   可是怎么样也比不上当年的露天电影院那么淳朴自然 ---
   海姑娘写于2005年6月10日 露天电影院 歌手:郁冬
   我家楼下的空地是一个电影院 在夏天的夜晚它不再出现
   如今的孩子们已不懂得从前 那时候的人们陶醉过的世界
   我长大时看着他们表演着爱情 当他们接吻的时候我感到伤心
   在银幕的下面孩子们做着游戏 在电影的里面有人为她哭泣 啦......
   城市里再没有露天的电影院 我再也看不到银幕的反面
   你是不是还在做那时的游戏 看着电影的时候已看不见星星
   http://www.mycools.com/mp3/1_132.mp3

   [打印]

   由海姑娘张贴 @ 2005-06-10 05:53:20 (993) 共 22 篇评论 发表评论 >>>
   70年代女孩镜溆蜗罚禾房子踢毽子跳皮筋 (图) 2005-06-10 05:42:56
   [arrow-up.gif]

                 [U209P60T4D122116F49DT20050418131459.jpg]

      张爱玲曾说过：“像我们这样生长在都市文化中的人，总是先看到海的画
   面，后看见海；先读到爱情小说，后知道爱。”而70年代的小女孩们，也是从小
                             生养在闺阁里，她们
   　　通达外界的机会少之又少，大多时候是靠着臆想在心里描摹。她们畏惧交往
   却又不堪寂寞，于是小心翼翼地向那片游戏天地探出了触角。而当年那些酣畅淋
                 漓的小玩乐要是流传下来，便成了今日的传奇。
   　　那会儿小女生们爱玩“跳房子”，它在有些地方也叫做“踢田”。那算是最
      廉价的游戏，只要一支粉笔、一块石子儿就可以搞定。小孩儿家在地上画
                         出一个长方形，里面再分成8
      10个小方格，就成了“房”或者“田”。每人手捏一块小石板儿 俗称瓦
                              ，往小方格 房内
   扔瓦片时，必须站到线外，如果扔的瓦片压住房内的线，就算瞎了。二号再扔，
   扔准了，可用一只腿跳，另一只腿屈起来。一个房一个房地转一圈，然后，再继
                                续扔，再跳…
   ≡谂┐謇锿往不用瓦块，而是用田螺壳，把壳尖用尖刀刺个孔，然后用绳子串
   梢淮。讲究些的城里女孩，以用完了的百雀羚搽脸膏的圆形铁盒代替瓦块。跳
   孔釉硕量虽不算大，却锻炼平衡技巧。跳房子算得上女孩的强项，她们天生一
        焙蒙聿模跳起来轻盈如燕。记得“房子”最高处是个半圆，里面画
   上湛蓝的天空。扎小辫的女孩，颠着脚尖一蹦一蹦，小辫子在肩头做着甜蜜的拍
   打，可爱交织着天真，那模样真是惹人疼。没想到世事难料，后来竟出了个叫“
   跳房子”的乐队，有人这样感慨道：“我们感到困惑，不满，伤怀，我们怀念儿
                  时的单纯，那童年模糊而天真的记忆让我们淡
   档某钚魉孀湃绽纸一页页被撕去，随着跳房子我们回到那个与世无争的时代…
                                    　
   　　几个游戏总得交叉着进行，要不然再爽也嫌腻歪，所以女孩们玩腻了“跳房
   子”，就改踢毽子去了。这玩意儿在南方某些地区被称为“踢毽”或“打毽儿”
   ，它可是女孩子们的绝活，男生只能望而却步。毽有几种做法，有的是用一块棉
                      布、一枚乾隆或是康熙年间的方孔铜
   钱、几根花公鸡的羽毛做成的毽子，如今已极难见到了。女孩们可以踢半个小时
   甚至更长的时间，不让毽子掉地，且能踢出许多纷繁古怪的花样来。这种玩法总
   让人联想到足球场上的“颠球”技巧，看来中国女子足球独领风骚，也是有根可
   训摹ｋψ踊褂幸恢肿龇ǎ那就是用一大团白纸，剪成5毫米宽、每根约20厘米长
   ，中间用线捆扎而成的一个蓬松的纸花球，然后反复踢打。由于纸球下降速度比
   较慢，一般女孩都能够随心所欲地玩，但就没有踢鸡毛毽子那样好看了。她们喜
                    欢寻刺激，不停地变着花样玩。比如，画
   一个小圈，只有20厘米的直径，要在3米开外把毽子准确踢进小圈，这得算高难
     龋但她们大都能准确地命中目标，让我们觉得女孩的心思真是难以揣测。
   　　而70年代的女孩童年最热衷的游戏莫过于跳橡皮筋了，她们一边唱歌一边跳
   ，跳一级升一级，跳死了就换人。一般五六个女孩们跳前用“乒呤乓啷”分出两
        组，一组绑皮筋一组跳。也有一种情况，跳得最拿手的两人通过猜拳
                          ，逐一选择自己的队友，协
   调性差的就被落到了最后。两人做桩牵着橡皮筋，先从脚踝位置跳起，再升至膝
   盖处，腰部，胸部，脖子，最后两手高高举起。在中间跳的女孩跳的难度越来越
   大，而且并不像跳高那么简单，跳过了事，还必须在同一高度跳出几种花样，才
   取得“升级”的资格，否则就算输，只得去做桩。通常分一关二关直至天关，边
   跳边唱歌谣，动作优美，婀娜多姿。十余年后小女孩们一个个都出落得苗条匀称
   ，多半跟当年跳皮筋有很大的关系。记得那时最好的橡皮筋是圆皮筋，外面还有
   一层彩色布，但比较贵，绝大多数女孩的橡皮筋还是用废旧的汽车内胎剪出来的
   ，不花钱嘛。女孩一边跳还一边唱着自己也摸不着头脑的歌谣：“青山青水青少
   年，分别不知八三年”，“小皮球架脚踢，马莲开花二十一”，“大白鸡上草垛
                            ，没有妈妈真难过”　
   　　女孩子们终究要长大的，她们开始在脸上涂上厚重的妆，开始对着眼角的鱼
   尾纹愁苦灸辍∧切┩年的游戏就在这样的仓促中挥别，没有怀想，默默遗忘。
           　　(摘自《我们的七十年代》，旷晨编著，广西人民出版社)
                              　　(编迹貉嘤)
                                         [pixel_trans.gif]


   [打印]

   由海姑娘张贴 @ 2005-06-10 05:42:56 (290) 共 4 篇评论 发表评论 >>>
   中国历史上的十大汉奸 （大家都来猜一猜?) 2005-06-10 05:41:31
   [arrow-up.gif]
   中国历史上的十大汉奸 （大家都来猜一猜?)
   中国历史上的十大汉奸
   Act 1.
   太史公因为替他说话而遭了腐刑。 汉武帝说他是个汉奸。
   他本来也算是一代名将。 却投降了匈奴。
   或许他并不能算无耻的汉奸。 他但却是历史上第一个有名的汉奸
   他叫 _____?
   　　Top10之中国历史上的十大汉奸第十位
   　
   　　无耻指数：4
   　　遗臭指数：4
   　　综合指数：4
   　　
   　　Act 2.
   崇祯皇帝曾疽晕他死了，追封过他。
   他却投降了，据说是为了皇太极的老婆。他是一代儒将，九省韭浴
   最后成了史书中的贰臣。
   　　Top10之中国历史上的十大汉奸第九位
   　　无耻指数：6
   　　遗臭指数：6
   　　综何指数：6
   　　
   　　Act 3.
   接下来出场的这位人物仍然健在。 他不能算是一个完全的汉人。
   他自称二十二岁以前是日本人。 他是****皇民化的结果。
   他是日本人亲密的小伙伴。 由于他的血统关系，我们应称他为四分之三汉奸。
   因为他有四分之一“高贵”的日本血统。
   他是耍课也凰荡蠹乙材懿鲁隼戳税桑
   　　Top10之中国历史上的十大汉奸第八位
   　　无耻指数：8
   　　遣臭指数：6（预测）
   　　综合指数：7
   　　
   　　Act 4.
   两宋更替的时候，中栽境鱿止一个存在了三十多天的政权。
   政权是金人出面建的，皇帝却是个汉人。
   他便是当时北宋的宰相，所谓的“大楚”的皇帝。
   他在旁人鄙夷的眼光里登基，又在一片骂声和无奈中退位。
   他是中国历史上的又一大汉奸。
   　　Top10之中国历史上的十大汉奸第七位
   　　无耻指数：8
   　　遗臭指数：7
   　　综合指数：7.5
   　　
   　　Act 5.
   还是两宋更替的时候，还是在中缘厍。
   还是金人出面建的政权，皇帝仍是一个汉人。 他名叫，所谓“大齐”的皇帝。
   不过，他比(Act 4)更加无耻。
   他一听说金人要在汉人降官中挑“子皇帝”，便大举贿赂，终于过了皇帝瘾。
   他曾臼次攻打南宋，甘为金人的马前卒。
   他在战败后被金人所废，得到可耻的下场。
   　　Top10之中国历史上的十大汉奸第六位
   　　无耻指数：9
   　　遣臭指数：7
   　　综合指数：8
   　　
   　　Act 6.
   乱世多英雄，也多汉奸。 提起岳飞，硕蓟嵯肫鹆硗庖桓鋈恕
   一开始的他似乎很正直。 不过他却被金人改造了。
   由于他，岳飞未能直捣黄龙。 由于他，岳飞死于非命。
   他也终于跪在了岳飞的墓前。
   　　Top10之中国历史上的十大汉奸第五位
   　　无耻指数：8
   　　遗臭指数：9
   　　综合指数：8.5
   　　
   　　Act 7.
   如果问你，南宋是被怂灭？ 你肯定会说，忽必烈。但是有一个人不同意。
   ？山之役后，他曾在一块石头上刻了几个字： “XXX灭宋于此”
   明朝时，有人在这句话前面加了一个“宋”字，那句话变成了“宋XXX灭宋于此
    岳碭XX曾是宋臣？
   　　Top10之中国历史上的十大汉奸第四位
   　　无耻指数：9
   　　遗臭指数：8
   　　综合指数：8.5
   　　
   　　
   　　Act 8.
   这是一个爱情故事？ 这是一句诗的产生？这是明末清初动荡中的一幕。
   他是为了女人而做汉奸？
   他是为了权位而做汉奸？Top10之中国历史上的十大汉奸第三位
   　　无耻指数：9
   　　遣臭指数：9
   　　综合指数：9
   　　
   　　Act 9.
   以前的中原
   皇帝在少数民族首领中的眼中是神圣的。可是，在残唐五代的时候却发生了改变
   。一个中原
   的皇帝，做了一个少数民族皇帝的“儿子”。他把北方的要塞燕云十六州割给了
   契丹。他使中月攀芎骑践踏。
   他让中缘幕实鄢沟酌涣思茏印
   　　他终生对大辽皇帝尊敬无比，言必称“儿”、“臣”。
   　　他是前无古人的大汉奸。
   　　――Top10之中国历史上的十大汉奸第二位
   　　
   　　无耻指数：10
   　　遣臭指数：9
   　　综合指数：9.5
   　　
   　　Act 10.
   清末时，有一个青年因策划行刺满清权贵而被捕。他作了首诗：“慷慨歌燕市，
   从容作楚囚。引刀成一快，不负少年头。”
   几十年后，有人改了他的诗：“当时慷慨歌燕市，曾羡从容作楚囚。恨未引刀成
   一快，终惭不负少年头。”为什么会这样？那是因为，他在一座凝结着三十万冤
   魂的城市，和一群犯下了无数罪行的禽兽们共建“王道”。
   我不知道他为什么会这样。
   是为了“大东亚共荣”？
   还是为了自己的权位？
   抑或是　他想成就“古今第一大汉奸”之名？
   　　Top10之中国历史上的十大汉奸第一位
   　　无耻指数：10
   　　遗臭指数：10
   　　综合指数：10

   [打印]

   由海姑娘张贴 @ 2005-06-10 05:41:31 (295) 共 7 篇评论 发表评论 >>>
   [bamboo-spacer.gif]

                            [bamboo-spacer.gif]


                             [pixel_trans.gif]

           公司简介 - 联系我们 - 广告服务 - 招聘信息 - 隐私权政策
           [pixel_trans.gif]
   Copyright  2005 wenxuecity.com. All Rights Reserved. WENXUECITY.COM
   does not represent or guarantee the truthfulness, accuracy, or
   reliability of any of communications posted by other users. Use of
   this Web site constitutes acceptance of wenxuecity.com User Agreement
   and Privacy Policy.

   [pms.gif] 文学城悄悄话提醒框： 关闭
