URL: http://cn.ent.yahoo.com/050427/347/26pbv.html

   雅虎娱乐 
   邮箱 | 相册 | 助手 | 雅虎通 | 社区
   首页 资讯 知识 音乐 图片 网址 更多...
   ____________________ [网页] [BUTTON]
   资讯首页 | 财 | 体育 | 娱乐 | 汽车 | 房产 | 数码 | 访谈 | 社区 | 淘宝
   | 职场

   [728x90.gif] 

   娱乐首页 明星 电影 音乐 电视 综艺 视听 幻灯 论坛 游戏 笑话 时尚 星座
   旅游

   [menu_b_01.gif] [menu_b_02.gif] [menu_b_03.gif] [menu_b_04.gif]
   [ico_1.gif] [试听]张靓颖《天下无双》
   [ico_2.gif] [视频]《冰河世纪2：消融》预告片
   [menu_b_06.gif]

                                                              [menu_c_01.gif]
   ·娱乐幻灯  ·在线影院  ·碟探快报  ·电视剧照  ·演出剧照
   [menu_c_03.gif]

   娱乐圈受黑社会控制？ 明星挨打事件回顾(图)
   2005-04-27 14:32更新 来源：千龙新闻网 发表评论
   今
   日
   推
   荐 [xn06041903.jpg] 征集现场观众 和“搜星”一起过五一
   吴君如早产诞下女婴 肥嘟嘟像陈可辛
   陈慧琳戴千万钻饰变身幸福公主
   康傥汤姆生下一女 取名苏里 [xn06041904.jpg] 蔡依林新专荚煨推毓
   大秀瑜伽
   李嘉欣不如靠自己 知心伴侣难找
   斯皮尔伯格献计 多建影院多写好故事
   张艺谋全力奔奥运 新谋女郎羞涩现身

   近日，惊爆台湾本土天王吴宗宪被打，娱乐圈被打事件频频发生。涉及赌债，感
   情纠葛，原
   因种种。然港台明星被打时间频繁发生的背后，让我们惊骇黑色会涉圈之深。让
   我们回顾一下众明星被打事件： [star_news-20050427-1432-1.jpg]

                            [advertisement.gif]

                                                           [300x250.gif] 

   [text_img.gif]
   · 医疗关注--前列腺新发现   · 皮肤顽疾----康复圣地 
   · 国际认证：专治口臭、溃疡 · ★07男人--补肾新药（图）

   宪哥被打成“猪头”

   2005年4月18日吴宗宪进棚录像，凌晨收班后，于2、3点在忠孝东路一带餐厅用
   停出来的时候在忠孝东路216巷附近，突然被4、5名不明人士殴打，随即立刻送
   到国泰医院救治，就当前了解，吴宗宪伤势并不严重，之后立刻报警备案。据悉
   ，他的头部缝了9针，送到医院时眼部淤血，衣着不整，神情十分狼狈。详情
   [star_news-20050427-1432-2.jpg]

   整容手术后，露面说案情

   2004年6月，艺人贺一航也传出疑因欠下赌债及惹了大哥女人而遭痛殴，外界众
   捣诅。但贺一航在基隆长庚医院接受整容手术后，露脸向媒体说明一切。贺一
   剿邓不知道打他的人是耍不过可能和他拒拍某广告，以及价钱谈不拢有关。
   [star_news-20050427-1432-3.jpg]

   涉嫌殴打陈冠希的两名少年被警方带走

   陈冠希2004年3月15日，于香港地区中环一间商场内遭两名外籍青年挑衅，而遭
   尤殴打，双方在中环区展开近半小时的追逐战，最后陈冠希致电经
   理人公司求救，由赶至现场协
   助的公司职员成功截获打人的两名青年，交当地警方处理。陈冠希被打后面部受
   伤，包括颧骨、耳背等位置均被打至红肿。 [star_news-20050427-1432-4.jpg]

   杨恭如遇袭后首露面

   2002年10月9日 杨恭如在铜
   锣湾Ｃｏｖａ餐厅遭辱打。当日下午，杨恭如母女与一位男士喝茶。期间该男士
   接听了一个电话后，便走出餐厅外，之后便见该男士与一身穿深色便服的女子在
   外拉
   扯，及后一名女子突然冲入餐厅，从后向没防备的杨恭如的头部袭击，恭如闪身
   回避对方，该女子仍未收手继续袭击，向恭如的颈部位置大力一拍，而该女子事
   后迅速离去，之后杨母便致电报警求助。 [star_news-20050427-1432-5.jpg]

   陈升

   滚石（台湾）公司就歌手陈升2002年6月27日凌晨被袭。据报道，其是在喝酒时
   蝗擞镁破吭疑说摹＞
   过两年诉讼，法官判决当初叫唆并打人的萧捷文5年8个月徒刑。
   [star_news-20050427-1432-6.jpg]

   曾志伟亲述被打竟 期间三度洒泪

   曾志伟是2001年7月6日深夜遇袭的。当晚，刚从上海返港的曾志伟兴致不减，与
   朋友相约到九龙旺角一家酒吧消遣。其间，曾有3名大汉闯入巡视了一番，不一
   幔他们去而复返，不由分说用手电筒劈头盖脸向躺在沙发上的曾志伟打来。被
   虻醚流满面，大约5分钟后，歹徒停手扬长而去。在场的朋友急忙驾车将伤得不
   轻的曾志伟送往附近医院诊治，曾志伟头部缝了5针，前额缝了10多针。
   [star_news-20050427-1432-7.jpg]

   梁思浩心有余悸

   梁思浩于2002年2月23日在九龙塘一食肆，遭两名大汉打了三个耳光，其后思浩
   硎臼路⒌氐悴⒎且患涫乘聊冢而是西贡。

   文章来源：千龙网

                        [ic_send_06.gif] 发送给朋友
                         [ic_rev_06.gif] 发表评论
                         [ic_pri_06.gif] 打印本文

   相关报道：
   ·娱乐圈受黑社会控制? 明星挨打事件回顾 (2005-04-27 14:32PM)
   ·娱乐圈受黑社会控制?明星挨打事件簿(图) (2005-04-27 12:00PM)
   ·不必担心，吴宗宪们总能化挨打为娱乐的 (2005-04-20 17:03PM)
   ·“死对头”黄安吴宗宪早该挨打 他太招摇了 (2005-04-19 18:03PM)
   ·黄安落井下石：吴宗宪早该挨打了 我都想打他 (2005-04-19 10:25AM)
   ·李玟保镖殴打歌迷 痴心歌迷称挨打也值得 (2004-04-26 02:40AM)
   ·李玟保镖打歌迷 歌迷竟称为李玟挨打也值 (2004-04-26 01:40AM)

                                  IFRAME:
   http://comment.cn.bbs.yahoo.com/comment_frame.php?product=ent&cat_id=5
   6&article_id=3671995&title=%D3%E9%C0%D6%C8%A6%CA%DC%BA%DA%C9%E7%BB%E1%
   BF%D8%D6%C6%A3%BF%20%C3%F7%D0%C7%B0%A4%B4%F2%CA%C2%BC%FE%BB%D8%B9%CB(%
          CD%BC)&url=http://cn.ent.yahoo.com/050427/347/26pbv.html

                     [arrow_top_dis.gif] 返回页首 |  [close.gif] 关闭窗口

   火爆招商信息
   风湿、类风湿获重大突破
   ★不再做一分钟男人!    
   18岁以下勿点击/图文 
   口述:“老公一分钟怎么办” 
   失眠抑郁症--必须亮剑★ 
   ■风湿、类风湿已被攻破
   老婆口述:老公越来越棒 

   明星幻灯

                         [e20060419a105138j9-a.jpg]

                             炫彩徐若瑄性感迷人

                        [h20060419h104840z10-a.jpg]

                              super girl未满18

                         [e20060419a095345j8-a.jpg]

                             新娘，为何如此沉闷

   消费热点

   和爱人接吻口臭口臭怎么办 
   ★打呼噜-人类-睡梦杀手 
   ■白发--脱发--最终选择■ 
   ★首创中医-清咽-戒烟奥秘 
   ■■治脱发、白发特效奇药 
   ■■■男人大--女人爱！ 
   ●治疗高血压-中药显奇效 
   ★★高血压--新纪元★★ 
   ★★★丰胸-（图）★★★
   ★★塑造自信男人的秘决！ 

   在线电影

   [iceage2_100-125.jpg] 

                              冰河世纪2：消融

   [hillshaveeyes_100-125.jpg] 

                                  隔山有眼

   [davechappelle_100-125.jpg] 

                           大卫·查普尔的街区聚会

   精彩剧照

   [200604171525051s.jpg] 

                           《美女也愁嫁》精美剧照

   [200604111631571s.jpg] 

                          励志日剧《阿信》怀旧剧照

   [200603301911141s.jpg] 

                         《红拂女》剧照舒淇万种风情

   图片精选
                           [200604191154081s.jpg]
             黄奕芬兰行 演绎冰天雪地... [200604181141441s.jpg]
                         莫文蔚性感玉腿写真韵味十足
   其他报道
   ·舞台剧让自己信心百倍 朱莉娅罗伯茨准备复出 (04-19)
   ·电话专访阿汤哥：做明星的孩子不容易(组图) (04-19)
   ·哈里筛Ｌ鼗赜Χ┗橐パ 生活中什么都有可能 (04-19)
   ·希尔顿尼古浪垢星樯温 缠绵亲热现身比赛场 (04-19)
   ·吴君如早产诞下七磅女婴 肥嘟嘟像陈可辛(图) (04-19)
   ·康傥汤姆克鲁斯生下一女 取名“苏里”(图) (04-19)
   ·坐名贵欧洲椅 陈慧琳戴千万钻饰变身幸福公主 (04-19)
   ·课纳罄砑椅袷 勒令杰西卡掏“青春损失费” (04-19)

   关于雅虎 | 使用须知 | 诚聘英才 | 广告服务 | 搜索竞价 | 网络实名 |
   中文上网   [更多]
   Yahoo.com.cn   2006   版权所有 不得转载   京ICP证000022号   [gs.gif]
   不良信息举报中心 
   全球阿里巴巴： 中国站 | 国际站 | 日文站 | 淘宝站 | 支付宝 | 雅虎中国
