URL: http://cn.ent.yahoo.com/050428/352/26pfu.html

   返回雅虎首页
   ____________________  (Submit) 搜索
   雅虎娱乐 
   资讯首页 | 财 | 体育 | 娱乐 | 汽车 | 房产 | 科技 | 访谈 | 旅游 | 社会
   | 社区

   [728x90.gif] 

   娱乐首页 明星 美图 电影 音乐 电视 综艺 影院 幻灯 社区 访谈 时尚 旅游

   [menu_b_01.gif] [menu_b_02.gif] [menu_b_03.gif] [menu_b_04.gif]
   [ico_1.gif] [视听] 希亚《人鱼天堂》音乐MV 
   [ico_2.gif] [视频]《冰河世纪2：消融》预告片
   [menu_b_06.gif]

   [menu_c_01.gif]
   ·娱乐幻灯  ·在线影院  ·碟探快报  ·电视剧照  ·演出剧照  ·明星相册
   [menu_c_03.gif]

   薛跨餍伦急砬榍奇百怪 再拿巨星开涮(图)
   2005-04-28 11:13更新 来源：转载文章 发表评论
   今
   日
   推
   荐 [6.jpg] 明星：盘点范冰冰与众女星大撞衫
   两性：能诱惑异性的一些生活细节
   明星：女星年终party首选小黑裙
   口述：一个出轨妻子的偷情自白书 [70z.jpg]
   周润发夫妇夜会周杰伦问新欢(图) 
   张铁林人体彩绘只看关键部位(图)
   王菲回香港身形消瘦笑容幸福(图)
   张钰回骂刘晓庆：她丑事瞬恢道 

                           [200504281112330.jpg] 

                           [200504281112591.jpg] 
                       更多精彩图片>>  更多热辣幻灯>>

   新专肌禙unnyGirl》封面上有薛跨鞲髦指餮鵉unny的表情，她说整张专辑
   的概念就像这个名字一样，希望听众在听完之后觉得新鲜、开心。

                            [advertisement.gif]

                                                           [300x250.gif] 

   [text_img.gif]
   · 医疗关注--前列腺新发现   · 皮肤顽疾----康复圣地 
   · 国际认证：专治口臭、溃疡 · ★07男人--补肾新药（图）

   南方网讯　薛跨餍伦肌禙unny Girl》再拿好莱坞（图片-新闻-网页）巨星开涮

   凭着一张《‘F’　Debut》，薛凯
   琪在香港乐坛去年的众多新人中突围而出，拿下大部分香港乐坛颁奖的新人奖。
   在即将颁奖的华语音乐传媒大奖中，她再次成为新人的热门人选，并在最佳粤语
   女歌手部分，以一个新人的姿态，挑战容祖儿等大牌。上周五，她在香港推出她
   的第二张专肌禙unny　Girl》，并于近日由天砍片引进内地。上张专贾校薛凯
   琪以奇洛李维斯为噱头的歌曲《奇洛李维斯回信》，在香港大受欢印Ｐ伦辑
   中，薛凯
   琪再拿好莱坞巨星开涮。这次，她选择了毕彼特，而且是《拒绝毕彼特》。

   第二次拿巨星开涮

   上张专嫉摹镀媛謇钗斯回信》中，薛凯
   琪以一个小女生跟偶像通信的故事，演绎出一首感人的情歌。新专辑
   故伎重演，拿毕彼特开涮：“其实不是刻意去找这些明星为概念，因为上一首歌
   大家非常喜欢，所以很想做个延续版。歌词是在讲很多东西只是拿来看或者崇拜
   的。如果毕彼特脱了那一身漂亮的外套，穿上平民的衣服，他也会像一般人一样
   ，所以你来见我的时候我都要拒绝你，因为我不想破坏你在我心目中的形象。就
   是说许多人的梦想有时会实现不了，但实现不了未必是坏的，是对上首歌的延续
   ，就像拍电影第一集、第二集。”

   第一次唱悲情歌曲

   虽然整张专辑
   概念是funny，当中却收入了一首非常惨情的歌曲《小黑与我》。谈及这首歌，
   跨魉嫡馐赘枋撬坚持要收入这张专辑
   ：“其实一开始定为funny　girl，是因为我身边的同事和朋友都会觉得我很fun
   ny。而《小黑与我》是一首我出道以来唯一会让我哭的歌，放在这张专辑
   ，我也觉得不太合适，但其实即使是very　very　funny　girl，都会有不开心
   ！

   第一次尝试不同唱腔

   除了悲情歌是她第一次尝试之外，新专贾醒跨鞒⑹粤烁多：“可能上一张专辑
   ，你只听到薛跨饔猛一把声音去唱这么多的歌。但是在这张专辑
   里面，你会发现有些歌曲我的声音会沙哑或者变粗。希望大家能感受到在这张专
   颊娴氖欠帕艘环莩弦饨去。因为第一张反应很好，所以第二张台前幕后压力都
   冉洗螅就怕有人说你不但没进步而且退步，我总不能用那种少女声音去唱不同
   绺竦母琛！

   第一次法文创作

   上张专贾校薛跨魑自己创作了一首英文歌词。新专辑
   中，她再次创作，而这次是法文：“一开始就想在专辑
   中有创作，但肯定不能再写英文词，没新意。于是做了法文歌，但也不能说都是
   我做的，里面的法文是找一个朋友帮忙，但概念是我想出来的。”

   不敢奢望拿最佳女歌手

   在华语音乐传媒大奖的提名名单中，薛凯
   琪拿下了新人和最佳粤语女歌手两个提名。对此，她说：“我不知道这个颁奖礼
   是不是我今年作为新人最后一个奖，现在还能作为新人这个名去入围一些奖项，
   我无论拿到什么都会很开心的。最佳女歌手奖就更加开心，因为我今年拿的所有
   奖大部分都是跟新人有关，能入围已经
   是当拿半个奖。不是不想拿，而是实在太远，暂时来说是一个很远的梦想，肯定
   还轮不到我。我想接下来几年都没机会拿最佳女歌手奖，只要歌曲能拿到十大歌
   曲奖，就已竞苄腋！！

   来源：南方都市报

                        [ic_send_06.gif] 发送给朋友
                         [ic_rev_06.gif] 发表评论
                         [ic_pri_06.gif] 打印本文

   相关报道：
   ·韩红发新专 赵薇金海心沙宝亮等好友齐助阵 (2005-04-27 18:03PM)
   ·蔡依林热舞 (2005-04-27 18:03PM)
   ·分手还可做朋友 蔡依林出新碟周杰伦送花篮 (2005-04-27 18:03PM)
   ·娇俏Twins代言 青春活力肆意绽放 (2005-04-27 17:03PM)
   ·Twins紧张筹备粤语大碟期待台湾开个唱 (2005-04-27 17:03PM)
   ·张惠妹传怀孕 好友范玮琪:拜托!跟松啊 (2005-04-27 16:00PM)
   ·难忘旧爱周慧敏 刘锡明力推新专肌睹沃音》 (2005-04-27 15:43PM)

                                  IFRAME:
   http://comment.cn.bbs.yahoo.com/comment_frame.php?product=ent&cat_id=5
   6&article_id=3672138&title=%D1%A6%BF%AD%E7%F7%D0%C2%D7%A8%BC%AD%B1%ED%
   C7%E9%C7%A7%C6%E6%B0%D9%B9%D6%20%D4%D9%C4%C3%BE%DE%D0%C7%BF%AA%E4%CC(%
        CD%BC)%0A&url=http://cn.ent.yahoo.com/050428/352/26pfu.html

                     [arrow_top_dis.gif] 返回页首 |  [close.gif] 关闭窗口

   盛典国际商机无限
   风湿、类风湿获重大突破
   ★不再做一分钟男人!    
   18岁以下勿点击/图文 
   口述:“老公一分钟怎么办” 
   失眠抑郁症--必须亮剑★ 
   ■风湿、类风湿已被攻破
   老婆口述:老公越来越棒 

   明星组图

                       [2006121313484013985017aa.jpg]

                          日本女星流行：玉女变欲女

                        [2006121311573813978099.jpg]

                          范冰冰科幻写真 疯狂秀...

                      [20061213112802139730weijia.jpg]

                          李维嘉彩排时脸部遭棍...

                       [200612131119351397108aa.jpg]

                             茱莉皮特最新全家福

                        [20061213105413139680aa.jpg]

                              白灵写真裸露成性

                       [200612131043371396602aa.jpg]

                          李冰冰妖艳写真低胸扮名伶

                       [200612131023521396405aa.jpg]

                          李曼透视装黑色胸衣毕...

                        [2006121310205813963099.jpg]

                          女“暴露狂”现场诱惑...

                        [2006121309560713958099.jpg]

                          天王刘德华“露点照”...

                        [2006121309162113954099.jpg]

                              2006年泪秀娱乐圈

                       [200612130823081395001aa.jpg]

                          李冰冰与多名男影迷大...

                       [200612130811291394904aa.jpg]

                          刘真黑丝袜玩琵琶风情...

   消费热点

   和爱人接吻口臭口臭怎么办 
   ★打呼噜-人类-睡梦杀手 
   ■白发--脱发--最终选择■ 
   ★首创中医-清咽-戒烟奥秘 
   ■■治脱发、白发特效奇药 
   ■■■男人大--女人爱！ 
   ●治疗高血压-中药显奇效 
   ★★高血压--新纪元★★ 
   ★★★丰胸-（图）★★★
   ★★塑造自信男人的秘决！ 

                                  雅虎推荐

   (图)让高血压高血脂不再高！ 
   口臭口腔溃疡一网打尽(图) 
   ◆中医特色治疗精神病！
   ★院士谈前列腺康复之路！ 
   口述：老公越来越棒了！　 
   ●使男人强大-让女人疯狂 
   极速猛男征服女人(图) 

                                  天下商机

   找不到钱的人必看！ 
   小眼镜做出大财富 
   男人给女人的惊喜 
   07家饰新趋势（图） 
   运动时尚PK08奥运 
   燃情异国风情的诱惑！ 
   女人爱护自己的方式（图） 
   女人看了就想要new！ 
   关注MM的小裤裤（图） 
   老少皆宜玩出百万富翁！ 
   新媒体 新行业 新财富 
   富翁要怎样炼成？ 

   图片精选
                           [200608011449461s.jpg]
                   刘芮伊梦幻写真 [200607211447111s.jpg]
                              黄奕写真性感精灵
   其他报道
   ·王菲那英香港名店狂扫货 巧避谢霆锋母亲(图) (28)
   ·胡瓜诈赌将被判3年？在庭上完全推卸责任(图) (28)
   ·频频跳槽为哪般？主持人为“钱”途“改嫁” (28)
   ·张钰左骂刘晓庆贱货 右批张艺谋“乱搞”(图) (28)
   ·小甜甜布兰妮被评为全球最差宠物狗主人(图) (28)
   ·滨崎步袭港狂扫名店 两小时豪花40万置装(图) (28)
   ·李湘加盟北京台未定 确定入主湖南台少儿节目 (28)
   ·“锐舞天后”爱戴舞林归来教你新6.9式(组图) (28)

   关于雅虎 | 使用须知 | 诚聘英才 | 广告服务 | 搜索竞价 | 网络实名 |
   中文上网   [更多]
   Yahoo.com.cn   2006   版权所有 不得转载   京ICP证000022号   [gs.gif]
   不良信息举报中心 
   全球阿里巴巴： 中国站 | 国际站 | 日文站 | 淘宝站 | 支付宝 | 雅虎中国
