
      
    
    

     
	 
	 
 SME.sk 
 Zľavy 
 Zoznámenie 
 Reality 
 Dovolenky 
 Pizza 
 Reštaurácie 
 Recenzie 
 Inzeráty 
 Naničmama 	 
Nákupy 
		 
 Filmy na DVD 
 Hodinky 
 Parfémy 
 SME knihy a DVD 
 Superhosting 
 Tlačiareň 
 Víno 
 Tvorba webov 
 Predplatné SME 
 ProSenior 		 
	 
	 
 
	 
 


    
    
        
        
         
          
         
    

    
      
         
            
             
     
        
        
     
    Blog.SME.sk
 

    

         
        
                 
     
         
            Sme.sk
         
         
            Domov
         
         
            Regióny
         
         
            Ekonomika
         
         
            Svet
         
         
            Komentáre
         
         
            Kultúra
         
         
            Šport
         
         
            TV
         
         
            Auto
         
         
            Tech
         
         
            Poradňa
         
         
            Žena
         
         
            Bývanie
         
         
            Zdravie
         
         
            Blog
         
     
 

         
            
     
                                                         Politika 
                                                                                     Spoločnosť 
                                                                                     Cestovanie 
                                                                                     Ekonomika 
                                                                                     Fotografie 
                                                                                     Jedlo 
                                                                                     Kultúra 
                                                                                             
Ďalšie
                             
                                                                                         Lifestyle 
                                                                                                                                                                             Médiá 
                                                                                                                                                                             Nezaradené 
                                                                                                                                                                             Súkromné 
                                                                                                                                                                             Šport 
                                                                                                                                                                             Veda a technika 
                                                                                                                                                                             Zábava 
                                                                                                                                                                             Poézia 
                                                                                                                                                                             Próza 
                                                                                                                                                                             Kódex blogera 
                                                                                 
                         
                                                 
            Blogeri
         
     


            

    
    Prihlásiť sa


    
    Založte si blog



    
    Odhlásiť sa


    
    




         

        
        
         
            
         
         
                
     
                 
            SME.sk &gt;
            Blog.SME.sk &gt;
                            Informácie o blog.sme.sk
                                        &gt;
                blog.sme.sk
                     
                 Odmeny za články mesiaca (jún 2009 - jún 2010) 

        
            
                                    3.7.2009
            o
            6:18
                        (upravené
                16.8.2010
                o
                1:07)
                        |
            Karma článku:
                0.00
            |
            Prečítané 
            10615-krát
                    
         
     
         
             

                 
                    Pozrite si zoznam hodnotených článkov z blogu SME za jednotlivé mesiace.
                 

                 Odmeny za jún 2010 (14 €)   Michal Pleško: Séria článkov o BP Clair                       Martin Marušic: Trnavská stovka - ako zvládnuť Veľkú Vápennú? Kristína Kováčiková: Osmrtnice Martina Tóthová: Zápisky z veteriny - moji maródi - Horčica Martina Strmeňová: Zabudnutá legenda o mori Ivana Pajanková: Neopodstatnená Ediard Kladiva: Výstava o predpovedi počasia v letectve Ľubomíra Romanová: Ako sme to nevzdali 5. Tetanus Pavol Baláž: Moja pocta Petrovi Dubovskému Jaroslav Stankovič: O japonských turistoch a o predpojatosti na Roraime Emília Katriňáková: Viete, do koľkých dní musíte predložiť začiatok „OČRky"?   Odmeny za máj 2010 (14 €)   Jozef Bastl: Moja prvá operácia srdca Branislav Bajus: Zničená L´Aquila - Taliansko 2010 Martin Tužinský: Vďakabohu, nie sme ešte úplne ľahostajní Lucia Anďalová: Dvadsaťdva chýb v úradnom liste alebo Maturita po slovensky Peter Kobelák: Košická tržnica: božské divadlo Viktor Klimo: V Nitre sa neoplatí servisovať bicykel Marián Gogola: Nedokonalosti antiplagiátorského systému záverečných prác Milan Hraško: Ako sme bobry „lovili" Tomáš Kubuš: Uzimené Helsinki Blanka Ulaherová: Lenin to istí (Ukrajina 2010/I.) Jozef Kuric: Bolo úžasné byt Depešákom Michal Kravčík: Ako sa rodia povodne   Odmeny za apríl 2010 (14 €)   Marcel Burkert: Južná Dakota. Národný park Badlands Anna Vlčková: Likér Michal Patarák: Oťažievajúci katolícky kríž a Kristova smrť na ňom Miriama Polohová: O tradíciách alebo Smradľavú klobásu Ježiškovi do kostola nenoste Adriana Markovičová: O sviatkoch jari, iskrách a žltej malinovke Jana Šlinská: Kristína Turjanová: V divadle som si istejšia ako pred kamerou Tonka Drobcová: Ako rodičia prichádzajú o ilúzie Pavol Satko: Rozvodový potok Kristína Kováčiková: Zazimovaní Ján Urda: Kľacký vodopád Helena Fábryová: Nerušte naše kruhy Zuzana Hanzelová: Miluj blížneho svojho (ak nie je gay)   Odmeny za marec 2010 (14 €)   Viliam Búr: Fínske školstvo Zuzana Minarovičová: Nepál 2009 - Návraty - a teraz poletíme... Ivana Pajanková: Siesta Boris Burger: Neviem, o čo ide, ale asi opäť iba o blbosť Dušan Gábor: Internátne školy... veľký experiment slovenského školstva Lýdia Koňárová: Maihaugen a nórska vidiecka škola Eduard Kladiva: Ďalší krok na ceste urýchľovača LHC Mikuláš Čikovský: Čo odkryli francúzske elektrošoky? Vitalia Bella: Keď spievame nad hrobom Miro Jankes: Rozhovor s Milanom Hrabovským Žaneta Daroková: Takto zomierajú stromy Jozef Mikloško: Rozlúčenie navždy vo svadobnú noc   Odmeny za február 2010 (14 €)   Eduard Kladiva: Čo drží urýchľovač LHC pri zemi? Peter Paulík: Ako Rytmus statiku posudzoval Štefan Vrátny: Séria článkov o nepriateľskej osobe Peter Chrenka: 70 dní Hodvábnej cesty = 186 dopravných prostriedkov Katarina Pisutova: Nadváha sa nosí a roky pridávajú na vážnosti Adriana Markovičová: Prečo sme sa tak naštvali na Slovenský dom? Vitalia Bella: Ľudia z časopisov. Akí sú naživo? Miroslav Kocúr: Ratzinger v kúte? Martin Štih: Plačúcej slečne z trolejbusu č. 202 Katarína Bilančíková: Mama Dana Dvořáková: Séria článkov o Iráne Ivana Pajanková: Dievčatko v rukaviciach   Odmeny za január 2010 (14 €)   Matej Bórik: Príručka správneho spotrebiteľa - reklamácie elektroniky Kristína Kováčiková: Boli časy, boli, ale sa minuli Peter Murar: 10 rokov, 10 webov Michal Patarák: Démon kolektívneho egocentrizmu Renáta Holá: Vraj: „Integrujte sa!" Števo Šanta: Tamiflu Jana Šlinská: Séria rozhovorov: Michaela Bednárová - Moji zákazníci sú ľudia s nadhľadom a Marián Mitaš - príliš inteligentný herec? Veronika Vlčková: To, čo mám Zuzanka Mišovie: Bolo a už nie je Tomáš Slaninka: Skrz sklo Tomáš Kubuš: Iránska Kapadokia a posledný deň v Perzii   Odmeny za december 2009 (13,28 €)   Katarina Pisutova: Job Interview Viliam Búr: O školstve a o všeličom (1.) Simona Krovinová: Obrazu chýba viac modrej, povedalo slepé dievča Eduard Grečner: Čudné náhody sa ponášajú na cenzúru Ján Žatko: 1989: Ako sme sa zariaďovali Tatiana Melasová: Séria článkov o svojom živote Martina Tóthová: Zápisky z veteriny - na krídlach slobody Michal Patarák: Človek, ten rád uniká kryštáľu Boris Burger: Žena, ktorá zlyhala na Vianoce  Anna Jamerson: Bonan Tagon. (Dobrý deň.) - Pamiatke môjho ocka Soňa Hrúziková: Cestou Lenka Jíleková: O eurách, kúzlach a mraveniskách   Odmeny za november 2009 (13,28 €)   Martin Šuraba: Niečo málo o českej literatúre Magda Kotulová: Súdruhovia, ako ste to prijímali žiakov na školu? Jozef Sliacky: Okradli nás na jablkovej brigáde Michal Patarák: Chvíľu sme mali krídla a hneď sme zabudli lietať Števo Šanta: Vŕtačka Lenka Bajzíková: Ako sa z frankofila stáva frankofób Kristína Kováčiková: Každý máme svojho autopilota Dušan V. Mikeš: Lucia Siposová: Sami seba neskutočne obmedzujeme Simona Krovinová: Naozaj kvety a ich deti dávno zvädli? Peter Kobelák: Dva dni medzi krajanmi počas revolúcie v Rumunsku   Odmeny za október 2009 (13,28 €)   Karolína Olšavská: Sila lásky Janette Maziniová: Nejako bolo, nejako bude Peter Gomolčák: Séria článkov o prekladateľskom remesle  Július Žatko: Babka k babke, budú detoxikačné prístroje Jana Blažeková: Policajt alebo darebák Kristína Kováčiková: Óda na serotonín Blanka Ulaherová: Hel - miesto, kde začína Poľsko Juraj Lörinc: Tretie pruhy: zarobené na kríže Juraj Lukáč: Boží chrám Ivana Pajanková: Nezvratné Peter Molnár: Oslavy storočnice železničnej trate Humenné - Stakčín   Odmeny za september 2009 (13,28 €)   Ivana Pajanková: Spokojne nezamestnaná Jozef Klucho: Podnikatelia, ignorujte Slovenský telefónny zoznam, s.r.o. Blanka Ulaherová: Kilo cukru z Čiernej hory Martina Tóthová: Zápisky z veteriny - tracheotómia Miroslav Lisinovič: Preteky parných rušňov Grand Prix Zvolen 2009 Juraj Koiš: Zrušili nám Pendolino do Bratislavy. Pre cestujúcich dobrá správa Petra Schwarczová: Čo by zrobil? Milan Blaško: Chlapci letia autom 240 km/hod. po Slovensku a my sa bavíme Andra Oczvirkova: Séria článkov o zvieratkách Sergej Danilov: Wetzlerova dcéra: V každej kríze sú najlepším terčom menšiny   Odmeny za august 2009 (13,28 €)   Peter Štacko: O tom, prečo si chemici trhajú vlasy Tomáš Slaninka: Pomedzi sny Magda Kotulová: Strážca vchodu Zuzana Petrášová: Sme právny štát? Mikuláš Čikovský: Skener kazí kšeft železničiarom Matej Bórik: Rozhovor s veteránom Lucia Kramaričová: Pred bazou kľakni Michaela Ferencova: Séria článkov o Islande Ľubomíra Romanová: Kto/čo zabilo Jacksona? Ján Babarík: Úrad pre likvidáciu Kotlebov Zdenka Kučerová: Poklad z kontajnera Roman Daniel Baranek: Séria článkov o varení   Odmeny za júl 2009 (13,28 €)   Blanka Ulaherová: Inšpirované ministrom pôdohospodárstva  Adriana Bagová: Rozhovor s Yehudom Lahavom  Slavomír Nemšák: Ako slovenský šofér v japonskej skúške neobstál  Vitalia Bella: Moja hranica  Jozef Vyskoč: Ochrana osobných údajov - len zákon nestačí  Martina Balogová: Keď je život nadštandard  Michal Kukučka: Aupark náš každodenný daj nám dnes  Lucia Kramaričová: Bývanie a domov (ctím si svoj dom)  Viliam Búr: Kreslíme mnohouholníky a hviezdy  Magda Kotulová: Hanbíme sa ešte? Vieme, čo je hanba?  Anna Vlčková: Cyklisti  Pavel Ondera: Bratislavské fontány a Bratislavské fontány II.   Odmeny za jún 2009 (13,28 €)   Lucia Lesayová: Máte 10 minút, ani o sekundu viac! Tomáš Szalay - séria článkov Lekárska pohotovosť Boris Burger: Nebol som sám v Harleme Anna Vlčková: Pošta Viktoria Valhoferova: Pozvanie od p. Leonarda Cohena Zuzana Roy: Dominik Tatarka Pavel Ondera: Vzdúvadlo na Dunaji Dušan Dulgerov: Kráľovná holubov Jozef Mikloško: Anton Srholec je dnes osemdesiatročný mladík Martina Tóthová - séria článkov Zápisky z veteriny   Odmeny za predchádzajúce mesiace nájdete tu - kliknite. 

                 
                                        
                        
                        Zdieľať
                    

                    
                            
                                    
                                    Zdieľať na
                            
                             
                                    
                             
                    

                    
                    
                        
                        Zvýšte karmu
                    
                 
             

                             
            
                     
                         Ďalšie články blogera 
                         
                                                             
                                    
                    	                                                                                        

                                                                        
                                    
                                        Informácie o blog.sme.sk 
                                        
                                            Blogy a Martinus.sk – nový systém provízií pre blogerov
                                        
                                    
                                 
                                                             
                                    
                    	                                                                                        

                                                                        
                                    
                                        Informácie o blog.sme.sk 
                                        
                                            Odmeny za články mesiaca v roku 2014
                                        
                                    
                                 
                                                             
                                    
                    	                                                                                        

                                                                        
                                    
                                        Informácie o blog.sme.sk 
                                        
                                            Odmeny za články mesiaca v roku 2013
                                        
                                    
                                 
                                                             
                                    
                    	                                                                                        

                                                                        
                                    
                                        Informácie o blog.sme.sk 
                                        
                                            Odmeny za články mesiaca (jún 2011 - december 2012)
                                        
                                    
                                 
                                                             
                                    
                    	                                                                                        

                                                                        
                                    
                                        Informácie o blog.sme.sk 
                                        
                                            Odmeny za články mesiaca (júl 2010 - máj 2011)
                                        
                                    
                                 
                                                     
                        
                            Ďalšie články blogera: Informácie o blog.sme.sk
                        
                     
            
                     
                         Ďalšie články z rubriky nezaradené 
                         
                                                             
                                    
                                                            	                                                                                        

                                                                                                
                                    
                                        Pavel Ondrejmiška 
                                        
                                            Dnes farnosť Žitavany, pred tisíc rokmi kráľovská fara v Kňažiciach
                                        
                                    
                                 
                                                             
                                    
                                                            	                                                                                        

                                                                                                
                                    
                                        Michal Pazič 
                                        
                                            Prečo školské zariadenie v Pakistane?
                                        
                                    
                                 
                                                             
                                    
                                                            	                                                                                        

                                                                                                
                                    
                                        Milan Removčík 
                                        
                                            Zimný Šíp.
                                        
                                    
                                 
                                                             
                                    
                                                            	                                                                                        

                                                                                                
                                    
                                          esc-sr 
                                        
                                            Čas (ne)vhodných darčekov
                                        
                                    
                                 
                                                             
                                    
                                                            	                                                                                        

                                                                                                
                                    
                                        Michal Filek 
                                        
                                            Ako je ťažké darovať bezdomovcom polievku?
                                        
                                    
                                 
                                                     
                        
                            Ďalšie články z rubriky nezaradené
                        
                     
                 
            
                    
 
     Hlavné správy 
         
        
                                

        
         
            AKTUALIZOVANÉ 16:00
             Rubeľ kolabuje, ruská vláda má mimoriadne rokovať 
             Jeden dolár stál v utorok poobede už viac ako 78 rubľov, razantné zvýšenie úrokov nepomohlo. 
         
     
         
        
                                

        
         
            ZAHRANIČIE
             Taliban zabil v škole v Pakistane vyše sto ľudí, väčšinou deti 
             Militanti vtrhli do vojenskej školy v policajných rovnošatách. 
         
     
         
        
                                

        
         
            KOMENTARE.SME.SK
             Cynická obluda: Medzičasom na opustenom ostrove 
             Stroskotanci majú veľké šťastie, že sú dvaja. Lacné vtipy na úrovni ich autora. 
         
     
     

                 
     
    
     
        
 

     
                
                            
                    



         
            
                Informácie o blog.sme.sk
            
         
        info.blog.sme.sk (rss)
         
                                     
     
         Správcami blogov sú Filip Struhárik, Matúš Paculík a Sonka Paculíková. Ak máte nejakú otázku, pošlite mail na adresu blog(at)sme.sk 
        
     
     
                     
                                                        
                        
                    
                                                        
                        
                    
                             
             

     
        
            
                
                    Počet článkov
                    23
                
                
                    Celková karma
                    
                                                0.00
                    
                
                
                    Priemerná čítanosť
                    45941
                
            
        
     

             

             Zoznam rubrík 
            
             
                                     
                        
                            blog.sme.sk
                        
                     
                             
         
    

                     
                        
                                                            
                     Obľúbené články 
                    
                     
                                                 
                                            Ako si vytvoriť vlastný blog?
                                     
                                                                             
                                            Chcete uverejniť na blogu len jeden článok?
                                     
                                                                             
                                            Prečo nie sú všetky články na titulke?
                                     
                                                                             
                                            Najčastejšie otázky blogerov
                                     
                                                                   
                     Obľúbené blogy 
                    
                     
                                                 
                                            Neviete si s blogom rady? Tu nájdete väčšinu odpovedí
                                     
                            
             
         
            

        

     






            
    
        
    
 

        
         
         
             Už ste čítali? 
         
         
 

 kultura.sme.sk 
 Margaréta sa spriahla s diablom, no mala Kristovu pravdu 
 
 

 www.sme.sk 
 Pútnické miesta The Beatles alebo ako ľudia kráčajú po zebre 
 
 

 cestovanie.sme.sk 
 Lovia za svitania a v hmle 
 
 

 www.sme.sk 
 Ako sa valila lavína slobody. Ako padal komunizmus 
 
 

 kultura.sme.sk 
 Žiadne retro, poriadny biznis. Takto sa lisuje platňa 
 
	   
 


        
         
            
         

     

    
     
 
 
	 

		Kontakty
		Predplatné
		Etický kódex
		Pomoc
		Mapa stránky
		
	 
 
 
	 
		 
			Widget
			RSS
			Newsletter
		 
		 
			Mobil
			Smartphone
			Kindle
			Televízor
		 
		 
			Facebook
			Twitter
			Google+
		 
	 
	 
		
	 
	 
		Ďalšie weby skupiny: Prihlásenie do Post.sk
		Új Szó Slovak Spectator
		Agentúrne správy 
		Vydavateľstvo
		Inzercia
		Osobné údaje
		Návštevnosť webu
		Predajnosť tlače
		Petit Academy
		SME v škole 		© Copyright 1997-2014 Petit Press, a.s. 
	 
 
 
 


          
        
            
            

        
    

    
    


    


    
        
        
        
        
        
        
        
            
            
        
        
        
        
         
                                
               





 

 



        

 




