
      
    
    

     
	 
	 
 SME.sk 
 Zľavy 
 Zoznámenie 
 Reality 
 Dovolenky 
 Pizza 
 Reštaurácie 
 Recenzie 
 Inzeráty 
 Naničmama 	 
Nákupy 
		 
 Filmy na DVD 
 Hodinky 
 Parfémy 
 SME knihy a DVD 
 Superhosting 
 Tlačiareň 
 Víno 
 Tvorba webov 
 Predplatné SME 
 ProSenior 		 
	 
	 
 
	 
 


    
    
        
        
         
          
         
    

    
      
         
            
             
     
        
        
     
    Blog.SME.sk
 

    

         
        
                 
     
         
            Sme.sk
         
         
            Domov
         
         
            Regióny
         
         
            Ekonomika
         
         
            Svet
         
         
            Komentáre
         
         
            Kultúra
         
         
            Šport
         
         
            TV
         
         
            Auto
         
         
            Tech
         
         
            Poradňa
         
         
            Žena
         
         
            Bývanie
         
         
            Zdravie
         
         
            Blog
         
     
 

         
            
     
                                                         Politika 
                                                                                     Spoločnosť 
                                                                                     Cestovanie 
                                                                                     Ekonomika 
                                                                                     Fotografie 
                                                                                     Jedlo 
                                                                                     Kultúra 
                                                                                             
Ďalšie
                             
                                                                                         Lifestyle 
                                                                                                                                                                             Médiá 
                                                                                                                                                                             Nezaradené 
                                                                                                                                                                             Súkromné 
                                                                                                                                                                             Šport 
                                                                                                                                                                             Veda a technika 
                                                                                                                                                                             Zábava 
                                                                                                                                                                             Poézia 
                                                                                                                                                                             Próza 
                                                                                                                                                                             Kódex blogera 
                                                                                 
                         
                                                 
            Blogeri
         
     


            

    
    Prihlásiť sa


    
    Založte si blog



    
    Odhlásiť sa


    
    




         

        
        
         
            
         
         
                
     
                 
            SME.sk &gt;
            Blog.SME.sk &gt;
                            Mária Jelínková
                                        &gt;
                Nezaradené
                     
                 daj ovoňať psovi kosť 

        
            
                                    1.6.2010
            o
            11:47
                        (upravené
                23.6.2010
                o
                8:10)
                        |
            Karma článku:
                4.26
            |
            Prečítané 
            672-krát
                    
         
     
         
             

                 
                    Pripomína mi to doterajší krátky spôsob vládnutia.Niet času na bratie na zodpovednosť doterajších zodpovedných?Pripomína mi to veľkomožných z 13.storočia.
                 

                 Vtedy ,aj teraz, nikomu za nič nezodpovedali,veľkým posunom boli tzv.kortešačky,ale to je iné storočie,aj tie sa doteraz nezmenili.   Za doterajšie vládnutie by mali byť vyvodené  konkrétne  dôsledky.Zdá sa ,že sa nehanbíme ani za miliardové straty,sedíme doma pri televízoroch a konštatujeme,že prídu nové voľby a ...   Doterajšie chyby sú už spláchnuté krízou, záplavami.   Hurá do nových volieb,uvidíme,čo prinesú,možno ostane stará garnitúra,možno príde nová metla,ale posun?   Máme predsa  vzdelaných mladých,ale tí sú pribití nezamestnanosťou,robia pri páse,vôbec ,že robia.   Iní mladí,aby prežili,obložia sa obrovskými pôžičkami.   Dajme dlhšie volebné obdobie,aby sme mohli zodpovedných brať na zodpovednosť,ak si niečo pokazil,čas ukáže,respektíve ,budeš odvolaný a pôjdeš do basy.Žiadna imunita,ide predsa o naše peniaze...   Doteraz sa za tak krátke obdobie neukazuje zodpovednosť,resp.dá sa rýchlejšie zahladiť,pri dlhšom volebnom období sa musa plánovať aj dlhšie trvajúce projekty a tie potrebujú trvácnejšie základy a tým aj zodpovednejších ľudí .   Doteraz to funguje tak ,ako keď dáte psovi ovoňať kosť,bude si ju vymáhať aj hryznutím,alebo prosíkaním,len nie normálne.Normálne je psa nedráždiť kosťou,ale dať mu ju,on ju spracuje so všrtkou zodpovednosťou psa.   Normálne je dávať vládnuť ľuďom so zodpovednosťou,mať zákony,ktoré ustrážia zodpovednosť každého zodpovedného,aj toho,kto niečo navrhuje,aj toho,ktorý hlasuje v parlamente.   Týmto príspevkom som sa chcela dotknúť len tých nezodpovedných a odkázať im,že o nich vieme a možno,že sú pre  múdrejších tragickým poučením, ako to nerobiť.     

                 
                                        
                        
                        Zdieľať
                    

                    
                            
                                    
                                    Zdieľať na
                            
                             
                                    
                             
                    

                                                                                                                        
                            
                            Diskusia: (0)
                        
                    
                    
                        
                        Zvýšte karmu
                    
                 
             

                             
            
                     
                         Ďalšie články blogera 
                         
                                                             
                                    
                    	                                                                                        

                                                                        
                                    
                                        Mária Jelínková 
                                        
                                            stále viac, hlavne v "neporiadnej" zime nás napadá, ako sa stalo,
                                        
                                    
                                 
                                                             
                                    
                    	                                                                                        

                                                                        
                                    
                                        Mária Jelínková 
                                        
                                            Nedovolím si poučovať nového pápeža, ale
                                        
                                    
                                 
                                                             
                                    
                    	                                                                                        

                                                                        
                                    
                                        Mária Jelínková 
                                        
                                            Odpustenie nie je jednoduché
                                        
                                    
                                 
                                                             
                                    
                    	                                                                                        

                                                                        
                                    
                                        Mária Jelínková 
                                        
                                            Ak si chcem overiť účinok opatrenia, pozriem na výsledok
                                        
                                    
                                 
                                                             
                                    
                    	                                                                                        

                                                                        
                                    
                                        Mária Jelínková 
                                        
                                            Posun vo viere?
                                        
                                    
                                 
                                                     
                        
                            Ďalšie články blogera: Mária Jelínková
                        
                     
            
                     
                         Ďalšie články z rubriky spoločnosť 
                         
                                                             
                                    
                                                            	                                                                                        

                                                                                                
                                    
                                        Mária Levočská 
                                        
                                            Ďalšia obeť pomsty monsignora Jaraba
                                        
                                    
                                 
                                                             
                                    
                                                            	                                                                                        

                                                                                                
                                    
                                        Kristián Straka 
                                        
                                            Nebite ma, doktor Plzák... alebo POZVANIE NA VEČERU
                                        
                                    
                                 
                                                             
                                    
                                                            	                                                                                        

                                                                                                
                                    
                                        Kristián Straka 
                                        
                                            Oklamaní Ježiškom ?
                                        
                                    
                                 
                                                             
                                    
                                                            	                                                                                        

                                                                                                
                                    
                                        Milan Buno 
                                        
                                            Šup, šup, najesť sa. A utekať!
                                        
                                    
                                 
                                                             
                                    
                                                            	                                                                                        

                                                                                                
                                    
                                        Katarína Lorenčíková 
                                        
                                            Par uprimnych oslobodzujucich riadkov...
                                        
                                    
                                 
                                                     
                        
                            Ďalšie články z rubriky spoločnosť
                        
                     
                 
            
                    
 
     Hlavné správy 
         
        
                                

        
         
            AKTUALIZOVANÉ 20:22
             Slovenky v hlavnej skupine nebodovali, Švédky vyhrali o 9 gólov 
             Naše hádzanárky hrali na ME piaty zápas. V Záhrebe proti Švédkam. 
         
     
         
        
                                

        
         
            AKTUALIZOVANÉ O 20:00
             Rubeľ pocítil pád na dno, Rusko je vo finančnej kríze 
             Dolár včera stál už takmer 80 rubľov, pod hladinu ho tlačia najmä nízke ceny ropy. 
         
     
         
        
                                

        
         
            ZAHRANIČIE
             Taliban zaútočil na citlivé miesto Pakistanu. Na deti 
             Taliban zabil v škole v Pakistane najmenej 141 ľudí, väčšinou deti. 
         
     
     

                 
     
    
     
        
 

     
                
                            
                    



         
            
                Mária Jelínková
            
         
        mariajelinkova.blog.sme.sk (rss)
         
                                     
     
        Hovoria mi empatický človek s trpezlivým optimizmom .(Trocha sebairónie nezaškodí.)
        
     
     
                     
                             
             

     
        
            
                
                    Počet článkov
                    32
                
                
                    Celková karma
                    
                                                0.00
                    
                
                
                    Priemerná čítanosť
                    390
                
            
        
     

             

             Zoznam rubrík 
            
             
                                     
                        
                            vyber.sme
                        
                     
                                     
                        
                            Súkromné
                        
                     
                                     
                        
                            Nezaradené
                        
                     
                             
         
    

                     
                        
                                                            
                     Obľúbené články 
                    
                     
                                                 
                                             
                                     
                                                                   
                     Obľúbené stránky 
                    
                     
                                                 
                                             
                                     
                            
             
         
            

             
             Čo ma zaujalo 
            Týmto článkom bloger klikol/klikla na karmu.
             
                                                         
                       Reaktívna depresia a užívanie antidepresív
                     
                                                         
                       Ranné vstávanie a večerné zaspávanie psychicky chorého človeka
                     
                                                         
                       Vytopené a blatom zanesené Smižany - obraz nevhodného hospodárenia
                     
                                                         
                       Som lekár. Áno, aj ja mám so slovenskou nemocnicou zlé skúsenosti
                     
                                                         
                       Boli ste niekedy v nemocnici na geriatrii?
                     
                                                         
                       Ako Baumax obťažuje zákazníkov a strápňuje predavačov
                     
                                                         
                       Neuveriteľný zážitok z dnesneho rana...
                     
                                                         
                       Pápež dáva lekciu z pokory a to je dobrá správa
                     
                                                         
                       Staré ženy
                     
                                                         
                       Od rána sa chystám, že vám to poviem
                     
                             
         
           
     Pošlite odkaz blogerovi 
    
         
            
         

         
         
         
         

         
         
Odosielateľ (e-mail)
 
         
Text
 
         
             
Protispamová ochrana 
 
 Zle. Skúste znova. 
Opíšte slová z obrázku: Načítať iné slová 
 Get an image CAPTCHA 
 
 
         
                 
            
         
    
  


 

     






            
    
        
    
 

        
         
         
             Už ste čítali? 
         
         
 

 kultura.sme.sk 
 Margaréta sa spriahla s diablom, no mala Kristovu pravdu 
 
 

 www.sme.sk 
 Pútnické miesta The Beatles alebo ako ľudia kráčajú po zebre 
 
 

 cestovanie.sme.sk 
 Lovia za svitania a v hmle 
 
 

 www.sme.sk 
 Ako sa valila lavína slobody. Ako padal komunizmus 
 
 

 kultura.sme.sk 
 Žiadne retro, poriadny biznis. Takto sa lisuje platňa 
 
	   
 


        
         
            
         

     

    
     
 
 
	 

		Kontakty
		Predplatné
		Etický kódex
		Pomoc
		Mapa stránky
		
	 
 
 
	 
		 
			Widget
			RSS
			Newsletter
		 
		 
			Mobil
			Smartphone
			Kindle
			Televízor
		 
		 
			Facebook
			Twitter
			Google+
		 
	 
	 
		
	 
	 
		Ďalšie weby skupiny: Prihlásenie do Post.sk
		Új Szó Slovak Spectator
		Agentúrne správy 
		Vydavateľstvo
		Inzercia
		Osobné údaje
		Návštevnosť webu
		Predajnosť tlače
		Petit Academy
		SME v škole 		© Copyright 1997-2014 Petit Press, a.s. 
	 
 
 
 


          
        
            
            

        
    

    
    


    


    
        
        
        
        
        
        
        
            
            
        
        
        
        
         
                                
               





 

 



        

 




