
      
    
    

     
	 
	 
 SME.sk 
 Zľavy 
 Zoznámenie 
 Reality 
 Dovolenky 
 Pizza 
 Reštaurácie 
 Recenzie 
 Inzeráty 
 Naničmama 	 
Nákupy 
		 
 Filmy na DVD 
 Hodinky 
 Parfémy 
 SME knihy a DVD 
 Superhosting 
 Tlačiareň 
 Víno 
 Tvorba webov 
 Predplatné SME 
 ProSenior 		 
	 
	 
 
	 
 


    
    
        
        
         
          
         
    

    
      
         
            
             
     
        
        
     
    Blog.SME.sk
 

    

         
        
                 
     
         
            Sme.sk
         
         
            Domov
         
         
            Regióny
         
         
            Ekonomika
         
         
            Svet
         
         
            Komentáre
         
         
            Kultúra
         
         
            Šport
         
         
            TV
         
         
            Auto
         
         
            Tech
         
         
            Poradňa
         
         
            Žena
         
         
            Bývanie
         
         
            Zdravie
         
         
            Blog
         
     
 

         
            
     
                                                         Politika 
                                                                                     Spoločnosť 
                                                                                     Cestovanie 
                                                                                     Ekonomika 
                                                                                     Fotografie 
                                                                                     Jedlo 
                                                                                     Kultúra 
                                                                                             
Ďalšie
                             
                                                                                         Lifestyle 
                                                                                                                                                                             Médiá 
                                                                                                                                                                             Nezaradené 
                                                                                                                                                                             Súkromné 
                                                                                                                                                                             Šport 
                                                                                                                                                                             Veda a technika 
                                                                                                                                                                             Zábava 
                                                                                                                                                                             Poézia 
                                                                                                                                                                             Próza 
                                                                                                                                                                             Kódex blogera 
                                                                                 
                         
                                                 
            Blogeri
         
     


            

    
    Prihlásiť sa


    
    Založte si blog



    
    Odhlásiť sa


    
    




         

        
        
         
            
         
         
                
     
                 
            SME.sk &gt;
            Blog.SME.sk &gt;
                            Peťo Zahradník
                                        &gt;
                Nezaradené
                     
                 Rideri v skateparku 

        
            
                                    11.4.2010
            o
            10:00
                        |
            Karma článku:
                6.72
            |
            Prečítané 
            1321-krát
                    
         
     
         
             

                 
                    O akcii Concrete Jungle Jam som sa dozvedel od môjho kamaráta Maťa Simona, ktorý pracuje v občianskom združení Kaspian. V Petržalskom skateparku na Markovej ulici pripravili historicky prvý BMX a MTB Contest v Bratislave, ktorý vznikol z podnetu jedného miestneho ridera.
                 

                           V sobotu dopoludnia som si zobral fotoaparát a vybral som sa do skateparku. Počasie bolo síce slnečné ale bolo trochu chladno. Práve som prišiel, keď bola registrácia a tréning súťažiacich riderov na bicykloch v kategóriách BMX a MTB. Ide o špecifický druh jazdy na bicykloch, v ktorom jazdec na špeciálne upravenom bicykli prekonáva rozmanité, prírodné alebo umelo vytvorené prekážky.                      Oslovila ma odvaha mladých jazdcov. Vytvárali rôzne akrobatické kúsky počas jázd na rampách ale aj vo vzduchu. Obdivoval som ich šikovnosť a pri niektorých extrémnych kúskoch sa mi zatajoval dych. Milo ma prekvapilo, ako boli k sebe ohľaduplní, disciplinovaní a tolerantní. Zaujalo ma aj to, že predtým ako začali jazdiť, dbali na to, aby boli upravení. Záležalo im na výzore. Boli štýlovo trendy oblečení. Usúdil som, že mať svoj imidž patrí k tomuto športu.                            Okolo poludnia sa počasie začalo kaziť. Zrazu sa len zamračilo a začalo silno pršať. Ledva som stihol dôjsť na zastávku. Hneď mi išiel bus, tak som ani nezmokol. Budúcu sobotu 17. apríla bude pokračovanie tejto akcie. Ak mi vyjde čas, rád prídem znova.     

                 
                                        
                        
                        Zdieľať
                    

                    
                            
                                    
                                    Zdieľať na
                            
                             
                                    
                             
                    

                                                                                                                        
                            
                            Diskusia: (0)
                        
                    
                    
                        
                        Zvýšte karmu
                    
                 
             

                             
            
                     
                         Ďalšie články blogera 
                         
                                                             
                                    
                    	                                                                                        

                                                                        
                                    
                                        Peťo Zahradník 
                                        
                                            Nebo je vidieť aj v mláke (TEDx Bratislava 2011)
                                        
                                    
                                 
                                                             
                                    
                    	                                                                                        

                                                                        
                                    
                                        Peťo Zahradník 
                                        
                                            Grafiky pre dobrú vec
                                        
                                    
                                 
                                                             
                                    
                    	                                                                                        

                                                                        
                                    
                                        Peťo Zahradník 
                                        
                                            Lepší svet na Radlinského
                                        
                                    
                                 
                                                             
                                    
                    	                                                                                        

                                                                        
                                    
                                        Peťo Zahradník 
                                        
                                            Monika
                                        
                                    
                                 
                                                             
                                    
                    	                                                                                        

                                                                        
                                    
                                        Peťo Zahradník 
                                        
                                            Granátové jablko
                                        
                                    
                                 
                                                     
                        
                            Ďalšie články blogera: Peťo Zahradník
                        
                     
            
                     
                         Ďalšie články z rubriky spoločnosť 
                         
                                                             
                                    
                                                            	                                                                                        

                                                                                                
                                    
                                        Kristián Straka 
                                        
                                            Nebite ma, doktor Plzák... alebo POZVANIE NA VEČERU
                                        
                                    
                                 
                                                             
                                    
                                                            	                                                                                        

                                                                                                
                                    
                                        Kristián Straka 
                                        
                                            Oklamaní Ježiškom ?
                                        
                                    
                                 
                                                             
                                    
                                                            	                                                                                        

                                                                                                
                                    
                                        Milan Buno 
                                        
                                            Šup, šup, najesť sa. A utekať!
                                        
                                    
                                 
                                                             
                                    
                                                            	                                                                                        

                                                                                                
                                    
                                        Katarína Lorenčíková 
                                        
                                            Par uprimnych oslobodzujucich riadkov...
                                        
                                    
                                 
                                                             
                                    
                                                            	                                                                                        

                                                                                                
                                    
                                        Alžbeta Slováková Spáčilová 
                                        
                                            Selfie s nádychom hyenizmu a krutosti
                                        
                                    
                                 
                                                     
                        
                            Ďalšie články z rubriky spoločnosť
                        
                     
                 
            
                    
 
     Hlavné správy 
         
        
                                

        
         
            AKTUALIZOVANÉ 16:00
             Rubeľ kolabuje, ruská vláda má mimoriadne rokovať 
             Jeden dolár stál v utorok poobede už viac ako 78 rubľov, razantné zvýšenie úrokov nepomohlo. 
         
     
         
        
                                

        
         
            ZAHRANIČIE
             Taliban zabil v škole v Pakistane vyše sto ľudí, väčšinou deti 
             Militanti vtrhli do vojenskej školy v policajných rovnošatách. 
         
     
         
        
                                

        
         
            KOMENTARE.SME.SK
             Cynická obluda: Medzičasom na opustenom ostrove 
             Stroskotanci majú veľké šťastie, že sú dvaja. Lacné vtipy na úrovni ich autora. 
         
     
     

                 
     
    
     
        
 

     
                
                            
                    



         
            
                Peťo Zahradník
            
         
        petozahradnik.blog.sme.sk (rss)
         
                                     
     
        Urobil som aj veľa hlúpostí, ale snažím sa z nich poučiť a ísť stále ďalej.

        
     
     
                     
                             
             

     
        
            
                
                    Počet článkov
                    39
                
                
                    Celková karma
                    
                                                0.00
                    
                
                
                    Priemerná čítanosť
                    1256
                
            
        
     

             

             Zoznam rubrík 
            
             
                                     
                        
                            Spiš a okolie
                        
                     
                                     
                        
                            Grécke ostrovy
                        
                     
                                     
                        
                            Severná Afrika
                        
                     
                                     
                        
                            Turecko
                        
                     
                                     
                        
                            Zo života
                        
                     
                                     
                        
                            Postrehy
                        
                     
                                     
                        
                            Nezaradené
                        
                     
                             
         
    

                     
                        
                                                            
                     Obľúbené články 
                    
                     
                                                 
                                             
                                     
                                                                   
                     Obľúbené knihy 
                    
                     
                                                 
                                            Gary Chapman
                                     
                                                                             
                                            Irvin D. Yalom
                                     
                                                                             
                                            Dan Millman
                                     
                                                                             
                                            Michal Hvorecký
                                     
                                                                             
                                            Daniel Hevier
                                     
                                                                             
                                            Dušan Mitana
                                     
                                                                             
                                            Don Miguel Ruiz
                                     
                                                                             
                                            Maxim E. Matkin
                                     
                                                                             
                                            Haruka Murakami
                                     
                                                                   
                     Čo práve počúvam 
                    
                     
                                                 
                                            Plastic Swans: Night acoustic version
                                     
                                                                             
                                            Plastic Swans: Devils
                                     
                                                                             
                                            Coldplay: Viva La Vida
                                     
                                                                             
                                            Mattafix: Living Darfur
                                     
                                                                             
                                            Nocadeň: Na čo asi myslíš?
                                     
                                                                             
                                            Nocadeň: Voľným pádom
                                     
                                                                   
                     Obľúbené blogy 
                    
                     
                                                 
                                            klinka.blog.sme.sk
                                     
                                                                             
                                            peterherman.blog.sme.sk
                                     
                                                                             
                                            mozolova.blog.sme.sk
                                     
                                                                             
                                            olivieri.blog.sme.sk
                                     
                                                                             
                                            herda.blog.sme.sk
                                     
                                                                             
                                            baricak.blog.sme.sk
                                     
                                                                             
                                            hanout.blog.sme.sk
                                     
                                                                             
                                            davidkralik.blog.sme.sk
                                     
                                                                             
                                            nataliablahova.blog.sme.sk
                                     
                                                                             
                                            dobrovodsky.blog.sme.sk
                                     
                                                                             
                                            PASTIER.medialne.sk
                                     
                                                                   
                     Obľúbené stránky 
                    
                     
                                                 
                                            facebook.com
                                     
                                                                             
                                            youtube.com
                                     
                                                                             
                                            citylife.sk
                                     
                                                                             
                                            clovekvohrozeni.sk
                                     
                                                                             
                                            sme.sk
                                     
                                                                             
                                            kaspian.sk
                                     
                                                                             
                                            majak.org
                                     
                                                                             
                                            Voices.sk
                                     
                            
             
         
            

           
     Pošlite odkaz blogerovi 
    
         
            
         

         
         
         
         

         
         
Odosielateľ (e-mail)
 
         
Text
 
         
             
Protispamová ochrana 
 
 Zle. Skúste znova. 
Opíšte slová z obrázku: Načítať iné slová 
 Get an image CAPTCHA 
 
 
         
                 
            
         
    
  


 

     






            
    
        
    
 

        
         
         
             Už ste čítali? 
         
         
 

 kultura.sme.sk 
 Margaréta sa spriahla s diablom, no mala Kristovu pravdu 
 
 

 www.sme.sk 
 Pútnické miesta The Beatles alebo ako ľudia kráčajú po zebre 
 
 

 cestovanie.sme.sk 
 Lovia za svitania a v hmle 
 
 

 www.sme.sk 
 Ako sa valila lavína slobody. Ako padal komunizmus 
 
 

 kultura.sme.sk 
 Žiadne retro, poriadny biznis. Takto sa lisuje platňa 
 
	   
 


        
         
            
         

     

    
     
 
 
	 

		Kontakty
		Predplatné
		Etický kódex
		Pomoc
		Mapa stránky
		
	 
 
 
	 
		 
			Widget
			RSS
			Newsletter
		 
		 
			Mobil
			Smartphone
			Kindle
			Televízor
		 
		 
			Facebook
			Twitter
			Google+
		 
	 
	 
		
	 
	 
		Ďalšie weby skupiny: Prihlásenie do Post.sk
		Új Szó Slovak Spectator
		Agentúrne správy 
		Vydavateľstvo
		Inzercia
		Osobné údaje
		Návštevnosť webu
		Predajnosť tlače
		Petit Academy
		SME v škole 		© Copyright 1997-2014 Petit Press, a.s. 
	 
 
 
 


          
        
            
            

        
    

    
    


    


    
        
        
        
        
        
        
        
            
            
        
        
        
        
         
                                
               





 

 



        

 




