
      
    
    

     
	 
	 
 SME.sk 
 Zľavy 
 Zoznámenie 
 Reality 
 Dovolenky 
 Pizza 
 Reštaurácie 
 Recenzie 
 Inzeráty 
 Naničmama 	 
Nákupy 
		 
 Filmy na DVD 
 Hodinky 
 Parfémy 
 SME knihy a DVD 
 Superhosting 
 Tlačiareň 
 Víno 
 Tvorba webov 
 Predplatné SME 
 ProSenior 		 
	 
	 
 
	 
 


    
    
        
        
         
          
         
    

    
      
         
            
             
     
        
        
     
    Blog.SME.sk
 

    

         
        
                 
     
         
            Sme.sk
         
         
            Domov
         
         
            Regióny
         
         
            Ekonomika
         
         
            Svet
         
         
            Komentáre
         
         
            Kultúra
         
         
            Šport
         
         
            TV
         
         
            Auto
         
         
            Tech
         
         
            Poradňa
         
         
            Žena
         
         
            Bývanie
         
         
            Zdravie
         
         
            Blog
         
     
 

         
            
     
                                                         Politika 
                                                                                     Spoločnosť 
                                                                                     Cestovanie 
                                                                                     Ekonomika 
                                                                                     Fotografie 
                                                                                     Jedlo 
                                                                                     Kultúra 
                                                                                             
Ďalšie
                             
                                                                                         Lifestyle 
                                                                                                                                                                             Médiá 
                                                                                                                                                                             Nezaradené 
                                                                                                                                                                             Súkromné 
                                                                                                                                                                             Šport 
                                                                                                                                                                             Veda a technika 
                                                                                                                                                                             Zábava 
                                                                                                                                                                             Poézia 
                                                                                                                                                                             Próza 
                                                                                                                                                                             Kódex blogera 
                                                                                 
                         
                                                 
            Blogeri
         
     


            

    
    Prihlásiť sa


    
    Založte si blog



    
    Odhlásiť sa


    
    




         

        
        
         
            
         
         
                
     
                 
            SME.sk &gt;
            Blog.SME.sk &gt;
                            Júlia Hubeňáková - Bianka
                                        &gt;
                Bakalári
                     
                 Ratujte mene 

        
            
                                    8.6.2010
            o
            12:41
                        |
            Karma článku:
                0.00
            |
            Prečítané 
            1312-krát
                    
         
     
         
             

                 
                    V piatok, keď vrcholil dážď, moja kolegyňa mala službu pri 93 ročnej babičke, ktorá býva v úplne malinkej dedinke Hajtovka. Podchvíľou odbiehala na dvor sledovať, či netreba dačo ratovať, či sa nevalí zdakadiaľ voda. Babička, takmer ležiaca a chodiaca len s pomocou iných, vedela, že sa čosi deje. Ako vraví kolegyňa Milka, keby všetko tak babičke fungovalo ako jazyk, ešte by pokojne mohla chodiť do práce. „Milkooo, Milkooo, ratuj mene...," kričala zakaždým, keď Milka vyšla na dvor. „Hmiram, hmiram, ratujte, volajte dochtora" pridávala na dramatickosti babička, keď videla, že Milka jej nevenuje náležitú pozornosť. Vyzeralo to byť vážne. I keď... „Babko, mobily nefungujú a lekár z Ľubovne nepríde, lebo zastavili dopravu, musíte vydržať," poúčala babičku Milka. „Hej? Oj, už mi lipše."
                 

                

                 
                                        
                        
                        Zdieľať
                    

                    
                            
                                    
                                    Zdieľať na
                            
                             
                                    
                             
                    

                                                                                                                        
                            
                            Diskusia: (20)
                        
                    
                    
                        
                        Zvýšte karmu
                    
                 
             

                             
            
                     
                         Ďalšie články blogera 
                         
                                                             
                                    
                    	                                                                                        

                                                                        
                                    
                                        Júlia Hubeňáková - Bianka 
                                        
                                            O čistote srdca
                                        
                                    
                                 
                                                             
                                    
                    	                                                                                        

                                                                        
                                    
                                        Júlia Hubeňáková - Bianka 
                                        
                                            Pán Matovič, hlbšie sa už klesnúť nedalo!
                                        
                                    
                                 
                                                             
                                    
                    	                                                                                        

                                                                        
                                    
                                        Júlia Hubeňáková - Bianka 
                                        
                                            Pán predseda, blahoželám
                                        
                                    
                                 
                                                             
                                    
                    	                                                                                        

                                                                        
                                    
                                        Júlia Hubeňáková - Bianka 
                                        
                                            Letný čas:
                                        
                                    
                                 
                                                             
                                    
                    	                                                                                        

                                                                        
                                    
                                        Júlia Hubeňáková - Bianka 
                                        
                                            Garancia vrátenia peňazí. To určite!
                                        
                                    
                                 
                                                     
                        
                            Ďalšie články blogera: Júlia Hubeňáková - Bianka
                        
                     
            
                     
                         Ďalšie články z rubriky lifestyle 
                         
                                                             
                                    
                                                                                                                    

                                                                                                
                                    
                                        Xenie Suhayla Komers 
                                        
                                            Vydat, či nevydat se ve stopách svého osudu?
                                        
                                    
                                 
                                                             
                                    
                                                            	                                                                                        

                                                                                                
                                    
                                        Ivana Lešičková 
                                        
                                            Nenávidím Vianoce! Zn: tie v októbri
                                        
                                    
                                 
                                                             
                                    
                                                            	                                                                                        

                                                                                                
                                    
                                        Jana Ambrošová 
                                        
                                            Filipínsky občasník: 4. Peklo v raji
                                        
                                    
                                 
                                                             
                                    
                                                            	                                                                                        

                                                                                                
                                    
                                        Daniela Pikulova 
                                        
                                            Za oponou.
                                        
                                    
                                 
                                                             
                                    
                                                            	                                                                                        

                                                                                                
                                    
                                        Teodor Komenda 
                                        
                                            Škola života
                                        
                                    
                                 
                                                     
                        
                            Ďalšie články z rubriky lifestyle
                        
                     
                 
            
                    
 
     Hlavné správy 
         
        
                                

        
         
            ZAHRANIČIE
             Protestujúci v Maďarsku strácajú dych, Fidesz ich mätie novými návrhmi 
             Na demonštrácii proti Orbánovej vláde bolo v utorok už len niekoľko tisíc ľudí. 
         
     
         
        
                                

        
         
            AKTUALIZOVANÉ 20:22
             Slovenky v hlavnej skupine nebodovali, Švédky vyhrali o 9 gólov 
             Naše hádzanárky hrali na ME piaty zápas. V Záhrebe proti Švédkam. 
         
     
         
        
                                

        
         
            AKTUALIZOVANÉ O 21:30
             Rubeľ pocítil pád na dno, Rusko je vo finančnej kríze 
             Dolár včera stál už takmer 80 rubľov, pod hladinu ho tlačia najmä nízke ceny ropy. 
         
     
     

                 
     
    
     
        
 

     
                
                            
                    



         
            
                Júlia Hubeňáková - Bianka
            
         
        hubenakova.blog.sme.sk (rss)
         
                                     
     
        Radkova manželka a mama Miša, Veroniky a Raďa.










        
     
     
                     
                             
             

     
        
            
                
                    Počet článkov
                    352
                
                
                    Celková karma
                    
                                                0.00
                    
                
                
                    Priemerná čítanosť
                    2465
                
            
        
     

             

             Zoznam rubrík 
            
             
                                     
                        
                            Rodinné striebro
                        
                     
                                     
                        
                            Bakalári
                        
                     
                                     
                        
                            Fejtóny
                        
                     
                                     
                        
                            Pokrútené paragrafy
                        
                     
                                     
                        
                            Moje bá-sničky
                        
                     
                                     
                        
                            Politika a ja
                        
                     
                                     
                        
                            Report
                        
                     
                                     
                        
                            Moje povedačky
                        
                     
                                     
                        
                            Evanjelium podľa...
                        
                     
                                     
                        
                            Fotofejtón
                        
                     
                                     
                        
                            Súkromné
                        
                     
                                     
                        
                            Nezaradené
                        
                     
                             
         
    

                     
                        
                                                            
                     Obľúbené články 
                    
                     
                                                 
                                            Rozhovor v časopise Zrno
                                     
                                                                   
                     Obľúbené knihy 
                    
                     
                                                 
                                            Predstavujem vám moje knihy
                                     
                                                                   
                     Obľúbené blogy 
                    
                     
                                                 
                                            Viem, viete, vedia :)
                                     
                                                                   
                     Obľúbené stránky 
                    
                     
                                                 
                                            Verbum Domini
                                     
                            
             
         
            

           
     Pošlite odkaz blogerovi 
    
         
            
         

         
         
         
         

         
         
Odosielateľ (e-mail)
 
         
Text
 
         
             
Protispamová ochrana 
 
 Zle. Skúste znova. 
Opíšte slová z obrázku: Načítať iné slová 
 Get an image CAPTCHA 
 
 
         
                 
            
         
    
  


 

     






            
    
        
    
 

        
         
         
             Už ste čítali? 
         
         
 

 kultura.sme.sk 
 Margaréta sa spriahla s diablom, no mala Kristovu pravdu 
 
 

 www.sme.sk 
 Pútnické miesta The Beatles alebo ako ľudia kráčajú po zebre 
 
 

 cestovanie.sme.sk 
 Lovia za svitania a v hmle 
 
 

 www.sme.sk 
 Ako sa valila lavína slobody. Ako padal komunizmus 
 
 

 kultura.sme.sk 
 Žiadne retro, poriadny biznis. Takto sa lisuje platňa 
 
	   
 


        
         
            
         

     

    
     
 
 
	 

		Kontakty
		Predplatné
		Etický kódex
		Pomoc
		Mapa stránky
		
	 
 
 
	 
		 
			Widget
			RSS
			Newsletter
		 
		 
			Mobil
			Smartphone
			Kindle
			Televízor
		 
		 
			Facebook
			Twitter
			Google+
		 
	 
	 
		
	 
	 
		Ďalšie weby skupiny: Prihlásenie do Post.sk
		Új Szó Slovak Spectator
		Agentúrne správy 
		Vydavateľstvo
		Inzercia
		Osobné údaje
		Návštevnosť webu
		Predajnosť tlače
		Petit Academy
		SME v škole 		© Copyright 1997-2014 Petit Press, a.s. 
	 
 
 
 


          
        
            
            

        
    

    
    


    


    
        
        
        
        
        
        
        
            
            
        
        
        
        
         
                                
               





 

 



        

 




