
      
    
    

     
	 
	 
 SME.sk 
 Zľavy 
 Zoznámenie 
 Reality 
 Dovolenky 
 Pizza 
 Reštaurácie 
 Recenzie 
 Inzeráty 
 Naničmama 	 
Nákupy 
		 
 Filmy na DVD 
 Hodinky 
 Parfémy 
 SME knihy a DVD 
 Superhosting 
 Tlačiareň 
 Víno 
 Tvorba webov 
 Predplatné SME 
 ProSenior 		 
	 
	 
 
	 
 


    
    
        
        
         
          
         
    

    
      
         
            
             
     
        
        
     
    Blog.SME.sk
 

    

         
        
                 
     
         
            Sme.sk
         
         
            Domov
         
         
            Regióny
         
         
            Ekonomika
         
         
            Svet
         
         
            Komentáre
         
         
            Kultúra
         
         
            Šport
         
         
            TV
         
         
            Auto
         
         
            Tech
         
         
            Poradňa
         
         
            Žena
         
         
            Bývanie
         
         
            Zdravie
         
         
            Blog
         
     
 

         
            
     
                                                         Politika 
                                                                                     Spoločnosť 
                                                                                     Cestovanie 
                                                                                     Ekonomika 
                                                                                     Fotografie 
                                                                                     Jedlo 
                                                                                     Kultúra 
                                                                                             
Ďalšie
                             
                                                                                         Lifestyle 
                                                                                                                                                                             Médiá 
                                                                                                                                                                             Nezaradené 
                                                                                                                                                                             Súkromné 
                                                                                                                                                                             Šport 
                                                                                                                                                                             Veda a technika 
                                                                                                                                                                             Zábava 
                                                                                                                                                                             Poézia 
                                                                                                                                                                             Próza 
                                                                                                                                                                             Kódex blogera 
                                                                                 
                         
                                                 
            Blogeri
         
     


            

    
    Prihlásiť sa


    
    Založte si blog



    
    Odhlásiť sa


    
    




         

        
        
         
            
         
         
                
     
                 
            SME.sk &gt;
            Blog.SME.sk &gt;
                            Ján Karnay
                                        &gt;
                Nezaradené
                     
                 Dajte šancu mladým 

        
            
                                    7.5.2010
            o
            17:02
                        (upravené
                7.5.2010
                o
                17:28)
                        |
            Karma článku:
                1.05
            |
            Prečítané 
            222-krát
                    
         
     
         
             

                 
                    Dnes sa začínajú hokejové majstrovstvá v hokeji.
                 

                Hokej je pre náš národ veľmi dôležitým športom. Je pravda že hokej nieje tak populárny vo svete ako futbal, ale práve v hokeji sme dosiahli veľké výsledky a získali cenné medaile. Na tohto ročných majstrovstiev sa opäť musíme zaobísť bez najväčších hviezd. Ale to dáva šancu mladým hokejistom, aby sa ukázali a presvedčili o svojich schopnostiach. No v našom výbere až toľko mladých hokejistov nieje. Nie žeby ich tréner Hanlon nechcel zobrať, no jednoducho nemal z čoho vyberať. Nemáme veľa mladých hráčov, ktorí spĺňajú kritéria pre štart na takom turnaji. Preto musel zobrať starších hráčov ktorí hrajú v európskych ligách a majú akú takú úroveň a vôľu reprezentovať. Tréner sa pokúšal poskladať čo najlepší tím z toho čo mal k dispozícií. Veľmi kombinovať nemohol. Zobral najlepších koho mal a ktorí boli ochotní prísť a predĺžiť si sezónu. Tu sa naskytuje otázka, že či systém každoročných majstrovstiev sveta je dobrý. Či by nebolo lepší iný formát, napr. v dvoj ročnom cykle. Hráči by si majstrovstvá viac cenili a hrať v najcennejšom drese by bol pre nich vzácnejší. Lebo po ťažkej a dlhej sezóne každý rok hrať ďalší veľký a dôležitý turnaj musí byť náročný po fyzickej aj psychickej stránke. Veľa úspechov našim chlapcom a fanúšikom pevné nervy.

                 
                                        
                        
                        Zdieľať
                    

                    
                            
                                    
                                    Zdieľať na
                            
                             
                                    
                             
                    

                                                                                                                        
                            
                            Diskusia: (0)
                        
                    
                    
                        
                        Zvýšte karmu
                    
                 
             

                             
            
                     
                         Ďalšie články blogera 
                         
                                                             
                                    
                    	                                                                                        

                                                                        
                                    
                                        Ján Karnay 
                                        
                                            Estadio Santiago Bernabeu
                                        
                                    
                                 
                                                             
                                    
                    	                                                                                        

                                                                        
                                    
                                        Ján Karnay 
                                        
                                            Letecká doprava
                                        
                                    
                                 
                                                     
                        
                            Ďalšie články blogera: Ján Karnay
                        
                     
            
                     
                         Ďalšie články z rubriky šport 
                         
                                                             
                                    
                                                            	                                                                                        

                                                                                                
                                    
                                        Jozef Fabian 
                                        
                                            Žreb Ligy Majstrov
                                        
                                    
                                 
                                                             
                                    
                                                            	                                                                                        

                                                                                                
                                    
                                        Martin Duda 
                                        
                                            Rozprávka o slávnom futbalovom kráľovstve
                                        
                                    
                                 
                                                             
                                    
                                                                                                                    

                                                                                                
                                    
                                        Marian Čapla 
                                        
                                            Za dvadsaťjeden tristoštyridsaťdva. Je to veľa alebo málo?
                                        
                                    
                                 
                                                             
                                    
                                                            	                                                                                        

                                                                                                
                                    
                                        Peter Jačiansky 
                                        
                                            Ako chutí dobrá francúzska polievka?
                                        
                                    
                                 
                                                             
                                    
                                                            	                                                                                        

                                                                                                
                                    
                                        Adrián Kocur 
                                        
                                            Halák hviezdou nových Islanders
                                        
                                    
                                 
                                                     
                        
                            Ďalšie články z rubriky šport
                        
                     
                 
            
                    
 
     Hlavné správy 
         
        
                                

        
         
            AKTUALIZOVANÉ O 20:00
             Rubeľ pocítil pád na dno, Rusko je vo finančnej kríze 
             Dolár včera stál už takmer 80 rubľov, pod hladinu ho tlačia najmä nízke ceny ropy. 
         
     
         
        
                                

        
         
            ZAHRANIČIE
             Taliban zaútočil na citlivé miesto Pakistanu. Na deti 
             Taliban zabil v škole v Pakistane najmenej 141 ľudí, väčšinou deti. 
         
     
         
        
                                

        
         
            KOMENTARE.SME.SK
             Cynická obluda: Medzičasom na opustenom ostrove 
             Stroskotanci majú veľké šťastie, že sú dvaja. Lacné vtipy na úrovni ich autora. 
         
     
     

                 
     
    
     
        
 

     
                
                            
                    



         
            
                Ján Karnay
            
         
        karnay.blog.sme.sk (rss)
         
                                     
     
        Cestovatel, vystudovany technik, momentalne nezamestnany
        
     
     
                     
                             
             

     
        
            
                
                    Počet článkov
                    3
                
                
                    Celková karma
                    
                                                0.00
                    
                
                
                    Priemerná čítanosť
                    198
                
            
        
     

             

             Zoznam rubrík 
            
             
                                     
                        
                            Súkromné
                        
                     
                                     
                        
                            Nezaradené
                        
                     
                             
         
    

    

           
     Pošlite odkaz blogerovi 
    
         
            
         

         
         
         
         

         
         
Odosielateľ (e-mail)
 
         
Text
 
         
             
Protispamová ochrana 
 
 Zle. Skúste znova. 
Opíšte slová z obrázku: Načítať iné slová 
 Get an image CAPTCHA 
 
 
         
                 
            
         
    
  


 

     






            
    
        
    
 

        
         
         
             Už ste čítali? 
         
         
 

 kultura.sme.sk 
 Margaréta sa spriahla s diablom, no mala Kristovu pravdu 
 
 

 www.sme.sk 
 Pútnické miesta The Beatles alebo ako ľudia kráčajú po zebre 
 
 

 cestovanie.sme.sk 
 Lovia za svitania a v hmle 
 
 

 www.sme.sk 
 Ako sa valila lavína slobody. Ako padal komunizmus 
 
 

 kultura.sme.sk 
 Žiadne retro, poriadny biznis. Takto sa lisuje platňa 
 
	   
 


        
         
            
         

     

    
     
 
 
	 

		Kontakty
		Predplatné
		Etický kódex
		Pomoc
		Mapa stránky
		
	 
 
 
	 
		 
			Widget
			RSS
			Newsletter
		 
		 
			Mobil
			Smartphone
			Kindle
			Televízor
		 
		 
			Facebook
			Twitter
			Google+
		 
	 
	 
		
	 
	 
		Ďalšie weby skupiny: Prihlásenie do Post.sk
		Új Szó Slovak Spectator
		Agentúrne správy 
		Vydavateľstvo
		Inzercia
		Osobné údaje
		Návštevnosť webu
		Predajnosť tlače
		Petit Academy
		SME v škole 		© Copyright 1997-2014 Petit Press, a.s. 
	 
 
 
 


          
        
            
            

        
    

    
    


    


    
        
        
        
        
        
        
        
            
            
        
        
        
        
         
                                
               





 

 



        

 




