
      
    
    

     
	 
	 
 SME.sk 
 Zľavy 
 Zoznámenie 
 Reality 
 Dovolenky 
 Pizza 
 Reštaurácie 
 Recenzie 
 Inzeráty 
 Naničmama 	 
Nákupy 
		 
 Filmy na DVD 
 Hodinky 
 Parfémy 
 SME knihy a DVD 
 Superhosting 
 Tlačiareň 
 Víno 
 Tvorba webov 
 Predplatné SME 
 ProSenior 		 
	 
	 
 
	 
 


    
    
        
        
         
          
         
    

    
      
         
            
             
     
        
        
     
    Blog.SME.sk
 

    

         
        
                 
     
         
            Sme.sk
         
         
            Domov
         
         
            Regióny
         
         
            Ekonomika
         
         
            Svet
         
         
            Komentáre
         
         
            Kultúra
         
         
            Šport
         
         
            TV
         
         
            Auto
         
         
            Tech
         
         
            Poradňa
         
         
            Žena
         
         
            Bývanie
         
         
            Zdravie
         
         
            Blog
         
     
 

         
            
     
                                                         Politika 
                                                                                     Spoločnosť 
                                                                                     Cestovanie 
                                                                                     Ekonomika 
                                                                                     Fotografie 
                                                                                     Jedlo 
                                                                                     Kultúra 
                                                                                             
Ďalšie
                             
                                                                                         Lifestyle 
                                                                                                                                                                             Médiá 
                                                                                                                                                                             Nezaradené 
                                                                                                                                                                             Súkromné 
                                                                                                                                                                             Šport 
                                                                                                                                                                             Veda a technika 
                                                                                                                                                                             Zábava 
                                                                                                                                                                             Poézia 
                                                                                                                                                                             Próza 
                                                                                                                                                                             Kódex blogera 
                                                                                 
                         
                                                 
            Blogeri
         
     


            

    
    Prihlásiť sa


    
    Založte si blog



    
    Odhlásiť sa


    
    




         

        
        
         
            
         
         
                
     
                 
            SME.sk &gt;
            Blog.SME.sk &gt;
                            Jana Dratvová
                                        &gt;
                Súkromné
                     
                 Zvedavosť sa občas nevypláca... 

        
            
                                    23.6.2010
            o
            7:12
                        |
            Karma článku:
                8.06
            |
            Prečítané 
            1172-krát
                    
         
     
         
             

                 
                    ...strach má veľké oči...
                 

                 Hlava sa mi rozbila na tisíc kúskov, každý bolí osve a všetky bolia dohromady. Neviem ju zlepiť už niekoľko dní, tmel v podobe tabletiek, obkladov vôbec nepomáha. Príčin môže byť veľa, jednou z nich bude asi stres a strach. Strachové bunky v ostatné dni totiž vyvíjajú obrovskú aktivitu a delia sa vysokou rýchlosťou. Už ma majú v moci celú.   Dnes je deň D, teda pre mňa... Idem do Nitry, na neurochirurgiu na pooperačnú kontrolu. Od dňa, kedy som zverila svoju chrbticu napospas skalpelu a štyrom titánovým skrutkám, prešli tri mesiace. Čas, kedy by už malo byť jasné, ako operácia dopadla. Keďže som prežila, tak asi dobre, cha... mnohí si asi hneď pomyslíte.   Na kontrolu si mám priniesť rtg snímky. Sú uložené v taške ako relikvia. Urobila som však chybu, podľahla som zvedavosti a ešte horúce som si ich prezrela. Chcela som konečne mať predstavu, ako, kde sú tie moje stabilizačné "klince" ukotvené. Som laik a môj pohľad môže byť totálne scestný, ale... Tri skrutky krásne rovno, štvrtá v 45 stupňovom uhle. V tej sekunde som si podkúrila pod kotlík so strachovým gulášom. Niekoľko dní sa mi pred očami táto snímka zjavuje, hoci som ju viac do ruky nevzala. Neviem si vysvetliť, prečo je to tak...   Tak mi držte palce, aby dnes pán primár skonštatoval: "Presne tak to má byť, je to v poriadku. Pokračujte v rehabilitácii, som spokojný."   Neviem si predstaviť, čo to so mnou urobí, ak budem počuť niečo iné...   Prosím, držte mi palce. V mnohých z Vás, som tu, na blogu, našla nové priateľstvá a tak sa nádejam, že tí, ktorí ma už poznajú mi tie palce držať budú. Som si istá, že tak to napätie zvládnem ľahšie.   ĎAKUJEM.   Všetkým prajem príjemný deň s mnohými dôvodmi na úsmev. 

                 
                                        
                        
                        Zdieľať
                    

                    
                            
                                    
                                    Zdieľať na
                            
                             
                                    
                             
                    

                                                                                                                        
                            
                            Diskusia: (31)
                        
                    
                    
                        
                        Zvýšte karmu
                    
                 
             

                             
            
                     
                         Ďalšie články blogera 
                         
                                                             
                                    
                    	                                                                                        

                                                                        
                                    
                                        Jana Dratvová 
                                        
                                            Chcem byť strom
                                        
                                    
                                 
                                                             
                                    
                    	                                                                                        

                                                                        
                                    
                                        Jana Dratvová 
                                        
                                            Zabudnutá
                                        
                                    
                                 
                                                             
                                    
                    	                                                                                        

                                                                        
                                    
                                        Jana Dratvová 
                                        
                                            Sama sa  rozhodla
                                        
                                    
                                 
                                                             
                                    
                    	                                                                                        

                                                                        
                                    
                                        Jana Dratvová 
                                        
                                            Kľúč nosíš v sebe
                                        
                                    
                                 
                                                             
                                    
                    	                                                                                        

                                                                        
                                    
                                        Jana Dratvová 
                                        
                                            Vraj
                                        
                                    
                                 
                                                     
                        
                            Ďalšie články blogera: Jana Dratvová
                        
                     
            
                     
                         Ďalšie články z rubriky súkromné 
                         
                                                             
                                    
                                                            	                                                                                        

                                                                                                
                                    
                                        Marek Strapko 
                                        
                                            Najbližší mi boli tí "kakaoví"
                                        
                                    
                                 
                                                             
                                    
                                                                                                                    

                                                                                                
                                    
                                        Mária Malinová 
                                        
                                            Sexuálna výchova na Slovensku neexistuje a nikdy neexistovala
                                        
                                    
                                 
                                                             
                                    
                                                            	                                                                                        

                                                                                                
                                    
                                        Helena Smihulova Laucikova 
                                        
                                            Mágia kina
                                        
                                    
                                 
                                                             
                                    
                                                            	                                                                                        

                                                                                                
                                    
                                        Dušan Koniar 
                                        
                                            Tri esemesky z minulosti hľadajú svoju budúcnosť
                                        
                                    
                                 
                                                             
                                    
                                                            	                                                                                        

                                                                                                
                                    
                                        Zuzana Gerhátová 
                                        
                                            ako ma upratal sedemročný chlapec
                                        
                                    
                                 
                                                     
                        
                            Ďalšie články z rubriky súkromné
                        
                     
                 
            
                    
 
     Hlavné správy 
         
        
                                

        
         
            ZAHRANIČIE
             Protestujúci v Maďarsku strácajú dych, Fidesz ich mätie novými návrhmi 
             Na demonštrácii proti Orbánovej vláde bolo v utorok už len niekoľko tisíc ľudí. 
         
     
         
        
                                

        
         
            AKTUALIZOVANÉ O 21:30
             Rubeľ pocítil pád na dno, Rusko je vo finančnej kríze 
             Dolár včera stál už takmer 80 rubľov, pod hladinu ho tlačia najmä nízke ceny ropy. 
         
     
         
        
                                

        
         
            AKTUALIZOVANÉ 21:50
             Taliban zabil v škole v Pakistane 132 detí 
             Pakistan až teraz poriadne zatlačil na islamistov. Odplatou je útok na deti vojakov. 
         
     
     

                 
     
    
     
        
 

     
                
                            
                    



         
            
                Jana Dratvová
            
         
        dratvova.blog.sme.sk (rss)
         
                                     
     
        Milujem písmenká a rada sa s nimi hrám.
        
     
     
                     
                             
             

     
        
            
                
                    Počet článkov
                    590
                
                
                    Celková karma
                    
                                                0.00
                    
                
                
                    Priemerná čítanosť
                    1365
                
            
        
     

             

             Zoznam rubrík 
            
             
                                     
                        
                            Sprcha duše vo verši
                        
                     
                                     
                        
                            jedlo, bylinky
                        
                     
                                     
                        
                            oprášené spomienky
                        
                     
                                     
                        
                            Môj zverinec
                        
                     
                                     
                        
                            Čriepky dňa
                        
                     
                                     
                        
                            Uletené, pokus o fejtón
                        
                     
                                     
                        
                            Súkromné
                        
                     
                                     
                        
                            Nezaradené kadečo
                        
                     
                             
         
    

    

           
     Pošlite odkaz blogerovi 
    
         
            
         

         
         
         
         

         
         
Odosielateľ (e-mail)
 
         
Text
 
         
             
Protispamová ochrana 
 
 Zle. Skúste znova. 
Opíšte slová z obrázku: Načítať iné slová 
 Get an image CAPTCHA 
 
 
         
                 
            
         
    
  


 

     






            
    
        
    
 

        
         
         
             Už ste čítali? 
         
         
 

 kultura.sme.sk 
 Margaréta sa spriahla s diablom, no mala Kristovu pravdu 
 
 

 www.sme.sk 
 Pútnické miesta The Beatles alebo ako ľudia kráčajú po zebre 
 
 

 cestovanie.sme.sk 
 Lovia za svitania a v hmle 
 
 

 www.sme.sk 
 Ako sa valila lavína slobody. Ako padal komunizmus 
 
 

 kultura.sme.sk 
 Žiadne retro, poriadny biznis. Takto sa lisuje platňa 
 
	   
 


        
         
            
         

     

    
     
 
 
	 

		Kontakty
		Predplatné
		Etický kódex
		Pomoc
		Mapa stránky
		
	 
 
 
	 
		 
			Widget
			RSS
			Newsletter
		 
		 
			Mobil
			Smartphone
			Kindle
			Televízor
		 
		 
			Facebook
			Twitter
			Google+
		 
	 
	 
		
	 
	 
		Ďalšie weby skupiny: Prihlásenie do Post.sk
		Új Szó Slovak Spectator
		Agentúrne správy 
		Vydavateľstvo
		Inzercia
		Osobné údaje
		Návštevnosť webu
		Predajnosť tlače
		Petit Academy
		SME v škole 		© Copyright 1997-2014 Petit Press, a.s. 
	 
 
 
 


          
        
            
            

        
    

    
    


    


    
        
        
        
        
        
        
        
            
            
        
        
        
        
         
                                
               





 

 



        

 




