
      
    
    

     
	 
	 
 SME.sk 
 Zľavy 
 Zoznámenie 
 Reality 
 Dovolenky 
 Pizza 
 Reštaurácie 
 Recenzie 
 Inzeráty 
 Naničmama 	 
Nákupy 
		 
 Filmy na DVD 
 Hodinky 
 Parfémy 
 SME knihy a DVD 
 Superhosting 
 Tlačiareň 
 Víno 
 Tvorba webov 
 Predplatné SME 
 ProSenior 		 
	 
	 
 
	 
 


    
    
        
        
         
          
         
    

    
      
         
            
             
     
        
        
     
    Blog.SME.sk
 

    

         
        
                 
     
         
            Sme.sk
         
         
            Domov
         
         
            Regióny
         
         
            Ekonomika
         
         
            Svet
         
         
            Komentáre
         
         
            Kultúra
         
         
            Šport
         
         
            TV
         
         
            Auto
         
         
            Tech
         
         
            Poradňa
         
         
            Žena
         
         
            Bývanie
         
         
            Zdravie
         
         
            Blog
         
     
 

         
            
     
                                                         Politika 
                                                                                     Spoločnosť 
                                                                                     Cestovanie 
                                                                                     Ekonomika 
                                                                                     Fotografie 
                                                                                     Jedlo 
                                                                                     Kultúra 
                                                                                             
Ďalšie
                             
                                                                                         Lifestyle 
                                                                                                                                                                             Médiá 
                                                                                                                                                                             Nezaradené 
                                                                                                                                                                             Súkromné 
                                                                                                                                                                             Šport 
                                                                                                                                                                             Veda a technika 
                                                                                                                                                                             Zábava 
                                                                                                                                                                             Poézia 
                                                                                                                                                                             Próza 
                                                                                                                                                                             Kódex blogera 
                                                                                 
                         
                                                 
            Blogeri
         
     


            

    
    Prihlásiť sa


    
    Založte si blog



    
    Odhlásiť sa


    
    




         

        
        
         
            
         
         
                
     
                 
            SME.sk &gt;
            Blog.SME.sk &gt;
                            Marek Bartkovský
                                        &gt;
                Nezaradené
                     
                 Poľský prezident bol katolík 

        
            
                                    10.4.2010
            o
            20:10
                        (upravené
                10.4.2010
                o
                20:26)
                        |
            Karma článku:
                9.10
            |
            Prečítané 
            1752-krát
                    
         
     
         
             

                 
                    Poľsko smúti. A nielen Poľsko. Pri leteckom nešťastí prišli o život poľský prezident Lech Kaczynski, jeho manželka a mnoho ďalších politických a duchovných predstaviteľov Poľska. Prezident bol katolík. Nehanbil sa za to!
                 

                 
  
   Určite ste počuli aké sa dnes stalo nešťastie.    Neďaleko letiska v ruskom meste Smolensk sa zrútilo lietadlo s poľským prezidentom a jeho sprievodom.   Prezident a spol. plánovali navštíviť pamätník obetí katynskej tragédie - ktorej 70. výročie si dnes zvlášť Poliaci pripomínajú.     Dnes ráno pri leteckom nešťastí o 08.56 nášho času (10.56 moskovského času ) prišlo o život mnoho politických a duchovných predstaviteľov Poľska.   Poľský prezident bol dobrý človek a katolík.         V roku 2006 vítal SV. OTCA Benedikta XVI. v Poľsku týmito slovami:   ,,...Jako Prezydent Rzeczypospolitej i katolik cieszę się i jestem dumny, że to Polska stała się miejscem pierwszej podróży apostolskiej Waszej Świątobliwości zaplanowanej wkrótce po wyborze na Stolicę Piotrową. Jesteśmy wdzięczni i dziękujemy, Ojcze Święty, za to wyróżnienie, za ten serdeczny znak ..."   Svätý Otec Benedikt XVI. vyjadruje v telegrame hlboký smútok nad tragickou smrťouprezidenta, jeho manželky ako aj osôb, ktoré spolu snimi cestovali.   Za poľským prezidentom smútia viaceré hlavy a predstavitelia krajín.   Aj slovenský prezident, ako dnes v médiach povedal, stratil svojho priateľa.        Prosba pre kresťanov - katolíkov: Spomeňme si v modlitbách na zosnulého katolíckeho prezidenta   s manželkou, za vojenského biskupa Tadeusza, za vojenského kaplána Jána, a za všetkých ostatných zosnulých tohto leteckého nešťastia.   Nech im Pán dá večné odpočinutie!  

                 
                                        
                        
                        Zdieľať
                    

                    
                            
                                    
                                    Zdieľať na
                            
                             
                                    
                             
                    

                                                                                                                        
                            
                            Diskusia: (92)
                        
                    
                    
                        
                        Zvýšte karmu
                    
                 
             

                             
            
                     
                         Ďalšie články blogera 
                         
                                                             
                                    
                    	                                                                                        

                                                                        
                                    
                                        Marek Bartkovský 
                                        
                                            Dopisoval som si s europoslankyňou
                                        
                                    
                                 
                                                             
                                    
                    	                                                                                        

                                                                        
                                    
                                        Marek Bartkovský 
                                        
                                            Nech si taliansky umelec vystavuje svoju rodinu a nie pápeža!
                                        
                                    
                                 
                                                             
                                    
                    	                                                                                        

                                                                        
                                    
                                        Marek Bartkovský 
                                        
                                            25. marec - Deň počatého dieťaťa
                                        
                                    
                                 
                                                             
                                    
                    	                                                                                        

                                                                        
                                    
                                        Marek Bartkovský 
                                        
                                            Kaddáfího koniec, Ficovo ticho
                                        
                                    
                                 
                                                             
                                    
                    	                                                                                        

                                                                        
                                    
                                        Marek Bartkovský 
                                        
                                            Lesbičky prehrávajú, tak nech sa už vzdajú!
                                        
                                    
                                 
                                                     
                        
                            Ďalšie články blogera: Marek Bartkovský
                        
                     
            
                     
                         Ďalšie články z rubriky spoločnosť 
                         
                                                             
                                    
                                                            	                                                                                        

                                                                                                
                                    
                                        Kristián Straka 
                                        
                                            Nebite ma, doktor Plzák... alebo POZVANIE NA VEČERU
                                        
                                    
                                 
                                                             
                                    
                                                            	                                                                                        

                                                                                                
                                    
                                        Kristián Straka 
                                        
                                            Oklamaní Ježiškom ?
                                        
                                    
                                 
                                                             
                                    
                                                            	                                                                                        

                                                                                                
                                    
                                        Milan Buno 
                                        
                                            Šup, šup, najesť sa. A utekať!
                                        
                                    
                                 
                                                             
                                    
                                                            	                                                                                        

                                                                                                
                                    
                                        Katarína Lorenčíková 
                                        
                                            Par uprimnych oslobodzujucich riadkov...
                                        
                                    
                                 
                                                             
                                    
                                                            	                                                                                        

                                                                                                
                                    
                                        Alžbeta Slováková Spáčilová 
                                        
                                            Selfie s nádychom hyenizmu a krutosti
                                        
                                    
                                 
                                                     
                        
                            Ďalšie články z rubriky spoločnosť
                        
                     
                 
            
                    
 
     Hlavné správy 
         
        
                                

        
         
            AKTUALIZOVANÉ 16:00
             Rubeľ kolabuje, ruská vláda má mimoriadne rokovať 
             Jeden dolár stál v utorok poobede už viac ako 78 rubľov, razantné zvýšenie úrokov nepomohlo. 
         
     
         
        
                                

        
         
            ZAHRANIČIE
             Taliban zabil v škole v Pakistane vyše sto ľudí, väčšinou deti 
             Militanti vtrhli do vojenskej školy v policajných rovnošatách. 
         
     
         
        
                                

        
         
            KOMENTARE.SME.SK
             Cynická obluda: Medzičasom na opustenom ostrove 
             Stroskotanci majú veľké šťastie, že sú dvaja. Lacné vtipy na úrovni ich autora. 
         
     
     

                 
     
    
     
        
 

     
                
                            
                    



         
            
                Marek Bartkovský
            
         
        bartkovsky.blog.sme.sk (rss)
         
                                     
     
        Chcem písať o súčasnom dianí...
        
     
     
                     
                             
             

     
        
            
                
                    Počet článkov
                    23
                
                
                    Celková karma
                    
                                                0.00
                    
                
                
                    Priemerná čítanosť
                    601
                
            
        
     

             

             Zoznam rubrík 
            
             
                                     
                        
                            Politika
                        
                     
                                     
                        
                            Rodina
                        
                     
                                     
                        
                            Spoločnosť
                        
                     
                                     
                        
                            Súkromné
                        
                     
                                     
                        
                            Nezaradené
                        
                     
                             
         
    

                     
                        
                                                            
                     Obľúbené blogy 
                    
                     
                                                 
                                            Zaujímavé blogy
                                     
                                                                   
                     Obľúbené stránky 
                    
                     
                                                 
                                            TK KBS
                                     
                                                                             
                                            Postoy
                                     
                                                                             
                                            Svet kresťanstva
                                     
                            
             
         
            

             
             Čo ma zaujalo 
            Týmto článkom bloger klikol/klikla na karmu.
             
                                                         
                       Dopisoval som si s europoslankyňou
                     
                             
         
           
     Pošlite odkaz blogerovi 
    
         
            
         

         
         
         
         

         
         
Odosielateľ (e-mail)
 
         
Text
 
         
             
Protispamová ochrana 
 
 Zle. Skúste znova. 
Opíšte slová z obrázku: Načítať iné slová 
 Get an image CAPTCHA 
 
 
         
                 
            
         
    
  


 

     






            
    
        
    
 

        
         
         
             Už ste čítali? 
         
         
 

 kultura.sme.sk 
 Margaréta sa spriahla s diablom, no mala Kristovu pravdu 
 
 

 www.sme.sk 
 Pútnické miesta The Beatles alebo ako ľudia kráčajú po zebre 
 
 

 cestovanie.sme.sk 
 Lovia za svitania a v hmle 
 
 

 www.sme.sk 
 Ako sa valila lavína slobody. Ako padal komunizmus 
 
 

 kultura.sme.sk 
 Žiadne retro, poriadny biznis. Takto sa lisuje platňa 
 
	   
 


        
         
            
         

     

    
     
 
 
	 

		Kontakty
		Predplatné
		Etický kódex
		Pomoc
		Mapa stránky
		
	 
 
 
	 
		 
			Widget
			RSS
			Newsletter
		 
		 
			Mobil
			Smartphone
			Kindle
			Televízor
		 
		 
			Facebook
			Twitter
			Google+
		 
	 
	 
		
	 
	 
		Ďalšie weby skupiny: Prihlásenie do Post.sk
		Új Szó Slovak Spectator
		Agentúrne správy 
		Vydavateľstvo
		Inzercia
		Osobné údaje
		Návštevnosť webu
		Predajnosť tlače
		Petit Academy
		SME v škole 		© Copyright 1997-2014 Petit Press, a.s. 
	 
 
 
 


          
        
            
            

        
    

    
    


    


    
        
        
        
        
        
        
        
            
            
        
        
        
        
         
                                
               





 

 



        

 




