
      
    
    

     
	 
	 
 SME.sk 
 Zľavy 
 Zoznámenie 
 Reality 
 Dovolenky 
 Pizza 
 Reštaurácie 
 Recenzie 
 Inzeráty 
 Naničmama 	 
Nákupy 
		 
 Filmy na DVD 
 Hodinky 
 Parfémy 
 SME knihy a DVD 
 Superhosting 
 Tlačiareň 
 Víno 
 Tvorba webov 
 Predplatné SME 
 ProSenior 		 
	 
	 
 
	 
 


    
    
        
        
         
          
         
    

    
      
         
            
             
     
        
        
     
    Blog.SME.sk
 

    

         
        
                 
     
         
            Sme.sk
         
         
            Domov
         
         
            Regióny
         
         
            Ekonomika
         
         
            Svet
         
         
            Komentáre
         
         
            Kultúra
         
         
            Šport
         
         
            TV
         
         
            Auto
         
         
            Tech
         
         
            Poradňa
         
         
            Žena
         
         
            Bývanie
         
         
            Zdravie
         
         
            Blog
         
     
 

         
            
     
                                                         Politika 
                                                                                     Spoločnosť 
                                                                                     Cestovanie 
                                                                                     Ekonomika 
                                                                                     Fotografie 
                                                                                     Jedlo 
                                                                                     Kultúra 
                                                                                             
Ďalšie
                             
                                                                                         Lifestyle 
                                                                                                                                                                             Médiá 
                                                                                                                                                                             Nezaradené 
                                                                                                                                                                             Súkromné 
                                                                                                                                                                             Šport 
                                                                                                                                                                             Veda a technika 
                                                                                                                                                                             Zábava 
                                                                                                                                                                             Poézia 
                                                                                                                                                                             Próza 
                                                                                                                                                                             Kódex blogera 
                                                                                 
                         
                                                 
            Blogeri
         
     


            

    
    Prihlásiť sa


    
    Založte si blog



    
    Odhlásiť sa


    
    




         

        
        
         
            
         
         
                
     
                 
            SME.sk &gt;
            Blog.SME.sk &gt;
                            Ľubomír Dobrovodský
                                        &gt;
                Systém
                     
                 Úplna pravda o Gay Pride pochode očami nezúčastneného 

        
            
                                    25.5.2010
            o
            20:35
                        (upravené
                26.5.2010
                o
                12:10)
                        |
            Karma článku:
                9.00
            |
            Prečítané 
            1641-krát
                    
         
     
         
             

                 
                    Ešte ja som sa k tomu nevyjadril ja! Ale ako jediný vám ponúknem obsah, ktorý je zbavený všetkého balastu a ide rovno ku koreňu veci. Nie je to žiadna ťažká intelektuálska hádanka. Je to jednoduchá psychologická dedukcia: Ľuďom sa nepáči predstava, že sa dvaja chlapi bozkávajú.
                 

                 Myslím, že vás to nešokovalo. Ale poďme to rozobrať... Ani mne by sa nepáčilo, kebyže ma nejaký chlap pobozká, ale kvôli tomu nejdem nikoho ohadzovať kameňmi. Niektorí ľudia však majú proste prebujnenú fantáziu. A títo ľudia sú homofóbovia.   Keď im poviete to zázračné slovo "homosexuál" tak si hneď predstavujú, ako ich ide nejaký chlap bozkávať.   Iste pre hetero je to nepríjemná predstava, no niektorí ľudia majú z toho čistú fóbiu. Oni neskončia asi z predstavami a idú si hneď predstavovať čojaviemčo. Potom im už z toho tak nejako dosť v tej hlave prestrelí... Asi sa začnú báť, že sa im bude o tom snívať, či čo ja viem čo... A asi z tých predstáv o tom, že sa im bude o tom snívať a nebodaj sa zobudia z toho spotení, tak to už u nich vyvoláva totálny des.   A to všetko iba kvôli ich prebujnelím fantáziam. A nebodaj sa ich bude v tom sne aj chlap dotýkať!!! To radšej nech ich rozpára Fredy Kruger alias Nočná mora...   Takto dajako začínajú ich fóbie. Namiesto toho, aby si sadli a zažehnali svoje rozhýralé predstavy, oni si myslia, že musia to zničiť tam vonku. Musia to zničiť, aby si to už nepredstavovali. Čistí blázni, čo poviete?   A aby nejako ospravedlnili to, že si to predstavovali, tak idú trepať niečo o rozvracaní rodín a ničení tradičného hyperkresťanského ultrabožského rodinného života. Akokeby na to mali nejaká vplyv. No S pánom Bohom Amen Tma.   Ja neviem. Pri tom sa stačí trocha nadýchať a presmerovať myšlienky. No oni nie. Prečo by mali myslieť na niečo iné ako dvoch dotýkajúcich sa chlapov, však? Nie. Oni na to budú myslieť.   Oni budú myslieť aj na to, že sa tam vyzlečú. No dekel by to jednému odpálilo. Také dačo! Sodoma gomora temná komora!   Však z toho dostane niekoľko ľudí tuším epilepsiu, hysáky, možno aj ochrnutie na doživotie.   Ale aby to nebolo len tak, oni tam tuším aj so Satanom budú obcovať. To je tuším in. Ono už aj v minulosti, keď nejakého kňaza pekná holka odmietla, tak ju hneď za obcovanie s Diablom odsúdil. Aj keď nikto nikdy žiadneho diabla nevidel. Ale dnes už je Satan out. Dnes už si predstavujú chlapov v latexe. To je tuším pre ich predstavy horšie ako Satan.   Neviem načo si to predstavujú, ale nemajú asi o čom inom premýšlať. A tak si rozvýjajú vo svojej hlave takéto fóbie... A kvôli tomu bordelu čo z toho majú v hlave si idú aj slzný plyn kupovať, aby ich mohli hádzať do ľudí, čo tieto ich zaujímavé predstavy vzbudujú. Koniec.   V minulosti, tuším, keď takto myšlienkami aj nejeden apoštol zablúdil, tak povedal, že sa to nepáči Bohu. Ale verte, alebo nie. Boh to má na háku. On má všetkých rád.   A homofóbom odporúčam:   "Nepreháňahjte to, so svojimi predstavami, pomyslite na niečo iné a bude to v pohode. Aj keby ste pozabíjali všetkých ľudí, tak vo vašej hlave aj tak bude mátať hocičo iné. Kašlite na to, dajte si panáka a nehádžte kamene do ľudí."   Amen.   Ja: Čo ty na to Bože?   Boh: "Mier s vami, nepreháňajte to"   P.S. Prepáčte za mizernú gramatiku 

                 
                                        
                        
                        Zdieľať
                    

                    
                            
                                    
                                    Zdieľať na
                            
                             
                                    
                             
                    

                                                                                                                        
                            
                            Diskusia: (61)
                        
                    
                    
                        
                        Zvýšte karmu
                    
                 
             

                             
            
                     
                         Ďalšie články blogera 
                         
                                                             
                                    
                    	                                                                                        

                                                                        
                                    
                                        Ľubomír Dobrovodský 
                                        
                                            Intuícia z pohľadu neurovedy
                                        
                                    
                                 
                                                             
                                    
                    	                                                                                        

                                                                        
                                    
                                        Ľubomír Dobrovodský 
                                        
                                            Evolúcia Satana: Ako sa z božieho služobníka stal nepriateľ Boha
                                        
                                    
                                 
                                                             
                                    
                    	                                                                                        

                                                                        
                                    
                                        Ľubomír Dobrovodský 
                                        
                                            Nový zákon: Ježišovo vzkriesenie bolo asi inšpirované iným príbehom
                                        
                                    
                                 
                                                             
                                    
                    	                                                                                        

                                                                        
                                    
                                        Ľubomír Dobrovodský 
                                        
                                            Stručné dejiny prešľapov Katolíckej cirkvi a kresťanov
                                        
                                    
                                 
                                                             
                                    
                    	                                                                                        

                                                                        
                                    
                                        Ľubomír Dobrovodský 
                                        
                                            Prečo pôjdem na protest Gorila 27.1.2012
                                        
                                    
                                 
                                                     
                        
                            Ďalšie články blogera: Ľubomír Dobrovodský
                        
                     
            
                     
                         Ďalšie články z rubriky spoločnosť 
                         
                                                             
                                    
                                                            	                                                                                        

                                                                                                
                                    
                                        Mária Levočská 
                                        
                                            Ďalšia obeť pomsty monsignora Jaraba
                                        
                                    
                                 
                                                             
                                    
                                                            	                                                                                        

                                                                                                
                                    
                                        Kristián Straka 
                                        
                                            Nebite ma, doktor Plzák... alebo POZVANIE NA VEČERU
                                        
                                    
                                 
                                                             
                                    
                                                            	                                                                                        

                                                                                                
                                    
                                        Kristián Straka 
                                        
                                            Oklamaní Ježiškom ?
                                        
                                    
                                 
                                                             
                                    
                                                            	                                                                                        

                                                                                                
                                    
                                        Milan Buno 
                                        
                                            Šup, šup, najesť sa. A utekať!
                                        
                                    
                                 
                                                             
                                    
                                                            	                                                                                        

                                                                                                
                                    
                                        Katarína Lorenčíková 
                                        
                                            Par uprimnych oslobodzujucich riadkov...
                                        
                                    
                                 
                                                     
                        
                            Ďalšie články z rubriky spoločnosť
                        
                     
                 
            
                    
 
     Hlavné správy 
         
        
                                

        
         
            AKTUALIZOVANÉ 20:22
             Slovenky v hlavnej skupine nebodovali, Švédky vyhrali o 9 gólov 
             Naše hádzanárky hrali na ME piaty zápas. V Záhrebe proti Švédkam. 
         
     
         
        
                                

        
         
            AKTUALIZOVANÉ O 20:00
             Rubeľ pocítil pád na dno, Rusko je vo finančnej kríze 
             Dolár včera stál už takmer 80 rubľov, pod hladinu ho tlačia najmä nízke ceny ropy. 
         
     
         
        
                                

        
         
            ZAHRANIČIE
             Taliban zaútočil na citlivé miesto Pakistanu. Na deti 
             Taliban zabil v škole v Pakistane najmenej 141 ľudí, väčšinou deti. 
         
     
     

                 
     
    
     
        
 

     
                
                            
                    



         
            
                Ľubomír Dobrovodský
            
         
        dobrovodsky.blog.sme.sk (rss)
         
                                     
     
         Fajn chlapík. IT developer, 8 rokov v branži. Mám záľubu v literatúre faktu - religionistika, neuroveda, psychológia, mytológia, fyzika, dejiny atď. Rád čítam aj historické romány, fantasy, mýty a legendy. Vo voľnom čase sa zaujímam o beh, turistiku a bicyklovanie. 
        
     
     
                     
                             
             

     
        
            
                
                    Počet článkov
                    79
                
                
                    Celková karma
                    
                                                0.00
                    
                
                
                    Priemerná čítanosť
                    2009
                
            
        
     

             

             Zoznam rubrík 
            
             
                                     
                        
                            Biblia, viera a dejiny
                        
                     
                                     
                        
                            Systém
                        
                     
                                     
                        
                            Myšlienky
                        
                     
                                     
                        
                            Dobrovoľníctvo
                        
                     
                                     
                        
                            Fikcia, recesia
                        
                     
                                     
                        
                            Krátke príbehy
                        
                     
                                     
                        
                            Cirkev svätého Svetového Mieru
                        
                     
                                     
                        
                            Poézia
                        
                     
                                     
                        
                            Súkromné
                        
                     
                                     
                        
                            Nezaradené
                        
                     
                             
         
    

                     
                        
                                                            
                     Obľúbené články 
                    
                     
                                                 
                                            Som reprezentatívna vzorka Slovenska
                                     
                                                                   
                     Obľúbené knihy 
                    
                     
                                                 
                                            Subliminal: How Your Unconscious Mind Rules Your Behavior
                                     
                                                                             
                                            Myšlení rychlé a pomalé
                                     
                                                                             
                                            Hledání Spinozy (Antonio Damasio)
                                     
                                                                             
                                            Inkognito
                                     
                                                                   
                     Čo práve počúvam 
                    
                     
                                                 
                                            Hilary Hahn
                                     
                                                                             
                                            Enya
                                     
                                                                             
                                            Lindsey Stirling
                                     
                                                                   
                     Obľúbené blogy 
                    
                     
                                                 
                                            Greenpeace
                                     
                                                                             
                                            Aliancia Fair-play
                                     
                                                                             
                                            Zelená hliadka
                                     
                                                                             
                                            Ľubomír Dobrovodský
                                     
                                                                   
                     Obľúbené stránky 
                    
                     
                                                 
                                            Krátke príbehy
                                     
                            
             
         
            

           
     Pošlite odkaz blogerovi 
    
         
            
         

         
         
         
         

         
         
Odosielateľ (e-mail)
 
         
Text
 
         
             
Protispamová ochrana 
 
 Zle. Skúste znova. 
Opíšte slová z obrázku: Načítať iné slová 
 Get an image CAPTCHA 
 
 
         
                 
            
         
    
  


 

     






            
    
        
    
 

        
         
         
             Už ste čítali? 
         
         
 

 kultura.sme.sk 
 Margaréta sa spriahla s diablom, no mala Kristovu pravdu 
 
 

 www.sme.sk 
 Pútnické miesta The Beatles alebo ako ľudia kráčajú po zebre 
 
 

 cestovanie.sme.sk 
 Lovia za svitania a v hmle 
 
 

 www.sme.sk 
 Ako sa valila lavína slobody. Ako padal komunizmus 
 
 

 kultura.sme.sk 
 Žiadne retro, poriadny biznis. Takto sa lisuje platňa 
 
	   
 


        
         
            
         

     

    
     
 
 
	 

		Kontakty
		Predplatné
		Etický kódex
		Pomoc
		Mapa stránky
		
	 
 
 
	 
		 
			Widget
			RSS
			Newsletter
		 
		 
			Mobil
			Smartphone
			Kindle
			Televízor
		 
		 
			Facebook
			Twitter
			Google+
		 
	 
	 
		
	 
	 
		Ďalšie weby skupiny: Prihlásenie do Post.sk
		Új Szó Slovak Spectator
		Agentúrne správy 
		Vydavateľstvo
		Inzercia
		Osobné údaje
		Návštevnosť webu
		Predajnosť tlače
		Petit Academy
		SME v škole 		© Copyright 1997-2014 Petit Press, a.s. 
	 
 
 
 


          
        
            
            

        
    

    
    


    


    
        
        
        
        
        
        
        
            
            
        
        
        
        
         
                                
               





 

 



        

 




