
      
    
    

     
	 
	 
 SME.sk 
 Zľavy 
 Zoznámenie 
 Reality 
 Dovolenky 
 Pizza 
 Reštaurácie 
 Recenzie 
 Inzeráty 
 Naničmama 	 
Nákupy 
		 
 Filmy na DVD 
 Hodinky 
 Parfémy 
 SME knihy a DVD 
 Superhosting 
 Tlačiareň 
 Víno 
 Tvorba webov 
 Predplatné SME 
 ProSenior 		 
	 
	 
 
	 
 


    
    
        
        
         
          
         
    

    
      
         
            
             
     
        
        
     
    Blog.SME.sk
 

    

         
        
                 
     
         
            Sme.sk
         
         
            Domov
         
         
            Regióny
         
         
            Ekonomika
         
         
            Svet
         
         
            Komentáre
         
         
            Kultúra
         
         
            Šport
         
         
            TV
         
         
            Auto
         
         
            Tech
         
         
            Poradňa
         
         
            Žena
         
         
            Bývanie
         
         
            Zdravie
         
         
            Blog
         
     
 

         
            
     
                                                         Politika 
                                                                                     Spoločnosť 
                                                                                     Cestovanie 
                                                                                     Ekonomika 
                                                                                     Fotografie 
                                                                                     Jedlo 
                                                                                     Kultúra 
                                                                                             
Ďalšie
                             
                                                                                         Lifestyle 
                                                                                                                                                                             Médiá 
                                                                                                                                                                             Nezaradené 
                                                                                                                                                                             Súkromné 
                                                                                                                                                                             Šport 
                                                                                                                                                                             Veda a technika 
                                                                                                                                                                             Zábava 
                                                                                                                                                                             Poézia 
                                                                                                                                                                             Próza 
                                                                                                                                                                             Kódex blogera 
                                                                                 
                         
                                                 
            Blogeri
         
     


            

    
    Prihlásiť sa


    
    Založte si blog



    
    Odhlásiť sa


    
    




         

        
        
         
            
         
         
                
     
                 
            SME.sk &gt;
            Blog.SME.sk &gt;
                            Erik Golian
                                        &gt;
                Obskúrne rozprávky o... o ničo
                     
                 Básnička o Dedko a Babka. Jak prekabátili Smrtku 

        
            
                                    15.6.2005
            o
            10:07
                        |
            Karma článku:
                10.72
            |
            Prečítané 
            3662-krát
                    
         
     
         
             

                 
                    Babka fajčí krátke Sparty,  fčul dohrali s Dedkom karty.  „Nože starký, z okna kukni,  čo nového na záhumní...“
                 

                „Nevidím ja Babka veľmo,  Vieš, že mám na oku beľmo.“  „Poďme radšej von na vrátka,  či už nejde kamarátka.“     Totiž Dedko a jeho Babička,  mali vám zvláštneho koníčka.  - Vyjsť si vonku len naboso,  a vyzerať Smrtku s kosou.    A Smrtke sa strašne ráta,  že ich tak na diaľku máta.   Starkí ešte dlho žili.  Pretože Smrť pobavili :)

                 
                                        
                        
                        Zdieľať
                    

                    
                            
                                    
                                    Zdieľať na
                            
                             
                                    
                             
                    

                                                                                                                        
                            
                            Diskusia: (14)
                        
                    
                    
                        
                        Zvýšte karmu
                    
                 
             

                             
            
                     
                         Ďalšie články blogera 
                         
                                                             
                                    
                    	                                                                                        

                                                                        
                                    
                                        Erik Golian 
                                        
                                            Navaľ krv a dovi nabudúce
                                        
                                    
                                 
                                                             
                                    
                    	                                                                                        

                                                                        
                                    
                                        Erik Golian 
                                        
                                            Jedna zo zásad
                                        
                                    
                                 
                                                             
                                    
                    	                                                                                        

                                                                        
                                    
                                        Erik Golian 
                                        
                                            Kaufland sa zapísal do knihy rekordov
                                        
                                    
                                 
                                                             
                                    
                    	                                                                                        

                                                                        
                                    
                                        Erik Golian 
                                        
                                            Teraz už môžem zomrieť :o)
                                        
                                    
                                 
                                                             
                                    
                    	                                                                                        

                                                                        
                                    
                                        Erik Golian 
                                        
                                            Ako deťom ešte viac pokaziť pokazené leto
                                        
                                    
                                 
                                                     
                        
                            Ďalšie články blogera: Erik Golian
                        
                     
            
                     
                         Ďalšie články z rubriky zábava 
                         
                                                             
                                    
                                                            	                                                                                        

                                                                                                
                                    
                                        Jozef Bednár 
                                        
                                            Ako Mikuláš moju dcérku o čižmičku „obral“
                                        
                                    
                                 
                                                             
                                    
                                                            	                                                                                        

                                                                                                
                                    
                                        Daniela Paculíková 
                                        
                                            Aké sú vaše topánky?
                                        
                                    
                                 
                                                             
                                    
                                                            	                                                                                        

                                                                                                
                                    
                                        Marian Letko 
                                        
                                            Maroško to má rád zozadu
                                        
                                    
                                 
                                                             
                                    
                                                            	                                                                                        

                                                                                                
                                    
                                        Fero Škoda 
                                        
                                            Nemecký vlog o horách, vode a takmer stratených nervoch
                                        
                                    
                                 
                                                             
                                    
                                                            	                                                                                        

                                                                                                
                                    
                                        Ján Vilček 
                                        
                                            Kritizovať politiku Absurdistanu inotajmi absurdít
                                        
                                    
                                 
                                                     
                        
                            Ďalšie články z rubriky zábava
                        
                     
                 
            
                    
 
     Hlavné správy 
         
        
                                

        
         
            KOMENTÁR PETRA SCHUTZA
             Len korupčné škandály preferencie Smeru nepotopia 
             Ak chce opozícia vo voľbách zvrhnúť Smer, bez rozšírenia repertoáru si neporadí. 
         
     
         
        
                                

        
         
            AKTUALIZOVANÉ O 21:30
             Rubeľ pocítil pád na dno, Rusko je vo finančnej kríze 
             Dolár v utorok stál už takmer 80 rubľov, pod hladinu ho tlačia najmä nízke ceny ropy. 
         
     
         
        
                                

        
         
            AKTUALIZOVANÉ 23:50
             Taliban zabil v škole v Pakistane 132 detí 
             Pakistan až teraz poriadne zatlačil na islamistov. Odplatou je útok na deti vojakov. 
         
     
     

                 
     
    
     
        
 

     
                
                            
                    



         
            
                Erik Golian
            
         
        golian.blog.sme.sk (rss)
         
                        VIP
                             
     
        - ale aj o Kate Winslet hovorí môj najobľúbenejší film: 
        
     
     
                     
                             
             

     
        
            
                
                    Počet článkov
                    86
                
                
                    Celková karma
                    
                                                0.00
                    
                
                
                    Priemerná čítanosť
                    4879
                
            
        
     

             

             Zoznam rubrík 
            
             
                                     
                        
                            Nerozum a Cit
                        
                     
                                     
                        
                            Cynik sa díva na svet s monokl
                        
                     
                                     
                        
                            Médiá a filmy
                        
                     
                                     
                        
                            Obskúrne rozprávky o... o ničo
                        
                     
                                     
                        
                            Druhý pohľad na vec
                        
                     
                             
         
    

                     
                        
                                                            
                     Obľúbené články 
                    
                     
                                                 
                                            môj tvajter
                                     
                                                                             
                                            môj instagram
                                     
                                                                             
                                            2.blog- o psíkovi a filmoch
                                     
                                                                   
                     Obľúbené knihy 
                    
                     
                                                 
                                             
                                     
                                                                             
                                            Dookola pánov:
                                     
                                                                             
                                            Jaroslav Hašek
                                     
                                                                             
                                            Július  Satinský
                                     
                                                                             
                                            Stephen Leacock
                                     
                                                                             
                                            Stephen King
                                     
                                                                             
                                            Saki - H. Munro
                                     
                                                                   
                     Čo práve počúvam 
                    
                     
                                                 
                                            Štúdio Svet /Slov.rozhlas/
                                     
                                                                             
                                            David Bowie
                                     
                                                                             
                                            Seth Lakeman
                                     
                                                                             
                                            Tom Waits
                                     
                                                                             
                                            The Strokes
                                     
                                                                             
                                            Le Payaco
                                     
                                                                             
                                            TraBand
                                     
                                                                   
                     Obľúbené blogy 
                    
                     
                                                 
                                            František Fuka
                                     
                                                                             
                                            František Fuka o filmoch
                                     
                                                                             
                                            Anderson Cooper backstage
                                     
                                                                             
                                            Juraj Drobný- Naj pedagóg
                                     
                                                                             
                                            GSMArena blog
                                     
                                                                             
                                            Optimista Matúš
                                     
                                                                   
                     Obľúbené stránky 
                    
                     
                                                 
                                            GSMArena
                                     
                                                                             
                                            MontyPython scenáre
                                     
                                                                             
                                            Gorily z Prahy (dá sa pomôcť cez SMS)
                                     
                                                                             
                                            Sokoly z Omahy
                                     
                                                                             
                                            Cracked
                                     
                                                                             
                                            Gizmodo
                                     
                                                                             
                                            boingboing
                                     
                                                                             
                                            Oddville Daily
                                     
                                                                             
                                            Kathy Griffin
                                     
                                                                             
                                            10x10 - Svet
                                     
                                                                             
                                            Europarlament
                                     
                                                                             
                                            Rijkmuseum.nl
                                     
                                                                             
                                            Medialne.sk
                                     
                            
             
         
            

           
     Pošlite odkaz blogerovi 
    
         
            
         

         
         
         
         

         
         
Odosielateľ (e-mail)
 
         
Text
 
         
             
Protispamová ochrana 
 
 Zle. Skúste znova. 
Opíšte slová z obrázku: Načítať iné slová 
 Get an image CAPTCHA 
 
 
         
                 
            
         
    
  


 

     






            
    
        
    
 

        
         
         
             Už ste čítali? 
         
         
 

 kultura.sme.sk 
 Margaréta sa spriahla s diablom, no mala Kristovu pravdu 
 
 

 www.sme.sk 
 Pútnické miesta The Beatles alebo ako ľudia kráčajú po zebre 
 
 

 cestovanie.sme.sk 
 Lovia za svitania a v hmle 
 
 

 www.sme.sk 
 Ako sa valila lavína slobody. Ako padal komunizmus 
 
 

 kultura.sme.sk 
 Žiadne retro, poriadny biznis. Takto sa lisuje platňa 
 
	   
 


        
         
            
         

     

    
     
 
 
	 

		Kontakty
		Predplatné
		Etický kódex
		Pomoc
		Mapa stránky
		
	 
 
 
	 
		 
			Widget
			RSS
			Newsletter
		 
		 
			Mobil
			Smartphone
			Kindle
			Televízor
		 
		 
			Facebook
			Twitter
			Google+
		 
	 
	 
		
	 
	 
		Ďalšie weby skupiny: Prihlásenie do Post.sk
		Új Szó Slovak Spectator
		Agentúrne správy 
		Vydavateľstvo
		Inzercia
		Osobné údaje
		Návštevnosť webu
		Predajnosť tlače
		Petit Academy
		SME v škole 		© Copyright 1997-2014 Petit Press, a.s. 
	 
 
 
 


          
        
            
            

        
    

    
    


    


    
        
        
        
        
        
        
        
            
            
        
        
        
        
         
                                
               





 

 



        

 




