
      
    
    

     
	 
	 
 SME.sk 
 Zľavy 
 Zoznámenie 
 Reality 
 Dovolenky 
 Pizza 
 Reštaurácie 
 Recenzie 
 Inzeráty 
 Naničmama 	 
Nákupy 
		 
 Filmy na DVD 
 Hodinky 
 Parfémy 
 SME knihy a DVD 
 Superhosting 
 Tlačiareň 
 Víno 
 Tvorba webov 
 Predplatné SME 
 ProSenior 		 
	 
	 
 
	 
 


    
    
        
        
         
          
         
    

    
      
         
            
             
     
        
        
     
    Blog.SME.sk
 

    

         
        
                 
     
         
            Sme.sk
         
         
            Domov
         
         
            Regióny
         
         
            Ekonomika
         
         
            Svet
         
         
            Komentáre
         
         
            Kultúra
         
         
            Šport
         
         
            TV
         
         
            Auto
         
         
            Tech
         
         
            Poradňa
         
         
            Žena
         
         
            Bývanie
         
         
            Zdravie
         
         
            Blog
         
     
 

         
            
     
                                                         Politika 
                                                                                     Spoločnosť 
                                                                                     Cestovanie 
                                                                                     Ekonomika 
                                                                                     Fotografie 
                                                                                     Jedlo 
                                                                                     Kultúra 
                                                                                             
Ďalšie
                             
                                                                                         Lifestyle 
                                                                                                                                                                             Médiá 
                                                                                                                                                                             Nezaradené 
                                                                                                                                                                             Súkromné 
                                                                                                                                                                             Šport 
                                                                                                                                                                             Veda a technika 
                                                                                                                                                                             Zábava 
                                                                                                                                                                             Poézia 
                                                                                                                                                                             Próza 
                                                                                                                                                                             Kódex blogera 
                                                                                 
                         
                                                 
            Blogeri
         
     


            

    
    Prihlásiť sa


    
    Založte si blog



    
    Odhlásiť sa


    
    




         

        
        
         
            
         
         
                
     
                 
            SME.sk &gt;
            Blog.SME.sk &gt;
                            Jozef Lužinský
                                        &gt;
                Viera
                     
                 Diablova taktika 

        
            
                                    18.5.2010
            o
            6:25
                        |
            Karma článku:
                17.28
            |
            Prečítané 
            705-krát
                    
         
     
         
             

                 
                    Jeden z mnohých spôsobov, ktoré Diabol používa na skúšanie ľudí i pravého Boha samého je vysvetlený v knihe Jób, ktorú pod inšpiráciou napísal Mojžiš:
                 

                 "Kožu za kožu, a všetko, čo človek má, dá za svoju dušu.  Vystri, prosím, pre zmenu svoju ruku a dotkni sa až jeho  kosti a jeho tela a viď, či ťa nebude preklínať priamo  do tváre." - Jób 2:4-5.   Takže kniha Jób identifikuje Satana Diabla ako krutého, bezcitného a nemilosrdného nepriateťa ľudskej spoločnosti. V prípade Jóba jasne vidíme, že Diabol prináša na ľudstvo pohromy, utrpenie a skazu a smrť na jednej strane. Cez svojich posluhovačov na druhej ich obviňuje a tiež aj pravého  Boha Jehovu (Jakub 1:13)! I napriek Jóbovej vernosti a integrite k svojmu Stvoriteľovi, Diabol ani  neuznal, že jeho obvinenia sú falošné. Toto poukazuje na skutočnosť, že Satan Diabol nenávidí hlavne bezúhonných uctievateľov pravého a jediného Boha, Jehovu. On bol prvá osoba, z ktorej sa stal odpadlík. Dnes moderní odpadlíci presne tak isto ukazujú krutú aj bezcitnú charakteristiku podobnú ich svetskému bohu, Diablovi (2. Kori. 4:4). Ich mysle boli otrávané kritickým postojom voči pravde v Kresťanskom zbore alebo členom Vedúceho výboru SJ. Ako ich otec, prenasledujú hlavne osoby integrity. Preto apoštol Pavol musel napísať bratom:   "A získavajte moc v Pánovi a v jeho mohutnej sile.  Oblečte si úplnú výzbroj od Boha, aby ste boli schopní  pevne stáť proti Diablovým úkladom." - Efezanom 6:10-11.   Aby praví Kresťania boli schopní efektívne znášať zlo aj utrpenie a zároveň aj bojovať proti nemu, musia spoznať zdroj toho zla i utrpenia! 

                 
                                        
                        
                        Zdieľať
                    

                    
                            
                                    
                                    Zdieľať na
                            
                             
                                    
                             
                    

                                                                                                                        
                            
                            Diskusia: (27)
                        
                    
                    
                        
                        Zvýšte karmu
                    
                 
             

                             
            
                     
                         Ďalšie články blogera 
                         
                                                             
                                    
                    	                                                                                        

                                                                        
                                    
                                        Jozef Lužinský 
                                        
                                            Jehovovo meno večne slávne
                                        
                                    
                                 
                                                             
                                    
                    	                                                                                        

                                                                        
                                    
                                        Jozef Lužinský 
                                        
                                            Vlády ako divé zvery
                                        
                                    
                                 
                                                             
                                    
                    	                                                                                        

                                                                        
                                    
                                        Jozef Lužinský 
                                        
                                            Prenasledovanie za pravdu je príjemné
                                        
                                    
                                 
                                                             
                                    
                    	                                                                                        

                                                                        
                                    
                                        Jozef Lužinský 
                                        
                                            Pravá božska láska
                                        
                                    
                                 
                                                             
                                    
                    	                                                                                        

                                                                        
                                    
                                        Jozef Lužinský 
                                        
                                            Kto pozná Božie meno?
                                        
                                    
                                 
                                                     
                        
                            Ďalšie články blogera: Jozef Lužinský
                        
                     
            
                     
                         Ďalšie články z rubriky spoločnosť 
                         
                                                             
                                    
                                                            	                                                                                        

                                                                                                
                                    
                                        Mária Levočská 
                                        
                                            Ďalšia obeť pomsty monsignora Jaraba
                                        
                                    
                                 
                                                             
                                    
                                                            	                                                                                        

                                                                                                
                                    
                                        Kristián Straka 
                                        
                                            Nebite ma, doktor Plzák... alebo POZVANIE NA VEČERU
                                        
                                    
                                 
                                                             
                                    
                                                            	                                                                                        

                                                                                                
                                    
                                        Kristián Straka 
                                        
                                            Oklamaní Ježiškom ?
                                        
                                    
                                 
                                                             
                                    
                                                            	                                                                                        

                                                                                                
                                    
                                        Milan Buno 
                                        
                                            Šup, šup, najesť sa. A utekať!
                                        
                                    
                                 
                                                             
                                    
                                                            	                                                                                        

                                                                                                
                                    
                                        Katarína Lorenčíková 
                                        
                                            Par uprimnych oslobodzujucich riadkov...
                                        
                                    
                                 
                                                     
                        
                            Ďalšie články z rubriky spoločnosť
                        
                     
                 
            
                    
 
     Hlavné správy 
         
        
                                

        
         
            AKTUALIZOVANÉ O 20:00
             Rubeľ pocítil pád na dno, Rusko je vo finančnej kríze 
             Dolár včera stál už takmer 80 rubľov, pod hladinu ho tlačia najmä nízke ceny ropy. 
         
     
         
        
                                

        
         
            ZAHRANIČIE
             Taliban zaútočil na citlivé miesto Pakistanu. Na deti 
             Taliban zabil v škole v Pakistane najmenej 141 ľudí, väčšinou deti. 
         
     
         
        
                                

        
         
            KOMENTARE.SME.SK
             Cynická obluda: Medzičasom na opustenom ostrove 
             Stroskotanci majú veľké šťastie, že sú dvaja. Lacné vtipy na úrovni ich autora. 
         
     
     

                 
     
    
     
        
 

     
                
                            
                    



         
            
                Jozef Lužinský
            
         
        luzinsky.blog.sme.sk (rss)
         
                                     
     
         Autor sa bude snažiť budovať, povzbudzovať a utešovať ľudí (vrátane samého seba) svojou prózou i poéziou.    
        
     
     
                     
                             
             

     
        
            
                
                    Počet článkov
                    1304
                
                
                    Celková karma
                    
                                                1.18
                    
                
                
                    Priemerná čítanosť
                    481
                
            
        
     

             

             Zoznam rubrík 
            
             
                                     
                        
                            Teológia
                        
                     
                                     
                        
                            Historia
                        
                     
                                     
                        
                            Veda
                        
                     
                                     
                        
                            Viera
                        
                     
                                     
                        
                            Fotky
                        
                     
                                     
                        
                            Hudba
                        
                     
                                     
                        
                            Poézia
                        
                     
                                     
                        
                            Súkromné
                        
                     
                                     
                        
                            Nezaradené
                        
                     
                             
         
    

    

        

     






            
    
        
    
 

        
         
         
             Už ste čítali? 
         
         
 

 kultura.sme.sk 
 Margaréta sa spriahla s diablom, no mala Kristovu pravdu 
 
 

 www.sme.sk 
 Pútnické miesta The Beatles alebo ako ľudia kráčajú po zebre 
 
 

 cestovanie.sme.sk 
 Lovia za svitania a v hmle 
 
 

 www.sme.sk 
 Ako sa valila lavína slobody. Ako padal komunizmus 
 
 

 kultura.sme.sk 
 Žiadne retro, poriadny biznis. Takto sa lisuje platňa 
 
	   
 


        
         
            
         

     

    
     
 
 
	 

		Kontakty
		Predplatné
		Etický kódex
		Pomoc
		Mapa stránky
		
	 
 
 
	 
		 
			Widget
			RSS
			Newsletter
		 
		 
			Mobil
			Smartphone
			Kindle
			Televízor
		 
		 
			Facebook
			Twitter
			Google+
		 
	 
	 
		
	 
	 
		Ďalšie weby skupiny: Prihlásenie do Post.sk
		Új Szó Slovak Spectator
		Agentúrne správy 
		Vydavateľstvo
		Inzercia
		Osobné údaje
		Návštevnosť webu
		Predajnosť tlače
		Petit Academy
		SME v škole 		© Copyright 1997-2014 Petit Press, a.s. 
	 
 
 
 


          
        
            
            

        
    

    
    


    


    
        
        
        
        
        
        
        
            
            
        
        
        
        
         
                                
               





 

 



        

 




