
      
    
    

     
	 
	 
 SME.sk 
 Zľavy 
 Zoznámenie 
 Reality 
 Dovolenky 
 Pizza 
 Reštaurácie 
 Recenzie 
 Inzeráty 
 Naničmama 	 
Nákupy 
		 
 Filmy na DVD 
 Hodinky 
 Parfémy 
 SME knihy a DVD 
 Superhosting 
 Tlačiareň 
 Víno 
 Tvorba webov 
 Predplatné SME 
 ProSenior 		 
	 
	 
 
	 
 


    
    
        
        
         
          
         
    

    
      
         
            
             
     
        
        
     
    Blog.SME.sk
 

    

         
        
                 
     
         
            Sme.sk
         
         
            Domov
         
         
            Regióny
         
         
            Ekonomika
         
         
            Svet
         
         
            Komentáre
         
         
            Kultúra
         
         
            Šport
         
         
            TV
         
         
            Auto
         
         
            Tech
         
         
            Poradňa
         
         
            Žena
         
         
            Bývanie
         
         
            Zdravie
         
         
            Blog
         
     
 

         
            
     
                                                         Politika 
                                                                                     Spoločnosť 
                                                                                     Cestovanie 
                                                                                     Ekonomika 
                                                                                     Fotografie 
                                                                                     Jedlo 
                                                                                     Kultúra 
                                                                                             
Ďalšie
                             
                                                                                         Lifestyle 
                                                                                                                                                                             Médiá 
                                                                                                                                                                             Nezaradené 
                                                                                                                                                                             Súkromné 
                                                                                                                                                                             Šport 
                                                                                                                                                                             Veda a technika 
                                                                                                                                                                             Zábava 
                                                                                                                                                                             Poézia 
                                                                                                                                                                             Próza 
                                                                                                                                                                             Kódex blogera 
                                                                                 
                         
                                                 
            Blogeri
         
     


            

    
    Prihlásiť sa


    
    Založte si blog



    
    Odhlásiť sa


    
    




         

        
        
         
            
         
         
                
     
                 
            SME.sk &gt;
            Blog.SME.sk &gt;
                            Radoslav Procházka
                                        &gt;
                Nezaradené
                     
                 Teta bez práškov a jej kolega panvica 

        
            
                                    10.3.2010
            o
            15:02
                        |
            Karma článku:
                16.75
            |
            Prečítané 
            12262-krát
                    
         
     
         
             

                 
                    Agentúra hlási, že aj „takéto bonmoty odzneli v parlamente“, odkazujúc napríklad na Slotove verbálne výlučky na Mikoškovu adresu typu hnusný, odporný diablov syn, mentálne retardovaný. Tak to teda pŕŕ.
                 

                 Jeden dva kliky človeku stačia, aby zistil, že bonmot, v doslovnom preklade dobré slovo, slúži na označenie „vtipného výroku, slovnej hračky“ (www.cudzieslova.sk). Neviem, či už sa Slotovi vôbec niekedy dáke dobré slovo, a nebodaj ešte aj v podobe nejakej vtipnej slovnej hračky, podarilo zo seba vysúkať, možno omylom. Ale označiť za bonmot ďalší zo série korunných dôkazov o jeho nulovom EQ a sociopatickej poruche sa jednoducho nehodí.        Mal som tú smolu, že som na vnútornom parlamentnom televíznom okruhu videl aj inscenovanú reklamu na Diazepam, majúcu podobu ilustrácie abstinenčných príznakov. Úplná strata lucidity, triaška, fistula a podobne, nana nána, heeej, Slovensko! Na druhej strane, predstavte si, že by tú tetu naozaj pustili v nejakej kysuckej škole medzi deti.        Inak keď už teda označovať Slotove prejavy francúzskymi slovami, webslovnik.zoznam.sk/fr-sk hlási aj takýto záznam:       cocotte: sliepočka, pipka, miláčik (oslovenie), koketa, záletnica, kastrol, rajnica, pekáč, panvica. 

                 
                                        
                        
                        Zdieľať
                    

                    
                            
                                    
                                    Zdieľať na
                            
                             
                                    
                             
                    

                                                                                                                        
                            
                            Diskusia: (42)
                        
                    
                    
                        
                        Zvýšte karmu
                    
                 
             

                             
            
                     
                         Ďalšie články blogera 
                         
                                                             
                                    
                    	                                                                                        

                                                                        
                                    
                                        Radoslav Procházka 
                                        
                                            Úradnícka vláda ako plán Ficovho návratu
                                        
                                    
                                 
                                                             
                                    
                    	                                                                                        

                                                                        
                                    
                                        Radoslav Procházka 
                                        
                                            Slabá vláda
                                        
                                    
                                 
                                                             
                                    
                    	                                                                                        

                                                                        
                                    
                                        Radoslav Procházka 
                                        
                                            Simpsonovci a Hlinovo hrdinstvo
                                        
                                    
                                 
                                                             
                                    
                    	                                                                                        

                                                                        
                                    
                                        Radoslav Procházka 
                                        
                                            Kto chce ešte po ústach?
                                        
                                    
                                 
                                                             
                                    
                    	                                                                                        

                                                                        
                                    
                                        Radoslav Procházka 
                                        
                                            ... kde je sever
                                        
                                    
                                 
                                                     
                        
                            Ďalšie články blogera: Radoslav Procházka
                        
                     
            
                     
                         Ďalšie články z rubriky nezaradené 
                         
                                                             
                                    
                                                            	                                                                                        

                                                                                                
                                    
                                        Michal Pazič 
                                        
                                            Prečo školské zariadenie v Pakistane?
                                        
                                    
                                 
                                                             
                                    
                                                            	                                                                                        

                                                                                                
                                    
                                        Milan Removčík 
                                        
                                            Zimný Šíp.
                                        
                                    
                                 
                                                             
                                    
                                                            	                                                                                        

                                                                                                
                                    
                                          esc-sr 
                                        
                                            Čas (ne)vhodných darčekov
                                        
                                    
                                 
                                                             
                                    
                                                            	                                                                                        

                                                                                                
                                    
                                        Michal Filek 
                                        
                                            Ako je ťažké darovať bezdomovcom polievku?
                                        
                                    
                                 
                                                             
                                    
                                                                                                                    

                                                                                                
                                    
                                        Anna Kováčová 
                                        
                                            Na sexi postavu, zdravie, energiu a šťastný život nepotrebujete tabletky!
                                        
                                    
                                 
                                                     
                        
                            Ďalšie články z rubriky nezaradené
                        
                     
                 
            
                    
 
     Hlavné správy 
         
        
                                

        
         
            AKTUALIZOVANÉ 16:00
             Rubeľ kolabuje, ruská vláda má mimoriadne rokovať 
             Jeden dolár stál v utorok poobede už viac ako 78 rubľov, razantné zvýšenie úrokov nepomohlo. 
         
     
         
        
                                

        
         
            ZAHRANIČIE
             Taliban zabil v škole v Pakistane vyše sto ľudí, väčšinou deti 
             Militanti vtrhli do vojenskej školy v policajných rovnošatách. 
         
     
         
        
                                

        
         
            KOMENTARE.SME.SK
             Cynická obluda: Medzičasom na opustenom ostrove 
             Stroskotanci majú veľké šťastie, že sú dvaja. Lacné vtipy na úrovni ich autora. 
         
     
     

                 
     
    
     
        
 

     
                
                            
                    



         
            
                Radoslav Procházka
            
         
        radoslavprochazka.blog.sme.sk (rss)
         
                        VIP
                             
     
         Zakladateľ Siete. 
        
     
     
                     
                             
             

     
        
            
                
                    Počet článkov
                    92
                
                
                    Celková karma
                    
                                                0.00
                    
                
                
                    Priemerná čítanosť
                    8165
                
            
        
     

             

             Zoznam rubrík 
            
             
                                     
                        
                            Súkromné
                        
                     
                                     
                        
                            Nezaradené
                        
                     
                             
         
    

    

        

     






            
    
        
    
 

        
         
         
             Už ste čítali? 
         
         
 

 kultura.sme.sk 
 Margaréta sa spriahla s diablom, no mala Kristovu pravdu 
 
 

 www.sme.sk 
 Pútnické miesta The Beatles alebo ako ľudia kráčajú po zebre 
 
 

 cestovanie.sme.sk 
 Lovia za svitania a v hmle 
 
 

 www.sme.sk 
 Ako sa valila lavína slobody. Ako padal komunizmus 
 
 

 kultura.sme.sk 
 Žiadne retro, poriadny biznis. Takto sa lisuje platňa 
 
	   
 


        
         
            
         

     

    
     
 
 
	 

		Kontakty
		Predplatné
		Etický kódex
		Pomoc
		Mapa stránky
		
	 
 
 
	 
		 
			Widget
			RSS
			Newsletter
		 
		 
			Mobil
			Smartphone
			Kindle
			Televízor
		 
		 
			Facebook
			Twitter
			Google+
		 
	 
	 
		
	 
	 
		Ďalšie weby skupiny: Prihlásenie do Post.sk
		Új Szó Slovak Spectator
		Agentúrne správy 
		Vydavateľstvo
		Inzercia
		Osobné údaje
		Návštevnosť webu
		Predajnosť tlače
		Petit Academy
		SME v škole 		© Copyright 1997-2014 Petit Press, a.s. 
	 
 
 
 


          
        
            
            

        
    

    
    


    


    
        
        
        
        
        
        
        
            
            
        
        
        
        
         
                                
               





 

 



        

 




