
      
    
    

     
	 
	 
 SME.sk 
 Zľavy 
 Zoznámenie 
 Reality 
 Dovolenky 
 Pizza 
 Reštaurácie 
 Recenzie 
 Inzeráty 
 Naničmama 	 
Nákupy 
		 
 Filmy na DVD 
 Hodinky 
 Parfémy 
 SME knihy a DVD 
 Superhosting 
 Tlačiareň 
 Víno 
 Tvorba webov 
 Predplatné SME 
 ProSenior 		 
	 
	 
 
	 
 


    
    
        
        
         
          
         
    

    
      
         
            
             
     
        
        
     
    Blog.SME.sk
 

    

         
        
                 
     
         
            Sme.sk
         
         
            Domov
         
         
            Regióny
         
         
            Ekonomika
         
         
            Svet
         
         
            Komentáre
         
         
            Kultúra
         
         
            Šport
         
         
            TV
         
         
            Auto
         
         
            Tech
         
         
            Poradňa
         
         
            Žena
         
         
            Bývanie
         
         
            Zdravie
         
         
            Blog
         
     
 

         
            
     
                                                         Politika 
                                                                                     Spoločnosť 
                                                                                     Cestovanie 
                                                                                     Ekonomika 
                                                                                     Fotografie 
                                                                                     Jedlo 
                                                                                     Kultúra 
                                                                                             
Ďalšie
                             
                                                                                         Lifestyle 
                                                                                                                                                                             Médiá 
                                                                                                                                                                             Nezaradené 
                                                                                                                                                                             Súkromné 
                                                                                                                                                                             Šport 
                                                                                                                                                                             Veda a technika 
                                                                                                                                                                             Zábava 
                                                                                                                                                                             Poézia 
                                                                                                                                                                             Próza 
                                                                                                                                                                             Kódex blogera 
                                                                                 
                         
                                                 
            Blogeri
         
     


            

    
    Prihlásiť sa


    
    Založte si blog



    
    Odhlásiť sa


    
    




         

        
        
         
            
         
         
                
     
                 
            SME.sk &gt;
            Blog.SME.sk &gt;
                            Slavomír Repka
                                        &gt;
                osobný názor
                     
                 Trampoty so stavebnou firmou GREVA Investment 

        
            
                                    14.5.2010
            o
            10:41
                        (upravené
                14.5.2010
                o
                10:50)
                        |
            Karma článku:
                13.93
            |
            Prečítané 
            7034-krát
                    
         
     
         
             

                 
                    Chcete si dať postaviť dom? Máte peniaze? Máte hypotéku? Máte rozum?  Chcem  sa s Vami podeliť o skúsenosti so spoločnosťou, ktorá si dala honosný  prívlastok Investment. Dnešný článok je pokračovaním série článkov na  tému (ne)seriózny stavebník, Vaše peniaze, (ne)kompetentný stavebný  dozor a všetko, čo nás postretlo. Dnes už konkrétne.
                 

                 Najsamprv  Vám predstavím spoločnosť Greva Investment, s.r.o., pred ktorou by ste  sa mali mať na pozore.   Ich pôvodný názov bol:    Dnes je to už "honosnejšie", GREVA Investment, s.r.o., so  všetkými vyššie uvedenými údajmi. (OR SR)   Takto sa prezentuje na internete   Pred zverejnením článku som požiadal spoločnosť GREVA Investment o  vyjadrenie k predmetnému článku (mohli si ho prečítať) a ich celú  odpoveď nájdete v prílohách na konci článku, pričom tu ukazujem iba  záver ich vyjadrenia.  .................................................................................................................   Na konci článku nájdete link na všetky tu spomínané dokumenty,  ktoré si môžete otvoriť a stiahnuť v plnom znení.       Toľko  k spoločnosti GREVA Investment, s.r.o. a teraz prejdeme k práci  predmetnej spoločnosti, ale hlavne k ich "dodržiavaniu" pre stavebníka  záväzého stavebného povolenia.    Takže poďme na  začiatok (leto 2008), keď sa podpisovala zmuva o dielo s predmetnou  spoločnosťou (vtedy ešte GREVA plus, s.r.o.), v ktorej okrem iného stojí  aj toto:      A teraz sa  pozrieme na citát zo stavebného povolenia        a pečiatku zo   sprievodnej správy ku stavebnému povoleniu, ktorá je neoddeliteľnou   súčasťou stavebného povolenia:      A niekoľko  bodov z predmetnej správy:                A na záver  kolaudačné rozhodnutie:         TAK TO  MALO BYŤ   A AKO TO  JE?   Strecha (krov)  bez izolácie:        Strop.  Bez betónových tvárnic, iba sádrokartón, cca 20 cm medzera, dráty  upevnené na hranoloch a na nich položená izolácia (16 cm).   PAROZÁBRANA  - NEEXISTUJE !!!!   A vyjadrenie  stavebného dozora?       Problém č.1 Stavba  je skolaudovaná   Problém č.2 Spoločnosť  prestala komunikovať, keď sme ich upozornili na nedostatky   Problém č.3 Táto  spočnosť už takto postavila cca 20 domov a plánuje ďalšie ????????   Perlička z  jednania Na našu reakciu, že v takomto stave dom nepreberieme bez  zľavy z ceny, ktorá by nám pokryla náklady na odstránenie závad, sme  dostali odpoveď: "Všetci to tak maju, iba VY mudrujete".    PS I. V  najbližšom článku Vám čitateľom, možno budúcim zadávateľom zákazky  ukážem, všetky inzeráty, ktoré smerujú k spoločnosti GREVA  Investment, b.g. (*)   (*) bez  garancie :-)   V  ďalšom článku sa budem venovať (ne)reagovaniu predmetnej spoločnosti na   doručené námietky.   Celé dokumenty ku konaniu vo formáte .pdf na stiahnutie    PS II.: Ešte jeden názor na náš problém (celý dokument v zložke na stiahnutie ako J.E.G.)      PS III. Požiadali sme doporučeným listom pána Krišku, ktorý bol stavebným dozorom o vyjadrenie k nami reklamovaným vadám na stavbe.  Do dnešnej doby (mesiac) si dotyčný zodpovedný "stavebný horor" s okrúhlou pečiatou nedokázal nájsť čas, aby na naše upozornenia reagoval.       Ak máte prieteľov, ktorí si chcú dať postaviť dom, pošlite im tento článok, nech vedia, komu sa majú vyhýbať. 

                 
                                        
                        
                        Zdieľať
                    

                    
                            
                                    
                                    Zdieľať na
                            
                             
                                    
                             
                    

                                                                                                                        
                            
                            Diskusia: (74)
                        
                    
                    
                        
                        Zvýšte karmu
                    
                 
             

                             
            
                     
                         Ďalšie články blogera 
                         
                                                             
                                    
                    	                                                                                        

                                                                        
                                    
                                        Slavomír Repka 
                                        
                                            Ficova kvázi demisia je bohapustá vyhrážka
                                        
                                    
                                 
                                                             
                                    
                                                                                                    

                                                                        
                                    
                                        Slavomír Repka 
                                        
                                            Kam smeruje slovensko s vládou SMER-u
                                        
                                    
                                 
                                                             
                                    
                                                                                                    

                                                                        
                                    
                                        Slavomír Repka 
                                        
                                            Vrana k vrane sadá, alebo voľby sa blížia
                                        
                                    
                                 
                                                             
                                    
                                                                                                    

                                                                        
                                    
                                        Slavomír Repka 
                                        
                                            Stanislav Šváby - môj starosta
                                        
                                    
                                 
                                                             
                                    
                    	                                                                                        

                                                                        
                                    
                                        Slavomír Repka 
                                        
                                            S Radom prichádza do éteru nová telenovela
                                        
                                    
                                 
                                                     
                        
                            Ďalšie články blogera: Slavomír Repka
                        
                     
            
                     
                         Ďalšie články z rubriky spoločnosť 
                         
                                                             
                                    
                                                            	                                                                                        

                                                                                                
                                    
                                        Mária Levočská 
                                        
                                            Ďalšia obeť pomsty monsignora Jaraba
                                        
                                    
                                 
                                                             
                                    
                                                            	                                                                                        

                                                                                                
                                    
                                        Kristián Straka 
                                        
                                            Nebite ma, doktor Plzák... alebo POZVANIE NA VEČERU
                                        
                                    
                                 
                                                             
                                    
                                                            	                                                                                        

                                                                                                
                                    
                                        Kristián Straka 
                                        
                                            Oklamaní Ježiškom ?
                                        
                                    
                                 
                                                             
                                    
                                                            	                                                                                        

                                                                                                
                                    
                                        Milan Buno 
                                        
                                            Šup, šup, najesť sa. A utekať!
                                        
                                    
                                 
                                                             
                                    
                                                            	                                                                                        

                                                                                                
                                    
                                        Katarína Lorenčíková 
                                        
                                            Par uprimnych oslobodzujucich riadkov...
                                        
                                    
                                 
                                                     
                        
                            Ďalšie články z rubriky spoločnosť
                        
                     
                 
            
                    
 
     Hlavné správy 
         
        
                                

        
         
            AKTUALIZOVANÉ O 20:00
             Rubeľ pocítil pád na dno, Rusko je vo finančnej kríze 
             Dolár včera stál už takmer 80 rubľov, pod hladinu ho tlačia najmä nízke ceny ropy. 
         
     
         
        
                                

        
         
            ZAHRANIČIE
             Taliban zaútočil na citlivé miesto Pakistanu. Na deti 
             Taliban zabil v škole v Pakistane najmenej 141 ľudí, väčšinou deti. 
         
     
         
        
                                

        
         
            KOMENTARE.SME.SK
             Cynická obluda: Medzičasom na opustenom ostrove 
             Stroskotanci majú veľké šťastie, že sú dvaja. Lacné vtipy na úrovni ich autora. 
         
     
     

                 
     
    
     
        
 

     
                
                            
                    



         
            
                Slavomír Repka
            
         
        repka.blog.sme.sk (rss)
         
                                     
     
         Nezaujíma ma, koľko stojí liter benzínu. 
Zaujíma ma, koľko zarábam ja. 
(kurňa, ten benzín je ale drahý) 

 V roku 2005 (február) som na blogu SME začínal článkom PAŠTEKÁRI 

 Viac o mne a mojej práci nájdete na týchto stránkach 

 Pozrite si aj ODPORÚČAME.EÚ prípadne poďte sem publikovať. 

 Obývam krásnu časť zeme, nazývanú Slovensko. Bývam v dosahu hlavného mesta, ale aj hory a vodu mám blízko.  
Mimo rečou som východniar ;-), paštekár.... 

 Résumé môjho "NAJ" na blogu SME nájtete TU 
        
     
     
                     
                                                        
                        
                    
                                                        
                        
                    
                                                        
                        
                    
                                                        
                        
                    
                             
             

     
        
            
                
                    Počet článkov
                    533
                
                
                    Celková karma
                    
                                                14.56
                    
                
                
                    Priemerná čítanosť
                    2579
                
            
        
     

             

             Zoznam rubrík 
            
             
                                     
                        
                            Z pohľadu obchodníka
                        
                     
                                     
                        
                            PRE Consulting
                        
                     
                                     
                        
                            CESTOVNÝ RUCH
                        
                     
                                     
                        
                            postrehy z ciest
                        
                     
                                     
                        
                            osobný názor
                        
                     
                                     
                        
                            pohľady
                        
                     
                                     
                        
                            Analýzy
                        
                     
                                     
                        
                            AUTO - test
                        
                     
                                     
                        
                            Súkromné
                        
                     
                                     
                        
                            Nezaradené
                        
                     
                             
         
    

                     
                        
                                                            
                     Obľúbené články 
                    
                     
                                                 
                                            Súťaž
                                     
                                                                             
                                            ODPORÚČAME.EÚ
                                     
                                                                             
                                            Paštekári
                                     
                                                                             
                                            Jahodná
                                     
                                                                   
                     Obľúbené stránky 
                    
                     
                                                 
                                            Aplikácia
                                     
                                                                             
                                            Rezervy vo firmách
                                     
                                                                             
                                            Najlepší obchodník
                                     
                                                                             
                                            Mystery shopping
                                     
                                                                             
                                            Dobré čítanie
                                     
                            
             
         
            

             
             Čo ma zaujalo 
            Týmto článkom bloger klikol/klikla na karmu.
             
                                                         
                       Špina, bezpečnosť a tichá(?) koalícia SMER - SDKÚ v Starom meste
                     
                                                         
                       Osudové okamžiky
                     
                                                         
                       Zamyslenie nad jedným Rozsudkom v mene Slovenskej republiky
                     
                                                         
                       Stanislav Šváby - môj starosta
                     
                                                         
                       Slovakia Ring 24hod: Aké to je atakovať takmer 800 kilometrov na bicykli za jediný deň?
                     
                                                         
                       Pinocchio, čo sa už nezmestí do parlamentu
                     
                                                         
                       Bratislava chce opäť zlegalizovať 400 billbordov
                     
                                                         
                       S Radom prichádza do éteru nová telenovela
                     
                                                         
                       Keď plynár má lepšiu províziu za predaj elektriny
                     
                                                         
                       Zpráva ze života malých šestiletých hominidů
                     
                             
         
           
     Pošlite odkaz blogerovi 
    
         
            
         

         
         
         
         

         
         
Odosielateľ (e-mail)
 
         
Text
 
         
             
Protispamová ochrana 
 
 Zle. Skúste znova. 
Opíšte slová z obrázku: Načítať iné slová 
 Get an image CAPTCHA 
 
 
         
                 
            
         
    
  


 

     






            
    
        
    
 

        
         
         
             Už ste čítali? 
         
         
 

 kultura.sme.sk 
 Margaréta sa spriahla s diablom, no mala Kristovu pravdu 
 
 

 www.sme.sk 
 Pútnické miesta The Beatles alebo ako ľudia kráčajú po zebre 
 
 

 cestovanie.sme.sk 
 Lovia za svitania a v hmle 
 
 

 www.sme.sk 
 Ako sa valila lavína slobody. Ako padal komunizmus 
 
 

 kultura.sme.sk 
 Žiadne retro, poriadny biznis. Takto sa lisuje platňa 
 
	   
 


        
         
            
         

     

    
     
 
 
	 

		Kontakty
		Predplatné
		Etický kódex
		Pomoc
		Mapa stránky
		
	 
 
 
	 
		 
			Widget
			RSS
			Newsletter
		 
		 
			Mobil
			Smartphone
			Kindle
			Televízor
		 
		 
			Facebook
			Twitter
			Google+
		 
	 
	 
		
	 
	 
		Ďalšie weby skupiny: Prihlásenie do Post.sk
		Új Szó Slovak Spectator
		Agentúrne správy 
		Vydavateľstvo
		Inzercia
		Osobné údaje
		Návštevnosť webu
		Predajnosť tlače
		Petit Academy
		SME v škole 		© Copyright 1997-2014 Petit Press, a.s. 
	 
 
 
 


          
        
            
            

        
    

    
    


    


    
        
        
        
        
        
        
        
            
            
        
        
        
        
         
                                
               





 

 



        

 




