
      
    
    

     
	 
	 
 SME.sk 
 Zľavy 
 Zoznámenie 
 Reality 
 Dovolenky 
 Pizza 
 Reštaurácie 
 Recenzie 
 Inzeráty 
 Naničmama 	 
Nákupy 
		 
 Filmy na DVD 
 Hodinky 
 Parfémy 
 SME knihy a DVD 
 Superhosting 
 Tlačiareň 
 Víno 
 Tvorba webov 
 Predplatné SME 
 ProSenior 		 
	 
	 
 
	 
 


    
    
        
        
         
          
         
    

    
      
         
            
             
     
        
        
     
    Blog.SME.sk
 

    

         
        
                 
     
         
            Sme.sk
         
         
            Domov
         
         
            Regióny
         
         
            Ekonomika
         
         
            Svet
         
         
            Komentáre
         
         
            Kultúra
         
         
            Šport
         
         
            TV
         
         
            Auto
         
         
            Tech
         
         
            Poradňa
         
         
            Žena
         
         
            Bývanie
         
         
            Zdravie
         
         
            Blog
         
     
 

         
            
     
                                                         Politika 
                                                                                     Spoločnosť 
                                                                                     Cestovanie 
                                                                                     Ekonomika 
                                                                                     Fotografie 
                                                                                     Jedlo 
                                                                                     Kultúra 
                                                                                             
Ďalšie
                             
                                                                                         Lifestyle 
                                                                                                                                                                             Médiá 
                                                                                                                                                                             Nezaradené 
                                                                                                                                                                             Súkromné 
                                                                                                                                                                             Šport 
                                                                                                                                                                             Veda a technika 
                                                                                                                                                                             Zábava 
                                                                                                                                                                             Poézia 
                                                                                                                                                                             Próza 
                                                                                                                                                                             Kódex blogera 
                                                                                 
                         
                                                 
            Blogeri
         
     


            

    
    Prihlásiť sa


    
    Založte si blog



    
    Odhlásiť sa


    
    




         

        
        
         
            
         
         
                
     
                 
            SME.sk &gt;
            Blog.SME.sk &gt;
                            Jozef Červeň
                                        &gt;
                Spoločnosť
                     
                 Je SaS liberálna pravica alebo ľavica? 

        
            
                                    9.6.2009
            o
            11:55
                        |
            Karma článku:
                12.20
            |
            Prečítané 
            3894-krát
                    
         
     
         
             

                 
                    V posledných voľbách sme sa nedočkali veľkých prekvapení. Všetci sa správali tradične a dopadlo to tradične podľa vývoja na Slovensku. Jediní, o ktorých sa začalo hovoriť troška s väčším záujmom, je nastupujúca strana SaS. Najviac zrejme preto, lebo nie je isté, kým chcú byť. Aj napriek tomu, že sú vo svojich ekonomických názoroch jasne pravicovo liberálni, chcú na seba nabaliť svojou rétorikou aj ľavicového voliča, ktorého zelení ľavicoví ultras s pani Pietruchovou nezachytili. Dá sa predpokladať, že v posledných voľbách pochytali hlavne hlasy znechutených voličov SDKÚ-DS a možno hlasy nejakých ultraliberálov, ktorým sa zapáčili vyjadrenia pána Oravca ktoré boli minimálne o stupeň tvrdšie ako výroky pani Pietruchovej. Aj napriek tomu, že sa nepriznali k týmto ultras názorom, prezentujú sa ako tí "správni" liberáli. Ak budú chcieť pozbierať hlasy bývalých voličov SOP, SF, alebo Ruskovej ANO, už teraz si kopú politický hrob. Mne to pripadá, ako keby chceli byť politický mačkopes...
                 

                 
  
  Základný rozdiel medzi pravicou a ľavicou je v plánovaní. Za pravicu býva v bežnom kuchynskom politickom žargóne označovaná strana, ktorá sa usiluje o dlhodobé plánovanie. Takéto plánovanie je možné len vtedy, ak nájde oporu u ľudí, ktorí zmýšľajú pravicovo, a sú ochotní uniesť to, že reformy obvykle začínajú s tým, že najskôr je na chvíľu horšie a až potom lepšie. Obvykle to zvyknú byť ľudia, ktorí uznávajú mnohé hodnoty, ktorá sa zvyknú označovať ako "tradičné". Ako plánujú a ako sa správajú ľavičiari máme možnosť naplno prežívať zo strany našej súčasnej vlády. Nič dlhodobé, samé krátkodobé, väčšinou "popapulistické" riešenia. Je verejným tajomstvom, že v mnohých krajinách sa striedajú pravicové a ľavicové vlády. Čo pravicové našetria, to ľavicové pomíňajú. "Ľavicoví" ľudia zvyknú uprednostňovať slobodu vo všeličom možnom. Tí z krajnej ľavice chcú ísť často až libertínsky, kedy je možné podľa vôle voliča spochybniť čokoľvek, čo sa mu zapáči v obave, aby nevyzerali ako tí "neslobodní" pravičiari. Ak však niekto pochybuje o všetkom, dožaduje sa toho, aby sa pochybovalo aj o jeho vyjadreniach. Myslím si, že práve na tomto pohorel aj pán Oravec, ktorý sám nikde svoje tvrdenia nepoprel, len poslúchol to, čo mu bolo nariadené. Myslím si, že sa nepreriekol, len zastával názory, ktoré zodpovedajú ľuďom, ku ktorým sa hlási. Veď bol zakladajúcim členom Libertarian Clubu. Ak je niekto zakladajúci člen, zvykne byť horlivejší v liberalizme ako bežní členovia. SaS stavila na to, že je známy najmä medzi podnikateľmi, ktorí by radi privítali ekonomickú agendu, ktorú SaS má v programe, a ktorou dokáže osloviť najmä ľudí, ktorí platia dane, alebo ktorí zamestnávajú ľudí a ktorým sa už socializmus prejedol. Netrúfam si odhadnúť akou cestou pôjdu Sulíkovci. Mýlim sa, ak som presvedčený o tom, že v ekonomickej oblasti sú jasní konzervatívni liberáli? Mýlim sa, ak si myslím, že ľavicovú agendu v oblastiach iných hodnôt berú len preto, lebo nepoznajú alebo nechcú prijať pravicovú liberálnu agendu? Budú chcieť byť politický "mačkopes" len preto, aby pozbierali aj ľavicové hlasy znechutených voličov strán na jedno použitie? Obávam sa, že ak pôjdu takýmto zatiaľ naznačeným smerom, dopadnú podobne ako ANO. Myslím si, že nikto neočakáva od nich, že budú konzervatívnou pravicou, pretože by nikdy nezískali dosť vplyvu na to, aby presadili svoje ekonomické vízie smerujúce k "štíhlejšiemu" štátu a k vyšším nárokov na zodpovednosť pre občanov. Ak si myslia, že môžu byť liberálmi, ktorí budú naraz aj pravicoví aj ľavicoví, budú sa časom asi musieť zrieknuť svojej pravicovej vízie ekonomiky a zostanú z nich obyčajní populistickí liberáli, ktorých sme tu už mali habadosť. Čo vy na to pán Sulík?

                 
                                        
                        
                        Zdieľať
                    

                    
                            
                                    
                                    Zdieľať na
                            
                             
                                    
                             
                    

                                                                                                                        
                            
                            Diskusia: (141)
                        
                    
                    
                        
                        Zvýšte karmu
                    
                 
             

                             
            
                     
                         Ďalšie články blogera 
                         
                                                             
                                    
                    	                                                                                        

                                                                        
                                    
                                        Jozef Červeň 
                                        
                                            Fico vymetá všetky kúty aj v osadách...
                                        
                                    
                                 
                                                             
                                    
                    	                                                                                        

                                                                        
                                    
                                        Jozef Červeň 
                                        
                                            Budú Fica oblizovať aj zozadu?
                                        
                                    
                                 
                                                             
                                    
                    	                                                                                        

                                                                        
                                    
                                        Jozef Červeň 
                                        
                                            Napíš europoslancovi, nech neblbne...
                                        
                                    
                                 
                                                             
                                    
                    	                                                                                        

                                                                        
                                    
                                        Jozef Červeň 
                                        
                                            Ukrajina potrebuje EÚ ale aj EÚ potrebuje Ukrajinu...
                                        
                                    
                                 
                                                             
                                    
                    	                                                                                        

                                                                        
                                    
                                        Jozef Červeň 
                                        
                                            Skončí postávanie pred kostolom?
                                        
                                    
                                 
                                                     
                        
                            Ďalšie články blogera: Jozef Červeň
                        
                     
            
                     
                         Ďalšie články z rubriky spoločnosť 
                         
                                                             
                                    
                                                            	                                                                                        

                                                                                                
                                    
                                        Mária Levočská 
                                        
                                            Ďalšia obeť pomsty monsignora Jaraba
                                        
                                    
                                 
                                                             
                                    
                                                            	                                                                                        

                                                                                                
                                    
                                        Kristián Straka 
                                        
                                            Nebite ma, doktor Plzák... alebo POZVANIE NA VEČERU
                                        
                                    
                                 
                                                             
                                    
                                                            	                                                                                        

                                                                                                
                                    
                                        Kristián Straka 
                                        
                                            Oklamaní Ježiškom ?
                                        
                                    
                                 
                                                             
                                    
                                                            	                                                                                        

                                                                                                
                                    
                                        Milan Buno 
                                        
                                            Šup, šup, najesť sa. A utekať!
                                        
                                    
                                 
                                                             
                                    
                                                            	                                                                                        

                                                                                                
                                    
                                        Katarína Lorenčíková 
                                        
                                            Par uprimnych oslobodzujucich riadkov...
                                        
                                    
                                 
                                                     
                        
                            Ďalšie články z rubriky spoločnosť
                        
                     
                 
            
                    
 
     Hlavné správy 
         
        
                                

        
         
            ZAHRANIČIE
             Protestujúci v Maďarsku strácajú dych, Fidesz ich mätie novými návrhmi 
             Na demonštrácii proti Orbánovej vláde bolo v utorok už len niekoľko tisíc ľudí. 
         
     
         
        
                                

        
         
            AKTUALIZOVANÉ O 21:30
             Rubeľ pocítil pád na dno, Rusko je vo finančnej kríze 
             Dolár včera stál už takmer 80 rubľov, pod hladinu ho tlačia najmä nízke ceny ropy. 
         
     
         
        
                                

        
         
            AKTUALIZOVANÉ 21:50
             Taliban zabil v škole v Pakistane 132 detí 
             Pakistan až teraz poriadne zatlačil na islamistov. Odplatou je útok na deti vojakov. 
         
     
     

                 
     
    
     
        
 

     
                
                            
                    



         
            
                Jozef Červeň
            
         
        cerven.blog.sme.sk (rss)
         
                        VIP
                             
     
        Mám rád život s Bohom a 7777 ľudí. S obľubou lietam v dobrej letke, no nerád lietam v kŕdli. Som katolícky kňaz, pochádzam z dediny Klin na Orave. Farár vo farnosti Rakúsy. (pri Kežmarku)
...........................................


        
     
     
                     
                             
             

     
        
            
                
                    Počet článkov
                    1475
                
                
                    Celková karma
                    
                                                0.00
                    
                
                
                    Priemerná čítanosť
                    3094
                
            
        
     

             

             Zoznam rubrík 
            
             
                                     
                        
                            BIRMOVANCI
                        
                     
                                     
                        
                            ŠTIPENDISTI
                        
                     
                                     
                        
                            7777 MYŠLIENOK PRE NÁROČNÝCH
                        
                     
                                     
                        
                            Aké mám povolanie?
                        
                     
                                     
                        
                            Akú mám povahu?
                        
                     
                                     
                        
                            Cesta viery
                        
                     
                                     
                        
                            Duchovné témy
                        
                     
                                     
                        
                            Fejtóny
                        
                     
                                     
                        
                            Fotografie prírody
                        
                     
                                     
                        
                            Fotografie Rómov
                        
                     
                                     
                        
                            História mojej rodnej obce
                        
                     
                                     
                        
                            Kniha o Rómoch
                        
                     
                                     
                        
                            Lunikovo
                        
                     
                                     
                        
                            Mladí vo firme
                        
                     
                                     
                        
                            Náčrt histórie slov. Saleziáno
                        
                     
                                     
                        
                            Nezaradené
                        
                     
                                     
                        
                            Pastorácia Rómov
                        
                     
                                     
                        
                            Poézia
                        
                     
                                     
                        
                            Pokec s Bohom
                        
                     
                                     
                        
                            Rómovia
                        
                     
                                     
                        
                            Sociálna práca
                        
                     
                                     
                        
                            Sociálna náuka Katolíckej cirk
                        
                     
                                     
                        
                            Spoločnosť
                        
                     
                                     
                        
                            Súkromné
                        
                     
                                     
                        
                            Vedeli sa obetovať
                        
                     
                                     
                        
                            Vzťah je cesta cez púšť
                        
                     
                                     
                        
                            Zábava
                        
                     
                             
         
    

                     
                        
                                                            
                     Obľúbené články 
                    
                     
                                                 
                                            Štipendium pre chudobné zodpovedné dieťa
                                     
                                                                             
                                            Prečo si firmy neudržia mladých ľudí?
                                     
                                                                             
                                            Dejiny mojej dediny
                                     
                                                                             
                                            Vzťah je cesta cez púšť
                                     
                                                                             
                                            Akú mám povahu?
                                     
                                                                             
                                            7777 MYŠLIENOK PRE NÁROČNÝCH
                                     
                                                                   
                     Obľúbené knihy 
                    
                     
                                                 
                                            Sociálny kódex Cirkvi - Raimondo Spiazzi
                                     
                                                                             
                                            Sociálna práca - Anna Tokárová a kolektív
                                     
                                                                   
                     Čo práve počúvam 
                    
                     
                                                 
                                            Free Download MP3 ruzenec
                                     
                                                                             
                                            MP3 ruženec
                                     
                                                                   
                     Obľúbené blogy 
                    
                     
                                                 
                                            Tomáš Krištofóry - katolícky liberál
                                     
                                                                             
                                            Peter Herman - realistický idealista
                                     
                                                                             
                                            Michal Hudec sa nebojí písať otvorene
                                     
                                                                             
                                            Mária Kohutiarová - žena, matka, človek
                                     
                                                                             
                                            Branislav Sepeši - lekár o etike
                                     
                                                                             
                                            Katrína Janíková - neobyčajne obyčajná baba
                                     
                                                                             
                                            Martin Šabo - šikovný redemptorista
                                     
                                                                             
                                            Juraj Drobny - veci medzi nebom a zemou
                                     
                                                                             
                                            Peter Pecuš a jeho postrehy zo života
                                     
                                                                             
                                            Miroslav Lettrich - svet, spoločnosť, hodnoty
                                     
                                                                             
                                            Karol Hradský - témy dnešných dní
                                     
                                                                             
                                            Salezián Robo Flamík hľadá viac
                                     
                                                                             
                                            Salezián Maroš Peciar - fajn chlap
                                     
                                                                             
                                            Motorka a cesty: Martin Dinuš
                                     
                                                                             
                                            Ďuro Čižmárik a jeho mozaika maličkostí
                                     
                                                                             
                                            Paľo Medár a scientológovia
                                     
                                                                             
                                            Pavel Škoda chodí s otvorenými očami
                                     
                                                                   
                     Obľúbené stránky 
                    
                     
                                                 
                                            Modlitba breviára
                                     
                                                                             
                                            Nezabíjajte deti!
                                     
                                                                             
                                            Občiansky denník
                                     
                                                                             
                                            Dunčo hľadaj
                                     
                                                                             
                                            Správy z Cirkvi
                                     
                                                                             
                                            Prvý kresťanský portál
                                     
                                                                             
                                            Lentus
                                     
                            
             
         
            

             
             Čo ma zaujalo 
            Týmto článkom bloger klikol/klikla na karmu.
             
                                                         
                       Voľby nemožno vyhrať kúpenými hlasmi najbiednejších Rómov!
                     
                                                         
                       Jednoduchý rozdiel medzi kandidátmi na prezidenta.
                     
                                                         
                       Doprajme Ficovi pokoru!
                     
                                                         
                       Fico vymetá všetky kúty aj v osadách...
                     
                                                         
                       tam kam Fico nemôže, TA3 mu pomôže
                     
                                                         
                       Vďakyvzdanie
                     
                                                         
                       Treba homofóbiu liečiť?
                     
                                                         
                       Procházka, Kňažko, Kiska... a jediný hlas
                     
                                                         
                       Napíš europoslancovi, nech neblbne...
                     
                                                         
                       Prezidentské voľby: Prečo budem voliť Procházku
                     
                             
         
           
     Pošlite odkaz blogerovi 
    
         
            
         

         
         
         
         

         
         
Odosielateľ (e-mail)
 
         
Text
 
         
             
Protispamová ochrana 
 
 Zle. Skúste znova. 
Opíšte slová z obrázku: Načítať iné slová 
 Get an image CAPTCHA 
 
 
         
                 
            
         
    
  


 

     






            
    
        
    
 

        
         
         
             Už ste čítali? 
         
         
 

 kultura.sme.sk 
 Margaréta sa spriahla s diablom, no mala Kristovu pravdu 
 
 

 www.sme.sk 
 Pútnické miesta The Beatles alebo ako ľudia kráčajú po zebre 
 
 

 cestovanie.sme.sk 
 Lovia za svitania a v hmle 
 
 

 www.sme.sk 
 Ako sa valila lavína slobody. Ako padal komunizmus 
 
 

 kultura.sme.sk 
 Žiadne retro, poriadny biznis. Takto sa lisuje platňa 
 
	   
 


        
         
            
         

     

    
     
 
 
	 

		Kontakty
		Predplatné
		Etický kódex
		Pomoc
		Mapa stránky
		
	 
 
 
	 
		 
			Widget
			RSS
			Newsletter
		 
		 
			Mobil
			Smartphone
			Kindle
			Televízor
		 
		 
			Facebook
			Twitter
			Google+
		 
	 
	 
		
	 
	 
		Ďalšie weby skupiny: Prihlásenie do Post.sk
		Új Szó Slovak Spectator
		Agentúrne správy 
		Vydavateľstvo
		Inzercia
		Osobné údaje
		Návštevnosť webu
		Predajnosť tlače
		Petit Academy
		SME v škole 		© Copyright 1997-2014 Petit Press, a.s. 
	 
 
 
 


          
        
            
            

        
    

    
    


    


    
        
        
        
        
        
        
        
            
            
        
        
        
        
         
                                
               





 

 



        

 




