
      
    
    

     
	 
	 
 SME.sk 
 Zľavy 
 Zoznámenie 
 Reality 
 Dovolenky 
 Pizza 
 Reštaurácie 
 Recenzie 
 Inzeráty 
 Naničmama 	 
Nákupy 
		 
 Filmy na DVD 
 Hodinky 
 Parfémy 
 SME knihy a DVD 
 Superhosting 
 Tlačiareň 
 Víno 
 Tvorba webov 
 Predplatné SME 
 ProSenior 		 
	 
	 
 
	 
 


    
    
        
        
         
          
         
    

    
      
         
            
             
     
        
        
     
    Blog.SME.sk
 

    

         
        
                 
     
         
            Sme.sk
         
         
            Domov
         
         
            Regióny
         
         
            Ekonomika
         
         
            Svet
         
         
            Komentáre
         
         
            Kultúra
         
         
            Šport
         
         
            TV
         
         
            Auto
         
         
            Tech
         
         
            Poradňa
         
         
            Žena
         
         
            Bývanie
         
         
            Zdravie
         
         
            Blog
         
     
 

         
            
     
                                                         Politika 
                                                                                     Spoločnosť 
                                                                                     Cestovanie 
                                                                                     Ekonomika 
                                                                                     Fotografie 
                                                                                     Jedlo 
                                                                                     Kultúra 
                                                                                             
Ďalšie
                             
                                                                                         Lifestyle 
                                                                                                                                                                             Médiá 
                                                                                                                                                                             Nezaradené 
                                                                                                                                                                             Súkromné 
                                                                                                                                                                             Šport 
                                                                                                                                                                             Veda a technika 
                                                                                                                                                                             Zábava 
                                                                                                                                                                             Poézia 
                                                                                                                                                                             Próza 
                                                                                                                                                                             Kódex blogera 
                                                                                 
                         
                                                 
            Blogeri
         
     


            

    
    Prihlásiť sa


    
    Založte si blog



    
    Odhlásiť sa


    
    




         

        
        
         
            
         
         
                
     
                 
            SME.sk &gt;
            Blog.SME.sk &gt;
                            Jozef Culák
                                        &gt;
                Vojenské letectvo SR
                     
                 Mil Mi-24 (Mi-25, Mi-35) 

        
            
                                    19.4.2009
            o
            19:19
                        |
            Karma článku:
                10.99
            |
            Prečítané 
            13239-krát
                    
         
     
         
             

                 
                    Mil Mi-24 je viacúčelový bojový vrtuľník určený pre priamu podporu pozemných vojsk, a to hlavne ničením silných obrnených cieľov protivníka. Jeho nákladný priestor ho umožňuje tiež využívať napríklad na prevoz výsadku, materiálu, prípadne evakuáciu ranených. Je jedným z najbežnejších a najúčinnejších vrtuľníkov sveta, ktorý si svoju povesť bojového stroja najviac upevnil počas sovietskej invázie do Afganistanu. Tu zaujal svojou pozoruhodnou pevnosťou, výkonom a značnou palebnou silou. Medzi sovietskymi pilotmi si preto vyslúžil prezývku „lietajúci tank“. Vyrobených bolo okolo 2500 týchto strojov vo viac než dvadsiatich verziách, ktoré boli vyvezené do viac ako 30. „spriatelených“ krajín sveta. Tieto stroje sú tak hodnotné, že ich veľká väčšina je stále v aktívnej službe a vzniká mnoho programov na modernizáciu základnej verzie novou avionikou a výzbrojou.
                 

                 V laickej verejnosti sa často zastáva názor, že Mi-24 je priamy protivník amerického AH-64 Apache. Nie je to však pravda, pretože Mi-24 okrem toho, že sa svojimi parametrami a výzbrojou radí medzi bojové stroje, disponuje taktiež nákladným priestorom pre osem plne vyzbrojených vojakov, prípadne iný tomuto hmotnostne zodpovedajúci náklad (vrátane nosítok na prepravu zranených osôb). Kombináciou bojových vlastností a možnosti prepravy vojakov preto nemá Mi-24 žiadnu protiváhu medzi vrtuľníkmi NATO, s ktorou by sa mohol priamo porovnávať.    (Foto: Mi-24, jeden z najrozšírenejších a najúspešnejších vrtuľníkov sveta. Zdroj: http://www.asiatradingonline.com/Mi24-Hind.jpg)   Vývoj tohto vrtuľníku začal približne v polovici 60-tych rokov v moskovskej konštrukčnej kancelárii M. L. Mila. Tak, ako bol po druhej svetovej vojne podceňovaný celkový vývoj vrtuľníkov, ani tento projekt sa spočiatku nedočkal pochopenia zo strany mocenských orgánov. Zmenu prístupu najvyššieho vedenia k vrtuľníkom môžeme pozorovať po vyhodnotení bojov počas vojny v Kórei a z ešte prebiehajúcej vojny vo Vietname, kde dochádzalo zo strany USA k masívnemu a veľmi efektívnemu nasadzovaniu týchto strojov. Pod tlakom uvedených informácií a na naliehanie M. L. Mila bola preto vytvorená na ministerstve obrany ZSSR komisia, ktorá mala preskúmať potrebu nových bojových vrtuľníkov pre sovietske ozbrojené zložky. Na základe záverov tejto komisie bola 6.5.1968 vypísaná súťaž na dvojmotorový vrtuľník pre priamu podporu pozemných vojsk, ktorá dala vzniknúť typu Mi-24.    Jadro tohto vrtuľníku tvorili „dynamické časti“, pohonné jednotky ai. z transportného vrtuľníka Mi-8. Ostatné časti draku pochádzali z Mi-14 – námornej verzie Mi-8. Použitie týchto už v praxi overených častí pri konštrukcii nového bojového stroja sa pozitívne odrazili na dĺžke jeho vývoja (od „rysovacej dosky“ po prvé letové testy ubehlo iba 18 mesiacov). Prvý prototyp, označený ako V-24, uskutočnil svoj prvý let 19.9.1969 a o rok neskôr, v júni 1970, boli prvé Mi-24 dodané armáde k testovaniu. Následne po nich boli začaté ich dodávky jednotkám ruskej armády. Prvá výrobná séria dostala názov Mi-24A a odstraňovala viacero problémov predsériových strojov. Bolo pre ňu charakteristické oválne „telo“ a veľká presklená kabína, v ktorej boli umiestnení všetci členovia posádky. Let stroja zabezpečoval 5-listový nosný rotor a 3-listový vyrovnávací chvostový rotor. Mi-24A bol poháňaný dvojicou motorov  TV3-117, každý s výkonom 1638 kW. Motory boli umiestnené nad kabínu, kde sú spredu jasne viditeľné dva otvory pre nasávanie vzduchu. Po bokoch konštruktéri umiestnili dve krídla, ktoré slúžia na zavesenie výzbroje a pri rýchlostiach nad 300 km/h odľahčujú nosný rotor až o 30%.    (Foto: Mi-24A - prvá výrobná verzia typu Mi-24.)   Od prvých sériovo vyrobených strojov na začiatku 80-tych rokov prešiel Mi-24 viacerými zásadnými zmenami, ktoré vyplynuli z jeho bojového nasadenia v rôznych konfliktoch a ktoré zásadne zmenili aj jeho celkový výzor (napríklad zmena usporiadania kabíny na tandemové usporiadanie, zoštíhlenie trupu...). Vzniklo tak množstvo verzií, z ktorých sa tie najmodernejšie vyrábajú dodnes, avšak už nie pre najväčšieho používateľa – ozbrojené sily Ruskej federácie, kde prebiehajú len modernizačné programy týchto strojov a tiež ich zatiaľ pomalé nahradzovanie novými bojovými vrtuľníkmi Mil Mi-28. Dodávky týchto strojov v posledných rokoch smerovali napr. v 2003-2005 do Česka (17 ks), v 2006 do Venezuely (10 ks), v 2008 do Indonézie (6 ks) a v októbri 2008 zadala objednávku na 12 strojov Mi-35M Brazília.       Mi-24 na Slovensku  Bojové stroje Mi-24 boli zavádzané i v ozbrojených silách Československa a v roku 1993, podobne ako ostatná technika, boli rozdelené medzi oba novovzniknuté štáty. Slovenská republika získala celkovo 19 Mi-24, a to konkrétne osem kusov Mi-24D, jeden Mi-24DU a desať Mi-24V. Nedostatok financií však v mladej Armáde Slovenskej republiky nútil jej čelných predstaviteľov prehodnotiť potrebu udržiavania všetkých strojov Mi-24 v aktívnej službe, tak isto ako potrebu ďalších strojov nášho bohatého „leteckého dedičstva“ po zaniknutom Československu. Postupom času dochádzalo k vyradzovaniu niektorých strojov a pod zníženie letuschopného parku vrtuľníkov sa podpísali tiež dve nehody. Prvý Mi-24 sa zrútil 10.5.2005 neďaleko Sabinova a obaja piloti (Imrich Gonda a Vladimír Rišian) pri tejto tragédii zahynuli. Haváriu zapríčinila pravdepodobne chybná technika pilotáže. Druhá nehoda nebola našťastie tak závažná, 1.10.2008 po splnení stanovených úloh došlo k náhlemu zníženiu výkonu jedného z motorov a vrtuľník musel núdzovo pristáť pri meste  Považská Bystrica. Pri tomto tvrdom pristátí nebol nikto zranený a stroj s trupovým číslom 0704 by mohol byť po oprave zaradený opäť do ozbrojených síl.    (Foto: Mi-24 Ozbrojených síl Slovenskej republiky. Zdroj: http://www.hitechweb.genezis.eu/SAF2006.htm)   Vrtuľníky Mi-24 slovenského letectva v súčasnosti pôsobia na Leteckej základni generálplukovníka Jána Ambruša v Prešove v počte osem kusov, z ktorých sú štyri Mi-24D a štyri Mi-24V. Niektoré naše „dvadsaťštvorky“ podstúpili generálnu opravu v Leteckých opravovniach Trenčín, niektoré prešli iba čiastočnými modernizáciami, avšak vzhľadom na to, že ich priemerný vek dnes činí 22 rokov, sa budú musieť Ozbrojené sily Slovenskej republiky už pomaly zaoberať otázkou obmeny parku viacúčelových bojových Mi-24, ktorý sa bude postupom času neustále zmenšovať. Niektoré hlasy hovoria o tom, že po vyradení posledných Mi-24 nebude Slovensko prevádzkovať už žiadny bojový vrtuľník. Táto otázka je však ešte stále otvorená, lebo slovenská vláda zatiaľ nezverejnila žiadny plán, ako túto situáciu riešiť.       Mi-24 vo výzbroji krajín Višegrádskej štvorky  Podobné problémy ako my s modernizáciou vrtuľníkového parku Mi-24 riešila pred niekoľkými rokmi celá V4. V roku 2003 vznikla dokonca dohoda medzi štátmi V4, ktorú inicializovalo Poľsko a na základe ktorej malo byť zmodernizovaných 105 vrtuľníkov Mi-24D/V na štandardy NATO. Táto dohoda však nakoniec stroskotala a jednotlivé štáty uvedené modernizácie riešia samostatne. V najlepšej situácii z krajín Višegrádskej štvorky je v súčasnosti Česká republika, ktorá má najmladší park bojových vrtuľníkov nielen oproti svojim geografickým susedom, ale aj oproti väčšine západoeurópskych krajín. Prispela k tomu výrazným spôsobom dodávka sedemnástich nových Mi-35 (exportná verzia Mi-24V) v rámci deblokácie ruského dlhu v rokoch 2003-2005. Poľsko je  jediný štát z V4, ktorý svoje Mi-24 nasadil aj do zahraničných bojových operácií a preto od roku 2000 prikladalo ich modernizácii veľký dôraz. Od roku 2005 pôsobilo 6 poľských Mi-24 spolu so spojeneckými jednotkami v Iraku. Počas tejto misie došlo k zrúteniu jedného stroja a dva ďalšie boli poškodené nepriateľskou paľbou, následne boli však opravené a opäť zapojené do bojov. Počty letuschopných vrtuľníkov Mi-24 v krajinách V4 z roku 2008 zachytáva nasledujúca tabuľka:     
    Mi-24D Mi-24Dplus  Mi-24V  Mi-24P  Mi-24DU  Celkom   Česko  - - 23 - 1 24   Poľsko 15 2 12 - - 29   Slovensko 4 - 4 - - 8   Maďarsko  3 6 9 2 - 20        (Foto: Mi-24D patriaci Poľsku. Šesť poľských "dvadsaťštvoriek" bolo vyslaných na podporu spojeneckých operácií v Iraku. Autor: Cezary Piwowarski)    (Foto: Mi-24V českej tigrej letky, ktorý v roku 2008 vyhral cenu Tiger Meetu za najlepšiu kamufláž. Zdroj: http://forum.valka.cz/viewtopic.php/title/Mil-Mi-24V-Hind-E/p/67945#67945)    Verzie:  V-24 - Prototyp  Mi-24 – Predsériová verzia  Mi-24A - Prvý sériový model   Mi-24U - Cvičná verzia Mi-24A, bez kanónovej výzbroje  Mi-24F - Verzia s modifikovaným vyrovnávacím rotorom a ďalšími menšími úpravami   Mi-24B - Mi-24A so zvýšeným bojovým potenciálom, projekt zrušený v prospech Mi-24D  Mi-24D - Prvá bojovo plnohodnotná verzia  Mi-24DU - Cvičná verzia Mi-24D bez hlavňové výzbroje na prove  Mi-24PTRK – Skúšobná verzia Mi-24D určená pre testy PTRS 9M114 Šturm pre Mi-24V  Mi-24V - Modernizovaná verzia, s možnosťou používať PTRS 9M114 Šturm   Mi-24VD - Skúšobná verzia z roku 1985, na ktorej sa aplikovali skúsenosti (v oblasti pasívnej obrany) z bojov v Afganistane, projekt roku 1986 zrušený   Mi-24VU - Cvičná verzia Mi-24V bez hlavňovej výzbroje na prove   Mi-24VP - Posledná sériová verzia vychádzajúca z Mi-24V   Mi-24P - Verzia vychádzajúca z Mi-24V, hlavnú úpravu predstavuje odstránenie vežičky USPU-24, ktorá bola nahradená kanónom GŠ-30   Mi-24G - Upravená verzia Mi-24P   Mi-24RChR - (niekedy označovaná ako Mi-24R) - Verzia Mi-24D pre radiačný a chemický prieskum, po prvý krát videná pri katastrofe v Černobyle 1986  Mi-24RA - Modifikovaná Mi-24D vybavená kamerami pre prieskumné účely  Mi-24K - Verzia slúžiaca na vyhľadávanie cieľov pre paľbu delostrelectva a jej následnú korekciu   Mi-24BMT - Mi-24A určená pre odmínovací úlohy   Mi-24VM - Verzia Mi-24V určená pre bojové operácie v nočných podmienkach, vybavená avionikou ruských a francúzskych firiem   Mi-24VN - Mi-24V modernizovaný na štandard Mi-24VM   Mi-24PM - Modernizovaná Mi-24P schopná operovať za všetkých poveternostných podmienok  Mi-24PN - Modernizovaná Mi-24P schopná operovať za všetkých poveternostných podmienok, vybavená rotorom z Mi-28, pevným podvozkom a krátkymi krídlami   Mi-24PS - Záchranná a policajná verzia   Mi-24VK - Mi-24V s vylepšenou avionikou   Mi-24VK-1 - Modernizovaná Mi-24V so systémom GOES 321 s FLIRom a laserovým diaľkomerom   Mi-24Mk.III - Modernizácia alžírskych Mi-24 uskutočnená firmami z JAR   Mi-24 Ecological Survey Version - výskumná verzia ochrany životného prostredia  Mi-25 - Exportná verzia Mi-24D   Mi-25U - Exportná verzia Mi-24DU  Mi-35 - Exportné označenie pre vrtuľníky vychádzajúce z Mi-24V    (Foto: Ruská akrobatická skupina lietajúca na strojoch Mi-24. Svoje umenie žiaľ predvádzajú iba v Rusku. Zdroj: http://www.flickr.com/photos/28048126@N00/1095520388/in/set-72157600191195167/)    Technické dáta (Mi-24):     Priemer nosného rotoru: 17,3 m   Priemer vyrovnávacieho rotoru: 3,97 m   Dĺžka s otáčajúcimi sa rotormi: 21,35 m   Výška: 5,47 m (s otáčajúcim sa vyrovnávacím rotorom)   Dĺžka trupu: 17,51 m   Rozpätie krídel: 6,54 m   Prázdna hmotnosť: 8 500 kg   Maximálna vzletová hmotnosť: 12 000 kg   Výkon motoru: 2190 hp (každy motor)   Maximálna rýchlosť: 335 km/h   Dostup: 4500 m   Dolet: 450 km         Bojové nasadenie:   -	Etiópsko – Somálska vojna o Ogaden (1977-1978) – Najväčšia vojna, ktorú kedy viedli proti sebe dva africké štáty. Skončila sa porážkou Somálska, proti ktorému bojovala Etiópia, Kuba, Južný Jemen a Sovietsky zväz, na ktorého strane boli masívne nasadzované Mi-24.  -	Kambodžsko – Vietnamská  vojna (1978) – Vietnamský vpád do Kambodže, kde jeho vojská zvrhli vládu Červených Kmérov a nastolili provietnamskú vládu. Vojenská prítomnosť okupačných síl trvala do roku 1989. Mi-24 boli úspešne nasadzované na vietnamskej strane.  -	Čad – Líbyjský konflikt (1978-1987) – V tomto konflikte používala Líbyjská strana stroje Mi-24 a Mi-25 k zásahom na území Čadu počas občianskej vojny v tejto krajine. Po prvý krát boli nasadené do bojov v októbri 1980. V roku 1987, počas zásahu proti líbyjským silám v Čade, ukoristili vojaci Francúzska a USA tri vrtuľníky Mi-25. Tieto stroje boli následne poslané na preskúmanie do Francúzska, odkiaľ neskôr jeden putoval do Veľkej Británie a jeden do USA.  -	Sovietska intervencia v Afganistane (1979-1989) – Mi-24 boli masívne nasadzované proti mudžahedínom zo strany Sovietov a afganskej armády (po tom, ako bola zvrhnutá pôvodná vláda a sovietmi dosadená nová). Situáciu Sovietom v tomto konflikte vážne komplikovalo americké zásobovanie povstalcov modernými zbraňami. Vrtuľníkom robili problémy najmä americké z ramena odpaľované protivzdušné strely FIM-92 Stinger s infračerveným navádzaním. Posledný Mi-24 bol v tejto vojne zostrelený 2.2.1989.  -	Iracko – Iránska vojna (1980-1988) – Táto vojna sa zapísala do histórie ako jediná, v ktorej proti sebe bojovali vrtuľníky, a to konkrétne Mi-25 na irackej strane a americký AH-1J SeaCobras na strane Iránu. Celkové skóre týchto súbojov bolo 10 zostrelených  iránskych AH-1J ku šiestim zostreleným Mi-25. Okrem toho si piloti Mi-25 nárokujú aj 43 zostrelení iránskych vrtuľníkov  ostatných typov, najmä typu Agusta-Bell Hueys. Všeobecne sa dá povedať, že iracký piloti mali svoje Mi-25 v obľube, hlavne pre ich vysokú rýchlosť, dlhý dolet, vysokú univerzálnosť a možnosť veľkého zbraňového zaťaženia. Nespokojný boli ale s malou efektivitou protipancierových striel a menšou obratnosťou. Toto si neskôr vynútilo vyvinutie novej bojovej stratégie pre Mi-25.  -	Občianska vojna v Nikarague (1980-1988) – Počas tejto vojny boli nasadzované Mi-25 nikaragujskej armády proti povstalcom podporovaných zo strany USA. Reganova administratíva považovala dodávky strojov Mi-25 za hlavnú príčinu eskalácie napätia v strednej Amerike.  -	Občianska vojna na Srí Lanke (1987-doteraz) – Srí Lanka je tiež jednou z krajín, ktorá používa Mi-24/25 ako účinnú zbraň proti povstalcom na svojom území. Tieto stroje spôsobujú povstaleckej skupine „Tigri oslobodenia tamilského Ílámu“ ťažké straty, pretože tí proti Mi-24 nemajú dostatočnú obranu.  -	Vojna v Perzskom zálive (1991) – Mi-24 boli hojne využívané armádou Saddama Husseina pri útoku na Kuvajt.  -	Občianska vojna v Sierra Leone (1991-2002) – Vojenské letectvo Sierra Leonu používalo svoje tri stroje Mi-24 pilotované žoldniermi z JAR v akciách na potlačenie miestnych rebelov.  -	Chorvátska vojna za nezávislosť (90-te roky) – Chorvátske ozbrojené sily v tomto konflikte vlastnili a úspešne nasadzovali 12 vrtuľníkov Mi-24 dodaných z Ukrajiny na prieniky hlboko na územie nepriateľa a paralyzovanie jeho komunikácií a vojenským cieľov.   -	Prvá a druhá vojna v Čečensku (začiatky v 1994 a 1999, koniec druhej v 2009) – V tomto konflikte došlo k masívnemu nasadzovaniu Mi-24 zo strany armády Ruskej federácie proti čečenským teroristom.  -	Sudánska občianska vojna (1995-2008) – Mi-24 bojovali na strane sudánskeho letectva proti miestnym povstalcom. Celkovo bolo do Sudánu dodaných 18 týchto strojov, z toho šesť v roku 1995 a zostávajúcich 12 v roku 2001.  -	Občianska vojna v Nepále (1996-2006) – Tu boli nasadzované Mi-24 na strane nepálskeho letectva proti maoistickým rebelom. Hoci Nepál vlastnil iba 2 tieto stroje, boli veľmi intenzívne nasadzované do bojov.  -	Prvá a druhá vojna v Kongu (1996-2003) – Aj keď bola prvá vojna v Kongu pomerne rozsiahla s viac ako 200 000 mŕtvymi civilnými obeťami, ani zďaleka sa nedá porovnávať s tou druhou, ktorej sa pripisujú prívlastky ako Africká svetová vojna alebo Veľká africká vojna. Bol to najkrvavejší konflikt na svete od druhej svetovej vojny, ktorý si vyžiadal viac ako 3,8  milióna obetí a v ktorom bojovalo proti sebe deväť afrických štátov a 25 ozbrojeneckých skupín. Hlavnou príčinou bol boj o nerastné suroviny, pre ktoré sa do boja postupne zapojili aj štáty, ktorých sa tento konflikt spočiatku netýkal. Malé počty Mi-24 boli v tomto krvavom konflikte nasadené na strane Demokratickej republiky Kongo, v Zimbabwe a v Zaire. Stroje typu Mi-24/35 používali tiež jednotky OSN pôsobiace v tejto oblasti.  -	Vojna v Kosove (1998-1999) – Mi-24 boli použité na strane Srbska v bojoch proti teroristom z Kosovskej oslobodzovacej armády.   -	Konflikt v Macedónsku (II. 2001 – VIII. 2001) – Tento pomerne krátky konflikt vyprovokovala Národná oslobodenecká armáda (NLA) svojim útokom na macedónske ozbrojené zložky. NLA, podobne ako Kosovská oslobodzovacia armáda, sú albánske teroristické organizácie snažiace sa o „oslobodenie“ území s veľkou albánskou menšinou v susedných štátoch Albánska. Mi-24 zapojené v tomto konflikte používalo macedónske letectvo.    (Foto: Macedónske Mi-24V zasahujúce proti albánskym teroristom. Zdroj: http://forum.valka.cz/viewtopic.php/title/Mil-Mi-24V-Hind-E/p/166002#166002)  -	Občianska vojna v Côte d'Ivoire (Pobrežie slonoviny) (2002-2004) – Päť vrtuľníkov Mi-24 pilotovaných žoldnierskymi pilotmi tu bojovalo vo farbách Pobrežia Slonoviny. Všetky však boli zničené francúzskymi silami počas odvetného útoku za napadnutie francúzskej základne, pri ktorom zahynulo deväť vojakov.  -	Vojna v Iraku (2003-doteraz) – V tejto vojne, ktorá mala za cieľ zvrhnúť diktátorský režim Saddama Husseina a nastoliť demokraciu v Iraku, boli použité Mi-24 na strane spojeneckých síl. Konkrétne sa jednalo o šesť poľských strojov.  -	Vojna v Somálsku (2006-doteraz) – Vrtuľníky Mi-24/35 sú používané na oboch stranách konfliktu.  -	Vojna v Južnom Osetsku (2008) – V tomto rusko-gruzínskom konflikte bojovali Mi-24 na ruskej strane.     Pre zaujímavosť: podrobný návod na pilotovanie vrtuľníku Mi-24 v českom jazyku! http://www.vrtulnik.cz/teorie/jarda9.htm      Užívatelia:     Afganistan   Alžírsko   Angola   Arménsko   Azerbajdžan   Bielorusko   Brazília   Bulharsko   Čad   Cyprus   Chorvátsko   Kuba   Česká republika   Československo   Nemecká spolková republika   Východné Nemecko (NDR)   Rovníková Guinea   Maďarsko   India   Indonézia   Irán   Irak   Pobrežie Slonoviny   Kazachstan   Kirgizsko   Líbya   Macedónsko   Mongolsko   Mozambik   Namíbia   Nepál   Nikaragua   Nigéria   Severná Kórea   Peru   Poľsko   Ruská federácia   Rwanda   Senegal   Srbsko   Sierra Leone   Slovenská republika   Srí Lanka   Sudán   Síria   Tadžikistan   Uganda   Ukrajina   USA   Uzbekistan   Venezuela   Vietnam   Jemen   Zimbabwe   ZSSR            DOPORUČUJEM! KOMPLETNÝ ZOZNAM LIETADIEL ČS ARMÁDY V OBDOBÍ 1945-1992!     http://culak.blog.sme.sk/c/185489/Kompletny-zoznam-lietadiel-v-ceskoslovenskej-armade-v-r-1945-1992.html   KOMPLETNÝ ZOZNAM TYPOV LIETADIEL SLOVENSKEJ ARMÁDY OD ROKU 1993   http://culak.blog.sme.sk/c/185889/Kompletny-zoznam-typov-lietadiel-slovenskej-armady-od-roku-1993.html        Zdroje článku:   http://www.mosr.sk/   http://www.vvzs.mil.sk/   http://www.airforce-technology.com/projects/hind/   http://www.military.cz/russia/air/helicopters/Mi-24/Mi-24.htm   http://www.globalsecurity.org/military/world/russia/mi-24.htm   http://www.airbase.cz/cms/?q=mil-mi-24-hind   http://www.army.cz/images/id_13001_14000/13264/ar_05_2009.pdf   http://forum.valka.cz/index.php/f/501854/title/Mil   http://www.militaryfactory.com/aircraft/detail.asp?aircraft_id=70   http://en.wikipedia.org/wiki/Mil_Mi-24   http://sk.wikipedia.org/wiki/Mil_Mi-24   http://www.mil.ru/   RICCARDO, N.: Historie letectví (preklad talianskeho originálu La storia del volo). 2006 

                 
                                        
                        
                        Zdieľať
                    

                    
                            
                                    
                                    Zdieľať na
                            
                             
                                    
                             
                    

                                                                                                                        
                            
                            Diskusia: (15)
                        
                    
                    
                        
                        Zvýšte karmu
                    
                 
             

                             
            
                     
                         Ďalšie články blogera 
                         
                                                             
                                    
                    	                                                                                        

                                                                        
                                    
                                        Jozef Culák 
                                        
                                            Procházka - Lipšic  (1:0)
                                        
                                    
                                 
                                                             
                                    
                    	                                                                                        

                                                                        
                                    
                                        Jozef Culák 
                                        
                                            Nechcem budovať silný sociálny štát
                                        
                                    
                                 
                                                             
                                    
                    	                                                                                        

                                                                        
                                    
                                        Jozef Culák 
                                        
                                            [Foto] Večerné slnko na večernej tráve
                                        
                                    
                                 
                                                             
                                    
                    	                                                                                        

                                                                        
                                    
                                        Jozef Culák 
                                        
                                            Hľadá sa dno. Pravicové.
                                        
                                    
                                 
                                                             
                                    
                    	                                                                                        

                                                                        
                                    
                                        Jozef Culák 
                                        
                                            [Foto] Auschwitz I, Auschwitz - Birkenau
                                        
                                    
                                 
                                                     
                        
                            Ďalšie články blogera: Jozef Culák
                        
                     
            
                     
                         Ďalšie články z rubriky veda a technika 
                         
                                                             
                                    
                                                            	                                                                                        

                                                                                                
                                    
                                        Mária Džunková 
                                        
                                            Prečo vôbec nevadí, ak nemáte DNA sekvenátor
                                        
                                    
                                 
                                                             
                                    
                                                            	                                                                                        

                                                                                                
                                    
                                        Jana K. Jones 
                                        
                                            Filozofia vedy - Čo, podľa Poppera, veda dokazuje?
                                        
                                    
                                 
                                                             
                                    
                                                            	                                                                                        

                                                                                                
                                    
                                        MUDr. Peter Žiak, PhD. 
                                        
                                            Prečo si niekedy nevšimneme červenú?
                                        
                                    
                                 
                                                             
                                    
                                                            	                                                                                        

                                                                                                
                                    
                                        Jana K. Jones 
                                        
                                            Filozofia vedy - kritérium falzifikovateľnosti podľa Karla Poppera
                                        
                                    
                                 
                                                             
                                    
                                                                                                                    

                                                                                                
                                    
                                        Miroslav Lisinovič 
                                        
                                            Tatra 87
                                        
                                    
                                 
                                                     
                        
                            Ďalšie články z rubriky veda a technika
                        
                     
                 
            
                    
 
     Hlavné správy 
         
        
                                

        
         
            AKTUALIZOVANÉ 16:00
             Rubeľ kolabuje, ruská vláda má mimoriadne rokovať 
             Jeden dolár stál v utorok poobede už viac ako 78 rubľov, razantné zvýšenie úrokov nepomohlo. 
         
     
         
        
                                

        
         
            ZAHRANIČIE
             Taliban zabil v škole v Pakistane vyše sto ľudí, väčšinou deti 
             Militanti vtrhli do vojenskej školy v policajných rovnošatách. 
         
     
         
        
                                

        
         
            KOMENTARE.SME.SK
             Cynická obluda: Medzičasom na opustenom ostrove 
             Stroskotanci majú veľké šťastie, že sú dvaja. Lacné vtipy na úrovni ich autora. 
         
     
     

                 
     
    
     
        
 

     
                
                            
                    



         
            
                Jozef Culák
            
         
        culak.blog.sme.sk (rss)
         
                                     
     
        Životné motto: Nič na na svete nie je čiernobiele.
        
     
     
                     
                             
             

     
        
            
                
                    Počet článkov
                    57
                
                
                    Celková karma
                    
                                                0.00
                    
                
                
                    Priemerná čítanosť
                    4868
                
            
        
     

             

             Zoznam rubrík 
            
             
                                     
                        
                            Foto sekcia
                        
                     
                                     
                        
                            Postrehy a zaujímavosti
                        
                     
                                     
                        
                            Vojenské letectvo SR
                        
                     
                                     
                        
                            Vojenské letectvo ČS od 1945
                        
                     
                                     
                        
                            Nezaradené
                        
                     
                             
         
    

                     
                        
                                                            
                     Obľúbené články 
                    
                     
                                                 
                                             
                                     
                                                                             
                                             
                                     
                                                                             
                                             
                                     
                                                                             
                                             
                                     
                                                                             
                                             
                                     
                                                                             
                                             
                                     
                                                                   
                     Obľúbené knihy 
                    
                     
                                                 
                                            Bohatství národů (Adam Smith)
                                     
                                                                             
                                             
                                     
                                                                   
                     Obľúbené blogy 
                    
                     
                                                 
                                            Aliancia Fair-play
                                     
                                                                             
                                            Juraj Lukáč
                                     
                                                                             
                                            Milan Barlog
                                     
                                                                             
                                            Peter Paulík
                                     
                                                                             
                                            Eduard Kladiva
                                     
                                                                             
                                            Stanislav Thomka
                                     
                                                                             
                                            Milan Hraško
                                     
                                                                             
                                            Karol Kaliský
                                     
                                                                             
                                            Ivan Rias
                                     
                                                                             
                                            Veronika Bahnová
                                     
                                                                   
                     Obľúbené stránky 
                    
                     
                                                 
                                             
                                     
                                                                             
                                             
                                     
                                                                             
                                             
                                     
                                                                             
                                             
                                     
                                                                             
                                             
                                     
                                                                             
                                             
                                     
                                                                             
                                             
                                     
                                                                             
                                             
                                     
                                                                             
                                             
                                     
                                                                             
                                             
                                     
                                                                             
                                             
                                     
                            
             
         
            

        

     






            
    
        
    
 

        
         
         
             Už ste čítali? 
         
         
 

 kultura.sme.sk 
 Margaréta sa spriahla s diablom, no mala Kristovu pravdu 
 
 

 www.sme.sk 
 Pútnické miesta The Beatles alebo ako ľudia kráčajú po zebre 
 
 

 cestovanie.sme.sk 
 Lovia za svitania a v hmle 
 
 

 www.sme.sk 
 Ako sa valila lavína slobody. Ako padal komunizmus 
 
 

 kultura.sme.sk 
 Žiadne retro, poriadny biznis. Takto sa lisuje platňa 
 
	   
 


        
         
            
         

     

    
     
 
 
	 

		Kontakty
		Predplatné
		Etický kódex
		Pomoc
		Mapa stránky
		
	 
 
 
	 
		 
			Widget
			RSS
			Newsletter
		 
		 
			Mobil
			Smartphone
			Kindle
			Televízor
		 
		 
			Facebook
			Twitter
			Google+
		 
	 
	 
		
	 
	 
		Ďalšie weby skupiny: Prihlásenie do Post.sk
		Új Szó Slovak Spectator
		Agentúrne správy 
		Vydavateľstvo
		Inzercia
		Osobné údaje
		Návštevnosť webu
		Predajnosť tlače
		Petit Academy
		SME v škole 		© Copyright 1997-2014 Petit Press, a.s. 
	 
 
 
 


          
        
            
            

        
    

    
    


    


    
        
        
        
        
        
        
        
            
            
        
        
        
        
         
                                
               





 

 



        

 




