
      
    
    

     
	 
	 
 SME.sk 
 Zľavy 
 Zoznámenie 
 Reality 
 Dovolenky 
 Pizza 
 Reštaurácie 
 Recenzie 
 Inzeráty 
 Naničmama 	 
Nákupy 
		 
 Filmy na DVD 
 Hodinky 
 Parfémy 
 SME knihy a DVD 
 Superhosting 
 Tlačiareň 
 Víno 
 Tvorba webov 
 Predplatné SME 
 ProSenior 		 
	 
	 
 
	 
 


    
    
        
        
         
          
         
    

    
      
         
            
             
     
        
        
     
    Blog.SME.sk
 

    

         
        
                 
     
         
            Sme.sk
         
         
            Domov
         
         
            Regióny
         
         
            Ekonomika
         
         
            Svet
         
         
            Komentáre
         
         
            Kultúra
         
         
            Šport
         
         
            TV
         
         
            Auto
         
         
            Tech
         
         
            Poradňa
         
         
            Žena
         
         
            Bývanie
         
         
            Zdravie
         
         
            Blog
         
     
 

         
            
     
                                                         Politika 
                                                                                     Spoločnosť 
                                                                                     Cestovanie 
                                                                                     Ekonomika 
                                                                                     Fotografie 
                                                                                     Jedlo 
                                                                                     Kultúra 
                                                                                             
Ďalšie
                             
                                                                                         Lifestyle 
                                                                                                                                                                             Médiá 
                                                                                                                                                                             Nezaradené 
                                                                                                                                                                             Súkromné 
                                                                                                                                                                             Šport 
                                                                                                                                                                             Veda a technika 
                                                                                                                                                                             Zábava 
                                                                                                                                                                             Poézia 
                                                                                                                                                                             Próza 
                                                                                                                                                                             Kódex blogera 
                                                                                 
                         
                                                 
            Blogeri
         
     


            

    
    Prihlásiť sa


    
    Založte si blog



    
    Odhlásiť sa


    
    




         

        
        
         
            
         
         
                
     
                 
            SME.sk &gt;
            Blog.SME.sk &gt;
                            Ďuri Čižmárik
                                        &gt;
                Túlanie sa Bratislavou
                     
                 Hainburský Rothelstein 

        
            
                                    15.4.2008
            o
            9:04
                        |
            Karma článku:
                11.12
            |
            Prečítané 
            3672-krát
                    
         
     
         
             

                 
                    Kam vedie ten tunel v tej skale? Najskôr sa nám ani veľmi nechcelo skúmať, ako vyzerá tá cestička. Zvedavosť bola silnejšia. Najmä u mňa a tak sme sa s Peťkou prešli popri nádhernom modrom Dunaji v hainburských dunajských luhách. Ak si stale myslíte, že v Bratislave niet kam ísť, tu mate ďalší námet. 
                 

                 
 
  
 Hainburg je utešené mestečko a je viac než len tranzitnou stanicou na Viedeň 
 
 
    
 
 Leží v oblasti rakúskeho národného parku Donau Auen. 
 
   
 
  
  
                                                                                                        (foto Peťka) 
 
 Jednou z trás, ktoré ponúka je chodník popri Dunaji. 
 
   
 
  Brehy vyzerajú ako morská pláž. V diaľke dokonca vidno morský piesok. Tá malá žltá škvrnka vzadu na obzore je Sandberg. Pozostatok pravekých morí. 
 
   
 
  Rieka jet u vcelku pokojná. 
 
   
 
  Cieľom bol Rothelstein. Na mape sa tváril ako zrúcanina. Vskutku ňou aj bol. Ostalo tu lákavé schodisko. 
 
   
 
  Keď ním vyjdete, ocitnete sa asi 20 metrov nad riekou na hradnom brale. 
 
   
 
  Je tu dobrý výhľad. 
 
   
 
   
 
  
 
  Z hradu už veľa neostalo. 
 
   
 
                                                                                                       (foto Peťka) 
  
 Cestou späť som obdivoval scaly. Chcel som napísať vápencové, ale ktovie, možno boli zlepencové. Geografia bola dávno. 
 
   
  
                                                                                                     (foto Peťka) 
 
 Najzáhadnejšie sú diery v skalách, ktorými vedie chodník. Jedna z nich má asi 8 metrov, škoda že som čelovku nechal doma. Inak sú bezpečne priechodné, nebojte sa. 
 
   
  
                                                                                                       (foto Peťka) 
 
 Jar sa začína aj na bralách. 
 
   
 
                                                                                                      (foto Peťka) 
  
 A pomaly späť k mestu. 
 
   
 
  Prechádzka to bola krátka, trvá asi hodinku vychádzkovým tempom, ako stvorená pre slnečné jarné dni. 
 
   
                                                                                                      (foto Peťka) 
 
 
 
 
 
 
 
 
 
 
 
 
 
 
 
 
 
 
 
 
 
 
 
 
 
 
 
 
 
 
 
 
 
 
 
 
 
 
 
 
 
 
 
 
 
 
 
 
 
 
 
 
 
 
 
 
 
 
 
 
 
 
 
 
 
 
 
 
 
 
 
 
 
 
 
 
 
 
 
 
 
 
 
 
 
 
 
 
 
 
 
 
 
 
 
 
 
 
 
 
 
 
 
 
 
 
 
 
 
 
 
 
 
 
 
 
 
 
 
 
 
 
 
 
 
 
 
 
 
 
 
 
 
 
 
 
 
 
 
 
 
 
 
 
 
 
 
 
 
 
 
 
 
 
 
 
 
 
 
 
 
 
 
 
 
 
 
 
 
 
 
 
 
 
 
 
 
 
 
 
 
 
 
 
 
 
 
 
 
 
 
 
 
 
 
 
 
 
 
 
 
 
 
 
 
 
 
 
 
 
 
 
 
 
 
 
 
 
 
 
 
 
 
 
 
 
 
 
 
 
 
 
 
 
 
 
 
 
 
 
 
 
 
 
 
 
 
 
 
 
 
 
 
 
 
 
 
 
 
 
 
 
 
 
 
 
 
 
 
 
 
 
 
 
 
 
 
 
 
 
 
 
 
 
 
 
 
 
 
 
 
 
 
 
 
 
 
 
 
 
 
 
 
 
 
 
 
 
 
 
 
 

                 
                                        
                        
                        Zdieľať
                    

                    
                            
                                    
                                    Zdieľať na
                            
                             
                                    
                             
                    

                                                                                                                        
                            
                            Diskusia: (2)
                        
                    
                    
                        
                        Zvýšte karmu
                    
                 
             

                             
            
                     
                         Ďalšie články blogera 
                         
                                                             
                                    
                    	                                                                                        

                                                                        
                                    
                                        Ďuri Čižmárik 
                                        
                                            Vďakyvzdanie po novobansky
                                        
                                    
                                 
                                                             
                                    
                    	                                                                                        

                                                                        
                                    
                                        Ďuri Čižmárik 
                                        
                                            Hokejbalová lahôdka SVK - USA 4:1
                                        
                                    
                                 
                                                             
                                    
                    	                                                                                        

                                                                        
                                    
                                        Ďuri Čižmárik 
                                        
                                            Dolomiti - Alta via 1 - Na chatu Biella
                                        
                                    
                                 
                                                             
                                    
                    	                                                                                        

                                                                        
                                    
                                        Ďuri Čižmárik 
                                        
                                            Dolomiti - Nevýstup na Santa Croce a Snežná jaskyňa
                                        
                                    
                                 
                                                             
                                    
                    	                                                                                        

                                                                        
                                    
                                        Ďuri Čižmárik 
                                        
                                            Party u Madame Tussaud´s
                                        
                                    
                                 
                                                     
                        
                            Ďalšie články blogera: Ďuri Čižmárik
                        
                     
            
                     
                         Ďalšie články z rubriky cestovanie 
                         
                                                             
                                    
                                                                                                                    

                                                                                                
                                    
                                        Miroslav Lisinovič 
                                        
                                            Horná brána v Modre
                                        
                                    
                                 
                                                             
                                    
                                                                                                                    

                                                                                                
                                    
                                        Martina Rúčková 
                                        
                                            Z Európy na Kaukaz: Çanakkale a bájna Trója
                                        
                                    
                                 
                                                             
                                    
                                                            	                                                                                        

                                                                                                
                                    
                                        Andrea Grešová 
                                        
                                            To je moje Rumunsko
                                        
                                    
                                 
                                                             
                                    
                                                                                                                    

                                                                                                
                                    
                                        Ján Serbák 
                                        
                                            Pamätník čs. armády s vojnovým cintorínom na Dukle
                                        
                                    
                                 
                                                             
                                    
                                                            	                                                                                        

                                                                                                
                                    
                                        Peter Kover 
                                        
                                            22 krajín (miest), ktoré sa naozaj oplatí vidieť
                                        
                                    
                                 
                                                     
                        
                            Ďalšie články z rubriky cestovanie
                        
                     
                 
            
                    
 
     Hlavné správy 
         
        
                                

        
         
            KOMENTÁR PETRA SCHUTZA
             Len korupčné škandály preferencie Smeru nepotopia 
             Ak chce opozícia vo voľbách zvrhnúť Smer, bez rozšírenia repertoáru si neporadí. 
         
     
         
        
                                

        
         
            AKTUALIZOVANÉ O 21:30
             Rubeľ pocítil pád na dno, Rusko je vo finančnej kríze 
             Dolár v utorok stál už takmer 80 rubľov, pod hladinu ho tlačia najmä nízke ceny ropy. 
         
     
         
        
                                

        
         
            AKTUALIZOVANÉ 23:50
             Taliban zabil v škole v Pakistane 132 detí 
             Pakistan až teraz poriadne zatlačil na islamistov. Odplatou je útok na deti vojakov. 
         
     
     

                 
     
    
     
        
 

     
                
                            
                    



         
            
                Ďuri Čižmárik
            
         
        cizmarik.blog.sme.sk (rss)
         
                        VIP
                             
     
        Niekto tam hore ma má rád.
        
     
     
                     
                             
             

     
        
            
                
                    Počet článkov
                    132
                
                
                    Celková karma
                    
                                                0.00
                    
                
                
                    Priemerná čítanosť
                    2347
                
            
        
     

             

             Zoznam rubrík 
            
             
                                     
                        
                            Túlanie sa Bratislavou
                        
                     
                                     
                        
                            Túlanie sa Slovenskom
                        
                     
                                     
                        
                            Túlanie sa Európou
                        
                     
                                     
                        
                            Nielen s Objektívom na ceste
                        
                     
                                     
                        
                            Reflexie
                        
                     
                                     
                        
                            Len tak som si všimol
                        
                     
                                     
                        
                            Fejtóny nepíšem
                        
                     
                                     
                        
                            Zažité cestou
                        
                     
                                     
                        
                            Súkromné
                        
                     
                                     
                        
                            Nezaradené
                        
                     
                             
         
    

                     
                        
                                                            
                     Obľúbené články 
                    
                     
                                                 
                                            Keď úsmev bolí
                                     
                                                                   
                     Obľúbené blogy 
                    
                     
                                                 
                                            Umelkyňa Offca
                                     
                                                                             
                                            Friend of mine
                                     
                                                                             
                                            Premýšľajúci Andrej Tusičišny
                                     
                                                                             
                                            Ten čo nelieta v kŕdli Jožo Červeň
                                     
                                                                             
                                            Hľadajúci Paľo Škoda
                                     
                                                                             
                                            Motorkár Dindi
                                     
                                                                             
                                            Reflektované bytie Vlado
                                     
                                                                   
                     Obľúbené stránky 
                    
                     
                                                 
                                            Daruj jedlo UNICEF
                                     
                                                                             
                                            Šachová stránka, kde hrám
                                     
                            
             
         
            

           
     Pošlite odkaz blogerovi 
    
         
            
         

         
         
         
         

         
         
Odosielateľ (e-mail)
 
         
Text
 
         
             
Protispamová ochrana 
 
 Zle. Skúste znova. 
Opíšte slová z obrázku: Načítať iné slová 
 Get an image CAPTCHA 
 
 
         
                 
            
         
    
  


 

     






            
    
        
    
 

        
         
         
             Už ste čítali? 
         
         
 

 kultura.sme.sk 
 Margaréta sa spriahla s diablom, no mala Kristovu pravdu 
 
 

 www.sme.sk 
 Pútnické miesta The Beatles alebo ako ľudia kráčajú po zebre 
 
 

 cestovanie.sme.sk 
 Lovia za svitania a v hmle 
 
 

 www.sme.sk 
 Ako sa valila lavína slobody. Ako padal komunizmus 
 
 

 kultura.sme.sk 
 Žiadne retro, poriadny biznis. Takto sa lisuje platňa 
 
	   
 


        
         
            
         

     

    
     
 
 
	 

		Kontakty
		Predplatné
		Etický kódex
		Pomoc
		Mapa stránky
		
	 
 
 
	 
		 
			Widget
			RSS
			Newsletter
		 
		 
			Mobil
			Smartphone
			Kindle
			Televízor
		 
		 
			Facebook
			Twitter
			Google+
		 
	 
	 
		
	 
	 
		Ďalšie weby skupiny: Prihlásenie do Post.sk
		Új Szó Slovak Spectator
		Agentúrne správy 
		Vydavateľstvo
		Inzercia
		Osobné údaje
		Návštevnosť webu
		Predajnosť tlače
		Petit Academy
		SME v škole 		© Copyright 1997-2014 Petit Press, a.s. 
	 
 
 
 


          
        
            
            

        
    

    
    


    


    
        
        
        
        
        
        
        
            
            
        
        
        
        
         
                                
               





 

 



        

 




