
      
    
    

     
	 
	 
 SME.sk 
 Zľavy 
 Zoznámenie 
 Reality 
 Dovolenky 
 Pizza 
 Reštaurácie 
 Recenzie 
 Inzeráty 
 Naničmama 	 
Nákupy 
		 
 Filmy na DVD 
 Hodinky 
 Parfémy 
 SME knihy a DVD 
 Superhosting 
 Tlačiareň 
 Víno 
 Tvorba webov 
 Predplatné SME 
 ProSenior 		 
	 
	 
 
	 
 


    
    
        
        
         
          
         
    

    
      
         
            
             
     
        
        
     
    Blog.SME.sk
 

    

         
        
                 
     
         
            Sme.sk
         
         
            Domov
         
         
            Regióny
         
         
            Ekonomika
         
         
            Svet
         
         
            Komentáre
         
         
            Kultúra
         
         
            Šport
         
         
            TV
         
         
            Auto
         
         
            Tech
         
         
            Poradňa
         
         
            Žena
         
         
            Bývanie
         
         
            Zdravie
         
         
            Blog
         
     
 

         
            
     
                                                         Politika 
                                                                                     Spoločnosť 
                                                                                     Cestovanie 
                                                                                     Ekonomika 
                                                                                     Fotografie 
                                                                                     Jedlo 
                                                                                     Kultúra 
                                                                                             
Ďalšie
                             
                                                                                         Lifestyle 
                                                                                                                                                                             Médiá 
                                                                                                                                                                             Nezaradené 
                                                                                                                                                                             Súkromné 
                                                                                                                                                                             Šport 
                                                                                                                                                                             Veda a technika 
                                                                                                                                                                             Zábava 
                                                                                                                                                                             Poézia 
                                                                                                                                                                             Próza 
                                                                                                                                                                             Kódex blogera 
                                                                                 
                         
                                                 
            Blogeri
         
     


            

    
    Prihlásiť sa


    
    Založte si blog



    
    Odhlásiť sa


    
    




         

        
        
         
            
         
         
                
     
                 
            SME.sk &gt;
            Blog.SME.sk &gt;
                            Petra Čergeťová
                                        &gt;
                financie
                     
                 Fond ochrany vkladom ako psychický uspokojovateľ 

        
            
                                    2.4.2010
            o
            11:11
                        (upravené
                9.1.2012
                o
                13:10)
                        |
            Karma článku:
                4.67
            |
            Prečítané 
            917-krát
                    
         
     
         
             

                 
                    Môj dnešný príspevok je podnietený včerajšími televíznymi novinami na jednej z komerčných televíznych staníc na Slovensku.
                 

                 
 internet
       Keď prepukla pred vyše rokom hospodárska kríza, uši mi rezali vyjadrenia vlády, že ochranu vkladov v bankách zvyšujú na 100% a garancia má byť Fond ochrany vkladov, ktorý, v prípade krachu bankovej inštitúcie,  vyplatí klientom 100% ich financií.   Včerajšia 25. reportáž s titulkom "Majitelia bytov pozor" zase zabrdla do FOV. V tejto reportáži odznela informácia, že majitelia bytov by mali podľa  nového zákona viac zaplatiť do spoločného fondu na opravu bytov. Druhá informácia sa  týkala ochrany týchto vkladov. Podľa redaktora zmena zákona priniesla dobrú správu a to, že o svoje peniaze prispievatelia neprídu. Pretože tieto financie podliehajú ohrane vkladov. Laicky povedané, ak by banka, v ktorej sú financie z fondu na opravu bytov skrachovala, peniaze vyplatí ľuďom Fond ochrany vkladov. HA HA HA. Podľa práva je to pravda. Ako psychický uspokojovateľ je táto správa priam excelentná. Lenže čo takto pravda o tom , že FOV je v mínusoch. Áno, FOV vyplatí financie, avšak nikde sa nepíše, že kedy. Či o rok, dva , či desaťročia.   A preto sa nespolieham na banky, štátne garancie a všetko čo je so štátom spojené...     

                 
                                        
                        
                        Zdieľať
                    

                    
                            
                                    
                                    Zdieľať na
                            
                             
                                    
                             
                    

                                                                                                                        
                            
                            Diskusia: (11)
                        
                    
                    
                        
                        Zvýšte karmu
                    
                 
             

                             
            
                     
                         Ďalšie články blogera 
                         
                                                             
                                    
                    	                                                                                        

                                                                        
                                    
                                        Petra Čergeťová 
                                        
                                            Dávate si predsavzatia?
                                        
                                    
                                 
                                                             
                                    
                    	                                                                                        

                                                                        
                                    
                                        Petra Čergeťová 
                                        
                                            Prečo sa ma bojíte? Prečo ma ignorujete?
                                        
                                    
                                 
                                                             
                                    
                    	                                                                                        

                                                                        
                                    
                                        Petra Čergeťová 
                                        
                                            Výber vysokej školy nenechávajte na náhodu
                                        
                                    
                                 
                                                             
                                    
                    	                                                                                        

                                                                        
                                    
                                        Petra Čergeťová 
                                        
                                            Jedno vrece nie je pre všetkých
                                        
                                    
                                 
                                                             
                                    
                    	                                                                                        

                                                                        
                                    
                                        Petra Čergeťová 
                                        
                                            Čertu slúžiš, čert si ťa vezme
                                        
                                    
                                 
                                                     
                        
                            Ďalšie články blogera: Petra Čergeťová
                        
                     
            
                     
                         Ďalšie články z rubriky ekonomika 
                         
                                                             
                                    
                                                                                                                    

                                                                                                
                                    
                                        Michal Spišák 
                                        
                                            Podnikanie vysokých škôl a zamestnávanie študentov
                                        
                                    
                                 
                                                             
                                    
                                                            	                                                                                        

                                                                                                
                                    
                                        Marián Pilat 
                                        
                                            Komunálne voľby sa skončili, ale pre mňa sa všetko len začína
                                        
                                    
                                 
                                                             
                                    
                                                            	                                                                                        

                                                                                                
                                    
                                        Juraj Miškov 
                                        
                                            Gabžigovo?
                                        
                                    
                                 
                                                             
                                    
                                                            	                                                                                        

                                                                                                
                                    
                                        Alexander Ač 
                                        
                                            Nečakaný ropný šok
                                        
                                    
                                 
                                                             
                                    
                                                            	                                                                                        

                                                                                                
                                    
                                        Michal Spišák 
                                        
                                            Sociálne istoty pre mladých.
                                        
                                    
                                 
                                                     
                        
                            Ďalšie články z rubriky ekonomika
                        
                     
                 
            
                    
 
     Hlavné správy 
         
        
                                

        
         
            AKTUALIZOVANÉ 16:00
             Rubeľ kolabuje, ruská vláda má mimoriadne rokovať 
             Jeden dolár stál v utorok poobede už viac ako 78 rubľov, razantné zvýšenie úrokov nepomohlo. 
         
     
         
        
                                

        
         
            ZAHRANIČIE
             Taliban zabil v škole v Pakistane vyše sto ľudí, väčšinou deti 
             Militanti vtrhli do vojenskej školy v policajných rovnošatách. 
         
     
         
        
                                

        
         
            KOMENTARE.SME.SK
             Cynická obluda: Medzičasom na opustenom ostrove 
             Stroskotanci majú veľké šťastie, že sú dvaja. Lacné vtipy na úrovni ich autora. 
         
     
     

                 
     
    
     
        
 

     
                
                            
                    



         
            
                Petra Čergeťová
            
         
        cergetova.blog.sme.sk (rss)
         
                                     
     
         Osoba, ktorá sa chce stať osobnosťou. 
        
     
     
                     
                             
             

     
        
            
                
                    Počet článkov
                    15
                
                
                    Celková karma
                    
                                                0.00
                    
                
                
                    Priemerná čítanosť
                    1461
                
            
        
     

             

             Zoznam rubrík 
            
             
                                     
                        
                            hnevá ma
                        
                     
                                     
                        
                            život napísal
                        
                     
                                     
                        
                            z potuliek po SR aj zo sveta
                        
                     
                                     
                        
                            financie
                        
                     
                                     
                        
                            Súkromné
                        
                     
                                     
                        
                            Nezaradené
                        
                     
                             
         
    

                     
                        
                                                            
                     Obľúbené knihy 
                    
                     
                                                 
                                            Lorna Martinova
                                     
                            
             
         
            

           
     Pošlite odkaz blogerovi 
    
         
            
         

         
         
         
         

         
         
Odosielateľ (e-mail)
 
         
Text
 
         
             
Protispamová ochrana 
 
 Zle. Skúste znova. 
Opíšte slová z obrázku: Načítať iné slová 
 Get an image CAPTCHA 
 
 
         
                 
            
         
    
  


 

     






            
    
        
    
 

        
         
         
             Už ste čítali? 
         
         
 

 kultura.sme.sk 
 Margaréta sa spriahla s diablom, no mala Kristovu pravdu 
 
 

 www.sme.sk 
 Pútnické miesta The Beatles alebo ako ľudia kráčajú po zebre 
 
 

 cestovanie.sme.sk 
 Lovia za svitania a v hmle 
 
 

 www.sme.sk 
 Ako sa valila lavína slobody. Ako padal komunizmus 
 
 

 kultura.sme.sk 
 Žiadne retro, poriadny biznis. Takto sa lisuje platňa 
 
	   
 


        
         
            
         

     

    
     
 
 
	 

		Kontakty
		Predplatné
		Etický kódex
		Pomoc
		Mapa stránky
		
	 
 
 
	 
		 
			Widget
			RSS
			Newsletter
		 
		 
			Mobil
			Smartphone
			Kindle
			Televízor
		 
		 
			Facebook
			Twitter
			Google+
		 
	 
	 
		
	 
	 
		Ďalšie weby skupiny: Prihlásenie do Post.sk
		Új Szó Slovak Spectator
		Agentúrne správy 
		Vydavateľstvo
		Inzercia
		Osobné údaje
		Návštevnosť webu
		Predajnosť tlače
		Petit Academy
		SME v škole 		© Copyright 1997-2014 Petit Press, a.s. 
	 
 
 
 


          
        
            
            

        
    

    
    


    


    
        
        
        
        
        
        
        
            
            
        
        
        
        
         
                                
               





 

 



        

 




