
      
    
    

     
	 
	 
 SME.sk 
 Zľavy 
 Zoznámenie 
 Reality 
 Dovolenky 
 Pizza 
 Reštaurácie 
 Recenzie 
 Inzeráty 
 Naničmama 	 
Nákupy 
		 
 Filmy na DVD 
 Hodinky 
 Parfémy 
 SME knihy a DVD 
 Superhosting 
 Tlačiareň 
 Víno 
 Tvorba webov 
 Predplatné SME 
 ProSenior 		 
	 
	 
 
	 
 


    
    
        
        
         
          
         
    

    
      
         
            
             
     
        
        
     
    Blog.SME.sk
 

    

         
        
                 
     
         
            Sme.sk
         
         
            Domov
         
         
            Regióny
         
         
            Ekonomika
         
         
            Svet
         
         
            Komentáre
         
         
            Kultúra
         
         
            Šport
         
         
            TV
         
         
            Auto
         
         
            Tech
         
         
            Poradňa
         
         
            Žena
         
         
            Bývanie
         
         
            Zdravie
         
         
            Blog
         
     
 

         
            
     
                                                         Politika 
                                                                                     Spoločnosť 
                                                                                     Cestovanie 
                                                                                     Ekonomika 
                                                                                     Fotografie 
                                                                                     Jedlo 
                                                                                     Kultúra 
                                                                                             
Ďalšie
                             
                                                                                         Lifestyle 
                                                                                                                                                                             Médiá 
                                                                                                                                                                             Nezaradené 
                                                                                                                                                                             Súkromné 
                                                                                                                                                                             Šport 
                                                                                                                                                                             Veda a technika 
                                                                                                                                                                             Zábava 
                                                                                                                                                                             Poézia 
                                                                                                                                                                             Próza 
                                                                                                                                                                             Kódex blogera 
                                                                                 
                         
                                                 
            Blogeri
         
     


            

    
    Prihlásiť sa


    
    Založte si blog



    
    Odhlásiť sa


    
    




         

        
        
         
            
         
         
                
     
                 
            SME.sk &gt;
            Blog.SME.sk &gt;
                            Juraj Lörinc
                                        &gt;
                Môj život
                     
                 Letný prieskum VŠVU 2010 

        
            
                                    6.6.2010
            o
            1:18
                        |
            Karma článku:
                5.20
            |
            Prečítané 
            2066-krát
                    
         
     
         
             

                 
                    Dnes sme s milou zobrali po čase zase krpca (a seba) na kultúru. Po druhý raz sme sa spolu vybrali na VŠVU, na výstavu prác študentov. Boli k videniu ročníkové práce, bakalárske práce a to vo všetkých odboroch školy. Grafický design, produktový design, sklo, šperky, fotografie. Ak chcete, môžete ešte zabehnúť v nedeľu 6. júna (čiže dnes, keď sa vyspíme :-), medzi 9. a 18. hodinou. Nejaké info tu, celé to moc nestojí (peňazí to stojí nula, treba len čas a energiu), takže pomer cena/výkon je fantastický.
                 

                Fakt sa mi to páčilo, nejdem špeciálne vyzdvihovať nič konkrétne.     No, predsa len niečo. Mnohí si spomenú na peklo okolo vlka Gyčuru, pôvodného maskota MS v ľadovom hokeji 2011. Maskot bol zmenený, ale impulz (či my na Slovensku nemáme dosť dizajnérov, ktorí by takého maskota oné?) bol na svete.     Nečudo teda, že jednou z tém, na ktorú sme dnes na Drotárskej narazili, bol práve maskot pre MS. Študenti si navrhli vlastných a priamo v ateliéri prebieha dokonca hlasovanie a najlepšieho maskota. Samozrejme švajčiarsky Gyčura a jeho nasledovník sú tiež zaradení. Moc dobre si u návštevníkov nevedú, jasným priebežným lídrov hlasovania je istý Pišta. Mňa zaujal skôr syseľ na anabolikách Fero of Jany Papiernikovej, teda nie ako maskot, ale ako strašná maska.    Zoznámte sa, on je Fero:        Ak sa chcete spoznať ostatných maskotov a najmä Pištu, ktorý je priam zosobnením niektorých návrhov z tunajších diskusií, utekajte na 2. poschodie na Drotárskej.         

                 
                                        
                        
                        Zdieľať
                    

                    
                            
                                    
                                    Zdieľať na
                            
                             
                                    
                             
                    

                                                                                                                        
                            
                            Diskusia: (4)
                        
                    
                    
                        
                        Zvýšte karmu
                    
                 
             

                             
            
                     
                         Ďalšie články blogera 
                         
                                                             
                                    
                    	                                                                                        

                                                                        
                                    
                                        Juraj Lörinc 
                                        
                                            Finále súťaže Martinus Cena Fantázie 2014 - môj pohľad
                                        
                                    
                                 
                                                             
                                    
                    	                                                                                        

                                                                        
                                    
                                        Juraj Lörinc 
                                        
                                            Mať správneho bossa
                                        
                                    
                                 
                                                             
                                    
                    	                                                                                        

                                                                        
                                    
                                        Juraj Lörinc 
                                        
                                            Úskalia hýbania pozíciou
                                        
                                    
                                 
                                                             
                                    
                    	                                                                                        

                                                                        
                                    
                                        Juraj Lörinc 
                                        
                                            ... a ešte jedno ďalšie víťazstvo zo Soči pre Slovensko
                                        
                                    
                                 
                                                             
                                    
                    	                                                                                        

                                                                        
                                    
                                        Juraj Lörinc 
                                        
                                            Ešte jedno víťazstvo zo Soči pre Slovensko
                                        
                                    
                                 
                                                     
                        
                            Ďalšie články blogera: Juraj Lörinc
                        
                     
            
                     
                         Ďalšie články z rubriky kultúra 
                         
                                                             
                                    
                                                            	                                                                                        

                                                                                                
                                    
                                        Jozef Kuric 
                                        
                                            Zapletení - detektívka veľkého kalibru
                                        
                                    
                                 
                                                             
                                    
                                                            	                                                                                        

                                                                                                
                                    
                                        Stanislav Hoferek 
                                        
                                            Referendum na tému "poďme všetko zakázať, všetko bude lepšie"
                                        
                                    
                                 
                                                             
                                    
                                                            	                                                                                        

                                                                                                
                                    
                                        Elena Antalová 
                                        
                                            Nebyť Wintonovho "dieťaťa", nevznikla by Francúzova milenka (dnes ČT 2, 21,45).
                                        
                                    
                                 
                                                             
                                    
                                                                                                                    

                                                                                                
                                    
                                        Milena Veresová 
                                        
                                            Z hrnca do rozprávky
                                        
                                    
                                 
                                                             
                                    
                                                            	                                                                                        

                                                                                                
                                    
                                        Petra Jurečková 
                                        
                                            Oblečie sa za pútnika a vy mu dáte svoje peniaze
                                        
                                    
                                 
                                                     
                        
                            Ďalšie články z rubriky kultúra
                        
                     
                 
            
                    
 
     Hlavné správy 
         
        
                                

        
         
            ZAHRANIČIE
             Protestujúci v Maďarsku strácajú dych, Fidesz ich mätie novými návrhmi 
             Na demonštrácii proti Orbánovej vláde bolo v utorok už len niekoľko tisíc ľudí. 
         
     
         
        
                                

        
         
            AKTUALIZOVANÉ 20:22
             Slovenky v hlavnej skupine nebodovali, Švédky vyhrali o 9 gólov 
             Naše hádzanárky hrali na ME piaty zápas. V Záhrebe proti Švédkam. 
         
     
         
        
                                

        
         
            AKTUALIZOVANÉ O 21:30
             Rubeľ pocítil pád na dno, Rusko je vo finančnej kríze 
             Dolár včera stál už takmer 80 rubľov, pod hladinu ho tlačia najmä nízke ceny ropy. 
         
     
     

                 
     
    
     
        
 

     
                
                            
                    



         
            
                Juraj Lörinc
            
         
        lorinc.blog.sme.sk (rss)
         
                        VIP
                             
     
         Slovák s maďarským menom narodený ešte za starých čias v Čechách. 
 
Na internete známy ako Ruziklan. 
 
Momentálne plusovo sociálny. 
 
IM FIDE v šachovej skladbe od roku 2010. 
 
 
        
     
     
                     
                             
             

     
        
            
                
                    Počet článkov
                    1140
                
                
                    Celková karma
                    
                                                0.00
                    
                
                
                    Priemerná čítanosť
                    1920
                
            
        
     

             

             Zoznam rubrík 
            
             
                                     
                        
                            Audio
                        
                     
                                     
                        
                            Cestovanie
                        
                     
                                     
                        
                            Etudy
                        
                     
                                     
                        
                            Fikcie a paródie
                        
                     
                                     
                        
                            Inšpirované Feynmanom
                        
                     
                                     
                        
                            Jozef Mak
                        
                     
                                     
                        
                            Knihy
                        
                     
                                     
                        
                            Kompozičný šach
                        
                     
                                     
                        
                            Kresby, grafika
                        
                     
                                     
                        
                            Môj život
                        
                     
                                     
                        
                            Úvahy
                        
                     
                                     
                        
                            Výbery, zoznamy
                        
                     
                                     
                        
                            Zaujímavosti
                        
                     
                             
         
    

                     
                        
                                                            
                     Obľúbené články 
                    
                     
                                                 
                                            Kompozičný šach na mojom blogu (obsah)
                                     
                                                                             
                                            Knihy na mojom blogu (usporiadaný zoznam)
                                     
                                                                             
                                            Kupónová privatizace, jak si na ni vzpomínám já
                                     
                                                                             
                                            What do you want me to do? Leave? (from xkcd)
                                     
                                                                             
                                            Statistical Mechanics of Political Change (prečo "nie" zmenám?)
                                     
                                                                             
                                            Negotiating Refinancing Fees (keď si beriete hypotéku)
                                     
                                                                             
                                            Návrat "plachetníc" (EN)
                                     
                                                                             
                                            The Gulag as a worker-discipline device
                                     
                                                                             
                                            Prostonárodnie obyčaje, zvyky a povery / IV. Život rodinný ...
                                     
                                                                             
                                            Hedonic adaptation: Does happiness last?
                                     
                                                                             
                                            The World's Hottest Chili
                                     
                                                                             
                                            Chodbová etiketa
                                     
                                                                             
                                            Kráľ je nahý! A zakrýva sa odporúčacími lístkami
                                     
                                                                             
                                            Určete počet nevěrných párů - hádanka
                                     
                                                                             
                                            Když ráno vstanete a jste opět o něco chudší
                                     
                                                                             
                                            Paradox ruskej rulety
                                     
                                                                             
                                            Nerobím literatúre láskavosti
                                     
                                                                             
                                            Ľahká, ale sympatická šachová úloha
                                     
                                                                             
                                            Kam kráča slovenský internet... nuž... ehm...
                                     
                                                                             
                                            Sport a právní odpovědnost
                                     
                                                                             
                                            Taký ... ehm ... rozhovor s My Chemical Romance
                                     
                                                                             
                                            Ako som prepadol banku (brutus)
                                     
                                                                             
                                            Ako sa dá použiť moc proti prisťahovalcom
                                     
                                                                             
                                            Blbci na pracovišti z pohledu vědy
                                     
                                                                             
                                            Moje nejkratší zaměstnání – hyperinzerce.cz
                                     
                                                                             
                                            Evidence-based scheduling - ako vylepšiť odhady času projektov
                                     
                                                                             
                                            Slovíčka z Economistu
                                     
                                                                             
                                            ICQ: Český a slovenský masochismus v IM (Instant messagingu)
                                     
                                                                             
                                            Customer service at ALL airlines is SO horrible...
                                     
                                                                             
                                            Logická hra Bloxorz
                                     
                                                                             
                                            Kuriózne fotopostrehy II
                                     
                                                                             
                                            Disciplinárne konanie v parlamente
                                     
                                                                             
                                            Slovo dne: Meníčko
                                     
                                                                             
                                            Shit happens! (pohľad rôznych svetonázorov) :-)
                                     
                                                                             
                                            Cesta výťahom s ambicióznou personalistkou - rozhovor
                                     
                                                                             
                                            O hoaxoch - čo je to?
                                     
                                                                             
                                            Slovo dne: drbna
                                     
                                                                             
                                            Cestovné kancelárie - vzor neschopnosti predať
                                     
                                                                             
                                            Anabáza zraneného na bratislavských pohotovostiach
                                     
                                                                             
                                            Užitočné odkazy, napr. pre začínajúcich na voľnej nohe
                                     
                                                                             
                                            Quito (zápisky cestovatele)
                                     
                                                                             
                                            Jaderná válka dnes? (1. díl)
                                     
                                                                             
                                            Zážitek z výplachu mozgů made in Vesmírní lidé
                                     
                                                                             
                                            Jak koupit hlasy na Diggu?
                                     
                                                                             
                                            Ako naleteli modelingovým podvodníkom
                                     
                                                                             
                                            Sumó na Slovensku
                                     
                                                                             
                                            Proč by se (některé) léky měly prodávat v běžných obchodech?
                                     
                                                                             
                                            České matfyzácke stripy :-)
                                     
                                                                             
                                            Vybíráte z bankomatu? Tak pozor na kopírky karet!
                                     
                                                                             
                                            Pomožte babce sebrat trus jejího pejska
                                     
                                                                             
                                            Hot line telekomunikačného operátora - chechtačka
                                     
                                                                             
                                            Building a Smarter To-Do List (time management ideas)
                                     
                                                                             
                                            May I take your order? (American in Chinese restaurant)
                                     
                                                                             
                                            Escher's Belvedere in LEGO
                                     
                                                                             
                                            Dobrý návrh (irónia): kolektívne zmluvy vyššieho rádu
                                     
                                                                             
                                            List susedom o vŕtaní do panelov (pozor, vulgarizmy)
                                     
                                                                             
                                            Lemuel Kolkava: Words of the year (wikiality)
                                     
                                                                             
                                            100 základních programů pro Windows
                                     
                                                                             
                                            4 roky stara predpoved vyvoja na Blizkom Vychode (EN)
                                     
                                                                             
                                            Politická haluz roka: Julia Tymošenko
                                     
                                                                             
                                            FF: Placený průzkum leteckých společností :-)
                                     
                                                                             
                                            Let smrti: AIF cestuje z Indonézie
                                     
                                                                             
                                            Ako sa vyrovnať s rozchodom?
                                     
                                                                             
                                            Strečing je pri športe dôležitý
                                     
                                                                             
                                            Dusoft vraví: Orange klame zákazníkov
                                     
                                                                             
                                            Ako hľadali Dodge v Trstenej
                                     
                                                                             
                                            Stručne o knihe Než přijde vakovlk (dialogy o současné vědě)
                                     
                                                                             
                                            Veľká Británia začína mať plné brýle prisťahovalcov z krajín EÚ
                                     
                                                                             
                                            O krádežiach automobilov
                                     
                                                                             
                                            Súkromie užívateľov vyhľadávačov ... hm
                                     
                                                                             
                                            19 (More) Strategies for Finding Readers
                                     
                                                                             
                                            Spotrebiteľská etika a fair trade (a 2 filmy)
                                     
                                                                             
                                            Čierne je biele (ako dokazovať, že niektorí politici trepú)
                                     
                                                                             
                                            Názor vikárky na realitu sveta (pozor, nevhodný slovník) :-)
                                     
                                                                             
                                            Co se děje, když schopní lidé odcházejí
                                     
                                                                             
                                            Výběr partnerky podle SpamAssassin (trocha humoru)
                                     
                                                                             
                                            Nie je steak ako steak (trocha gastronómie)
                                     
                                                                             
                                            Vraždící surikaty (trocha prírodopisu)
                                     
                                                                             
                                            Vote for the None of the Above :-)
                                     
                                                                             
                                            Veľké aerolínie zlacňujú letenky
                                     
                                                                             
                                            Pražské podzemí: tisíce kilometrů kanálů a potkanů
                                     
                                                                             
                                            Pátranie po číslach na internete
                                     
                                                                             
                                            BA: Kamzík - tip na výlet
                                     
                                                                             
                                            Výborná analýza hlások
                                     
                                                                             
                                            Čert (pataveda) :-)
                                     
                                                                             
                                            Zrušení poplatku za příchozí platby v Poštovní spořitelně
                                     
                                                                             
                                            Posielate fotky z digitálneho foťáku?
                                     
                                                                             
                                            Jak být atraktivní na internetu
                                     
                                                                             
                                            (Aj ja si dávam) Rande pri bratislavských fontánach
                                     
                                                                             
                                            Letné dopravné obmedzenia v okolí Prístavného mosta
                                     
                                                                             
                                            Kultúra na WC :-) (&amp; diskusia :-))
                                     
                                                                             
                                            Ako čítať japonské znaky - úvod
                                     
                                                                             
                                            Kompozičný šach = myšlienkové krasokorčuľovanie
                                     
                                                                             
                                            Chickenator asi čoskoro príde o vodičák
                                     
                                                                             
                                            Global warming and you :-)
                                     
                                                                             
                                            Český futbalový chorál :-)
                                     
                                                                             
                                            The disorder of  these times - neophilia
                                     
                                                                             
                                            Tvrdé opatrenia (minisnstra vnútra) :-)
                                     
                                                                             
                                            Dívka, která umí udělat dojem :-)
                                     
                                                                             
                                            Niektoré podniky 'All You Can Zjesť' v Prahe
                                     
                                                                             
                                            Dubník – Slávikova halda
                                     
                                                                             
                                            Anatomie rozchodu
                                     
                                                                             
                                            Stále menej slovenčiny v Česku
                                     
                                                                             
                                            Reakcie žien pristihnutých in flagranti :-)
                                     
                                                                             
                                            Vzťah mesta k cyklistom v BA - hodnotenie
                                     
                                                                             
                                            Space Invaders v OpenOffice 2.0
                                     
                                                                             
                                            Ako uspieť v Hviezdnej rote SuperStar :-)
                                     
                                                                             
                                            Why I Hate Weblogs (drsný slovník, via AIF)
                                     
                                                                             
                                            Cooperating and competing bloggers
                                     
                                                                             
                                            Ako vytočiť zamestnanca McDonald's
                                     
                                                                             
                                            Trocha zdvořilosti nezaškodí ani na ICQ, ani e-mailem
                                     
                                                                             
                                            Slovenskí šachoví skladatelia v Marianke 2006 - fotografie
                                     
                                                                             
                                            Ako sa zbaviť doterných predajcov (EN, via Tomáš Bella)
                                     
                                                                             
                                            KLF - to bola sila!
                                     
                                                                             
                                            Fanatik (aj u nás...) :-)))
                                     
                                                                             
                                            The myth of keeping up
                                     
                                                                             
                                            Kupujte hodinky Prim, už nie sú najrýchlejšie!
                                     
                                                                             
                                            Za volantom: Podľa pravidiel a predsa víťazne
                                     
                                                                             
                                            Z predveľkonočného nákupu
                                     
                                                                             
                                            Slabina zdravotníckeho štrajku
                                     
                                                                             
                                            Práva pacienta u lekára, lekárnika a v poisťovni
                                     
                                                                             
                                            Novinárska kačica na Nove - hacknutý Seznam
                                     
                                                                             
                                            Ako rozumieť predvolebným sloganom
                                     
                                                                             
                                            Logická hádanka o 5 zlých bratoch
                                     
                                                                             
                                            Ptačí chřipka není problém, problém jsou lidé, kteří se jí bojí
                                     
                                                                             
                                            Spíte primálo alebo priveľa? Zvyšujete si riziko cukrovky (en)
                                     
                                                                             
                                            Foul language - school problem
                                     
                                                                             
                                            Seriál o tom, ako skrotiť množstvo nevybavených e-mailov (en)
                                     
                                                                             
                                            9 tips for running more productive meetings
                                     
                                                                             
                                            Writing a book in an attractive way - how?
                                     
                                                                             
                                            Nebojte sa vyšetrenia prsníkov
                                     
                                                                             
                                            Prečo vláčime toľko vecí so sebou? (en)
                                     
                                                                             
                                            Spomeňte si na svoje 'prvé'
                                     
                                                                             
                                            Ochrana súkromia na Slovensku - smutná skutočnosť
                                     
                                                                             
                                            Dajte nám ten Flughafen v Pressburgu
                                     
                                                                             
                                            Zaujímavé chute, najmä sladká
                                     
                                                                             
                                            Ako sa Paľo novinárom nestal
                                     
                                                                             
                                            Mládež do 16 rokov by nemala hrať počítačové hry!
                                     
                                                                             
                                            Za volantom F 1
                                     
                                                                             
                                            Pocta baličom a baličkám, odbaličom a odbaličkám
                                     
                                                                             
                                            Súťaž o najhoršie PF-ko :-)
                                     
                                                                             
                                            Dobré bankové produkty nemusia byť drahé
                                     
                                                                             
                                            Evropská bolest: D jako defraudace
                                     
                                                                             
                                            Can you trust Wikipedia: experts' opinion
                                     
                                                                             
                                            Wikipedia is the Next Google or Microsoft - King Disruptor III
                                     
                                                                             
                                            Táto blogerka sa so súkromím neštiepe - ani s akné
                                     
                                                                             
                                            Osobný telefónny zoznam v mobile
                                     
                                                                             
                                            Masaker pri športe :-)
                                     
                                                                             
                                            Pravidlá firmy Google: chceli by ste tam fachčiť?
                                     
                                                                             
                                            Naši ostražití dopravní policajti - sláva im!
                                     
                                                                             
                                            U zubára v Anglicku - zážitok
                                     
                                                                             
                                            Momentky z cestovania autobusom od Bohuša
                                     
                                                                             
                                            Prečo ťažko znížiť korupciu súvisiacu s domovmi dôchodcov
                                     
                                                                             
                                            Pekne stará, ale vtipná hádanka o troch ubytovaných
                                     
                                                                             
                                            Prečo nemať doma práčku
                                     
                                                                             
                                            Prečo by mesto Bratislava malo odvolať manažment DPB?
                                     
                                                                             
                                            Vraždy podľa knižky - podľa Zemeplochy - to je sila!
                                     
                                                                             
                                            Vztah matematiky k fyzice podle Feynmana
                                     
                                                                             
                                            Ako sa dnes hrá na vojakov a banditov - a čítanie v TESCU
                                     
                                                                             
                                            Prehľad WWW o povinnom zmluvnom poistení motorových vozidiel '06
                                     
                                                                             
                                            Úžasná rádiová súťaž - žeby Fun Radio?
                                     
                                                                             
                                            Blbosti na n-tú v článku o Jarovi Filipovi
                                     
                                                                             
                                            Zistite, či čierny môže robiť rošádu - 2 šachové úlohy
                                     
                                                                             
                                            Ostravák mašíruje do knižnice
                                     
                                                                             
                                            Poetické povykování - dvě básně
                                     
                                                                             
                                            Sudoku - rozhovor o fenoméne s hádankárom - II. diel
                                     
                                                                             
                                            Sudoku - rozhovor o fenoméne s hádankárom - I. diel
                                     
                                                                             
                                            Brnkanie na národnú strunku v reklame (pozor, tvrdý slovník)
                                     
                                                                             
                                            Legendárny Doom II v terminálovej učebni - je to možné?
                                     
                                                                             
                                            Kraviny v reklamách - vtipné
                                     
                                                                             
                                            Hovor na erotickú linku v autobuse MHD - hm, hm, hm
                                     
                                                                             
                                            Informačná kampaň o EU v Česku za peniaze občanov
                                     
                                                                             
                                            Rada pre reklamu (RPR) - cap záhradníkom?
                                     
                                                                             
                                            Nový kreditný paušál 199Sk od Orange, porovnanie s iným paušálom
                                     
                                                                             
                                            Obálkový paradox - môžte sa hádať celé hodiny
                                     
                                                                             
                                            Šachová retro úloha
                                     
                                                                             
                                            Stretnúť VV (Vlada Voštinára) v posilovni...
                                     
                                                                             
                                            Pozorovanie: klasifikácia vrátnikov :-)
                                     
                                                                             
                                            Tomu sa povie kríza blogera... (radšej to nečítajte)
                                     
                                                                             
                                            Úžasní anketári a stereotypy v nás
                                     
                                                                             
                                            Velký Skopový Bratr (nebo VyDojení?) na chorvatský způsob :-)
                                     
                                                                             
                                            Reportáž z udeľovania pseudovedeckých cien Bludný balvan 2005
                                     
                                                                             
                                            Opäť: ako je to s financovaním zdravotníctva? (čítať i diskusiu)
                                     
                                                                             
                                            Katastrofa v New Orleans: dôvody
                                     
                                                                             
                                            Zdravotníctvo: porovnanie amerického románu a slovenskej praxe
                                     
                                                                             
                                            Trocha matematiky v medziľudských vzťahoch - prečo nebyť sviňa
                                     
                                                                             
                                            Česko nielen prehralo kvalifikačný futbal v Rumunsku
                                     
                                                                             
                                            Jak se nakupuje na Ebay
                                     
                                                                             
                                            Partia go hraná počas výbuchu atómovej bomby v Hirošime
                                     
                                                                             
                                            Ako sa pozná manažment o ničom
                                     
                                                                             
                                            Vynálezy, ktoré svet netrpezlivo očakáva
                                     
                                                                             
                                            Výsluch na kriminálke
                                     
                                                                             
                                            Černobyl - ako to bolo a ako to je
                                     
                                                                   
                     Obľúbené knihy 
                    
                     
                                                 
                                            Tom Hodgkinson: The Idle Parent
                                     
                                                                             
                                            Gabriel Chevallier: Zvonodrozdovo
                                     
                                                                             
                                            Josef Jedlička: České typy
                                     
                                                                             
                                            Dějiny Řecka
                                     
                                                                             
                                            Ladislav Klíma: Utrpení knížete Sternenhocha
                                     
                                                                             
                                            Eric Scheibeler: Merchants of Deception
                                     
                                                                             
                                            Stephen Law: Filozofická gymnastika
                                     
                                                                             
                                            Richard Overy: The Dictators - Hitler's Germany, Stalin's Russia
                                     
                                                                             
                                            Upton Sinclair: Boston
                                     
                                                                             
                                            John D. Barrow: Teorie ničeho
                                     
                                                                   
                     Obľúbené blogy 
                    
                     
                                                 
                                            Matematik (štatistik a pravdepodobnostník)
                                     
                                                                             
                                            Opäť Piki
                                     
                                                                             
                                            Matematik (grafik a geometer)
                                     
                                                                             
                                            Jiné právo
                                     
                                                                             
                                            Doktor, ktorý už nefachá ako doktor
                                     
                                                                             
                                            Samušo
                                     
                                                                             
                                            Nejaká Martina
                                     
                                                                   
                     Obľúbené stránky 
                    
                     
                                                 
                                            Stránky věnované problémovému šachu
                                     
                                                                             
                                            VoxEU - Research-based analysis and commentary mostly in economy
                                     
                                                                             
                                            Sumo Forum
                                     
                                                                             
                                            Magic: The Gathering (SK)
                                     
                                                                             
                                            xkcd (webcomic)
                                     
                                                                             
                                            Questionable content (webcomic)
                                     
                                                                             
                                            Wikipedia (anglická)
                                     
                                                                             
                                            Slovenské šachové rubriky
                                     
                                                                             
                                            Spevácky zbor Technik
                                     
                                                                             
                                            Mathpuzzle - hlavolamy
                                     
                            
             
         
            

           
     Pošlite odkaz blogerovi 
    
         
            
         

         
         
         
         

         
         
Odosielateľ (e-mail)
 
         
Text
 
         
             
Protispamová ochrana 
 
 Zle. Skúste znova. 
Opíšte slová z obrázku: Načítať iné slová 
 Get an image CAPTCHA 
 
 
         
                 
            
         
    
  


 

     






            
    
        
    
 

        
         
         
             Už ste čítali? 
         
         
 

 kultura.sme.sk 
 Margaréta sa spriahla s diablom, no mala Kristovu pravdu 
 
 

 www.sme.sk 
 Pútnické miesta The Beatles alebo ako ľudia kráčajú po zebre 
 
 

 cestovanie.sme.sk 
 Lovia za svitania a v hmle 
 
 

 www.sme.sk 
 Ako sa valila lavína slobody. Ako padal komunizmus 
 
 

 kultura.sme.sk 
 Žiadne retro, poriadny biznis. Takto sa lisuje platňa 
 
	   
 


        
         
            
         

     

    
     
 
 
	 

		Kontakty
		Predplatné
		Etický kódex
		Pomoc
		Mapa stránky
		
	 
 
 
	 
		 
			Widget
			RSS
			Newsletter
		 
		 
			Mobil
			Smartphone
			Kindle
			Televízor
		 
		 
			Facebook
			Twitter
			Google+
		 
	 
	 
		
	 
	 
		Ďalšie weby skupiny: Prihlásenie do Post.sk
		Új Szó Slovak Spectator
		Agentúrne správy 
		Vydavateľstvo
		Inzercia
		Osobné údaje
		Návštevnosť webu
		Predajnosť tlače
		Petit Academy
		SME v škole 		© Copyright 1997-2014 Petit Press, a.s. 
	 
 
 
 


          
        
            
            

        
    

    
    


    


    
        
        
        
        
        
        
        
            
            
        
        
        
        
         
                                
               





 

 



        

 




