
      
    
    

     
	 
	 
 SME.sk 
 Zľavy 
 Zoznámenie 
 Reality 
 Dovolenky 
 Pizza 
 Reštaurácie 
 Recenzie 
 Inzeráty 
 Naničmama 	 
Nákupy 
		 
 Filmy na DVD 
 Hodinky 
 Parfémy 
 SME knihy a DVD 
 Superhosting 
 Tlačiareň 
 Víno 
 Tvorba webov 
 Predplatné SME 
 ProSenior 		 
	 
	 
 
	 
 


    
    
        
        
         
          
         
    

    
      
         
            
             
     
        
        
     
    Blog.SME.sk
 

    

         
        
                 
     
         
            Sme.sk
         
         
            Domov
         
         
            Regióny
         
         
            Ekonomika
         
         
            Svet
         
         
            Komentáre
         
         
            Kultúra
         
         
            Šport
         
         
            TV
         
         
            Auto
         
         
            Tech
         
         
            Poradňa
         
         
            Žena
         
         
            Bývanie
         
         
            Zdravie
         
         
            Blog
         
     
 

         
            
     
                                                         Politika 
                                                                                     Spoločnosť 
                                                                                     Cestovanie 
                                                                                     Ekonomika 
                                                                                     Fotografie 
                                                                                     Jedlo 
                                                                                     Kultúra 
                                                                                             
Ďalšie
                             
                                                                                         Lifestyle 
                                                                                                                                                                             Médiá 
                                                                                                                                                                             Nezaradené 
                                                                                                                                                                             Súkromné 
                                                                                                                                                                             Šport 
                                                                                                                                                                             Veda a technika 
                                                                                                                                                                             Zábava 
                                                                                                                                                                             Poézia 
                                                                                                                                                                             Próza 
                                                                                                                                                                             Kódex blogera 
                                                                                 
                         
                                                 
            Blogeri
         
     


            

    
    Prihlásiť sa


    
    Založte si blog



    
    Odhlásiť sa


    
    




         

        
        
         
            
         
         
                
     
                 
            SME.sk &gt;
            Blog.SME.sk &gt;
                            Mária Dudová  Bašistová
                                        &gt;
                Keď adrenalín stúpa..
                     
                 Futbal porazil poslancov- čo koho porazí potom..? 

        
            
                                    27.6.2010
            o
            15:05
                        (upravené
                27.6.2010
                o
                15:33)
                        |
            Karma článku:
                3.85
            |
            Prečítané 
            357-krát
                    
         
     
         
             

                 
                    Že futbalový ošiaľ posledné dni nemá na Slovensku obdobu, o tom nebudem polemizovať. Ale že jeho cena stúpla na prvé priečky pred všetkým ostatným, to ma už začína pekne štvať. Totálne ma totiž dorazilo video na webe, na ktorom sa počas rokovania (pardón, fajčiarskej prestávky, ako bolo prezentované v médiách) všetci tak oddane venovali sledovaniu futbalu zo záznamu.. Že sa treba venovať svojim povinnostiam alebo že na druhom konci Slovenska ľudia bojujú s existenčnými problémami- to v tej chvíli zjavne nikomu ani len neprišlo na um!
                 

                 
  
   Veľmi by ma zaujímalo, čo je tak strašne dôležité na tom futbal..! Že sa vie niekto správe trafiť do lopty, má kondičku a zasvätil tomu svoj život? To je síce pekné, ale čo z toho máme MY? Obyčajný pospolitý ľud? Fajn, ako jediné pozitívum toho vnímam toľko omieľané zdíhanie národného povedomia. A ďalej..?   Možno som škrupulózna, ale nepáči sa mi, ako niektorí fanatici vedia pre sledovanie zápasu futbalu urobiť fakt čokoľvek. A nevynímajúc poslancov novovznikajúcej vlády. Myslím si, že zostavovanie vlády a delenie si vládnych kabinetov a postov na úrad ministrov je dosť závažná téma, netýkajúca sa len menšiny, ale majúca dosah na celý národ. A pred týmto má prednosť futbal...?! No ďakujem pekne! Milí kompetentní, mala by som jednu otázočku: Čo sa zmení tým, že vyhráme? Ako hovorí otrepaná fráza- bude lacnejší chlieb? Nebude. tak teda? Hlavne, že všetci žijeme futbalom!   Bolo a je mi fakt ukradnuté, kto ten futbal pozerá a nakoľko ho dokáže doviesť do tranzu. Rada by som však podotkla, že existujú životne dôležitejšie témy, ako je futbal. Napríklad nedávne záplavy. Pochybujem, že niekto z tých, ktorí boli postihnutí povodňami, si s úsmevom na perách sadol pred telku s pivom v ruke. Mnohí tú telku už, bohužiaľ, nemajú a väčšina ani tých pár zvyšných centov na to pivo.. Damoklov meč visiaci nad ich hlavami v podobe otázky ich budúcnosti je väčší, ako túžba byť v centre futbalového diania.   Rokovanie poslancov porazilo sledovanie víťazného futbalového zápasu. Som zvedavá, koho alebo čo, kto alebo čo porazí najbližšie...! 

                 
                                        
                        
                        Zdieľať
                    

                    
                            
                                    
                                    Zdieľať na
                            
                             
                                    
                             
                    

                                                                                                                        
                            
                            Diskusia: (2)
                        
                    
                    
                        
                        Zvýšte karmu
                    
                 
             

                             
            
                     
                         Ďalšie články blogera 
                         
                                                             
                                    
                    	                                                                                        

                                                                        
                                    
                                        Mária Dudová  Bašistová 
                                        
                                            Nad Tatrou sa blýska..
                                        
                                    
                                 
                                                             
                                    
                    	                                                                                        

                                                                        
                                    
                                        Mária Dudová  Bašistová 
                                        
                                            Máš viac ako štyri deti? Nečakaj našu podporu!
                                        
                                    
                                 
                                                             
                                    
                    	                                                                                        

                                                                        
                                    
                                        Mária Dudová  Bašistová 
                                        
                                            Človek zlatého srdca
                                        
                                    
                                 
                                                             
                                    
                    	                                                                                        

                                                                        
                                    
                                        Mária Dudová  Bašistová 
                                        
                                            Ako sa bleskovo dostať do médií (a nielen na Slovensku)
                                        
                                    
                                 
                                                             
                                    
                    	                                                                                        

                                                                        
                                    
                                        Mária Dudová  Bašistová 
                                        
                                            Niet nad cestovanie po slovensky alebo o komforte a prívetivosti
                                        
                                    
                                 
                                                     
                        
                            Ďalšie články blogera: Mária Dudová  Bašistová
                        
                     
            
                     
                         Ďalšie články z rubriky spoločnosť 
                         
                                                             
                                    
                                                            	                                                                                        

                                                                                                
                                    
                                        Mária Levočská 
                                        
                                            Ďalšia obeť pomsty monsignora Jaraba
                                        
                                    
                                 
                                                             
                                    
                                                            	                                                                                        

                                                                                                
                                    
                                        Kristián Straka 
                                        
                                            Nebite ma, doktor Plzák... alebo POZVANIE NA VEČERU
                                        
                                    
                                 
                                                             
                                    
                                                            	                                                                                        

                                                                                                
                                    
                                        Kristián Straka 
                                        
                                            Oklamaní Ježiškom ?
                                        
                                    
                                 
                                                             
                                    
                                                            	                                                                                        

                                                                                                
                                    
                                        Milan Buno 
                                        
                                            Šup, šup, najesť sa. A utekať!
                                        
                                    
                                 
                                                             
                                    
                                                            	                                                                                        

                                                                                                
                                    
                                        Katarína Lorenčíková 
                                        
                                            Par uprimnych oslobodzujucich riadkov...
                                        
                                    
                                 
                                                     
                        
                            Ďalšie články z rubriky spoločnosť
                        
                     
                 
            
                    
 
     Hlavné správy 
         
        
                                

        
         
            ZAHRANIČIE
             Protestujúci v Maďarsku strácajú dych, Fidesz ich mätie novými návrhmi 
             Na demonštrácii proti Orbánovej vláde bolo v utorok už len niekoľko tisíc ľudí. 
         
     
         
        
                                

        
         
            AKTUALIZOVANÉ O 21:30
             Rubeľ pocítil pád na dno, Rusko je vo finančnej kríze 
             Dolár v utorok stál už takmer 80 rubľov, pod hladinu ho tlačia najmä nízke ceny ropy. 
         
     
         
        
                                

        
         
            AKTUALIZOVANÉ 21:50
             Taliban zabil v škole v Pakistane 132 detí 
             Pakistan až teraz poriadne zatlačil na islamistov. Odplatou je útok na deti vojakov. 
         
     
     

                 
     
    
     
        
 

     
                
                            
                    



         
            
                Mária Dudová  Bašistová
            
         
        dudovabasistova.blog.sme.sk (rss)
         
                                     
     
        Dievča, ako mnohé iné. Zvláštne obyčajné a neobyčajne zvláštne. Ale v prvom rade som dcéra Nášho Ocka..
Snažím sa žiť podľa viery, aj keď často padám.. Ľúbim Boha, rodinu, blízkych a priateľov. Mám rada úprimnosť, úsmev, otvorenosť a pohľad do očí druhého.
        
     
     
                     
                             
             

     
        
            
                
                    Počet článkov
                    39
                
                
                    Celková karma
                    
                                                0.00
                    
                
                
                    Priemerná čítanosť
                    1290
                
            
        
     

             

             Zoznam rubrík 
            
             
                                     
                        
                            Kvôli čomu sa oplatí žiť..
                        
                     
                                     
                        
                            Keď adrenalín stúpa..
                        
                     
                                     
                        
                            Čo ma teda pobavilo..
                        
                     
                                     
                        
                            Keď mi je ťažko..
                        
                     
                                     
                        
                            Len také úvahy...
                        
                     
                                     
                        
                            Život priniesol..
                        
                     
                                     
                        
                            Súkromné
                        
                     
                                     
                        
                            Nezaradené
                        
                     
                             
         
    

                     
                        
                                                            
                     Obľúbené knihy 
                    
                     
                                                 
                                            sr. Faustina Kowalska- Denníček
                                     
                                                                             
                                            skriptá do školy :)
                                     
                                                                             
                                            Joshua Harris_ Zbohom lásky
                                     
                                                                             
                                            Michael Quist- Rozprávaj mi o láske
                                     
                                                                   
                     Obľúbené blogy 
                    
                     
                                                 
                                            Vlastičkaaa :)
                                     
                                                                             
                                             
                                     
                                                                             
                                            Miška
                                     
                                                                             
                                            Peter
                                     
                                                                             
                                            Danka
                                     
                                                                             
                                             
                                     
                                                                             
                                             
                                     
                                                                             
                                             
                                     
                            
             
         
            

           
     Pošlite odkaz blogerovi 
    
         
            
         

         
         
         
         

         
         
Odosielateľ (e-mail)
 
         
Text
 
         
             
Protispamová ochrana 
 
 Zle. Skúste znova. 
Opíšte slová z obrázku: Načítať iné slová 
 Get an image CAPTCHA 
 
 
         
                 
            
         
    
  


 

     






            
    
        
    
 

        
         
         
             Už ste čítali? 
         
         
 

 kultura.sme.sk 
 Margaréta sa spriahla s diablom, no mala Kristovu pravdu 
 
 

 www.sme.sk 
 Pútnické miesta The Beatles alebo ako ľudia kráčajú po zebre 
 
 

 cestovanie.sme.sk 
 Lovia za svitania a v hmle 
 
 

 www.sme.sk 
 Ako sa valila lavína slobody. Ako padal komunizmus 
 
 

 kultura.sme.sk 
 Žiadne retro, poriadny biznis. Takto sa lisuje platňa 
 
	   
 


        
         
            
         

     

    
     
 
 
	 

		Kontakty
		Predplatné
		Etický kódex
		Pomoc
		Mapa stránky
		
	 
 
 
	 
		 
			Widget
			RSS
			Newsletter
		 
		 
			Mobil
			Smartphone
			Kindle
			Televízor
		 
		 
			Facebook
			Twitter
			Google+
		 
	 
	 
		
	 
	 
		Ďalšie weby skupiny: Prihlásenie do Post.sk
		Új Szó Slovak Spectator
		Agentúrne správy 
		Vydavateľstvo
		Inzercia
		Osobné údaje
		Návštevnosť webu
		Predajnosť tlače
		Petit Academy
		SME v škole 		© Copyright 1997-2014 Petit Press, a.s. 
	 
 
 
 


          
        
            
            

        
    

    
    


    


    
        
        
        
        
        
        
        
            
            
        
        
        
        
         
                                
               





 

 



        

 




