
      
    
    

     
	 
	 
 SME.sk 
 Zľavy 
 Zoznámenie 
 Reality 
 Dovolenky 
 Pizza 
 Reštaurácie 
 Recenzie 
 Inzeráty 
 Naničmama 	 
Nákupy 
		 
 Filmy na DVD 
 Hodinky 
 Parfémy 
 SME knihy a DVD 
 Superhosting 
 Tlačiareň 
 Víno 
 Tvorba webov 
 Predplatné SME 
 ProSenior 		 
	 
	 
 
	 
 


    
    
        
        
         
          
         
    

    
      
         
            
             
     
        
        
     
    Blog.SME.sk
 

    

         
        
                 
     
         
            Sme.sk
         
         
            Domov
         
         
            Regióny
         
         
            Ekonomika
         
         
            Svet
         
         
            Komentáre
         
         
            Kultúra
         
         
            Šport
         
         
            TV
         
         
            Auto
         
         
            Tech
         
         
            Poradňa
         
         
            Žena
         
         
            Bývanie
         
         
            Zdravie
         
         
            Blog
         
     
 

         
            
     
                                                         Politika 
                                                                                     Spoločnosť 
                                                                                     Cestovanie 
                                                                                     Ekonomika 
                                                                                     Fotografie 
                                                                                     Jedlo 
                                                                                     Kultúra 
                                                                                             
Ďalšie
                             
                                                                                         Lifestyle 
                                                                                                                                                                             Médiá 
                                                                                                                                                                             Nezaradené 
                                                                                                                                                                             Súkromné 
                                                                                                                                                                             Šport 
                                                                                                                                                                             Veda a technika 
                                                                                                                                                                             Zábava 
                                                                                                                                                                             Poézia 
                                                                                                                                                                             Próza 
                                                                                                                                                                             Kódex blogera 
                                                                                 
                         
                                                 
            Blogeri
         
     


            

    
    Prihlásiť sa


    
    Založte si blog



    
    Odhlásiť sa


    
    




         

        
        
         
            
         
         
                
     
                 
            SME.sk &gt;
            Blog.SME.sk &gt;
                            Jozef Červeň
                                        &gt;
                Spoločnosť
                     
                 Košická arcidiecéza je 20 rokov slobodná... 

        
            
                                    6.5.2010
            o
            10:25
                        |
            Karma článku:
                7.93
            |
            Prečítané 
            1906-krát
                    
         
     
         
             

                 
                    Využívam prestávku počas konferencie, aby som aspoň stručne informoval o udalosti, ktorá sa koná v Košiciach na Teologickej fakulte. Je to konferencia, ktorá sa pokúša mapovať uplynulých 20 rokov v rôznych oblastiach. Ja som si uvedomil, najmä po príhovore otca arcibiskupa Alojza Tkáča a po vystúpení Ľubomíra Morbachera z Ústavu pamäti národa, že žijeme v úplne iných časoch, než boli tie pred rokom 1989. Sám arcibiskup bol prekvapený nad tým, koľkí agenti a koľkí donášači boli nasadení na jeho osobu najmä po tom, ako otvorene povedal, že v Československej socialistickej republike sú porušované práva zaručené ústavou. Však si za to aj vyslúžil odobratie štátneho súhlasu, nenadarmo sa mu vyhrážali, že ak neprestane, pôjde k lopate. Neprestal a dlhý čas pracoval ako lesný robotník, alebo ako vodič električky. Nebál sa jasne označiť, že združenie Pacem in terris, nie je združením pokrokových kňazov...
                 

                 
  
  Podľa jeho slov v tomto združení bolo počas totality len 20 percent kňazov aj medzi nimi tam boli mnohí len preto, lebo ich štátna tajná bezpečnosť do toho dotlačila. Okrem pár "zanietencov" všetci ostatní kňazi k vykonávaniu svojej kňazskej služby nepotrebovali "pomoc" zo strany štátu. Uvedomil som si, že to nemal jednoduché začať budovať po roku 1989 všetko čo komouši zničili od úplného začiatku. Nebol len nedostatok kňazov, kostolov, ale chýbala pomoc kňazom v oblasti vzdelávania, katechézy, médiá. Bolo potrebné postarať sa o pastoračnú starostlivosť pre mládež, vysokoškolákov, menšiny, sociálne odkázaných, jednoducho všade práca povyše hlavy. Vo svojom príhovore otec arcibiskup spomenul jednu udalosť z tých čias. Bol to rozhovor medzi ním a rožňavským biskupom počas letu z Bratislavy do Košíc. Rožňavský pán biskup Eduard Kojnok, ktorý je známy svojou srdečnosťou a aj jednoduchosťou sa vyjadril, že je tých organizačných prác na neho veľa. V rozhovore sa vyjadril, že už poprekladá kňazov do farností a napíše do Ríma, aby pápež vybral namiesto neho niekoho iného. Arcibiskup mu zakontroval, že by veru nedbal, keby sa lietadlo zrútilo a mal by po starostiach. :-) Našťastie pre košickú aj rožňavskú diecézu sa lietadlo nezrútilo a napriek všetkému sa obidve diecézy mohli rozvinúť do takej formy, akú máme dnes. Do formy, kde sú veriaci a kňazi zhromaždení okolo svojho biskupa a uvedomujú si, čím prešli a čo všetko je ešte potrebné urobiť. Ak je niekto z Košíc a má záujem zúčastniť sa na tejto konferencii, kde ešte odznejú od pol jedenástej prednášky o stavbách, vzdelávaní, práce v katechéze, s mládežou, s vysokoškolákmi, s Rómami, ale aj o ostatných dielach ako je charita, médiá, ktoré sa za 20 rokov rozvinuli do pekných obrátok, ste vítaní, popoludňajší program začne o 14:00 a vyvrcholí ďakovnou svätou omšou o 16:30, ktorá bude poďakovaním za dar 20 rokov slobody v Košickej arcidiecéze a v meste Košice. Táto udalosť sa koná v rámci osláv Dňa mesta Košice. Svätá omša bude v seminárnom kostole s ekoumenickou účasťou. Nezabúdajme na prežité roky a urobme všetko pre to, aby socializmus bol v našich krajoch už nadobro zažehnaný, lebo je brzdou akéhokoľvek, nielen duchovného rozvoja.

                 
                                        
                        
                        Zdieľať
                    

                    
                            
                                    
                                    Zdieľať na
                            
                             
                                    
                             
                    

                                                                                                                        
                            
                            Diskusia: (19)
                        
                    
                    
                        
                        Zvýšte karmu
                    
                 
             

                             
            
                     
                         Ďalšie články blogera 
                         
                                                             
                                    
                    	                                                                                        

                                                                        
                                    
                                        Jozef Červeň 
                                        
                                            Fico vymetá všetky kúty aj v osadách...
                                        
                                    
                                 
                                                             
                                    
                    	                                                                                        

                                                                        
                                    
                                        Jozef Červeň 
                                        
                                            Budú Fica oblizovať aj zozadu?
                                        
                                    
                                 
                                                             
                                    
                    	                                                                                        

                                                                        
                                    
                                        Jozef Červeň 
                                        
                                            Napíš europoslancovi, nech neblbne...
                                        
                                    
                                 
                                                             
                                    
                    	                                                                                        

                                                                        
                                    
                                        Jozef Červeň 
                                        
                                            Ukrajina potrebuje EÚ ale aj EÚ potrebuje Ukrajinu...
                                        
                                    
                                 
                                                             
                                    
                    	                                                                                        

                                                                        
                                    
                                        Jozef Červeň 
                                        
                                            Skončí postávanie pred kostolom?
                                        
                                    
                                 
                                                     
                        
                            Ďalšie články blogera: Jozef Červeň
                        
                     
            
                     
                         Ďalšie články z rubriky kultúra 
                         
                                                             
                                    
                                                            	                                                                                        

                                                                                                
                                    
                                        Jozef Kuric 
                                        
                                            Zapletení - detektívka veľkého kalibru
                                        
                                    
                                 
                                                             
                                    
                                                            	                                                                                        

                                                                                                
                                    
                                        Stanislav Hoferek 
                                        
                                            Referendum na tému "poďme všetko zakázať, všetko bude lepšie"
                                        
                                    
                                 
                                                             
                                    
                                                            	                                                                                        

                                                                                                
                                    
                                        Elena Antalová 
                                        
                                            Nebyť Wintonovho "dieťaťa", nevznikla by Francúzova milenka (dnes ČT 2, 21,45).
                                        
                                    
                                 
                                                             
                                    
                                                                                                                    

                                                                                                
                                    
                                        Milena Veresová 
                                        
                                            Z hrnca do rozprávky
                                        
                                    
                                 
                                                             
                                    
                                                            	                                                                                        

                                                                                                
                                    
                                        Petra Jurečková 
                                        
                                            Oblečie sa za pútnika a vy mu dáte svoje peniaze
                                        
                                    
                                 
                                                     
                        
                            Ďalšie články z rubriky kultúra
                        
                     
                 
            
                    
 
     Hlavné správy 
         
        
                                

        
         
            AKTUALIZOVANÉ O 20:00
             Rubeľ pocítil pád na dno, Rusko je vo finančnej kríze 
             Dolár včera stál už takmer 80 rubľov, pod hladinu ho tlačia najmä nízke ceny ropy. 
         
     
         
        
                                

        
         
            ZAHRANIČIE
             Taliban zaútočil na citlivé miesto Pakistanu. Na deti 
             Taliban zabil v škole v Pakistane najmenej 141 ľudí, väčšinou deti. 
         
     
         
        
                                

        
         
            KOMENTARE.SME.SK
             Cynická obluda: Medzičasom na opustenom ostrove 
             Stroskotanci majú veľké šťastie, že sú dvaja. Lacné vtipy na úrovni ich autora. 
         
     
     

                 
     
    
     
        
 

     
                
                            
                    



         
            
                Jozef Červeň
            
         
        cerven.blog.sme.sk (rss)
         
                        VIP
                             
     
        Mám rád život s Bohom a 7777 ľudí. S obľubou lietam v dobrej letke, no nerád lietam v kŕdli. Som katolícky kňaz, pochádzam z dediny Klin na Orave. Farár vo farnosti Rakúsy. (pri Kežmarku)
...........................................


        
     
     
                     
                             
             

     
        
            
                
                    Počet článkov
                    1475
                
                
                    Celková karma
                    
                                                0.00
                    
                
                
                    Priemerná čítanosť
                    3094
                
            
        
     

             

             Zoznam rubrík 
            
             
                                     
                        
                            BIRMOVANCI
                        
                     
                                     
                        
                            ŠTIPENDISTI
                        
                     
                                     
                        
                            7777 MYŠLIENOK PRE NÁROČNÝCH
                        
                     
                                     
                        
                            Aké mám povolanie?
                        
                     
                                     
                        
                            Akú mám povahu?
                        
                     
                                     
                        
                            Cesta viery
                        
                     
                                     
                        
                            Duchovné témy
                        
                     
                                     
                        
                            Fejtóny
                        
                     
                                     
                        
                            Fotografie prírody
                        
                     
                                     
                        
                            Fotografie Rómov
                        
                     
                                     
                        
                            História mojej rodnej obce
                        
                     
                                     
                        
                            Kniha o Rómoch
                        
                     
                                     
                        
                            Lunikovo
                        
                     
                                     
                        
                            Mladí vo firme
                        
                     
                                     
                        
                            Náčrt histórie slov. Saleziáno
                        
                     
                                     
                        
                            Nezaradené
                        
                     
                                     
                        
                            Pastorácia Rómov
                        
                     
                                     
                        
                            Poézia
                        
                     
                                     
                        
                            Pokec s Bohom
                        
                     
                                     
                        
                            Rómovia
                        
                     
                                     
                        
                            Sociálna práca
                        
                     
                                     
                        
                            Sociálna náuka Katolíckej cirk
                        
                     
                                     
                        
                            Spoločnosť
                        
                     
                                     
                        
                            Súkromné
                        
                     
                                     
                        
                            Vedeli sa obetovať
                        
                     
                                     
                        
                            Vzťah je cesta cez púšť
                        
                     
                                     
                        
                            Zábava
                        
                     
                             
         
    

                     
                        
                                                            
                     Obľúbené články 
                    
                     
                                                 
                                            Štipendium pre chudobné zodpovedné dieťa
                                     
                                                                             
                                            Prečo si firmy neudržia mladých ľudí?
                                     
                                                                             
                                            Dejiny mojej dediny
                                     
                                                                             
                                            Vzťah je cesta cez púšť
                                     
                                                                             
                                            Akú mám povahu?
                                     
                                                                             
                                            7777 MYŠLIENOK PRE NÁROČNÝCH
                                     
                                                                   
                     Obľúbené knihy 
                    
                     
                                                 
                                            Sociálny kódex Cirkvi - Raimondo Spiazzi
                                     
                                                                             
                                            Sociálna práca - Anna Tokárová a kolektív
                                     
                                                                   
                     Čo práve počúvam 
                    
                     
                                                 
                                            Free Download MP3 ruzenec
                                     
                                                                             
                                            MP3 ruženec
                                     
                                                                   
                     Obľúbené blogy 
                    
                     
                                                 
                                            Tomáš Krištofóry - katolícky liberál
                                     
                                                                             
                                            Peter Herman - realistický idealista
                                     
                                                                             
                                            Michal Hudec sa nebojí písať otvorene
                                     
                                                                             
                                            Mária Kohutiarová - žena, matka, človek
                                     
                                                                             
                                            Branislav Sepeši - lekár o etike
                                     
                                                                             
                                            Katrína Janíková - neobyčajne obyčajná baba
                                     
                                                                             
                                            Martin Šabo - šikovný redemptorista
                                     
                                                                             
                                            Juraj Drobny - veci medzi nebom a zemou
                                     
                                                                             
                                            Peter Pecuš a jeho postrehy zo života
                                     
                                                                             
                                            Miroslav Lettrich - svet, spoločnosť, hodnoty
                                     
                                                                             
                                            Karol Hradský - témy dnešných dní
                                     
                                                                             
                                            Salezián Robo Flamík hľadá viac
                                     
                                                                             
                                            Salezián Maroš Peciar - fajn chlap
                                     
                                                                             
                                            Motorka a cesty: Martin Dinuš
                                     
                                                                             
                                            Ďuro Čižmárik a jeho mozaika maličkostí
                                     
                                                                             
                                            Paľo Medár a scientológovia
                                     
                                                                             
                                            Pavel Škoda chodí s otvorenými očami
                                     
                                                                   
                     Obľúbené stránky 
                    
                     
                                                 
                                            Modlitba breviára
                                     
                                                                             
                                            Nezabíjajte deti!
                                     
                                                                             
                                            Občiansky denník
                                     
                                                                             
                                            Dunčo hľadaj
                                     
                                                                             
                                            Správy z Cirkvi
                                     
                                                                             
                                            Prvý kresťanský portál
                                     
                                                                             
                                            Lentus
                                     
                            
             
         
            

             
             Čo ma zaujalo 
            Týmto článkom bloger klikol/klikla na karmu.
             
                                                         
                       Voľby nemožno vyhrať kúpenými hlasmi najbiednejších Rómov!
                     
                                                         
                       Jednoduchý rozdiel medzi kandidátmi na prezidenta.
                     
                                                         
                       Doprajme Ficovi pokoru!
                     
                                                         
                       Fico vymetá všetky kúty aj v osadách...
                     
                                                         
                       tam kam Fico nemôže, TA3 mu pomôže
                     
                                                         
                       Vďakyvzdanie
                     
                                                         
                       Treba homofóbiu liečiť?
                     
                                                         
                       Procházka, Kňažko, Kiska... a jediný hlas
                     
                                                         
                       Napíš europoslancovi, nech neblbne...
                     
                                                         
                       Prezidentské voľby: Prečo budem voliť Procházku
                     
                             
         
           
     Pošlite odkaz blogerovi 
    
         
            
         

         
         
         
         

         
         
Odosielateľ (e-mail)
 
         
Text
 
         
             
Protispamová ochrana 
 
 Zle. Skúste znova. 
Opíšte slová z obrázku: Načítať iné slová 
 Get an image CAPTCHA 
 
 
         
                 
            
         
    
  


 

     






            
    
        
    
 

        
         
         
             Už ste čítali? 
         
         
 

 kultura.sme.sk 
 Margaréta sa spriahla s diablom, no mala Kristovu pravdu 
 
 

 www.sme.sk 
 Pútnické miesta The Beatles alebo ako ľudia kráčajú po zebre 
 
 

 cestovanie.sme.sk 
 Lovia za svitania a v hmle 
 
 

 www.sme.sk 
 Ako sa valila lavína slobody. Ako padal komunizmus 
 
 

 kultura.sme.sk 
 Žiadne retro, poriadny biznis. Takto sa lisuje platňa 
 
	   
 


        
         
            
         

     

    
     
 
 
	 

		Kontakty
		Predplatné
		Etický kódex
		Pomoc
		Mapa stránky
		
	 
 
 
	 
		 
			Widget
			RSS
			Newsletter
		 
		 
			Mobil
			Smartphone
			Kindle
			Televízor
		 
		 
			Facebook
			Twitter
			Google+
		 
	 
	 
		
	 
	 
		Ďalšie weby skupiny: Prihlásenie do Post.sk
		Új Szó Slovak Spectator
		Agentúrne správy 
		Vydavateľstvo
		Inzercia
		Osobné údaje
		Návštevnosť webu
		Predajnosť tlače
		Petit Academy
		SME v škole 		© Copyright 1997-2014 Petit Press, a.s. 
	 
 
 
 


          
        
            
            

        
    

    
    


    


    
        
        
        
        
        
        
        
            
            
        
        
        
        
         
                                
               





 

 



        

 




