
      
    
    

     
	 
	 
 SME.sk 
 Zľavy 
 Zoznámenie 
 Reality 
 Dovolenky 
 Pizza 
 Reštaurácie 
 Recenzie 
 Inzeráty 
 Naničmama 	 
Nákupy 
		 
 Filmy na DVD 
 Hodinky 
 Parfémy 
 SME knihy a DVD 
 Superhosting 
 Tlačiareň 
 Víno 
 Tvorba webov 
 Predplatné SME 
 ProSenior 		 
	 
	 
 
	 
 


    
    
        
        
         
          
         
    

    
      
         
            
             
     
        
        
     
    Blog.SME.sk
 

    

         
        
                 
     
         
            Sme.sk
         
         
            Domov
         
         
            Regióny
         
         
            Ekonomika
         
         
            Svet
         
         
            Komentáre
         
         
            Kultúra
         
         
            Šport
         
         
            TV
         
         
            Auto
         
         
            Tech
         
         
            Poradňa
         
         
            Žena
         
         
            Bývanie
         
         
            Zdravie
         
         
            Blog
         
     
 

         
            
     
                                                         Politika 
                                                                                     Spoločnosť 
                                                                                     Cestovanie 
                                                                                     Ekonomika 
                                                                                     Fotografie 
                                                                                     Jedlo 
                                                                                     Kultúra 
                                                                                             
Ďalšie
                             
                                                                                         Lifestyle 
                                                                                                                                                                             Médiá 
                                                                                                                                                                             Nezaradené 
                                                                                                                                                                             Súkromné 
                                                                                                                                                                             Šport 
                                                                                                                                                                             Veda a technika 
                                                                                                                                                                             Zábava 
                                                                                                                                                                             Poézia 
                                                                                                                                                                             Próza 
                                                                                                                                                                             Kódex blogera 
                                                                                 
                         
                                                 
            Blogeri
         
     


            

    
    Prihlásiť sa


    
    Založte si blog



    
    Odhlásiť sa


    
    




         

        
        
         
            
         
         
                
     
                 
            SME.sk &gt;
            Blog.SME.sk &gt;
                            Ivana Sendecka
                                        &gt;
                Nezaradené
                     
                 [Video] Ste pripravení na budúcnosť? 

        
            
                                    24.4.2010
            o
            15:42
                        (upravené
                24.4.2010
                o
                21:20)
                        |
            Karma článku:
                3.58
            |
            Prečítané 
            1009-krát
                    
         
     
         
             

                 
                    Po panelovej diskusii na Národných dňoch kariéry a dvoch tréningoch na tému Networking 2.0, som v plnom nasadení začala pripravovať ďaľší darček Slovensku. Bola  som oslovená občianskym združením Sučany Alumni , ktoré ma požiadalo o prezentáciu pre súčasných študentov Bilingválneho gymnázia Milana Hodžu v Sučanoch. Neváhala som ani na minútu a ponuku som prijala. A tak sa aj stalo. Hneď po veľkonočných prázdninách, 8. apríla som stála pred budúcnosťou Slovenska. Téma? Ste pripravení na budúcnosť? Uvedomujem si, že štedrosť a robenie vecí nezištne je dosť „mimozemský" úkaz v našich zemepisných šírkach, no aj napriek tomu ma to neodradí od toho čo robím a v čo verím. Dnes aj vám ponúkam celú prezentáciu vrátane videa z prednášky v Sučanoch.
                 

                 Nech sa páči prezentácia a pod touto linkou sa skrýva VIDEO. (chýba  v ňom len pár „slajdov"  z úvodneho predstavenia a privítania, ale inak je tam zachytené všetko vrátane diskusie v závere)       
FUTURE "explained"        View more presentations from Ivana Sendecka.          Hneď po prednáške som sa o dojmy v krátkosti podelila aj s čitateľmi môjho anglického blogu.    Decká v Sučanoch boli úplne super a aj mňa priviedli do rozpakov, keď po skončení videa o NGLS mali slzy v očiach...    Slovensko má veľmi šikovných mladých ľudí, ktorí sa chcú učiť, sú vďační, talentovaní a plní očakávaní.      Ak ich však budeme ignorovať a nevenovať pozornosť tomu, čo nám chce naša nastupujúca generácia povedať a najmä čo nám môže dať, tak väčšina z nich si nájde inú krajinu, kde ich ľudská „hodnota“ nebude závisieť od  aktuálnosti  modelu mobilného telefónu alebo od značkových handier, ale od ozajstných skutkov a od schopnosti tvoriť originálne veci a podieľať sa tým na rozvoji;  či už vlastnom - osobnostnom ale aj celo-spoločenskom. A tí ostatní sa uspokoja s (pod-)priemerom a budú ďaľšími poslušnými konzumnými ovečkami v stáde. To hádam nikto z nás nechce, však?   Ja určite nie, a preto robím to čo robím.   Krásny slnečný víkend vám želám.   Cheers,   i.             

                 
                                        
                        
                        Zdieľať
                    

                    
                            
                                    
                                    Zdieľať na
                            
                             
                                    
                             
                    

                                                                                                                        
                            
                            Diskusia: (0)
                        
                    
                    
                        
                        Zvýšte karmu
                    
                 
             

                             
            
                     
                         Ďalšie články blogera 
                         
                                                             
                                    
                    	                                                                                        

                                                                        
                                    
                                        Ivana Sendecka 
                                        
                                            [Manifesto] o vzdelávaní. Spravíme to realitou na školách?
                                        
                                    
                                 
                                                             
                                    
                    	                                                                                        

                                                                        
                                    
                                        Ivana Sendecka 
                                        
                                            Naozaj potrebujú slovenskí žiaci TV reality šou Trieda 9.A?
                                        
                                    
                                 
                                                             
                                    
                    	                                                                                        

                                                                        
                                    
                                        Ivana Sendecka 
                                        
                                            Update k Planéte vedomostí 2.0 + Dotazník: Pomôžte nám s dizajnom
                                        
                                    
                                 
                                                             
                                    
                    	                                                                                        

                                                                        
                                    
                                        Ivana Sendecka 
                                        
                                            [Výzva] Slovensko vytvorme si Planétu vedomostí 2.0
                                        
                                    
                                 
                                                             
                                    
                    	                                                                                        

                                                                        
                                    
                                        Ivana Sendecka 
                                        
                                            Nastupujúca Generácia Lídrov Slovenska sa  o 3 dni stretne v Modre
                                        
                                    
                                 
                                                     
                        
                            Ďalšie články blogera: Ivana Sendecka
                        
                     
            
                     
                         Ďalšie články z rubriky nezaradené 
                         
                                                             
                                    
                                                            	                                                                                        

                                                                                                
                                    
                                        Pavel Ondrejmiška 
                                        
                                            Dnes farnosť Žitavany, pred tisíc rokmi kráľovská fara v Kňažiciach
                                        
                                    
                                 
                                                             
                                    
                                                            	                                                                                        

                                                                                                
                                    
                                        Michal Pazič 
                                        
                                            Prečo školské zariadenie v Pakistane?
                                        
                                    
                                 
                                                             
                                    
                                                            	                                                                                        

                                                                                                
                                    
                                        Milan Removčík 
                                        
                                            Zimný Šíp.
                                        
                                    
                                 
                                                             
                                    
                                                            	                                                                                        

                                                                                                
                                    
                                          esc-sr 
                                        
                                            Čas (ne)vhodných darčekov
                                        
                                    
                                 
                                                             
                                    
                                                            	                                                                                        

                                                                                                
                                    
                                        Michal Filek 
                                        
                                            Ako je ťažké darovať bezdomovcom polievku?
                                        
                                    
                                 
                                                     
                        
                            Ďalšie články z rubriky nezaradené
                        
                     
                 
            
                    
 
     Hlavné správy 
         
        
                                

        
         
            AKTUALIZOVANÉ 16:00
             Rubeľ kolabuje, ruská vláda má mimoriadne rokovať 
             Jeden dolár stál v utorok poobede už viac ako 78 rubľov, razantné zvýšenie úrokov nepomohlo. 
         
     
         
        
                                

        
         
            ZAHRANIČIE
             Taliban zaútočil na citlivé miesto Pakistanu. Na deti 
             Taliban zabil v škole v Pakistane najmenej 141 ľudí, väčšinou deti. 
         
     
         
        
                                

        
         
            KOMENTARE.SME.SK
             Cynická obluda: Medzičasom na opustenom ostrove 
             Stroskotanci majú veľké šťastie, že sú dvaja. Lacné vtipy na úrovni ich autora. 
         
     
     

                 
     
    
     
        
 

     
                
                            
                    



         
            
                Ivana Sendecka
            
         
        sendecka.blog.sme.sk (rss)
         
                                     
     
        Konzultantka nielen na digitálne stratégie. S vášňou pre celoživotné vzdelávanie.Tweetuje ako @IvanaSendecka. Zakladateľka NGLS.
        
     
     
                     
                             
             

     
        
            
                
                    Počet článkov
                    58
                
                
                    Celková karma
                    
                                                0.00
                    
                
                
                    Priemerná čítanosť
                    2305
                
            
        
     

             

             Zoznam rubrík 
            
             
                                     
                        
                            Súkromné
                        
                     
                                     
                        
                            Nezaradené
                        
                     
                             
         
    

    

           
     Pošlite odkaz blogerovi 
    
         
            
         

         
         
         
         

         
         
Odosielateľ (e-mail)
 
         
Text
 
         
             
Protispamová ochrana 
 
 Zle. Skúste znova. 
Opíšte slová z obrázku: Načítať iné slová 
 Get an image CAPTCHA 
 
 
         
                 
            
         
    
  


 

     






            
    
        
    
 

        
         
         
             Už ste čítali? 
         
         
 

 kultura.sme.sk 
 Margaréta sa spriahla s diablom, no mala Kristovu pravdu 
 
 

 www.sme.sk 
 Pútnické miesta The Beatles alebo ako ľudia kráčajú po zebre 
 
 

 cestovanie.sme.sk 
 Lovia za svitania a v hmle 
 
 

 www.sme.sk 
 Ako sa valila lavína slobody. Ako padal komunizmus 
 
 

 kultura.sme.sk 
 Žiadne retro, poriadny biznis. Takto sa lisuje platňa 
 
	   
 


        
         
            
         

     

    
     
 
 
	 

		Kontakty
		Predplatné
		Etický kódex
		Pomoc
		Mapa stránky
		
	 
 
 
	 
		 
			Widget
			RSS
			Newsletter
		 
		 
			Mobil
			Smartphone
			Kindle
			Televízor
		 
		 
			Facebook
			Twitter
			Google+
		 
	 
	 
		
	 
	 
		Ďalšie weby skupiny: Prihlásenie do Post.sk
		Új Szó Slovak Spectator
		Agentúrne správy 
		Vydavateľstvo
		Inzercia
		Osobné údaje
		Návštevnosť webu
		Predajnosť tlače
		Petit Academy
		SME v škole 		© Copyright 1997-2014 Petit Press, a.s. 
	 
 
 
 


          
        
            
            

        
    

    
    


    


    
        
        
        
        
        
        
        
            
            
        
        
        
        
         
                                
               





 

 



        

 




