
      
    
    

     
	 
	 
 SME.sk 
 Zľavy 
 Zoznámenie 
 Reality 
 Dovolenky 
 Pizza 
 Reštaurácie 
 Recenzie 
 Inzeráty 
 Naničmama 	 
Nákupy 
		 
 Filmy na DVD 
 Hodinky 
 Parfémy 
 SME knihy a DVD 
 Superhosting 
 Tlačiareň 
 Víno 
 Tvorba webov 
 Predplatné SME 
 ProSenior 		 
	 
	 
 
	 
 


    
    
        
        
         
          
         
    

    
      
         
            
             
     
        
        
     
    Blog.SME.sk
 

    

         
        
                 
     
         
            Sme.sk
         
         
            Domov
         
         
            Regióny
         
         
            Ekonomika
         
         
            Svet
         
         
            Komentáre
         
         
            Kultúra
         
         
            Šport
         
         
            TV
         
         
            Auto
         
         
            Tech
         
         
            Poradňa
         
         
            Žena
         
         
            Bývanie
         
         
            Zdravie
         
         
            Blog
         
     
 

         
            
     
                                                         Politika 
                                                                                     Spoločnosť 
                                                                                     Cestovanie 
                                                                                     Ekonomika 
                                                                                     Fotografie 
                                                                                     Jedlo 
                                                                                     Kultúra 
                                                                                             
Ďalšie
                             
                                                                                         Lifestyle 
                                                                                                                                                                             Médiá 
                                                                                                                                                                             Nezaradené 
                                                                                                                                                                             Súkromné 
                                                                                                                                                                             Šport 
                                                                                                                                                                             Veda a technika 
                                                                                                                                                                             Zábava 
                                                                                                                                                                             Poézia 
                                                                                                                                                                             Próza 
                                                                                                                                                                             Kódex blogera 
                                                                                 
                         
                                                 
            Blogeri
         
     


            

    
    Prihlásiť sa


    
    Založte si blog



    
    Odhlásiť sa


    
    




         

        
        
         
            
         
         
                
     
                 
            SME.sk &gt;
            Blog.SME.sk &gt;
                            Roman Novák
                                        &gt;
                Domáce dianie
                     
                 "Blede modrá"univerzita 

        
            
                                    19.4.2010
            o
            0:26
                        (upravené
                19.4.2010
                o
                9:21)
                        |
            Karma článku:
                10.78
            |
            Prečítané 
            8434-krát
                    
         
     
         
             

                 
                    Asi pred týždňom sa začal šíriť internetom odkaz, ktorý Vás mal nasmerovať na stránku SDKú, konkrétne na link Miklošovej univerzity. Aj keď po prepuknutých škandáloch SDKú už moju dôveru asi tak na 80 percent stratili, rozhodol som sa, že to predsa  skúsim.
                 

                 
  
       Úvod jeho stránky by mohol veľa naivných študentov zmiesť predovšetkým názvom „ Univerzita pre MODERNÉ SLOVENSKO“. Pravdu povediac, na začiatku sa mi zdalo, že ide o dôveryhodný projekt, keďže na bočných lištách som zaregistroval niekoľko odkazov nielen na Miklošovú literatúra, ale aj na odborné ekonomické publikácie, ktoré ponúka táto stránka zadarmo na stiahnutie. Avšak hneď po registrácií a vypočutí si prvej virtuálnej prednášky, moje predstavy o určitom druhu výučby sa stratili.    Veď len čo to môže byť za Univerzitu, ktorá má byť založená na 6 minútovom táraní (v ich ponímaní odborná prednáška ) o globalizácií, ktorá nemá nič spoločné s vecnou tématikou, a ktorej podstatou sú rozprávky o úžasnom vplyve automobilového priemyslu na Slovenskú ekonomiku, ktorú k nám dotiahlo práve SDKú. ( asi autor prednášky zabudol na to, že práve automobilový priemysel bol najviac postihnutý hospodárskou krízou a je nebezpečné pre akýkoľvek štát viazať si celú ekonomiku len na jeden sektor, ktorý je v súčasnosti najviac rizikový ).   Po účelovej prednáške sa presuniete na test, ktorý vôbec nemá nič spoločné s predvolebnou kampaňou, a už vonkoncom sa nesnaží poukázať na svoju SDKú-ovskú dokonalosť. Príkladom toho je aj jedna z otázok z testu:     
Príkladom      toho, ako Slovensko dokázalo svoju konkurenčnú výhodu využiť v prostredí      globálneho trhu je, že:     Slovensko       je v súčasnosti na prvom mieste na svete vo výrobe automobilov na       obyvateľa               dokážeme       si urobiť celosvetovú hanbu, keď do batožín civilistov pribaľujeme       výbušniny   predávame       emisné kvóty lacnejšie ako susedné krajiny          Asi podobnou formou je vytvorený dotazník pozostávajúci z 10 „náročných otázok“ , ktoré demagogicky odpovedajú na účelovo dávané primitivné otázky.   Zrejme pán Mikloš je až tak naivný, že si myslí, že všetky univerzity majú úroveň ako napríklad Bratislavská vysoká škola práva, ktorej licenciu na výučbu dala práve ich vláda. Ja len dúfam, že každý triezvo uvažujúci študent si uvedomuje, že to celé divadielko je len trápnou, hoci originálnou predvolebnou kampaňou a opäť raz nenaletíme na trápne divadielko SDKú na odlákanie pozornosti od ich nelegálneho financovania ich strany,  od podrobností, kedy prešustrovali 7 mld. pri nepoistení kurzového rizika pri predaji "zlatej sliepky" Slovenska- SPP, od prípadu, kde pod cenu sprivatizovali majetok za 330 mld. Sk, od predaja menšiny v strategickom podniku a s ňou aj manažérsku kontrolu, ako sa pomýliť pri výpočte rozpočtu a potom zvyšovať cenu benzínu, ako raketovo zvyšovať ceny energií, aby sa zahraničným monopolom vrátili náklady za 5 rokov.   Ja nezabúdam, a dúfam, že aj iní ľudia opäť nenaletia ľuďom ktorí nás už raz sklamali…     

                 
                                        
                        
                        Zdieľať
                    

                    
                            
                                    
                                    Zdieľať na
                            
                             
                                    
                             
                    

                                                                                                                        
                            
                            Diskusia: (38)
                        
                    
                    
                        
                        Zvýšte karmu
                    
                 
             

                             
            
                     
                         Ďalšie články blogera 
                         
                                                             
                                    
                    	                                                                                        

                                                                        
                                    
                                        Roman Novák 
                                        
                                            Pravda o diaľniciach 2, alebo Kto teraz dáva dvakrát dáva....
                                        
                                    
                                 
                                                             
                                    
                    	                                                                                        

                                                                        
                                    
                                        Roman Novák 
                                        
                                            Pravda o diaľniciach
                                        
                                    
                                 
                                                     
                        
                            Ďalšie články blogera: Roman Novák
                        
                     
            
                     
                         Ďalšie články z rubriky spoločnosť 
                         
                                                             
                                    
                                                            	                                                                                        

                                                                                                
                                    
                                        Mária Levočská 
                                        
                                            Ďalšia obeť pomsty monsignora Jaraba
                                        
                                    
                                 
                                                             
                                    
                                                            	                                                                                        

                                                                                                
                                    
                                        Kristián Straka 
                                        
                                            Nebite ma, doktor Plzák... alebo POZVANIE NA VEČERU
                                        
                                    
                                 
                                                             
                                    
                                                            	                                                                                        

                                                                                                
                                    
                                        Kristián Straka 
                                        
                                            Oklamaní Ježiškom ?
                                        
                                    
                                 
                                                             
                                    
                                                            	                                                                                        

                                                                                                
                                    
                                        Milan Buno 
                                        
                                            Šup, šup, najesť sa. A utekať!
                                        
                                    
                                 
                                                             
                                    
                                                            	                                                                                        

                                                                                                
                                    
                                        Katarína Lorenčíková 
                                        
                                            Par uprimnych oslobodzujucich riadkov...
                                        
                                    
                                 
                                                     
                        
                            Ďalšie články z rubriky spoločnosť
                        
                     
                 
            
                    
 
     Hlavné správy 
         
        
                                

        
         
            AKTUALIZOVANÉ 16:00
             Rubeľ kolabuje, ruská vláda má mimoriadne rokovať 
             Jeden dolár stál v utorok poobede už viac ako 78 rubľov, razantné zvýšenie úrokov nepomohlo. 
         
     
         
        
                                

        
         
            ZAHRANIČIE
             Taliban zabil v škole v Pakistane vyše sto ľudí, väčšinou deti 
             Militanti vtrhli do vojenskej školy v policajných rovnošatách. 
         
     
         
        
                                

        
         
            KOMENTARE.SME.SK
             Cynická obluda: Medzičasom na opustenom ostrove 
             Stroskotanci majú veľké šťastie, že sú dvaja. Lacné vtipy na úrovni ich autora. 
         
     
     

                 
     
    
     
        
 

     
                
                            
                    



         
            
                Roman Novák
            
         
        romannovak.blog.sme.sk (rss)
         
                                     
     
        Pracujem v oblasti stavebníctva, no zároveň sa pohybujem v oblasti školstva,...
        
     
     
                     
                             
             

     
        
            
                
                    Počet článkov
                    3
                
                
                    Celková karma
                    
                                                0.00
                    
                
                
                    Priemerná čítanosť
                    3972
                
            
        
     

             

             Zoznam rubrík 
            
             
                                     
                        
                            Domáce dianie
                        
                     
                                     
                        
                            Súkromné
                        
                     
                                     
                        
                            Nezaradené
                        
                     
                             
         
    

    

             
             Čo ma zaujalo 
            Týmto článkom bloger klikol/klikla na karmu.
             
                                                         
                       Bodaj by si páni z EU vytiahli konečne hlavy odtiaľ, kde ich majú
                     
                                                         
                       Stehno veľryby
                     
                                                         
                       Základné pravidlá predpovedania budúcnosti vo volebnej kampani
                     
                                                         
                       Moja skúsenosť s očkovaním
                     
                                                         
                       Svedok namočil smerákov, daňovákov a policajtov do podvodu na DPH
                     
                                                         
                       Ficova a Kiskova úžera
                     
                                                         
                       Fico neprisľúbil, že ďalšia kampaň bude z jeho strany férová
                     
                                                         
                       Nie je podpis, ako podpis
                     
                                                         
                       Mestský policajt sa mi vyhrážal použitím zbrane
                     
                                                         
                       Čo môže zlepiť Smer a KDH? Kotlepidlo
                     
                             
         
           
     Pošlite odkaz blogerovi 
    
         
            
         

         
         
         
         

         
         
Odosielateľ (e-mail)
 
         
Text
 
         
             
Protispamová ochrana 
 
 Zle. Skúste znova. 
Opíšte slová z obrázku: Načítať iné slová 
 Get an image CAPTCHA 
 
 
         
                 
            
         
    
  


 

     






            
    
        
    
 

        
         
         
             Už ste čítali? 
         
         
 

 kultura.sme.sk 
 Margaréta sa spriahla s diablom, no mala Kristovu pravdu 
 
 

 www.sme.sk 
 Pútnické miesta The Beatles alebo ako ľudia kráčajú po zebre 
 
 

 cestovanie.sme.sk 
 Lovia za svitania a v hmle 
 
 

 www.sme.sk 
 Ako sa valila lavína slobody. Ako padal komunizmus 
 
 

 kultura.sme.sk 
 Žiadne retro, poriadny biznis. Takto sa lisuje platňa 
 
	   
 


        
         
            
         

     

    
     
 
 
	 

		Kontakty
		Predplatné
		Etický kódex
		Pomoc
		Mapa stránky
		
	 
 
 
	 
		 
			Widget
			RSS
			Newsletter
		 
		 
			Mobil
			Smartphone
			Kindle
			Televízor
		 
		 
			Facebook
			Twitter
			Google+
		 
	 
	 
		
	 
	 
		Ďalšie weby skupiny: Prihlásenie do Post.sk
		Új Szó Slovak Spectator
		Agentúrne správy 
		Vydavateľstvo
		Inzercia
		Osobné údaje
		Návštevnosť webu
		Predajnosť tlače
		Petit Academy
		SME v škole 		© Copyright 1997-2014 Petit Press, a.s. 
	 
 
 
 


          
        
            
            

        
    

    
    


    


    
        
        
        
        
        
        
        
            
            
        
        
        
        
         
                                
               





 

 



        

 




