
      
    
    

     
	 
	 
 SME.sk 
 Zľavy 
 Zoznámenie 
 Reality 
 Dovolenky 
 Pizza 
 Reštaurácie 
 Recenzie 
 Inzeráty 
 Naničmama 	 
Nákupy 
		 
 Filmy na DVD 
 Hodinky 
 Parfémy 
 SME knihy a DVD 
 Superhosting 
 Tlačiareň 
 Víno 
 Tvorba webov 
 Predplatné SME 
 ProSenior 		 
	 
	 
 
	 
 


    
    
        
        
         
          
         
    

    
      
         
            
             
     
        
        
     
    Blog.SME.sk
 

    

         
        
                 
     
         
            Sme.sk
         
         
            Domov
         
         
            Regióny
         
         
            Ekonomika
         
         
            Svet
         
         
            Komentáre
         
         
            Kultúra
         
         
            Šport
         
         
            TV
         
         
            Auto
         
         
            Tech
         
         
            Poradňa
         
         
            Žena
         
         
            Bývanie
         
         
            Zdravie
         
         
            Blog
         
     
 

         
            
     
                                                         Politika 
                                                                                     Spoločnosť 
                                                                                     Cestovanie 
                                                                                     Ekonomika 
                                                                                     Fotografie 
                                                                                     Jedlo 
                                                                                     Kultúra 
                                                                                             
Ďalšie
                             
                                                                                         Lifestyle 
                                                                                                                                                                             Médiá 
                                                                                                                                                                             Nezaradené 
                                                                                                                                                                             Súkromné 
                                                                                                                                                                             Šport 
                                                                                                                                                                             Veda a technika 
                                                                                                                                                                             Zábava 
                                                                                                                                                                             Poézia 
                                                                                                                                                                             Próza 
                                                                                                                                                                             Kódex blogera 
                                                                                 
                         
                                                 
            Blogeri
         
     


            

    
    Prihlásiť sa


    
    Založte si blog



    
    Odhlásiť sa


    
    




         

        
        
         
            
         
         
                
     
                 
            SME.sk &gt;
            Blog.SME.sk &gt;
                            Alena Pšenová
                                        &gt;
                Nezaradené
                     
                 Napísal si ma 

        
            
                                    14.6.2010
            o
            15:41
                        |
            Karma článku:
                8.07
            |
            Prečítané 
            410-krát
                    
         
     
         
             

                 
                    krásne
                 

                do veršov jak Hviezdoslavov sonet či vlastnú spoveď na spôsob básne ??? Aj ja píšem si ťa v slove vyznanie aj mne na perách rastieš potajme Láska?

                 
                                        
                        
                        Zdieľať
                    

                    
                            
                                    
                                    Zdieľať na
                            
                             
                                    
                             
                    

                                                                                                                        
                            
                            Diskusia: (9)
                        
                    
                    
                        
                        Zvýšte karmu
                    
                 
             

                             
            
                     
                         Ďalšie články blogera 
                         
                                                             
                                    
                    	                                                                                        

                                                                        
                                    
                                        Alena Pšenová 
                                        
                                            strácaš sa
                                        
                                    
                                 
                                                             
                                    
                    	                                                                                        

                                                                        
                                    
                                        Alena Pšenová 
                                        
                                            Otvor si oči
                                        
                                    
                                 
                                                             
                                    
                    	                                                                                        

                                                                        
                                    
                                        Alena Pšenová 
                                        
                                            Adelka
                                        
                                    
                                 
                                                             
                                    
                    	                                                                                        

                                                                        
                                    
                                        Alena Pšenová 
                                        
                                            Stihomam túžby
                                        
                                    
                                 
                                                             
                                    
                    	                                                                                        

                                                                        
                                    
                                        Alena Pšenová 
                                        
                                            spadol si z neba
                                        
                                    
                                 
                                                     
                        
                            Ďalšie články blogera: Alena Pšenová
                        
                     
            
                     
                         Ďalšie články z rubriky poézia 
                         
                                                             
                                    
                                                            	                                                                                        

                                                                                                
                                    
                                        Filip Glejdura 
                                        
                                            Do mňa sa omáčaj
                                        
                                    
                                 
                                                             
                                    
                                                            	                                                                                        

                                                                                                
                                    
                                        Filip Glejdura 
                                        
                                            Nežná
                                        
                                    
                                 
                                                             
                                    
                                                            	                                                                                        

                                                                                                
                                    
                                        Maťo Chudík 
                                        
                                            Niečo sa stalo
                                        
                                    
                                 
                                                             
                                    
                                                            	                                                                                        

                                                                                                
                                    
                                        Tomáš Fuček 
                                        
                                            Posúvam sa dozadu
                                        
                                    
                                 
                                                             
                                    
                                                            	                                                                                        

                                                                                                
                                    
                                        Filip Glejdura 
                                        
                                            . . .  a bolo mu to aj tak jedno
                                        
                                    
                                 
                                                     
                        
                            Ďalšie články z rubriky poézia
                        
                     
                 
            
                    
 
     Hlavné správy 
         
        
                                

        
         
            ZAHRANIČIE
             Protestujúci v Maďarsku strácajú dych, Fidesz ich mätie novými návrhmi 
             Na demonštrácii proti Orbánovej vláde bolo v utorok už len niekoľko tisíc ľudí. 
         
     
         
        
                                

        
         
            AKTUALIZOVANÉ O 21:30
             Rubeľ pocítil pád na dno, Rusko je vo finančnej kríze 
             Dolár včera stál už takmer 80 rubľov, pod hladinu ho tlačia najmä nízke ceny ropy. 
         
     
         
        
                                

        
         
            AKTUALIZOVANÉ 21:50
             Taliban zabil v škole v Pakistane 132 detí 
             Pakistan až teraz poriadne zatlačil na islamistov. Odplatou je útok na deti vojakov. 
         
     
     

                 
     
    
     
        
 

     
                
                            
                    



         
            
                Alena Pšenová
            
         
        katuscakova.blog.sme.sk (rss)
         
                                     
     
        Ak píšem, tak so srdcom, či už sklamaným, zlomeným alebo plným lásky...

        
     
     
                     
                             
             

     
        
            
                
                    Počet článkov
                    45
                
                
                    Celková karma
                    
                                                0.00
                    
                
                
                    Priemerná čítanosť
                    497
                
            
        
     

             

             Zoznam rubrík 
            
             
                                     
                        
                            Súkromné
                        
                     
                                     
                        
                            Nezaradené
                        
                     
                             
         
    

                     
                        
                                                            
                     Obľúbené knihy 
                    
                     
                                                 
                                            Cecilia Ahern - P.S. Ich liebe Dich
                                     
                                                                             
                                            Max Lucado - Láska hodná dávania
                                     
                                                                             
                                            Herta Müller - Atemschaukel
                                     
                            
             
         
            

        

     






            
    
        
    
 

        
         
         
             Už ste čítali? 
         
         
 

 kultura.sme.sk 
 Margaréta sa spriahla s diablom, no mala Kristovu pravdu 
 
 

 www.sme.sk 
 Pútnické miesta The Beatles alebo ako ľudia kráčajú po zebre 
 
 

 cestovanie.sme.sk 
 Lovia za svitania a v hmle 
 
 

 www.sme.sk 
 Ako sa valila lavína slobody. Ako padal komunizmus 
 
 

 kultura.sme.sk 
 Žiadne retro, poriadny biznis. Takto sa lisuje platňa 
 
	   
 


        
         
            
         

     

    
     
 
 
	 

		Kontakty
		Predplatné
		Etický kódex
		Pomoc
		Mapa stránky
		
	 
 
 
	 
		 
			Widget
			RSS
			Newsletter
		 
		 
			Mobil
			Smartphone
			Kindle
			Televízor
		 
		 
			Facebook
			Twitter
			Google+
		 
	 
	 
		
	 
	 
		Ďalšie weby skupiny: Prihlásenie do Post.sk
		Új Szó Slovak Spectator
		Agentúrne správy 
		Vydavateľstvo
		Inzercia
		Osobné údaje
		Návštevnosť webu
		Predajnosť tlače
		Petit Academy
		SME v škole 		© Copyright 1997-2014 Petit Press, a.s. 
	 
 
 
 


          
        
            
            

        
    

    
    


    


    
        
        
        
        
        
        
        
            
            
        
        
        
        
         
                                
               





 

 



        

 




