
      
    
    

     
	 
	 
 SME.sk 
 Zľavy 
 Zoznámenie 
 Reality 
 Dovolenky 
 Pizza 
 Reštaurácie 
 Recenzie 
 Inzeráty 
 Naničmama 	 
Nákupy 
		 
 Filmy na DVD 
 Hodinky 
 Parfémy 
 SME knihy a DVD 
 Superhosting 
 Tlačiareň 
 Víno 
 Tvorba webov 
 Predplatné SME 
 ProSenior 		 
	 
	 
 
	 
 


    
    
        
        
         
          
         
    

    
      
         
            
             
     
        
        
     
    Blog.SME.sk
 

    

         
        
                 
     
         
            Sme.sk
         
         
            Domov
         
         
            Regióny
         
         
            Ekonomika
         
         
            Svet
         
         
            Komentáre
         
         
            Kultúra
         
         
            Šport
         
         
            TV
         
         
            Auto
         
         
            Tech
         
         
            Poradňa
         
         
            Žena
         
         
            Bývanie
         
         
            Zdravie
         
         
            Blog
         
     
 

         
            
     
                                                         Politika 
                                                                                     Spoločnosť 
                                                                                     Cestovanie 
                                                                                     Ekonomika 
                                                                                     Fotografie 
                                                                                     Jedlo 
                                                                                     Kultúra 
                                                                                             
Ďalšie
                             
                                                                                         Lifestyle 
                                                                                                                                                                             Médiá 
                                                                                                                                                                             Nezaradené 
                                                                                                                                                                             Súkromné 
                                                                                                                                                                             Šport 
                                                                                                                                                                             Veda a technika 
                                                                                                                                                                             Zábava 
                                                                                                                                                                             Poézia 
                                                                                                                                                                             Próza 
                                                                                                                                                                             Kódex blogera 
                                                                                 
                         
                                                 
            Blogeri
         
     


            

    
    Prihlásiť sa


    
    Založte si blog



    
    Odhlásiť sa


    
    




         

        
        
         
            
         
         
                
     
                 
            SME.sk &gt;
            Blog.SME.sk &gt;
                            Marek Mydliar
                                        &gt;
                Nezaradené
                     
                 Štrajk lekárov. V Nemecku. 

        
            
                                    18.5.2010
            o
            21:31
                        (upravené
                18.5.2010
                o
                23:27)
                        |
            Karma článku:
                4.80
            |
            Prečítané 
            1548-krát
                    
         
     
         
             

                 
                    Budúci týždeň to začne. V Pondelok. Celý týždeň. Možno dva. A je to tu...  Štrajk !
                 

                 
  
      Slabé platy lekárov. Zlé ohodnotenie nočných služieb. Neuznané nadčasy. Útek lekárov do zahraničia. Nedostatok lekárov už niekoľko rokov.   Že to znie povedome? Nepočujeme to denne zo slovenských médií?   A čo tak z nemeckých...       17.5.2010 začal ráno štrajk. Štrajk. Štrajk nemeckých lekárov komunálnych nemocníc (ktorých je väčšina). Organizovaných lekárskymi odbormi – „Marburger Bund“.   V pondelok ráno odchádzame do Mníchova. Stretávame sa na hlavnej stanici, nastupujeme do ICE.   Nasleduje nekonečná cesta 600 kilometrov, ktorá napriek rýchlosti blížiacej sa na niektorých úsekoch k magickej hranici 300 km/h trvá cez štyri hodiny.   V Mníchove sa zišlo na demonštráciu 4000 lekárov, prevažne síce z Bavorska, ale mnohé skupiny (ako aj tá naša), merali cestu zďaleka.      - Dav lekárov sa presúva na miesto zhromaždenia ulicami Mníchova                                                         A ešte zopár plagátov:   (pozn.: preklad mierne upravený v zmysle plagátu)       Peniaze pre banky a Grécko? A čo tak pre našich chorích?          Anglicko, Švédsko, Švajčiarsko! Objav svoje možnosti!          Už (teraz) stačí          Byť lekárom: z práce snov - trauma z práce          Odborný lekár pre byrokraciu          24 hodín: Ostatní spia a my pracujeme          Preč do Anglicka!          v noci som najlacnejší      ...a ešte niečo trochu odlahčené - Dnes sa berieme z lásky (v zmysle... pre peniaze nás nikto nechce)        

                 
                                        
                        
                        Zdieľať
                    

                    
                            
                                    
                                    Zdieľať na
                            
                             
                                    
                             
                    

                                                                                                                        
                            
                            Diskusia: (5)
                        
                    
                    
                        
                        Zvýšte karmu
                    
                 
             

                             
            
                     
                         Ďalšie články blogera 
                         
                                                             
                                    
                    	                                                                                        

                                                                        
                                    
                                        Marek Mydliar 
                                        
                                            Deutsche Bahn ? - Nein, danke...
                                        
                                    
                                 
                                                             
                                    
                    	                                                                                        

                                                                        
                                    
                                        Marek Mydliar 
                                        
                                            Bielorusko - krajina brezových lesov
                                        
                                    
                                 
                                                             
                                    
                    	                                                                                        

                                                                        
                                    
                                        Marek Mydliar 
                                        
                                            Aké sú lekárske klamstvá?
                                        
                                    
                                 
                                                             
                                    
                    	                                                                                        

                                                                        
                                    
                                        Marek Mydliar 
                                        
                                            Dom
                                        
                                    
                                 
                                                     
                        
                            Ďalšie články blogera: Marek Mydliar
                        
                     
            
                     
                         Ďalšie články z rubriky ekonomika 
                         
                                                             
                                    
                                                                                                                    

                                                                                                
                                    
                                        Michal Spišák 
                                        
                                            Podnikanie vysokých škôl a zamestnávanie študentov
                                        
                                    
                                 
                                                             
                                    
                                                            	                                                                                        

                                                                                                
                                    
                                        Marián Pilat 
                                        
                                            Komunálne voľby sa skončili, ale pre mňa sa všetko len začína
                                        
                                    
                                 
                                                             
                                    
                                                            	                                                                                        

                                                                                                
                                    
                                        Juraj Miškov 
                                        
                                            Gabžigovo?
                                        
                                    
                                 
                                                             
                                    
                                                            	                                                                                        

                                                                                                
                                    
                                        Alexander Ač 
                                        
                                            Nečakaný ropný šok
                                        
                                    
                                 
                                                             
                                    
                                                            	                                                                                        

                                                                                                
                                    
                                        Michal Spišák 
                                        
                                            Sociálne istoty pre mladých.
                                        
                                    
                                 
                                                     
                        
                            Ďalšie články z rubriky ekonomika
                        
                     
                 
            
                    
 
     Hlavné správy 
         
        
                                

        
         
            AKTUALIZOVANÉ O 20:00
             Rubeľ pocítil pád na dno, Rusko je vo finančnej kríze 
             Dolár včera stál už takmer 80 rubľov, pod hladinu ho tlačia najmä nízke ceny ropy. 
         
     
         
        
                                

        
         
            ZAHRANIČIE
             Taliban zaútočil na citlivé miesto Pakistanu. Na deti 
             Taliban zabil v škole v Pakistane najmenej 141 ľudí, väčšinou deti. 
         
     
         
        
                                

        
         
            KOMENTARE.SME.SK
             Cynická obluda: Medzičasom na opustenom ostrove 
             Stroskotanci majú veľké šťastie, že sú dvaja. Lacné vtipy na úrovni ich autora. 
         
     
     

                 
     
    
     
        
 

     
                
                            
                    



         
            
                Marek Mydliar
            
         
        mydliar.blog.sme.sk (rss)
         
                                     
     
        Atestovany internista v Nemecku, tridsiatnik, snažiaci sa pochopiť o čom je život.
        
     
     
                     
                             
             

     
        
            
                
                    Počet článkov
                    5
                
                
                    Celková karma
                    
                                                0.00
                    
                
                
                    Priemerná čítanosť
                    2652
                
            
        
     

             

             Zoznam rubrík 
            
             
                                     
                        
                            Súkromné
                        
                     
                                     
                        
                            Nezaradené
                        
                     
                             
         
    

                     
                        
                                                            
                     Obľúbené blogy 
                    
                     
                                                 
                                            tropko.blog.sme.sk/
                                     
                            
             
         
            

        

     






            
    
        
    
 

        
         
         
             Už ste čítali? 
         
         
 

 kultura.sme.sk 
 Margaréta sa spriahla s diablom, no mala Kristovu pravdu 
 
 

 www.sme.sk 
 Pútnické miesta The Beatles alebo ako ľudia kráčajú po zebre 
 
 

 cestovanie.sme.sk 
 Lovia za svitania a v hmle 
 
 

 www.sme.sk 
 Ako sa valila lavína slobody. Ako padal komunizmus 
 
 

 kultura.sme.sk 
 Žiadne retro, poriadny biznis. Takto sa lisuje platňa 
 
	   
 


        
         
            
         

     

    
     
 
 
	 

		Kontakty
		Predplatné
		Etický kódex
		Pomoc
		Mapa stránky
		
	 
 
 
	 
		 
			Widget
			RSS
			Newsletter
		 
		 
			Mobil
			Smartphone
			Kindle
			Televízor
		 
		 
			Facebook
			Twitter
			Google+
		 
	 
	 
		
	 
	 
		Ďalšie weby skupiny: Prihlásenie do Post.sk
		Új Szó Slovak Spectator
		Agentúrne správy 
		Vydavateľstvo
		Inzercia
		Osobné údaje
		Návštevnosť webu
		Predajnosť tlače
		Petit Academy
		SME v škole 		© Copyright 1997-2014 Petit Press, a.s. 
	 
 
 
 


          
        
            
            

        
    

    
    


    


    
        
        
        
        
        
        
        
            
            
        
        
        
        
         
                                
               





 

 



        

 




