
      
    
    

     
	 
	 
 SME.sk 
 Zľavy 
 Zoznámenie 
 Reality 
 Dovolenky 
 Pizza 
 Reštaurácie 
 Recenzie 
 Inzeráty 
 Naničmama 	 
Nákupy 
		 
 Filmy na DVD 
 Hodinky 
 Parfémy 
 SME knihy a DVD 
 Superhosting 
 Tlačiareň 
 Víno 
 Tvorba webov 
 Predplatné SME 
 ProSenior 		 
	 
	 
 
	 
 


    
    
        
        
         
          
         
    

    
      
         
            
             
     
        
        
     
    Blog.SME.sk
 

    

         
        
                 
     
         
            Sme.sk
         
         
            Domov
         
         
            Regióny
         
         
            Ekonomika
         
         
            Svet
         
         
            Komentáre
         
         
            Kultúra
         
         
            Šport
         
         
            TV
         
         
            Auto
         
         
            Tech
         
         
            Poradňa
         
         
            Žena
         
         
            Bývanie
         
         
            Zdravie
         
         
            Blog
         
     
 

         
            
     
                                                         Politika 
                                                                                     Spoločnosť 
                                                                                     Cestovanie 
                                                                                     Ekonomika 
                                                                                     Fotografie 
                                                                                     Jedlo 
                                                                                     Kultúra 
                                                                                             
Ďalšie
                             
                                                                                         Lifestyle 
                                                                                                                                                                             Médiá 
                                                                                                                                                                             Nezaradené 
                                                                                                                                                                             Súkromné 
                                                                                                                                                                             Šport 
                                                                                                                                                                             Veda a technika 
                                                                                                                                                                             Zábava 
                                                                                                                                                                             Poézia 
                                                                                                                                                                             Próza 
                                                                                                                                                                             Kódex blogera 
                                                                                 
                         
                                                 
            Blogeri
         
     


            

    
    Prihlásiť sa


    
    Založte si blog



    
    Odhlásiť sa


    
    




         

        
        
         
            
         
         
                
     
                 
            SME.sk &gt;
            Blog.SME.sk &gt;
                            René Harakály
                                        &gt;
                Luník IX
                     
                 Kradnutie poklopov na Luníku IX 

        
            
                                    28.5.2010
            o
            11:06
                        (upravené
                28.5.2010
                o
                11:29)
                        |
            Karma článku:
                12.02
            |
            Prečítané 
            3111-krát
                    
         
     
         
             

                 
                    Pondelok večer čas 21:00 som sa vybral  na prechádzku s kamarátom po Luníku. 
                 

                 
  
      Zastavili sme sa pri základnej škole  a tam sme debatovali. Okolo 22.00 hod sme uvideli opitého muža s manželkou s  malým  psíkom. Zrazu opitý muž začal vyberať  poklop z kanálu, keď ho vybral začal kotúľať, viackrát sa mu stalo, že mu spadol.  Manželka ho ťahala domov,  že nech  to nechá tak. S kamarátom sme poklop vrátili na miesto .Jemu to nedalo pokoj,  tak si zavolal na pomoc feťakov, ti  mu pomohli.  Mne to nedalo,  chcel som im niečo povedať a kamarát ma zastavil, že nerob nič, lebo ti môže niečo urobiť. Ta potom som sa rozhodol, že zavolám políciu. Zavolal som políciu,  prišli asi za 30 sekúnd,  dovtedy  sa im poklop skotúľal z kopca.  Prišli  tri  policajne vozidla a začali hliadkovať, ale zlodeji už  ušli a poklop nenašli. Na druhy deň po príchode zo školy mi  sused mi povedal, že spadol 17- ročný chlapec do kanála, lebo tam nebol poklop. Ja som povedal, že viem o tom, že ta poklop  nebol lebo ho jeden večer  ukradol. Nato som mu povedal, aby skúsili hľadať poklop, či nie je hodený v krikoch.  Napokon ho našiel a vrátil ho. Dúfam, že už sa ten muž poučil a  už druhýkrát poklop kradnúť nebude.                            

                 
                                        
                        
                        Zdieľať
                    

                    
                            
                                    
                                    Zdieľať na
                            
                             
                                    
                             
                    

                                                                                                                        
                            
                            Diskusia: (16)
                        
                    
                    
                        
                        Zvýšte karmu
                    
                 
             

                             
            
                     
                         Ďalšie články blogera 
                         
                                                             
                                    
                    	                                                                                        

                                                                        
                                    
                                        René Harakály 
                                        
                                            Splnený sen
                                        
                                    
                                 
                                                             
                                    
                    	                                                                                        

                                                                        
                                    
                                        René Harakály 
                                        
                                            Šťastné a veselé Vianoce vám prajú Luníčania
                                        
                                    
                                 
                                                             
                                    
                    	                                                                                        

                                                                        
                                    
                                        René Harakály 
                                        
                                            Boj na Luníku IX o starostovsku stoličku
                                        
                                    
                                 
                                                             
                                    
                    	                                                                                        

                                                                        
                                    
                                        René Harakály 
                                        
                                            Letný tábor pre deti z Luníka IX
                                        
                                    
                                 
                                                             
                                    
                    	                                                                                        

                                                                        
                                    
                                        René Harakály 
                                        
                                            Hurá! Starosta niečo robí na Luníku IX
                                        
                                    
                                 
                                                     
                        
                            Ďalšie články blogera: René Harakály
                        
                     
            
                     
                         Ďalšie články z rubriky nezaradené 
                         
                                                             
                                    
                                                            	                                                                                        

                                                                                                
                                    
                                        Pavel Ondrejmiška 
                                        
                                            Dnes farnosť Žitavany, pred tisíc rokmi kráľovská fara v Kňažiciach
                                        
                                    
                                 
                                                             
                                    
                                                            	                                                                                        

                                                                                                
                                    
                                        Milan Removčík 
                                        
                                            Zimný Šíp.
                                        
                                    
                                 
                                                             
                                    
                                                            	                                                                                        

                                                                                                
                                    
                                          esc-sr 
                                        
                                            Čas (ne)vhodných darčekov
                                        
                                    
                                 
                                                             
                                    
                                                            	                                                                                        

                                                                                                
                                    
                                        Michal Filek 
                                        
                                            Ako je ťažké darovať bezdomovcom polievku?
                                        
                                    
                                 
                                                             
                                    
                                                                                                                    

                                                                                                
                                    
                                        Anna Kováčová 
                                        
                                            Na sexi postavu, zdravie, energiu a šťastný život nepotrebujete tabletky!
                                        
                                    
                                 
                                                     
                        
                            Ďalšie články z rubriky nezaradené
                        
                     
                 
            
                    
 
     Hlavné správy 
         
        
                                

        
         
            AKTUALIZOVANÉ 20:22
             Slovenky v hlavnej skupine nebodovali, Švédky vyhrali o 9 gólov 
             Naše hádzanárky hrali na ME piaty zápas. V Záhrebe proti Švédkam. 
         
     
         
        
                                

        
         
            AKTUALIZOVANÉ O 20:00
             Rubeľ pocítil pád na dno, Rusko je vo finančnej kríze 
             Dolár včera stál už takmer 80 rubľov, pod hladinu ho tlačia najmä nízke ceny ropy. 
         
     
         
        
                                

        
         
            ZAHRANIČIE
             Taliban zaútočil na citlivé miesto Pakistanu. Na deti 
             Taliban zabil v škole v Pakistane najmenej 141 ľudí, väčšinou deti. 
         
     
     

                 
     
    
     
        
 

     
                
                            
                    



         
            
                René Harakály
            
         
        reneharakaly.blog.sme.sk (rss)
         
                                     
     
         Volám sa René Harakály  som hrdý  že som Róm. 
        
     
     
                     
                             
             

     
        
            
                
                    Počet článkov
                    19
                
                
                    Celková karma
                    
                                                0.00
                    
                
                
                    Priemerná čítanosť
                    1628
                
            
        
     

             

             Zoznam rubrík 
            
             
                                     
                        
                            Foto Luník
                        
                     
                                     
                        
                            Súkromné
                        
                     
                                     
                        
                            Luník IX
                        
                     
                                     
                        
                            Nezaradené
                        
                     
                             
         
    

                     
                        
                                                            
                     Obľúbené knihy 
                    
                     
                                                 
                                            OPRAVDIVÝ RÓM BLAHOSLAVENÝ ZEFIRÍN JIMÉNEZ MALLA MARIO RIBOLDI
                                     
                                                                             
                                            Rómske ticho
                                     
                                                                   
                     Čo práve počúvam 
                    
                     
                                                 
                                            Jemné Melodie
                                     
                                                                   
                     Obľúbené blogy 
                    
                     
                                                 
                                            harakaly
                                     
                                                                             
                                            Miro Koseček
                                     
                                                                             
                                            JozefČerveň
                                     
                                                                   
                     Obľúbené stránky 
                    
                     
                                                 
                                            lunik9.sk
                                     
                                                                             
                                            rpa.sk
                                     
                            
             
         
            

           
     Pošlite odkaz blogerovi 
    
         
            
         

         
         
         
         

         
         
Odosielateľ (e-mail)
 
         
Text
 
         
             
Protispamová ochrana 
 
 Zle. Skúste znova. 
Opíšte slová z obrázku: Načítať iné slová 
 Get an image CAPTCHA 
 
 
         
                 
            
         
    
  


 

     






            
    
        
    
 

        
         
         
             Už ste čítali? 
         
         
 

 kultura.sme.sk 
 Margaréta sa spriahla s diablom, no mala Kristovu pravdu 
 
 

 www.sme.sk 
 Pútnické miesta The Beatles alebo ako ľudia kráčajú po zebre 
 
 

 cestovanie.sme.sk 
 Lovia za svitania a v hmle 
 
 

 www.sme.sk 
 Ako sa valila lavína slobody. Ako padal komunizmus 
 
 

 kultura.sme.sk 
 Žiadne retro, poriadny biznis. Takto sa lisuje platňa 
 
	   
 


        
         
            
         

     

    
     
 
 
	 

		Kontakty
		Predplatné
		Etický kódex
		Pomoc
		Mapa stránky
		
	 
 
 
	 
		 
			Widget
			RSS
			Newsletter
		 
		 
			Mobil
			Smartphone
			Kindle
			Televízor
		 
		 
			Facebook
			Twitter
			Google+
		 
	 
	 
		
	 
	 
		Ďalšie weby skupiny: Prihlásenie do Post.sk
		Új Szó Slovak Spectator
		Agentúrne správy 
		Vydavateľstvo
		Inzercia
		Osobné údaje
		Návštevnosť webu
		Predajnosť tlače
		Petit Academy
		SME v škole 		© Copyright 1997-2014 Petit Press, a.s. 
	 
 
 
 


          
        
            
            

        
    

    
    


    


    
        
        
        
        
        
        
        
            
            
        
        
        
        
         
                                
               





 

 



        

 




