
      
    
    

     
	 
	 
 SME.sk 
 Zľavy 
 Zoznámenie 
 Reality 
 Dovolenky 
 Pizza 
 Reštaurácie 
 Recenzie 
 Inzeráty 
 Naničmama 	 
Nákupy 
		 
 Filmy na DVD 
 Hodinky 
 Parfémy 
 SME knihy a DVD 
 Superhosting 
 Tlačiareň 
 Víno 
 Tvorba webov 
 Predplatné SME 
 ProSenior 		 
	 
	 
 
	 
 


    
    
        
        
         
          
         
    

    
      
         
            
             
     
        
        
     
    Blog.SME.sk
 

    

         
        
                 
     
         
            Sme.sk
         
         
            Domov
         
         
            Regióny
         
         
            Ekonomika
         
         
            Svet
         
         
            Komentáre
         
         
            Kultúra
         
         
            Šport
         
         
            TV
         
         
            Auto
         
         
            Tech
         
         
            Poradňa
         
         
            Žena
         
         
            Bývanie
         
         
            Zdravie
         
         
            Blog
         
     
 

         
            
     
                                                         Politika 
                                                                                     Spoločnosť 
                                                                                     Cestovanie 
                                                                                     Ekonomika 
                                                                                     Fotografie 
                                                                                     Jedlo 
                                                                                     Kultúra 
                                                                                             
Ďalšie
                             
                                                                                         Lifestyle 
                                                                                                                                                                             Médiá 
                                                                                                                                                                             Nezaradené 
                                                                                                                                                                             Súkromné 
                                                                                                                                                                             Šport 
                                                                                                                                                                             Veda a technika 
                                                                                                                                                                             Zábava 
                                                                                                                                                                             Poézia 
                                                                                                                                                                             Próza 
                                                                                                                                                                             Kódex blogera 
                                                                                 
                         
                                                 
            Blogeri
         
     


            

    
    Prihlásiť sa


    
    Založte si blog



    
    Odhlásiť sa


    
    




         

        
        
         
            
         
         
                
     
                 
            SME.sk &gt;
            Blog.SME.sk &gt;
                            Alexander Ač
                                        &gt;
                Klimatická zmena
                     
                 A predsa sa otepľuje! 

        
            
                                    23.5.2010
            o
            13:08
                        (upravené
                23.5.2010
                o
                13:59)
                        |
            Karma článku:
                7.00
            |
            Prečítané 
            2151-krát
                    
         
     
         
             

                 
                    Ako by dnes nepochybne povedal kto iný, ako Galileo Galilei. Našťastie, klimatológovia sú v lepšej pozícii ako Galilei, ktorý bol odsúdený „iba" k domácemu väzeniu (Giordano Bruno dopadol horšie, toho v roku 1600 upálili). Klimatológovia utrpeli iba ukradnutím súkromných e-mailov. Napriek tomu, že sa Zem naďalej otepľuje a tento trend je pre väčšinu obyvateľov sveta už dnes nepriaznivý, mnohí klimaskeptici by takmer všetkých klimatológov najradšej videli za mrežami (ak nie rovno na elektrickom kresle). Napriek stále zúfalejším výkrikom klimaskeptikov sa Zem predsa otepľuje.
                 

                 Začať môžeme tým, že podľa posledných meraní globálnych teplôt NASA aj NOAA je obdobie január-apríl 2010 zatiaľ najteplejším v histórii inštrumentálnych meraní teplôt – tj. za posledných 131 rokov (od r. 1879):               Graf odchýlok teplôt od priemeru v rokoch 1951-1980, podľa agentúry NASA za obdobie január-apríl 2010.  Všimnite si, že napríklad v strednej Európe je odchylka teploty blízka nule, teda u nás bolo približne rovnako teplo ako v rokoch 1951-1980. Zdroj: NASA              Teplotné ochchylky za rovnaké obdobie podľa analýz NOAA. Odchýlky sa v tomto prípade vzťahujú k priemeru za obdobie 1961-1990, čo samozrejme neovplyvňuje absolútne, ale iba relatívne zmeny v teplote. Podľa NOAA je obdobie január-apríl o 0,01 °C teplejšie, ako bolo v doteraz rekordnom roku 2002. Zdroj: NOAA        Zároveň aj prudko klesá objem arktického ľadu, určený na základe modelu PIOMAS (Pan-Arctic Ice Ocean Modeling and Assimilation System). Pokles objemu ľadu je presnejší indikátor topenia ako plocha, hoci aj tá sa rýchlo zmenšuje:               Graf odchýlok objemu arktického ľadu. Podľa týchto údajov ubúda arktický ľad rýchlosťou 3 400 km3 za desaťročie. Všimnite si, že v grafe je možné vidieť 14-ročný cyklus (lokálne minimá boli dosiahnuté v rokoch 1982, 1996, a 2010), ktorý pravdepodobne súvisí s prirodzenými zmenami podnebia (napr. tzv. Arktická oscilácia a ďalšie). Zdroj: Polar Science Center        Zároveň narastá množstvo tepla absorbovaného oceánmi (ocean heat content), najmä jeho hornými vrstvami. V rokoch 1993-2008 oceány pohltili 80 až 90 % z celkového nadbytočného tepla. Štúdia bola publikovaná v časopise Nature (Lyman a kol., 2010):              Graf upravený podľa štúdie Lymana a kol. Oceány sú oveľa lepším a spoľahlivejším indikátorom tepelnej nerovnováhy Zeme, pretože až 80-90 % tepla sa dostane sem. Oceány sú tiež zdrojom klimatickej "zotrvačnosti", to znamená, že ak by sme aj znížili emisie skleníkových plynov na nulu, hladiny oceánov až budú narastať niekoľko storočí, a teplota atmosféry sa budu zvyšovať ešte niekoľko desaťročí (cca. 30 rokov). Červená krivka zobrazuje výbuchy veľkých sopiek, ktoré dočasne znížili množstvo tepla absorbovaného oceánmi. Zdroj: Desdemona Despair, pozri aj RealClimate         A topenie Grónska je možné pozorovať nielen v negatívnej bilancii množstva ľadu, ale aj v zrýchľujúcom sa „zdvíhaní“ jeho pevniny, na niektorých miestach až rýchlosťou 2,5 cm/rok. Štúdia bola publikovaná v časopise Nature Geoscience (Jiang a kol., 2010).               Satelitný snímok Západného Grónska senzoru MODIS (NASA). Tmavšie oblasti sú miesta, kde sa ľad topí a zároveň tu dochádza k zdvíhaniu pevniny. Šípka ukazuje miesto v okolí jedného z najväčších a najrýchlejších odtokových ľadovcov - ľadovca Jacobshavn, ktorý sa takisto rýchlo stenčuje a významne prispieva k nárastu hladín svetových oceánov. Zdroj: ScienceDaily           Grónsko tak bude jedna z mála pevnín, ktoré nebudú ohrozené nárastom hladiny oceánov. Dá sa ale pochybovať o tom, či Grónsko dokáže uživiť aspoň zlomok dnešnej svetovej populácie.        Takže ak vám niekto bude tvrdiť, že sa neotepľuje, alebo že sa otepľovanie zastavilo, skúste sa nad tým trochu zamyslieť. Ak vám bude tvrdiť, že sa otepľuje, ale CO2 a ostatné skleníkové plyny s tým nemajú takmer nič spoločné, budete sa musieť zamyslieť ešte o trochu viac.      

                 
                                        
                        
                        Zdieľať
                    

                    
                            
                                    
                                    Zdieľať na
                            
                             
                                    
                             
                    

                                                                                                                        
                            
                            Diskusia: (203)
                        
                    
                    
                        
                        Zvýšte karmu
                    
                 
             

                             
            
                     
                         Ďalšie články blogera 
                         
                                                             
                                    
                    	                                                                                        

                                                                        
                                    
                                        Alexander Ač 
                                        
                                            Nečakaný ropný šok
                                        
                                    
                                 
                                                             
                                    
                    	                                                                                        

                                                                        
                                    
                                        Alexander Ač 
                                        
                                            Svet sa od riešenia klimatickej zmeny rýchlo vzďaľuje
                                        
                                    
                                 
                                                             
                                    
                    	                                                                                        

                                                                        
                                    
                                        Alexander Ač 
                                        
                                            Homo sapiens v akcii
                                        
                                    
                                 
                                                             
                                    
                    	                                                                                        

                                                                        
                                    
                                        Alexander Ač 
                                        
                                            Zmena vizáže
                                        
                                    
                                 
                                                             
                                    
                    	                                                                                        

                                                                        
                                    
                                        Alexander Ač 
                                        
                                            Ťažba nekonvenčnej ropy v kontexte ropného zlomu
                                        
                                    
                                 
                                                     
                        
                            Ďalšie články blogera: Alexander Ač
                        
                     
            
                     
                         Ďalšie články z rubriky veda a technika 
                         
                                                             
                                    
                                                            	                                                                                        

                                                                                                
                                    
                                        Mária Džunková 
                                        
                                            Prečo vôbec nevadí, ak nemáte DNA sekvenátor
                                        
                                    
                                 
                                                             
                                    
                                                            	                                                                                        

                                                                                                
                                    
                                        Jana K. Jones 
                                        
                                            Filozofia vedy - Čo, podľa Poppera, veda dokazuje?
                                        
                                    
                                 
                                                             
                                    
                                                            	                                                                                        

                                                                                                
                                    
                                        MUDr. Peter Žiak, PhD. 
                                        
                                            Prečo si niekedy nevšimneme červenú?
                                        
                                    
                                 
                                                             
                                    
                                                            	                                                                                        

                                                                                                
                                    
                                        Jana K. Jones 
                                        
                                            Filozofia vedy - kritérium falzifikovateľnosti podľa Karla Poppera
                                        
                                    
                                 
                                                             
                                    
                                                                                                                    

                                                                                                
                                    
                                        Miroslav Lisinovič 
                                        
                                            Tatra 87
                                        
                                    
                                 
                                                     
                        
                            Ďalšie články z rubriky veda a technika
                        
                     
                 
            
                    
 
     Hlavné správy 
         
        
                                

        
         
            AKTUALIZOVANÉ 20:22
             Slovenky v hlavnej skupine nebodovali, Švédky vyhrali o 9 gólov 
             Naše hádzanárky hrali na ME piaty zápas. V Záhrebe proti Švédkam. 
         
     
         
        
                                

        
         
            AKTUALIZOVANÉ O 20:00
             Rubeľ pocítil pád na dno, Rusko je vo finančnej kríze 
             Dolár včera stál už takmer 80 rubľov, pod hladinu ho tlačia najmä nízke ceny ropy. 
         
     
         
        
                                

        
         
            ZAHRANIČIE
             Taliban zaútočil na citlivé miesto Pakistanu. Na deti 
             Taliban zabil v škole v Pakistane najmenej 141 ľudí, väčšinou deti. 
         
     
     

                 
     
    
     
        
 

     
                
                            
                    



         
            
                Alexander Ač
            
         
        ac.blog.sme.sk (rss)
         
                        VIP
                             
     
        Pracujem v Brne.

        
     
     
                     
                             
             

     
        
            
                
                    Počet článkov
                    630
                
                
                    Celková karma
                    
                                                0.00
                    
                
                
                    Priemerná čítanosť
                    1655
                
            
        
     

             

             Zoznam rubrík 
            
             
                                     
                        
                            Vzťahy
                        
                     
                                     
                        
                            Klimatická zmena
                        
                     
                                     
                        
                            Ropný zlom
                        
                     
                                     
                        
                            Finančná kríza
                        
                     
                                     
                        
                            Jadrová energia
                        
                     
                                     
                        
                            Egypt
                        
                     
                                     
                        
                            Argentína
                        
                     
                                     
                        
                            Súkromné
                        
                     
                                     
                        
                            Nezaradené
                        
                     
                             
         
    

                     
                        
                                                            
                     Obľúbené články 
                    
                     
                                                 
                                            Reaching the outer limits
                                     
                                                                             
                                            Juro Mesík - List buducej generácii
                                     
                                                                             
                                            Hans J. Schellnhuber - CO2 Insolvency
                                     
                                                                             
                                            Dave Cohen - Next Oil Shock
                                     
                                                                             
                                            Juraj Mesík: Źivot po zrútení USA
                                     
                                                                             
                                            Orlov: Social collapse - best practices
                                     
                                                                             
                                            Hansen:Coal-fired power stations are death factories. Close them
                                     
                                                                             
                                            Five stages of collapse - Dmitrij Orlov
                                     
                                                                             
                                            Asia and Africa - living on the edge
                                     
                                                                             
                                            Clean coal illusion
                                     
                                                                             
                                            Carbon capping: A citizen's guide
                                     
                                                                             
                                            Rozpad Wilkinsovho ľadovcového štítu - 8. Marca 2008
                                     
                                                                             
                                            Rekordne teplá zima v Severnej Európe
                                     
                                                                             
                                            Globálne otepľovanie môže zvýšiť škodu spôsobenú chladom
                                     
                                                                             
                                            Jadroví kanibali
                                     
                                                                             
                                            Odčerpávanie CO2 zo vzduchu
                                     
                                                                             
                                            Búrka na obzore: Prichádzajúca ropná kríza
                                     
                                                                             
                                            Elektromobily - na dosah?
                                     
                                                                             
                                            Potrebujeme biopalivá?
                                     
                                                                             
                                            Ropny zlom - RL Hirsch, 2005 (PDF)
                                     
                                                                             
                                            Cap-and-trade: more effective than a carbon tax
                                     
                                                                             
                                            Globálne stmievanie
                                     
                                                                             
                                            Poster od tvorcov blogu REALCLIMATE na AGU, 2006 Have a look ;-)
                                     
                                                                             
                                            BBC news - Globálne stmievanie - video
                                     
                                                                             
                                            ABC News on GW - video
                                     
                                                                             
                                            Sucho vo východnej Ázii
                                     
                                                                             
                                            Ako schne Amazon - video (Greenpeace)
                                     
                                                                             
                                            60 minut globalne otepľovanie - video super!!!
                                     
                                                                             
                                            Ladove medvede a globalne otepľovanie - video
                                     
                                                                             
                                            Ladovce, boli - uz nie su
                                     
                                                                             
                                            Pre ekológov
                                     
                                                                             
                                            O klimatickej zmene - zaujímavé
                                     
                                                                   
                     Obľúbené knihy 
                    
                     
                                                 
                                            Beyond Oil: The Threat to food and fuel in the coming decades
                                     
                                                                             
                                            Bud Ward - Communicating on Climate Change
                                     
                                                                             
                                            Spencer Weart - The discovery of global warming
                                     
                                                                             
                                            Helm D. a kol. - Príliš dobré aby to bola pravda?
                                     
                                                                             
                                            D.J.C. MacKay - Obnoviteľné zdroje energie s chladnou hlavou-SK
                                     
                                                                             
                                            Frans de Waal - Dobráci od přírody
                                     
                                                                             
                                            IPCC - 2007
                                     
                                                                             
                                            Lester Brown - Plan B 3.0 - Mobilizing to save the civilization
                                     
                                                                   
                     Čo práve počúvam 
                    
                     
                                                 
                                            ===filmy===
                                     
                                                                             
                                            Project Home
                                     
                                                                             
                                            An Inconvenienth truth
                                     
                                                                             
                                            The age of stupid
                                     
                                                                             
                                            The great squeeze - Surviving the human project
                                     
                                                                             
                                            Blind spot
                                     
                                                                             
                                            A crude awakening - The Oil crash
                                     
                                                                             
                                            Sizzle: A global warming commedy
                                     
                                                                   
                     Obľúbené blogy 
                    
                     
                                                 
                                            Dušan Doliak - blog o ekonomike, financiách a spoločnosti
                                     
                                                                             
                                            Jožo Pecho - blog
                                     
                                                                             
                                            ===ropný zlom===
                                     
                                                                             
                                            Early Warning (Stuart Staniford)
                                     
                                                                             
                                            Energetický bulletín
                                     
                                                                             
                                            Thon Taddeo
                                     
                                                                             
                                            Big Gav (Peak Energy)
                                     
                                                                             
                                            Robert Rapier
                                     
                                                                             
                                            Matt Savinar
                                     
                                                                             
                                            Matthew Simmons
                                     
                                                                             
                                            Dmitry Orlov
                                     
                                                                             
                                            John Michael Greer
                                     
                                                                             
                                            James Howard Kunstler
                                     
                                                                             
                                            EnergyBulletin
                                     
                                                                             
                                            TheOilDrum
                                     
                                                                             
                                            TheAutomaticEarth
                                     
                                                                             
                                            When Giants Fall (Michael Panzner)
                                     
                                                                             
                                            Global Trend Analysis (Mike Shedlock)
                                     
                                                                             
                                            Steve Ludlum (Economic Undertow)
                                     
                                                                             
                                            Ambrose Evans-Pritchard
                                     
                                                                             
                                            Doug Short
                                     
                                                                             
                                            Calculated Risk (Bill McBride)
                                     
                                                                             
                                            Steeve Keen (DebtWatch)
                                     
                                                                             
                                            Guy McPherson
                                     
                                                                             
                                            EconBrowser (James Hamilton)
                                     
                                                                             
                                            Gregor MacDonald
                                     
                                                                             
                                            Andrew Dessler
                                     
                                                                             
                                            Global warming watch
                                     
                                                                             
                                            A few things III Considered
                                     
                                                                             
                                            Climate spin
                                     
                                                                             
                                            DotEarth (Andy Rewkin)
                                     
                                                                             
                                            Andrew Dessler
                                     
                                                                             
                                            Mark Lynas
                                     
                                                                             
                                            Desdemona Despair
                                     
                                                                             
                                            James Annan
                                     
                                                                             
                                            William Connolley
                                     
                                                                             
                                            Tamino (OpenMind)
                                     
                                                                             
                                            Eli Rabett
                                     
                                                                   
                     Obľúbené stránky 
                    
                     
                                                 
                                            Top 25 finančných portálov
                                     
                                                                             
                                            ScienceNews
                                     
                                                                             
                                            Atlas of our changing environment
                                     
                                                                             
                                            Encyklopédia života - Edward O. Wilson
                                     
                                                                             
                                            Encyklopédia Zeme
                                     
                                                                             
                                            Renewable energy foundation
                                     
                                                                             
                                            www.Edge.org - Cutting edge science
                                     
                                                                             
                                            Vaša ekologická stopa!
                                     
                                                                             
                                            National Snow and Ice Data Center
                                     
                                                                             
                                            Climate Code Red
                                     
                                                                             
                                            E-quark
                                     
                                                                             
                                            Science Daily
                                     
                                                                             
                                            PhysOrg
                                     
                                                                             
                                            Ekologické správy
                                     
                                                                             
                                            Carma - mapovanie emisií skleníkových plynov
                                     
                                                                             
                                            EarthTrends
                                     
                                                                             
                                            World Watch Institute
                                     
                                                                             
                                            Klimatická etika
                                     
                                                                             
                                            Live Science
                                     
                                                                             
                                            Globálny uhlíkový cyklus
                                     
                                                                             
                                            The History of Global Warming
                                     
                                                                             
                                            A compendium of data on Global Change
                                     
                                                                             
                                            Interaktívne - vplyv stúpajúcej morskej hladiny na pobrežie
                                     
                                                                             
                                            Globálne otepľovanie - interaktívne
                                     
                                                                             
                                            Svet v štatistikách
                                     
                                                                             
                                            AAAS o klimatickej zmene - video, super
                                     
                                                                             
                                            Zem z pohľadu satelitov - NASA
                                     
                                                                             
                                            Britské listy
                                     
                                                                             
                                            Globálne otepľovanie v obrazoch
                                     
                                                                             
                                            Scientific American
                                     
                                                                             
                                            National Geographic
                                     
                                                                             
                                            New Scientist
                                     
                                                                             
                                            National Climatic Data Center
                                     
                                                                             
                                            Dartmouth Flood Observatory
                                     
                                                                             
                                            Správy o ekológii z celého sveta
                                     
                                                                             
                                            NOAA
                                     
                            
             
         
            

             
             Čo ma zaujalo 
            Týmto článkom bloger klikol/klikla na karmu.
             
                                                         
                       Desať rokov postkalamitného vývoja
                     
                                                         
                       Já Kazisvet, z vôle Fica minister
                     
                                                         
                       Som iný: zbieram odpad v prírode - normálne je zahadzovať ho.
                     
                                                         
                       Čaká nás trvalý ekonomický pokles
                     
                                                         
                       Firmy z daňových rajov bodujú aj v slovenských štátnych tendroch
                     
                                                         
                       Karma a čítanosť
                     
                                                         
                       Kedy bola Arktída naposledy v lete bez ľadu?
                     
                             
         
           
     Pošlite odkaz blogerovi 
    
         
            
         

         
         
         
         

         
         
Odosielateľ (e-mail)
 
         
Text
 
         
             
Protispamová ochrana 
 
 Zle. Skúste znova. 
Opíšte slová z obrázku: Načítať iné slová 
 Get an image CAPTCHA 
 
 
         
                 
            
         
    
  


 

     






            
    
        
    
 

        
         
         
             Už ste čítali? 
         
         
 

 kultura.sme.sk 
 Margaréta sa spriahla s diablom, no mala Kristovu pravdu 
 
 

 www.sme.sk 
 Pútnické miesta The Beatles alebo ako ľudia kráčajú po zebre 
 
 

 cestovanie.sme.sk 
 Lovia za svitania a v hmle 
 
 

 www.sme.sk 
 Ako sa valila lavína slobody. Ako padal komunizmus 
 
 

 kultura.sme.sk 
 Žiadne retro, poriadny biznis. Takto sa lisuje platňa 
 
	   
 


        
         
            
         

     

    
     
 
 
	 

		Kontakty
		Predplatné
		Etický kódex
		Pomoc
		Mapa stránky
		
	 
 
 
	 
		 
			Widget
			RSS
			Newsletter
		 
		 
			Mobil
			Smartphone
			Kindle
			Televízor
		 
		 
			Facebook
			Twitter
			Google+
		 
	 
	 
		
	 
	 
		Ďalšie weby skupiny: Prihlásenie do Post.sk
		Új Szó Slovak Spectator
		Agentúrne správy 
		Vydavateľstvo
		Inzercia
		Osobné údaje
		Návštevnosť webu
		Predajnosť tlače
		Petit Academy
		SME v škole 		© Copyright 1997-2014 Petit Press, a.s. 
	 
 
 
 


          
        
            
            

        
    

    
    


    


    
        
        
        
        
        
        
        
            
            
        
        
        
        
         
                                
               





 

 



        

 




