
      
    
    

     
	 
	 
 SME.sk 
 Zľavy 
 Zoznámenie 
 Reality 
 Dovolenky 
 Pizza 
 Reštaurácie 
 Recenzie 
 Inzeráty 
 Naničmama 	 
Nákupy 
		 
 Filmy na DVD 
 Hodinky 
 Parfémy 
 SME knihy a DVD 
 Superhosting 
 Tlačiareň 
 Víno 
 Tvorba webov 
 Predplatné SME 
 ProSenior 		 
	 
	 
 
	 
 


    
    
        
        
         
          
         
    

    
      
         
            
             
     
        
        
     
    Blog.SME.sk
 

    

         
        
                 
     
         
            Sme.sk
         
         
            Domov
         
         
            Regióny
         
         
            Ekonomika
         
         
            Svet
         
         
            Komentáre
         
         
            Kultúra
         
         
            Šport
         
         
            TV
         
         
            Auto
         
         
            Tech
         
         
            Poradňa
         
         
            Žena
         
         
            Bývanie
         
         
            Zdravie
         
         
            Blog
         
     
 

         
            
     
                                                         Politika 
                                                                                     Spoločnosť 
                                                                                     Cestovanie 
                                                                                     Ekonomika 
                                                                                     Fotografie 
                                                                                     Jedlo 
                                                                                     Kultúra 
                                                                                             
Ďalšie
                             
                                                                                         Lifestyle 
                                                                                                                                                                             Médiá 
                                                                                                                                                                             Nezaradené 
                                                                                                                                                                             Súkromné 
                                                                                                                                                                             Šport 
                                                                                                                                                                             Veda a technika 
                                                                                                                                                                             Zábava 
                                                                                                                                                                             Poézia 
                                                                                                                                                                             Próza 
                                                                                                                                                                             Kódex blogera 
                                                                                 
                         
                                                 
            Blogeri
         
     


            

    
    Prihlásiť sa


    
    Založte si blog



    
    Odhlásiť sa


    
    




         

        
        
         
            
         
         
                
     
                 
            SME.sk &gt;
            Blog.SME.sk &gt;
                            Michal Kravčík
                                        &gt;
                Povodne
                     
                 Povodne odsúdené na samovývoj 

        
            
                                    27.6.2010
            o
            12:44
                        (upravené
                10.7.2010
                o
                23:44)
                        |
            Karma článku:
                9.62
            |
            Prečítané 
            1955-krát
                    
         
     
         
             

                 
                    Je isté, že tragické povodne zažijú ďalšie obce na Slovensku. Prečo? Pretože rozsah poškodenej krajiny na Slovensku je tak veľký, až sa do jej opravy nikomu nechce. Povodne sú skôr zdrojom inšpirácie na manipuláciu verejnej mienky. Povodne sa stali v čase volieb predmetom politického kupčenia a teraz po voľbách zodpovedné inštitúcie, ktoré sú zodpovedné aj za ochranu pred povodňami, budovali po desaťročia nesystémové a finančne neefektívne riešenia za miliardy korún sa mobilizujú, ako prepašovať do programového vyhlásenia novej vlády budovanie priehrad za stovky miliónov EUR (http://www.stv.sk/videoarchiv/relacia/vecer-na-temu-/). Údajne kvôli povodniam. A tak Slovensko je odsúdené na samovývoj povodní, čo zásadným spôsobom bude ovplyvňovať správanie sa ľudí.
                 

                 Deň pred voľbami (11. júna 2010) minister životného prostredia zverejnil výzvu na predkladanie projektov protipovodňovej ochrany (http://www.opzp.sk/downloadfile/vyzvy/opzp-po2-10-1/00-vyzva-opzp-po2-10-1.pdf), ktorá síce hovorí o prevencii pred povodňami, ale uchádzačmi môžu byť len správcovia vodných tokov. V praxi to znamená, že sa budú naďalej regulovať potoky, ktoré síce v danej obci dokážu zabrániť vyliatiu povodňovej vlny, ale regulácia zhoršuje povodňové stavy na celom úseku pod reguláciou.   Ak sa nebudú spolupracovať na protipovodňovej ochrane aj majitelia či správcovia lesných, poľnohospodárskych i urbannych  pozemkov, obce v údoliach sa budú musieť pripraviť na ďalšie katastrofálne povodne. Je nenormálne, aby vedenie štátu ohrozovalo svojich ľudí! Do protipovodňovej ochrany musia byť zapojení všetci, aj lesníci, aj poľnohospodári, aj majitelia či správcovia akýchkoľvek plôch, aby na svojich pozemkoch zadržiavali dažďovú vodu, či už hradením bystrín, budovaním odrážok na cestách v lesnej a poľnohospodárskej krajine, budovaním malých vodných plôch, rybníkov, protipožiarnych a závlahových nádrží, zberných nádrží na zbieranie dažďovej vody zo spevnených plôch miest a obcí. Všetky tieto opatrenia významným spôsobom prispievajú k znižovaniu povodňových rizík.   Ponúkam ďalší smutný príbeh odumierajúceho lesa na Kysuciach, kde zahryznutý lykožrút do dreva kántri smrekové porasty, po ktorých ostávajú holé pláne pripravené na samovývoj povodní. Okrem ťažby lesa sa v danej lokality nerobí nič. V údolí pod vyholeným lesom sa nachádza najväčšia dedina na Slovensku Oščadnica, ktorá už pár krát sa pokúšala získať finančné zdroje na komplexnú integrovanú ochranu vôd, no neúspešné, lebo nespĺňa kritériá. V tom istom čase bolo na protipovodňovú ochranu bolo zrealizovaných 13 projektov a všetky na reguláciu potoku, ktoré prispievajú k rizikám povodní na rieke Kysuce i Váh.                           PS:   Keď Nemecké Bavorsko postihla v roku 1988 veterná smršť, padlo viac ako 70 mil. kubíkov dreva. Vtedy nemeckí lesníci, ochranári aj politici spolupracovali a vymysleli program podpory ekologizácie lesov v celom Nemecku a federálna vláda financovala zo štátneho rozpočtu 10.000 Nemeckých mariek na jeden hektár. A tak sa od roku 1990 vysádzali poškodené lesy ekologický a dokonca aj monokultúrne dospelé smrekové porasty po celom Nemecku sa jeden deň vyťažili a na druhý deň ekologický vysádzali. Tým predišli lykožrútovej katastrofe. U nás sa ochranári s lesníkmi hádali, kto má silnejšie lakte, a politici ako truhlici nenabrali odvahu zásadne sa rozhodnúť, ako predísť umieraniu lesov.     

                 
                                        
                        
                        Zdieľať
                    

                    
                            
                                    
                                    Zdieľať na
                            
                             
                                    
                             
                    

                                                                                                                        
                            
                            Diskusia: (59)
                        
                    
                    
                        
                        Zvýšte karmu
                    
                 
             

                             
            
                     
                         Ďalšie články blogera 
                         
                                                             
                                    
                    	                                                                                        

                                                                        
                                    
                                        Michal Kravčík 
                                        
                                            Poloz na hrad!
                                        
                                    
                                 
                                                             
                                    
                    	                                                                                        

                                                                        
                                    
                                        Michal Kravčík 
                                        
                                            Zavšivavená spoločnosť trollami s podporou SME?
                                        
                                    
                                 
                                                             
                                    
                    	                                                                                        

                                                                        
                                    
                                        Michal Kravčík 
                                        
                                            Bratislava šiestym najbohatším regiónom EÚ. Západné Slovensko 239-tým…
                                        
                                    
                                 
                                                             
                                    
                    	                                                                                        

                                                                        
                                    
                                        Michal Kravčík 
                                        
                                            Nemajú Boha pri sebe!
                                        
                                    
                                 
                                                             
                                    
                    	                                                                                        

                                                                        
                                    
                                        Michal Kravčík 
                                        
                                            Ako sa zbaviť straníckej korupcie v štáte. Časť eurofondy
                                        
                                    
                                 
                                                     
                        
                            Ďalšie články blogera: Michal Kravčík
                        
                     
            
                     
                         Ďalšie články z rubriky nezaradené 
                         
                                                             
                                    
                                                            	                                                                                        

                                                                                                
                                    
                                        Pavel Ondrejmiška 
                                        
                                            Dnes farnosť Žitavany, pred tisíc rokmi kráľovská fara v Kňažiciach
                                        
                                    
                                 
                                                             
                                    
                                                            	                                                                                        

                                                                                                
                                    
                                        Milan Removčík 
                                        
                                            Zimný Šíp.
                                        
                                    
                                 
                                                             
                                    
                                                            	                                                                                        

                                                                                                
                                    
                                          esc-sr 
                                        
                                            Čas (ne)vhodných darčekov
                                        
                                    
                                 
                                                             
                                    
                                                            	                                                                                        

                                                                                                
                                    
                                        Michal Filek 
                                        
                                            Ako je ťažké darovať bezdomovcom polievku?
                                        
                                    
                                 
                                                             
                                    
                                                                                                                    

                                                                                                
                                    
                                        Anna Kováčová 
                                        
                                            Na sexi postavu, zdravie, energiu a šťastný život nepotrebujete tabletky!
                                        
                                    
                                 
                                                     
                        
                            Ďalšie články z rubriky nezaradené
                        
                     
                 
            
                    
 
     Hlavné správy 
         
        
                                

        
         
            ZAHRANIČIE
             Protestujúci v Maďarsku strácajú dych, Fidesz ich mätie novými návrhmi 
             Na demonštrácii proti Orbánovej vláde bolo v utorok už len niekoľko tisíc ľudí. 
         
     
         
        
                                

        
         
            AKTUALIZOVANÉ O 21:30
             Rubeľ pocítil pád na dno, Rusko je vo finančnej kríze 
             Dolár v utorok stál už takmer 80 rubľov, pod hladinu ho tlačia najmä nízke ceny ropy. 
         
     
         
        
                                

        
         
            AKTUALIZOVANÉ 21:50
             Taliban zabil v škole v Pakistane 132 detí 
             Pakistan až teraz poriadne zatlačil na islamistov. Odplatou je útok na deti vojakov. 
         
     
     

                 
     
    
     
        
 

     
                
                            
                    



         
            
                Michal Kravčík
            
         
        kravcik.blog.sme.sk (rss)
         
                                     
     
         Presadzujem a podporujem agendu „VODA PRE OZDRAVENIE KLÍMY“. Jej cieľom je posilnenie environmentálnej bezpečnosti prostredníctvom zodpovedného prístupu v ochrane prírodného a teda i kultúrneho dedičstva. Napĺňanie agendy, založenej na prijatí novej, vyššej kultúry vo vzťahu k vode, môže na Slovensku vytvoriť viac ako 100 tisíc a v Európe vyše 5 miliónov pracovných príležitostí. 
        
     
     
                     
                             
             

     
        
            
                
                    Počet článkov
                    629
                
                
                    Celková karma
                    
                                                7.10
                    
                
                
                    Priemerná čítanosť
                    2236
                
            
        
     

             

             Zoznam rubrík 
            
             
                                     
                        
                            Povodne
                        
                     
                                     
                        
                            Hladujúci potrebujú vodu
                        
                     
                                     
                        
                            Klimatická zmena
                        
                     
                                     
                        
                            VODA zrkadlo kultúry
                        
                     
                                     
                        
                            http://s07.flagcounter.com/mor
                        
                     
                                     
                        
                            Nová vodná paradigma
                        
                     
                                     
                        
                            Košice
                        
                     
                                     
                        
                            Spoločnosť
                        
                     
                                     
                        
                            http://moje.hnonline.sk/blog/4
                        
                     
                             
         
    

                     
                        
                                                            
                     Obľúbené články 
                    
                     
                                                 
                                            Kandidáti za poslancov do EP
                                     
                                                                             
                                            Ladislav Vozárik
                                     
                                                                             
                                             
                                     
                                                                             
                                             
                                     
                                                                   
                     Obľúbené knihy 
                    
                     
                                                 
                                            http://www.clim-past.net/2/187/2006/cp-2-187-2006.pdf
                                     
                                                                   
                     Obľúbené blogy 
                    
                     
                                                 
                                            http://blog.aktualne.centrum.cz/blogy/jana-hradilkova.php
                                     
                                                                   
                     Obľúbené stránky 
                    
                     
                                                 
                                            hospodarskyklub.sk
                                     
                                                                             
                                            ashoka.org
                                     
                                                                             
                                            bluegold-worldwaterwars.com
                                     
                                                                             
                                            holisticmanagement.org
                                     
                                                                             
                                            theglobalcoolingproject.com
                                     
                                                                             
                                            ludiaavoda.sk
                                     
                                                                             
                                            watergy.de
                                     
                                                                             
                                            waterparadigm.org
                                     
                            
             
         
            

             
             Čo ma zaujalo 
            Týmto článkom bloger klikol/klikla na karmu.
             
                                                         
                       Nemajú Boha pri sebe!
                     
                                                         
                       Ako sa zbaviť straníckej korupcie v štáte. Časť eurofondy
                     
                                                         
                       Ako sa z jednej ochranárskej ikony stala obyčajná nula
                     
                                                         
                       10 rokov po víchrici v Tatrách stále v zákopoch
                     
                                                         
                       Primátor všetkých Košičanov?
                     
                                                         
                       Dnes zasadá Vláda v Ubli
                     
                                                         
                       Aspoň pokus o integráciu Rómov? Za primátora Rašiho? Zabudnite!
                     
                                                         
                       Róbert Fico je bezpečnostným rizikom pre Slovensko
                     
                                                         
                       Kto je zodpovedný za pád starenky do kanalizačnej šachty v Michalovciach
                     
                                                         
                       Zdravé Košice
                     
                             
         
           
     Pošlite odkaz blogerovi 
    
         
            
         

         
         
         
         

         
         
Odosielateľ (e-mail)
 
         
Text
 
         
             
Protispamová ochrana 
 
 Zle. Skúste znova. 
Opíšte slová z obrázku: Načítať iné slová 
 Get an image CAPTCHA 
 
 
         
                 
            
         
    
  


 

     






            
    
        
    
 

        
         
         
             Už ste čítali? 
         
         
 

 kultura.sme.sk 
 Margaréta sa spriahla s diablom, no mala Kristovu pravdu 
 
 

 www.sme.sk 
 Pútnické miesta The Beatles alebo ako ľudia kráčajú po zebre 
 
 

 cestovanie.sme.sk 
 Lovia za svitania a v hmle 
 
 

 www.sme.sk 
 Ako sa valila lavína slobody. Ako padal komunizmus 
 
 

 kultura.sme.sk 
 Žiadne retro, poriadny biznis. Takto sa lisuje platňa 
 
	   
 


        
         
            
         

     

    
     
 
 
	 

		Kontakty
		Predplatné
		Etický kódex
		Pomoc
		Mapa stránky
		
	 
 
 
	 
		 
			Widget
			RSS
			Newsletter
		 
		 
			Mobil
			Smartphone
			Kindle
			Televízor
		 
		 
			Facebook
			Twitter
			Google+
		 
	 
	 
		
	 
	 
		Ďalšie weby skupiny: Prihlásenie do Post.sk
		Új Szó Slovak Spectator
		Agentúrne správy 
		Vydavateľstvo
		Inzercia
		Osobné údaje
		Návštevnosť webu
		Predajnosť tlače
		Petit Academy
		SME v škole 		© Copyright 1997-2014 Petit Press, a.s. 
	 
 
 
 


          
        
            
            

        
    

    
    


    


    
        
        
        
        
        
        
        
            
            
        
        
        
        
         
                                
               





 

 



        

 




