
      
    
    

     
	 
	 
 SME.sk 
 Zľavy 
 Zoznámenie 
 Reality 
 Dovolenky 
 Pizza 
 Reštaurácie 
 Recenzie 
 Inzeráty 
 Naničmama 	 
Nákupy 
		 
 Filmy na DVD 
 Hodinky 
 Parfémy 
 SME knihy a DVD 
 Superhosting 
 Tlačiareň 
 Víno 
 Tvorba webov 
 Predplatné SME 
 ProSenior 		 
	 
	 
 
	 
 


    
    
        
        
         
          
         
    

    
      
         
            
             
     
        
        
     
    Blog.SME.sk
 

    

         
        
                 
     
         
            Sme.sk
         
         
            Domov
         
         
            Regióny
         
         
            Ekonomika
         
         
            Svet
         
         
            Komentáre
         
         
            Kultúra
         
         
            Šport
         
         
            TV
         
         
            Auto
         
         
            Tech
         
         
            Poradňa
         
         
            Žena
         
         
            Bývanie
         
         
            Zdravie
         
         
            Blog
         
     
 

         
            
     
                                                         Politika 
                                                                                     Spoločnosť 
                                                                                     Cestovanie 
                                                                                     Ekonomika 
                                                                                     Fotografie 
                                                                                     Jedlo 
                                                                                     Kultúra 
                                                                                             
Ďalšie
                             
                                                                                         Lifestyle 
                                                                                                                                                                             Médiá 
                                                                                                                                                                             Nezaradené 
                                                                                                                                                                             Súkromné 
                                                                                                                                                                             Šport 
                                                                                                                                                                             Veda a technika 
                                                                                                                                                                             Zábava 
                                                                                                                                                                             Poézia 
                                                                                                                                                                             Próza 
                                                                                                                                                                             Kódex blogera 
                                                                                 
                         
                                                 
            Blogeri
         
     


            

    
    Prihlásiť sa


    
    Založte si blog



    
    Odhlásiť sa


    
    




         

        
        
         
            
         
         
                
     
                 
            SME.sk &gt;
            Blog.SME.sk &gt;
                            Viera Mikulská
                                        &gt;
                feministické okienko
                     
                 Sme muži 

        
            
                                    16.6.2009
            o
            9:45
                        |
            Karma článku:
                19.25
            |
            Prečítané 
            17523-krát
                    
         
     
         
             

                 
                    Minulotýždňová príloha Sme ženy mi poskytla toľko hodnotných podnetov, že Teleráno môže plakať v kúte. Rozhovor s modelkou o zaujímavom a náročnom modelkovskom živote, užitočný článoček o spôsoboch holenia nôh (cit: "aby si nás na kúpalisku nepomýlili s gorilou"), ktorý by mal zmysel možno pred dvadsiatimi rokmi. Návod ako a čím sa líčiť na pláž ma zachránil od strašnej hanby, keďže doteraz som si naivne myslela, že na pláž sa nelíči. Kdeže, milé dámy, na podkladový krém s UV filtrom pekne napatlať hubkou krúživými pohybmi vodovzdorný mejkap a zafixovať púdrom, pod očné tiene (!) naniesť vodovzdornú bázu (čo to je??), maskara a rúž majú byť, predstavte si, tiež vodovzdorné!
                 

                 Wow. Po spracovaní týchto závažných informácií som sa odvážne začítala do ďalšieho článku, aký typ plaviek pristane akej postave. (Zrejme ak by nejakou nešťastnou náhodou nezabral súbor cvikov Ako vyzerať super v plavkách odprezentovaný stranu predtým.) Nuž, aj keď leto čo leto všetky ženské plátky akoby ich jedna mater mala vyťahujú tie isté návody do akých plaviek sa nasúkať, aby sme boli bohyne kúpaliska, niečo mi hovorí, že pekná postava je pekná v akýchkoľvek plavkách a nepeknej akosi nepomôže ani luxusný tyrkysový model za tri a pol tisíc. Zlynčujte ma.   Nie je fér, že svoju super Sme prílohu majú len ženy. Keď už musím čítať tú znôšku nepotrebných nezmyslov, nech trpia aj muži. Milí páni. Je tu leto a tukové vankúšiky, ktoré ste v zime ľahko skryli pod svetre a kabáty vám na pláži nepríjemne pripomenú, že na jarnú redukčnú diétu ste sa napriek všetkým predsavzatiam zase vykašľali. Nezúfajte, vo vašom obľúbenom módnom špeciáli vám stajlista Chosé ukáže, ako sa šmahom ruky zmeníte z bledozeleného rozkysnutého strýca na Adonisa pláže. Stačí málo: vybrať si správne plavky k vašej postave.   Typ 1: väčšie bruško      Miniatúrne priliehavé kraťasky tento váš drobný nedostatok ešte viac zvýraznia. Zvoľte preto voľný model so zvýšeným pásom, tzv. podbradavkový. Vertikálny vzor predĺži nohy, farebne zladené ponožky v plážových šľapkách vkusne odpútajú pozornosť od bruška. Aj pestrý vzor oblasť pásu opticky zoštíhli .   Typ 2: biele tenké chlpaté nohy       Pre tento typ postavy je vhodný štýlový predĺžený strih. Veselý vzor a signálne farby spolu s primeranou šírkou nohavíc dajú vyniknúť iným vašim prednostiam. Šik vysoké ponožky do sandálok sú tiež dobrá voľba, ešte trendový klobúčik a pláž je vaša.   Typ 3: úzky prepadnutý hrudník      Tu je každá rada drahá, keďže mužské plavky väčšinou nemajú vrchný diel, kde by ste si vedeli pomôcť vypchávkami. Preto zvoľte taktiku odpútania pozornosti: sexi plavky výraznej farby doplňte nafukovačkami na ramená, ktoré vám zvýraznia bicepsy, odvážnejší sa rozhodnú pre samolepiaci hrudný príčesok (Tesco, 17 eur), ktorý dodá vášmu hrudníčku potrebný objem. Pozor, s príčeskom sa nekúpeme!   Typ 4: malý penis   Ak vás príroda ukrátila na vašej pýche, pomôžete si klasickým ženským trikom. Áno, vypchávkou. Je možné aj improvizovať (vata, zemiak, ponožka), ale tieto vypchávky majú viacero nevýhod, najmä čo sa týka dosiahnutia požadovaného tvaru, alebo pobytu vo vode. Preto neľutujte vstupnú investíciu a zakúpte si trvanlivú značkovú nenasiakavú vypchávku vhodného tvaru a veľkosti (univerzálna plavková vypchávka Calvin Klein, 34 eur).   Typ 5: plešinka      Na pláži si nasadíte trendový klobúk, ale čo vo vode? Jednoduchá pomoc: štýlová kúpacia čiapka s mužným logom.   Už len nezabudnúť na doplnky: cool slnečné okuliare, imidžový pohár na pivo, sexi šľapky, pekná karimatka. A najdôležitejšie nakoniec: telesná schránka nie je podstatná, najsilnejšie zbrane plážového plejboja sú zmysel pre humor, šarm a duša! Dokúpania! Váš Chosé.         

                 
                                        
                        
                        Zdieľať
                    

                    
                            
                                    
                                    Zdieľať na
                            
                             
                                    
                             
                    

                                                                                                                        
                            
                            Diskusia: (316)
                        
                    
                    
                        
                        Zvýšte karmu
                    
                 
             

                             
            
                     
                         Ďalšie články blogera 
                         
                                                             
                                    
                    	                                                                                        

                                                                        
                                    
                                        Viera Mikulská 
                                        
                                            Ako baliť ženy
                                        
                                    
                                 
                                                             
                                    
                    	                                                                                        

                                                                        
                                    
                                        Viera Mikulská 
                                        
                                            Deľba práce
                                        
                                    
                                 
                                                             
                                    
                    	                                                                                        

                                                                        
                                    
                                        Viera Mikulská 
                                        
                                            Úbožiatko moje vystresované
                                        
                                    
                                 
                                                             
                                    
                    	                                                                                        

                                                                        
                                    
                                        Viera Mikulská 
                                        
                                            Ako zabiť pavúka?
                                        
                                    
                                 
                                                             
                                    
                    	                                                                                        

                                                                        
                                    
                                        Viera Mikulská 
                                        
                                            O evolúcii
                                        
                                    
                                 
                                                     
                        
                            Ďalšie články blogera: Viera Mikulská
                        
                     
            
                     
                         Ďalšie články z rubriky zábava 
                         
                                                             
                                    
                                                            	                                                                                        

                                                                                                
                                    
                                        Jozef Bednár 
                                        
                                            Ako Mikuláš moju dcérku o čižmičku „obral“
                                        
                                    
                                 
                                                             
                                    
                                                            	                                                                                        

                                                                                                
                                    
                                        Daniela Paculíková 
                                        
                                            Aké sú vaše topánky?
                                        
                                    
                                 
                                                             
                                    
                                                            	                                                                                        

                                                                                                
                                    
                                        Marian Letko 
                                        
                                            Maroško to má rád zozadu
                                        
                                    
                                 
                                                             
                                    
                                                            	                                                                                        

                                                                                                
                                    
                                        Fero Škoda 
                                        
                                            Nemecký vlog o horách, vode a takmer stratených nervoch
                                        
                                    
                                 
                                                             
                                    
                                                            	                                                                                        

                                                                                                
                                    
                                        Ján Vilček 
                                        
                                            Kritizovať politiku Absurdistanu inotajmi absurdít
                                        
                                    
                                 
                                                     
                        
                            Ďalšie články z rubriky zábava
                        
                     
                 
            
                    
 
     Hlavné správy 
         
        
                                

        
         
            AKTUALIZOVANÉ 16:00
             Rubeľ kolabuje, ruská vláda má mimoriadne rokovať 
             Jeden dolár stál v utorok poobede už viac ako 78 rubľov, razantné zvýšenie úrokov nepomohlo. 
         
     
         
        
                                

        
         
            ZAHRANIČIE
             Taliban zaútočil na citlivé miesto Pakistanu. Na deti 
             Taliban zabil v škole v Pakistane najmenej 141 ľudí, väčšinou deti. 
         
     
         
        
                                

        
         
            KOMENTARE.SME.SK
             Cynická obluda: Medzičasom na opustenom ostrove 
             Stroskotanci majú veľké šťastie, že sú dvaja. Lacné vtipy na úrovni ich autora. 
         
     
     

                 
     
    
     
        
 

     
                
                            
                    



         
            
                Viera Mikulská
            
         
        mikulska.blog.sme.sk (rss)
         
                        VIP
                             
     
        Jamais. 


        
     
     
                     
                             
             

     
        
            
                
                    Počet článkov
                    78
                
                
                    Celková karma
                    
                                                0.00
                    
                
                
                    Priemerná čítanosť
                    4356
                
            
        
     

             

             Zoznam rubrík 
            
             
                                     
                        
                            o všeličom
                        
                     
                                     
                        
                            tiež o všeličom
                        
                     
                                     
                        
                            feministické okienko
                        
                     
                                     
                        
                            Súkromné
                        
                     
                             
         
    

                     
                        
                                                            
                     Obľúbené blogy 
                    
                     
                                                 
                                            apoštol Brngar
                                     
                                                                             
                                            Ando
                                     
                                                                             
                                            flegmatix
                                     
                                                                             
                                            Samo
                                     
                            
             
         
            

           
     Pošlite odkaz blogerovi 
    
         
            
         

         
         
         
         

         
         
Odosielateľ (e-mail)
 
         
Text
 
         
             
Protispamová ochrana 
 
 Zle. Skúste znova. 
Opíšte slová z obrázku: Načítať iné slová 
 Get an image CAPTCHA 
 
 
         
                 
            
         
    
  


 

     






            
    
        
    
 

        
         
         
             Už ste čítali? 
         
         
 

 kultura.sme.sk 
 Margaréta sa spriahla s diablom, no mala Kristovu pravdu 
 
 

 www.sme.sk 
 Pútnické miesta The Beatles alebo ako ľudia kráčajú po zebre 
 
 

 cestovanie.sme.sk 
 Lovia za svitania a v hmle 
 
 

 www.sme.sk 
 Ako sa valila lavína slobody. Ako padal komunizmus 
 
 

 kultura.sme.sk 
 Žiadne retro, poriadny biznis. Takto sa lisuje platňa 
 
	   
 


        
         
            
         

     

    
     
 
 
	 

		Kontakty
		Predplatné
		Etický kódex
		Pomoc
		Mapa stránky
		
	 
 
 
	 
		 
			Widget
			RSS
			Newsletter
		 
		 
			Mobil
			Smartphone
			Kindle
			Televízor
		 
		 
			Facebook
			Twitter
			Google+
		 
	 
	 
		
	 
	 
		Ďalšie weby skupiny: Prihlásenie do Post.sk
		Új Szó Slovak Spectator
		Agentúrne správy 
		Vydavateľstvo
		Inzercia
		Osobné údaje
		Návštevnosť webu
		Predajnosť tlače
		Petit Academy
		SME v škole 		© Copyright 1997-2014 Petit Press, a.s. 
	 
 
 
 


          
        
            
            

        
    

    
    


    


    
        
        
        
        
        
        
        
            
            
        
        
        
        
         
                                
               





 

 



        

 




