
      
    
    

     
	 
	 
 SME.sk 
 Zľavy 
 Zoznámenie 
 Reality 
 Dovolenky 
 Pizza 
 Reštaurácie 
 Recenzie 
 Inzeráty 
 Naničmama 	 
Nákupy 
		 
 Filmy na DVD 
 Hodinky 
 Parfémy 
 SME knihy a DVD 
 Superhosting 
 Tlačiareň 
 Víno 
 Tvorba webov 
 Predplatné SME 
 ProSenior 		 
	 
	 
 
	 
 


    
    
        
        
         
          
         
    

    
      
         
            
             
     
        
        
     
    Blog.SME.sk
 

    

         
        
                 
     
         
            Sme.sk
         
         
            Domov
         
         
            Regióny
         
         
            Ekonomika
         
         
            Svet
         
         
            Komentáre
         
         
            Kultúra
         
         
            Šport
         
         
            TV
         
         
            Auto
         
         
            Tech
         
         
            Poradňa
         
         
            Žena
         
         
            Bývanie
         
         
            Zdravie
         
         
            Blog
         
     
 

         
            
     
                                                         Politika 
                                                                                     Spoločnosť 
                                                                                     Cestovanie 
                                                                                     Ekonomika 
                                                                                     Fotografie 
                                                                                     Jedlo 
                                                                                     Kultúra 
                                                                                             
Ďalšie
                             
                                                                                         Lifestyle 
                                                                                                                                                                             Médiá 
                                                                                                                                                                             Nezaradené 
                                                                                                                                                                             Súkromné 
                                                                                                                                                                             Šport 
                                                                                                                                                                             Veda a technika 
                                                                                                                                                                             Zábava 
                                                                                                                                                                             Poézia 
                                                                                                                                                                             Próza 
                                                                                                                                                                             Kódex blogera 
                                                                                 
                         
                                                 
            Blogeri
         
     


            

    
    Prihlásiť sa


    
    Založte si blog



    
    Odhlásiť sa


    
    




         

        
        
         
            
         
         
                
     
                 
            SME.sk &gt;
            Blog.SME.sk &gt;
                            Marie Stracenská
                                        &gt;
                o kadečom
                     
                 Daj – a dala som 

        
            
                                    14.6.2010
            o
            7:58
                        |
            Karma článku:
                9.95
            |
            Prečítané 
            1978-krát
                    
         
     
         
             

                 
                    „Máš euro? A máš ešte jedno?" Manžel hrabol do peňaženky a dal mi. Najprv jedno. Potom druhé. Mala som aj ja nejaké peniaze, ale vedela som, že budem niečo potrebovať kúpiť a nechcela som roztápať päťdesiatku. Aby mi dlhšie vydržala. Večer predtým sme mali debatu na tému rozpočtu na najbližší mesiac, hnusných preddavkov, vysokých účtov a smiešneho zostatku, ktorý nám zvýši po ich uhradení na živobytie.
                 

                 Kým budem pokračovať v deji, poznámka na okraj - pre pochopenie, alebo možno aj nie - malá organizačná vsuvka: do zátvoriek budem písať, čo som si myslela - mimo nich to, čo som robila (takto - pánbohvie prečo).   O pár minút mám byť v práci, ale ešte si stihnem kúpiť niečo malé zjesť. Parkujem pred obchodom. Košík nepotrebujem, aj tak mám len chvíľku. Pri košíkoch navyše stojí plnšia Rómka a prekáža. (Dobrú sukňu má.) Drží sa za ucho, strká si doň slúchadlo z empétrojkového prehrávača. A pozerá na mladého Róma o pár metrov ďalej pred vchodom. (Asi priateľka.) Chlap má v rukách Nota Bene. (Odmietnem, toto číslo už mám. Dala som minule mladej mamine pri inom obchode peniaze. Aha, toto je nejaké iné číslo, má inú obálku.) Blížim sa k mužovi a registrujem krásne malé šteňa pri jeho nohách. (Keby tu so mnou bola Julinka, lámala by mal aby sme si ho zobrali domov.) Chlapík je špinavý. Ale priebojný. Hľadí mi rovno do očí a chystá sa ma osloviť. (Nedám sa, nechcem časopis, fakt tentoraz nemáme nazvyš, nerozhadzuj!) „Kúpte, prosím. Pre psíka. Jemu na jedlo." (Váham. Tá ženská patrí evidentne k nemu. A má empétrijku!) „Ďakujem, nechcem." (Že som sa naňho vôbec pozrela!) „Ale kúpte. Prosím. Ale je to staré číslo." (Oni tie peniaze nepotrebujú!!! Veď sa na tú ženskú pozri! Dobre oblečená, upravená, s elektronikou! Nečum na toho krásneho psa! To je lacný trik!) „A ste vôbec predajca? Máte nejaký doklad?" (Nemá, vidíš, že nemá!) „Ja s ním bývam v lese, stratil som." (Čo robíš?!? Schovaj tú peňaženku!) „Koľko to vlastne stojí?" (Šibe ti? Niekde ten časopis našiel a teraz len zneužíva situáciu!) „Euro štyridsať deväť" (Neopováž sa mu dať viac! No dobre, euro a pol. Chvalabohu sú tu drobné.) Podávam chlapíkovi peniaze. (Neviem prečo.) Vkladám viditeľne použitý časopis do kabelky a prechádza ma chuť kúpiť si aj maškrtu.   Chlapík stojí pred obchodom aj keď odchádzam. Žena je pri ňom a začujem niečo ako „dvadsať už mám, ešte tak dvadsať." (Kurník!)   Nemyslite si, že mám kruté srdce a som neprajná. Ale oni podľa všetkého naozaj netreli núdzu... Prečo som teda dala? To keby som vedela.   Mala som kedysi priateľa s unikátnym „darom". Mohol kráčať po námestí, na ktorom bolo tisíc ľudí a medzi nimi jeden jediný somrák. A práve on si priateľa našiel - „nemáš cigaretu a drobné?" A on vždy mal a dal. Vravel mi potom: „Nikdy nevieš, ako sám skončíš." Podobná situácia sa nám stávala pravidelne. Oni to tí somráci vždy nejako vytušili.   Hm. Nabudúce sa radšej pred obchodom otočím z bezpečnej diaľky a pôjdem nakúpiť inde. 

                 
                                        
                        
                        Zdieľať
                    

                    
                            
                                    
                                    Zdieľať na
                            
                             
                                    
                             
                    

                                                                                                                        
                            
                            Diskusia: (15)
                        
                    
                    
                        
                        Zvýšte karmu
                    
                 
             

                             
            
                     
                         Ďalšie články blogera 
                         
                                                             
                                    
                    	                                                                                        

                                                                        
                                    
                                        Marie Stracenská 
                                        
                                            Vianoce vo štvrtok
                                        
                                    
                                 
                                                             
                                    
                    	                                                                                        

                                                                        
                                    
                                        Marie Stracenská 
                                        
                                            Nepoznám žiadne dieťa...
                                        
                                    
                                 
                                                             
                                    
                    	                                                                                        

                                                                        
                                    
                                        Marie Stracenská 
                                        
                                            Ranná káva
                                        
                                    
                                 
                                                             
                                    
                    	                                                                                        

                                                                        
                                    
                                        Marie Stracenská 
                                        
                                            Cez hrádzu zrýchlene
                                        
                                    
                                 
                                                             
                                    
                    	                                                                                        

                                                                        
                                    
                                        Marie Stracenská 
                                        
                                            Poschodová
                                        
                                    
                                 
                                                     
                        
                            Ďalšie články blogera: Marie Stracenská
                        
                     
            
                     
                         Ďalšie články z rubriky nezaradené 
                         
                                                             
                                    
                                                            	                                                                                        

                                                                                                
                                    
                                        Pavel Ondrejmiška 
                                        
                                            Dnes farnosť Žitavany, pred tisíc rokmi kráľovská fara v Kňažiciach
                                        
                                    
                                 
                                                             
                                    
                                                            	                                                                                        

                                                                                                
                                    
                                        Milan Removčík 
                                        
                                            Zimný Šíp.
                                        
                                    
                                 
                                                             
                                    
                                                            	                                                                                        

                                                                                                
                                    
                                          esc-sr 
                                        
                                            Čas (ne)vhodných darčekov
                                        
                                    
                                 
                                                             
                                    
                                                            	                                                                                        

                                                                                                
                                    
                                        Michal Filek 
                                        
                                            Ako je ťažké darovať bezdomovcom polievku?
                                        
                                    
                                 
                                                             
                                    
                                                                                                                    

                                                                                                
                                    
                                        Anna Kováčová 
                                        
                                            Na sexi postavu, zdravie, energiu a šťastný život nepotrebujete tabletky!
                                        
                                    
                                 
                                                     
                        
                            Ďalšie články z rubriky nezaradené
                        
                     
                 
            
                    
 
     Hlavné správy 
         
        
                                

        
         
            ZAHRANIČIE
             Protestujúci v Maďarsku strácajú dych, Fidesz ich mätie novými návrhmi 
             Na demonštrácii proti Orbánovej vláde bolo v utorok už len niekoľko tisíc ľudí. 
         
     
         
        
                                

        
         
            AKTUALIZOVANÉ O 21:30
             Rubeľ pocítil pád na dno, Rusko je vo finančnej kríze 
             Dolár včera stál už takmer 80 rubľov, pod hladinu ho tlačia najmä nízke ceny ropy. 
         
     
         
        
                                

        
         
            AKTUALIZOVANÉ 21:50
             Taliban zabil v škole v Pakistane 132 detí 
             Pakistan až teraz poriadne zatlačil na islamistov. Odplatou je útok na deti vojakov. 
         
     
     

                 
     
    
     
        
 

     
                
                            
                    



         
            
                Marie Stracenská
            
         
        stracenska.blog.sme.sk (rss)
         
                        VIP
                             
     
         Som žena. Novinárka, lektorka a konzultantka. Mama nádherných a šikovných dvojčiat. Manželka, dcéra, sestra, priateľka. Neľahostajná. Mám rada svet. Rovnako rýchlo sa viem nadchnúť, potešiť a rozosmiať ako pobúriť a nahlas rozhnevať. 
        
     
     
                     
                             
             

     
        
            
                
                    Počet článkov
                    701
                
                
                    Celková karma
                    
                                                12.16
                    
                
                
                    Priemerná čítanosť
                    1779
                
            
        
     

             

             Zoznam rubrík 
            
             
                                     
                        
                            o deťoch
                        
                     
                                     
                        
                            o vzťahoch
                        
                     
                                     
                        
                            o kadečom
                        
                     
                                     
                        
                            Súkromné
                        
                     
                                     
                        
                            Nezaradené
                        
                     
                             
         
    

    

             
             Čo ma zaujalo 
            Týmto článkom bloger klikol/klikla na karmu.
             
                                                         
                       Moja rozprávka
                     
                                                         
                       Zaťovia
                     
                                                         
                       Nápadník
                     
                                                         
                       Univerzitná nemocnica vyriešila problém Richterových prezervatívov
                     
                                                         
                       Obrovská stará dáma
                     
                                                         
                       Tutoľa máme kopčok
                     
                                                         
                       Bojovníčka
                     
                                                         
                       Vifon
                     
                             
         
           
     Pošlite odkaz blogerovi 
    
         
            
         

         
         
         
         

         
         
Odosielateľ (e-mail)
 
         
Text
 
         
             
Protispamová ochrana 
 
 Zle. Skúste znova. 
Opíšte slová z obrázku: Načítať iné slová 
 Get an image CAPTCHA 
 
 
         
                 
            
         
    
  


 

     






            
    
        
    
 

        
         
         
             Už ste čítali? 
         
         
 

 kultura.sme.sk 
 Margaréta sa spriahla s diablom, no mala Kristovu pravdu 
 
 

 www.sme.sk 
 Pútnické miesta The Beatles alebo ako ľudia kráčajú po zebre 
 
 

 cestovanie.sme.sk 
 Lovia za svitania a v hmle 
 
 

 www.sme.sk 
 Ako sa valila lavína slobody. Ako padal komunizmus 
 
 

 kultura.sme.sk 
 Žiadne retro, poriadny biznis. Takto sa lisuje platňa 
 
	   
 


        
         
            
         

     

    
     
 
 
	 

		Kontakty
		Predplatné
		Etický kódex
		Pomoc
		Mapa stránky
		
	 
 
 
	 
		 
			Widget
			RSS
			Newsletter
		 
		 
			Mobil
			Smartphone
			Kindle
			Televízor
		 
		 
			Facebook
			Twitter
			Google+
		 
	 
	 
		
	 
	 
		Ďalšie weby skupiny: Prihlásenie do Post.sk
		Új Szó Slovak Spectator
		Agentúrne správy 
		Vydavateľstvo
		Inzercia
		Osobné údaje
		Návštevnosť webu
		Predajnosť tlače
		Petit Academy
		SME v škole 		© Copyright 1997-2014 Petit Press, a.s. 
	 
 
 
 


          
        
            
            

        
    

    
    


    


    
        
        
        
        
        
        
        
            
            
        
        
        
        
         
                                
               





 

 



        

 




