
      
    
    

     
	 
	 
 SME.sk 
 Zľavy 
 Zoznámenie 
 Reality 
 Dovolenky 
 Pizza 
 Reštaurácie 
 Recenzie 
 Inzeráty 
 Naničmama 	 
Nákupy 
		 
 Filmy na DVD 
 Hodinky 
 Parfémy 
 SME knihy a DVD 
 Superhosting 
 Tlačiareň 
 Víno 
 Tvorba webov 
 Predplatné SME 
 ProSenior 		 
	 
	 
 
	 
 


    
    
        
        
         
          
         
    

    
      
         
            
             
     
        
        
     
    Blog.SME.sk
 

    

         
        
                 
     
         
            Sme.sk
         
         
            Domov
         
         
            Regióny
         
         
            Ekonomika
         
         
            Svet
         
         
            Komentáre
         
         
            Kultúra
         
         
            Šport
         
         
            TV
         
         
            Auto
         
         
            Tech
         
         
            Poradňa
         
         
            Žena
         
         
            Bývanie
         
         
            Zdravie
         
         
            Blog
         
     
 

         
            
     
                                                         Politika 
                                                                                     Spoločnosť 
                                                                                     Cestovanie 
                                                                                     Ekonomika 
                                                                                     Fotografie 
                                                                                     Jedlo 
                                                                                     Kultúra 
                                                                                             
Ďalšie
                             
                                                                                         Lifestyle 
                                                                                                                                                                             Médiá 
                                                                                                                                                                             Nezaradené 
                                                                                                                                                                             Súkromné 
                                                                                                                                                                             Šport 
                                                                                                                                                                             Veda a technika 
                                                                                                                                                                             Zábava 
                                                                                                                                                                             Poézia 
                                                                                                                                                                             Próza 
                                                                                                                                                                             Kódex blogera 
                                                                                 
                         
                                                 
            Blogeri
         
     


            

    
    Prihlásiť sa


    
    Založte si blog



    
    Odhlásiť sa


    
    




         

        
        
         
            
         
         
                
     
                 
            SME.sk &gt;
            Blog.SME.sk &gt;
                            Jirina musilova
                                        &gt;
                co si myslím
                     
                 Milí přátelé: 

        
            
                                    31.12.2009
            o
            9:46
                        (upravené
                31.12.2009
                o
                10:03)
                        |
            Karma článku:
                1.83
            |
            Prečítané 
            396-krát
                    
         
     
         
             

                 
                    letos naposledy si s vámi chci popovídat: tentokrát tak trošku o věcech mezi nebem a zemí:
                 

                 
  
       Dnešní  minuta ticha, co je to ve Vesmíru? Zlomek vteřiny, který se rozpadne do věčnosti.Proletí relativní hodnotou času, zdá se NIC: a přeci v každém zlomečku je základ nového velkého třesku. Zkuste se s námi do té minuty vnořit, přátelé na prahu nového, druhého desetiletí 21. století. Tak dlouho se zdánlivě počítá počátek tohoto světa. Co bylo předtím je naším snem a vesmírným tajemstvím. Važme si toho a mějme to na paměti právě touto jedinou, poslední minutou věnovanou současnosti. Zítra je opět příště:       Říká se, "Zítra budeme chytřejší!;"      omyl v dějiách lidstva! Kolikrát jsme se spálili, a přeci jsme zapomněli, že i oheň uzavřený například v elektrice, té kouzelné hračičce pánů vynálezců před námi : a tak si dál pálíme nejen prsty.. No, nic:přeji jen příjemné plamínky lásky a dobromyslu..   Zároveň prosím s PROJEKTEM FUTURUM, věnujte onu minutu ticha dnes od 15°°- 15,05hodin matičce ZEMI a VESMÍRU.   Dvanáct posledních úderů   poslední hodiny   - jsme hrdiny i bezmocnými   hrdiny, že jsme přeletěli,   bezmocní, že už nemůžeme zpět...      

                 
                                        
                        
                        Zdieľať
                    

                    
                            
                                    
                                    Zdieľať na
                            
                             
                                    
                             
                    

                                                                                                                        
                            
                            Diskusia: (2)
                        
                    
                    
                        
                        Zvýšte karmu
                    
                 
             

                             
            
                     
                         Ďalšie články blogera 
                         
                                                             
                                    
                    	                                                                                        

                                                                        
                                    
                                        Jirina musilova 
                                        
                                            Pohádka o zahrádce:
                                        
                                    
                                 
                                                             
                                    
                    	                                                                                        

                                                                        
                                    
                                        Jirina musilova 
                                        
                                            Vítejte v svatojakubské noci
                                        
                                    
                                 
                                                             
                                    
                    	                                                                                        

                                                                        
                                    
                                        Jirina musilova 
                                        
                                            Staronová pohádka o světle na zemi
                                        
                                    
                                 
                                                             
                                    
                    	                                                                                        

                                                                        
                                    
                                        Jirina musilova 
                                        
                                            Variace na téma jara
                                        
                                    
                                 
                                                             
                                    
                    	                                                                                        

                                                                        
                                    
                                        Jirina musilova 
                                        
                                            Zimné radovánky
                                        
                                    
                                 
                                                     
                        
                            Ďalšie články blogera: Jirina musilova
                        
                     
            
                     
                         Ďalšie články z rubriky kultúra 
                         
                                                             
                                    
                                                            	                                                                                        

                                                                                                
                                    
                                        Jozef Kuric 
                                        
                                            Zapletení - detektívka veľkého kalibru
                                        
                                    
                                 
                                                             
                                    
                                                            	                                                                                        

                                                                                                
                                    
                                        Stanislav Hoferek 
                                        
                                            Referendum na tému "poďme všetko zakázať, všetko bude lepšie"
                                        
                                    
                                 
                                                             
                                    
                                                            	                                                                                        

                                                                                                
                                    
                                        Elena Antalová 
                                        
                                            Nebyť Wintonovho "dieťaťa", nevznikla by Francúzova milenka (dnes ČT 2, 21,45).
                                        
                                    
                                 
                                                             
                                    
                                                                                                                    

                                                                                                
                                    
                                        Milena Veresová 
                                        
                                            Z hrnca do rozprávky
                                        
                                    
                                 
                                                             
                                    
                                                            	                                                                                        

                                                                                                
                                    
                                        Petra Jurečková 
                                        
                                            Oblečie sa za pútnika a vy mu dáte svoje peniaze
                                        
                                    
                                 
                                                     
                        
                            Ďalšie články z rubriky kultúra
                        
                     
                 
            
                    
 
     Hlavné správy 
         
        
                                

        
         
            AKTUALIZOVANÉ 16:00
             Rubeľ kolabuje, ruská vláda má mimoriadne rokovať 
             Jeden dolár stál v utorok poobede už viac ako 78 rubľov, razantné zvýšenie úrokov nepomohlo. 
         
     
         
        
                                

        
         
            ZAHRANIČIE
             Taliban zabil v škole v Pakistane vyše sto ľudí, väčšinou deti 
             Militanti vtrhli do vojenskej školy v policajných rovnošatách. 
         
     
         
        
                                

        
         
            KOMENTARE.SME.SK
             Cynická obluda: Medzičasom na opustenom ostrove 
             Stroskotanci majú veľké šťastie, že sú dvaja. Lacné vtipy na úrovni ich autora. 
         
     
     

                 
     
    
     
        
 

     
                
                            
                    



         
            
                Jirina musilova
            
         
        jirinamusilova.blog.sme.sk (rss)
         
                                     
     
        úplně obyčejná ženská s úplně obyčejným pohledem na svět, jenom s tím rozdílem, že odmítá násilí a je přímo antimilitaristická
        
     
     
                     
                             
             

     
        
            
                
                    Počet článkov
                    121
                
                
                    Celková karma
                    
                                                0.00
                    
                
                
                    Priemerná čítanosť
                    270
                
            
        
     

             

             Zoznam rubrík 
            
             
                                     
                        
                            co si myslím
                        
                     
                                     
                        
                            Súkromné
                        
                     
                                     
                        
                            Nezaradené
                        
                     
                             
         
    

    

        

     






            
    
        
    
 

        
         
         
             Už ste čítali? 
         
         
 

 kultura.sme.sk 
 Margaréta sa spriahla s diablom, no mala Kristovu pravdu 
 
 

 www.sme.sk 
 Pútnické miesta The Beatles alebo ako ľudia kráčajú po zebre 
 
 

 cestovanie.sme.sk 
 Lovia za svitania a v hmle 
 
 

 www.sme.sk 
 Ako sa valila lavína slobody. Ako padal komunizmus 
 
 

 kultura.sme.sk 
 Žiadne retro, poriadny biznis. Takto sa lisuje platňa 
 
	   
 


        
         
            
         

     

    
     
 
 
	 

		Kontakty
		Predplatné
		Etický kódex
		Pomoc
		Mapa stránky
		
	 
 
 
	 
		 
			Widget
			RSS
			Newsletter
		 
		 
			Mobil
			Smartphone
			Kindle
			Televízor
		 
		 
			Facebook
			Twitter
			Google+
		 
	 
	 
		
	 
	 
		Ďalšie weby skupiny: Prihlásenie do Post.sk
		Új Szó Slovak Spectator
		Agentúrne správy 
		Vydavateľstvo
		Inzercia
		Osobné údaje
		Návštevnosť webu
		Predajnosť tlače
		Petit Academy
		SME v škole 		© Copyright 1997-2014 Petit Press, a.s. 
	 
 
 
 


          
        
            
            

        
    

    
    


    


    
        
        
        
        
        
        
        
            
            
        
        
        
        
         
                                
               





 

 



        

 




