
      
    
    

     
	 
	 
 SME.sk 
 Zľavy 
 Zoznámenie 
 Reality 
 Dovolenky 
 Pizza 
 Reštaurácie 
 Recenzie 
 Inzeráty 
 Naničmama 	 
Nákupy 
		 
 Filmy na DVD 
 Hodinky 
 Parfémy 
 SME knihy a DVD 
 Superhosting 
 Tlačiareň 
 Víno 
 Tvorba webov 
 Predplatné SME 
 ProSenior 		 
	 
	 
 
	 
 


    
    
        
        
         
          
         
    

    
      
         
            
             
     
        
        
     
    Blog.SME.sk
 

    

         
        
                 
     
         
            Sme.sk
         
         
            Domov
         
         
            Regióny
         
         
            Ekonomika
         
         
            Svet
         
         
            Komentáre
         
         
            Kultúra
         
         
            Šport
         
         
            TV
         
         
            Auto
         
         
            Tech
         
         
            Poradňa
         
         
            Žena
         
         
            Bývanie
         
         
            Zdravie
         
         
            Blog
         
     
 

         
            
     
                                                         Politika 
                                                                                     Spoločnosť 
                                                                                     Cestovanie 
                                                                                     Ekonomika 
                                                                                     Fotografie 
                                                                                     Jedlo 
                                                                                     Kultúra 
                                                                                             
Ďalšie
                             
                                                                                         Lifestyle 
                                                                                                                                                                             Médiá 
                                                                                                                                                                             Nezaradené 
                                                                                                                                                                             Súkromné 
                                                                                                                                                                             Šport 
                                                                                                                                                                             Veda a technika 
                                                                                                                                                                             Zábava 
                                                                                                                                                                             Poézia 
                                                                                                                                                                             Próza 
                                                                                                                                                                             Kódex blogera 
                                                                                 
                         
                                                 
            Blogeri
         
     


            

    
    Prihlásiť sa


    
    Založte si blog



    
    Odhlásiť sa


    
    




         

        
        
         
            
         
         
                
     
                 
            SME.sk &gt;
            Blog.SME.sk &gt;
                            Jozef Kuric
                                        &gt;
                Politická realita
                     
                 Venované slovensko-maďarským bipolitom 

        
            
                                    17.5.2010
            o
            12:36
                        (upravené
                17.5.2010
                o
                12:48)
                        |
            Karma článku:
                6.86
            |
            Prečítané 
            1893-krát
                    
         
     
         
             

                 
                    Maďarským premiérom zaumienený zákon o dvojitom občianstve je asi naozaj skutočnosťou, aj keď presné znenie jeho návrhu stále nie je známe ani maďarským zákonodarcom.  No čo si takisto tvrdohlavý maďarský premiér zaumieni to sa mu asi aj splní, s ohľadom aj na súčasnú skladbu maďarského parlamentu. Možno nepôjde o občianstvo v pravom slova zmysle, pretože aj vo vnútri strany Fidesz panujú na bipolitné občianstvo Maďarov rozdielne názory. Keby však k takémuto zákonu nakoniec prišlo, aj napriek opatreniam tiež tvrdohlavého slovenské premiéra, možno by nebolo na škodu porozmýšľať nad symbolicko-heraldickom označení možných slovensko-maďarských bipolitov, aspoň na obaloch ich cestovných dokladov, aby nemuseli byť vlastníkmi dvoch cestovných pasov.
                 

                 Ponúkam preto pár návrhov, ktoré dúfam nebudú vyhodnotené ako hanobenie štátnych symbolov oboch strán, ktoré rovnakou mierou preceňujú nacionále atribúty svojich štátov.       

                 
                                        
                        
                        Zdieľať
                    

                    
                            
                                    
                                    Zdieľať na
                            
                             
                                    
                             
                    

                                                                                                                        
                            
                            Diskusia: (22)
                        
                    
                    
                        
                        Zvýšte karmu
                    
                 
             

                             
            
                     
                         Ďalšie články blogera 
                         
                                                             
                                    
                    	                                                                                        

                                                                        
                                    
                                        Jozef Kuric 
                                        
                                            Zapletení - detektívka veľkého kalibru
                                        
                                    
                                 
                                                             
                                    
                    	                                                                                        

                                                                        
                                    
                                        Jozef Kuric 
                                        
                                            Vianočné knižné tipy. Toto by som odporučil dobrým priateľom
                                        
                                    
                                 
                                                             
                                    
                                                                                                    

                                                                        
                                    
                                        Jozef Kuric 
                                        
                                            Strach, ktorý sa vykŕmi deťmi, trúfne si aj na dospelých
                                        
                                    
                                 
                                                             
                                    
                    	                                                                                        

                                                                        
                                    
                                        Jozef Kuric 
                                        
                                            Kto sa bojí vlka, nech nejde do lesa a prečíta si radšej dobrú detektívku
                                        
                                    
                                 
                                                             
                                    
                    	                                                                                        

                                                                        
                                    
                                        Jozef Kuric 
                                        
                                            Svet včerajška na hrane zajtrajška
                                        
                                    
                                 
                                                     
                        
                            Ďalšie články blogera: Jozef Kuric
                        
                     
            
                     
                         Ďalšie články z rubriky politika 
                         
                                                             
                                    
                                                            	                                                                                        

                                                                                                
                                    
                                        Tomáš Hudec 
                                        
                                            Chceme zvýšiť účasť ľudí vo voľbách? Zaveďme eVoľby!
                                        
                                    
                                 
                                                             
                                    
                                                            	                                                                                        

                                                                                                
                                    
                                        Robert Bestro 
                                        
                                            Výmena vedenia parlamentu zjavne prospela
                                        
                                    
                                 
                                                             
                                    
                                                            	                                                                                        

                                                                                                
                                    
                                        Júlia Piraňa Mikolášiková 
                                        
                                            Obvinia ďalšiu novinárku z údajného ohovárania policajného šéfa Ševčíka?
                                        
                                    
                                 
                                                             
                                    
                                                            	                                                                                        

                                                                                                
                                    
                                        Stanislav Martinčko 
                                        
                                            Stužka z kvetinárstva za 16 centov a rozkradnuté milióny!!
                                        
                                    
                                 
                                                             
                                    
                                                            	                                                                                        

                                                                                                
                                    
                                        Veronika Remisova 
                                        
                                            Elektronické mýto podľa Ficovej vlády – prehľadnejšie sa to skrátka nedá
                                        
                                    
                                 
                                                     
                        
                            Ďalšie články z rubriky politika
                        
                     
                 
            
                    
 
     Hlavné správy 
         
        
                                

        
         
            AKTUALIZOVANÉ O 20:00
             Rubeľ pocítil pád na dno, Rusko je vo finančnej kríze 
             Dolár včera stál už takmer 80 rubľov, pod hladinu ho tlačia najmä nízke ceny ropy. 
         
     
         
        
                                

        
         
            ZAHRANIČIE
             Taliban zaútočil na citlivé miesto Pakistanu. Na deti 
             Taliban zabil v škole v Pakistane najmenej 141 ľudí, väčšinou deti. 
         
     
         
        
                                

        
         
            KOMENTARE.SME.SK
             Cynická obluda: Medzičasom na opustenom ostrove 
             Stroskotanci majú veľké šťastie, že sú dvaja. Lacné vtipy na úrovni ich autora. 
         
     
     

                 
     
    
     
        
 

     
                
                            
                    



         
            
                Jozef Kuric
            
         
        jozefkuric.blog.sme.sk (rss)
         
                        VIP
                             
     
          
        
     
     
                     
                             
             

     
        
            
                
                    Počet článkov
                    323
                
                
                    Celková karma
                    
                                                5.98
                    
                
                
                    Priemerná čítanosť
                    4080
                
            
        
     

             

             Zoznam rubrík 
            
             
                                     
                        
                            História
                        
                     
                                     
                        
                            Na ceste
                        
                     
                                     
                        
                            Sranda musí byť
                        
                     
                                     
                        
                            Bulvár
                        
                     
                                     
                        
                            Školstvo
                        
                     
                                     
                        
                            Politická realita
                        
                     
                                     
                        
                            Hudobná sekcia
                        
                     
                                     
                        
                            Zápisky a spomienky
                        
                     
                                     
                        
                            Názory
                        
                     
                                     
                        
                            Pokus o literatúru
                        
                     
                                     
                        
                            Cogito ergo...
                        
                     
                                     
                        
                            Tvorivosť
                        
                     
                             
         
    

                     
                        
                                                            
                     Obľúbené články 
                    
                     
                                                 
                                            insitný predčítač
                                     
                                                                             
                                            Píšem aj sem
                                     
                                                                             
                                            a trocha aj sem
                                     
                            
             
         
            

           
     Pošlite odkaz blogerovi 
    
         
            
         

         
         
         
         

         
         
Odosielateľ (e-mail)
 
         
Text
 
         
             
Protispamová ochrana 
 
 Zle. Skúste znova. 
Opíšte slová z obrázku: Načítať iné slová 
 Get an image CAPTCHA 
 
 
         
                 
            
         
    
  


 

     






            
    
        
    
 

        
         
         
             Už ste čítali? 
         
         
 

 kultura.sme.sk 
 Margaréta sa spriahla s diablom, no mala Kristovu pravdu 
 
 

 www.sme.sk 
 Pútnické miesta The Beatles alebo ako ľudia kráčajú po zebre 
 
 

 cestovanie.sme.sk 
 Lovia za svitania a v hmle 
 
 

 www.sme.sk 
 Ako sa valila lavína slobody. Ako padal komunizmus 
 
 

 kultura.sme.sk 
 Žiadne retro, poriadny biznis. Takto sa lisuje platňa 
 
	   
 


        
         
            
         

     

    
     
 
 
	 

		Kontakty
		Predplatné
		Etický kódex
		Pomoc
		Mapa stránky
		
	 
 
 
	 
		 
			Widget
			RSS
			Newsletter
		 
		 
			Mobil
			Smartphone
			Kindle
			Televízor
		 
		 
			Facebook
			Twitter
			Google+
		 
	 
	 
		
	 
	 
		Ďalšie weby skupiny: Prihlásenie do Post.sk
		Új Szó Slovak Spectator
		Agentúrne správy 
		Vydavateľstvo
		Inzercia
		Osobné údaje
		Návštevnosť webu
		Predajnosť tlače
		Petit Academy
		SME v škole 		© Copyright 1997-2014 Petit Press, a.s. 
	 
 
 
 


          
        
            
            

        
    

    
    


    


    
        
        
        
        
        
        
        
            
            
        
        
        
        
         
                                
               





 

 



        

 




