
      
    
    

     
	 
	 
 SME.sk 
 Zľavy 
 Zoznámenie 
 Reality 
 Dovolenky 
 Pizza 
 Reštaurácie 
 Recenzie 
 Inzeráty 
 Naničmama 	 
Nákupy 
		 
 Filmy na DVD 
 Hodinky 
 Parfémy 
 SME knihy a DVD 
 Superhosting 
 Tlačiareň 
 Víno 
 Tvorba webov 
 Predplatné SME 
 ProSenior 		 
	 
	 
 
	 
 


    
    
        
        
         
          
         
    

    
      
         
            
             
     
        
        
     
    Blog.SME.sk
 

    

         
        
                 
     
         
            Sme.sk
         
         
            Domov
         
         
            Regióny
         
         
            Ekonomika
         
         
            Svet
         
         
            Komentáre
         
         
            Kultúra
         
         
            Šport
         
         
            TV
         
         
            Auto
         
         
            Tech
         
         
            Poradňa
         
         
            Žena
         
         
            Bývanie
         
         
            Zdravie
         
         
            Blog
         
     
 

         
            
     
                                                         Politika 
                                                                                     Spoločnosť 
                                                                                     Cestovanie 
                                                                                     Ekonomika 
                                                                                     Fotografie 
                                                                                     Jedlo 
                                                                                     Kultúra 
                                                                                             
Ďalšie
                             
                                                                                         Lifestyle 
                                                                                                                                                                             Médiá 
                                                                                                                                                                             Nezaradené 
                                                                                                                                                                             Súkromné 
                                                                                                                                                                             Šport 
                                                                                                                                                                             Veda a technika 
                                                                                                                                                                             Zábava 
                                                                                                                                                                             Poézia 
                                                                                                                                                                             Próza 
                                                                                                                                                                             Kódex blogera 
                                                                                 
                         
                                                 
            Blogeri
         
     


            

    
    Prihlásiť sa


    
    Založte si blog



    
    Odhlásiť sa


    
    




         

        
        
         
            
         
         
                
     
                 
            SME.sk &gt;
            Blog.SME.sk &gt;
                            Miroslav Kocúr
                                        &gt;
                Epigramiáda
                     
                 Keď SMER privatizuje, všetko znárodní 

        
            
                                    21.5.2010
            o
            16:15
                        (upravené
                21.5.2010
                o
                19:32)
                        |
            Karma článku:
                10.86
            |
            Prečítané 
            1523-krát
                    
         
     
         
             

                 
                    O tom, ako je dnešný premiér proti privatizácii, bolo niekoľko tlačoviek. Zvlášť sa triasli strachom strategické podniky. Hrozilo im opätovné zoštátenenie či nejaké iné právne aktivity v réžii právnika Fica. Kontraprávne  retroaktivity... To čo však v posledných dňoch začína plávať na povrchu popovodňových vôd je porovnateľné s olejovou škvrnou v Mexickom zálive. A vtedy sa ma zmocnil tento poetický spleen.
                 

                 
Logo, ktoré si Fico nepamätá... 
   Bez explózie sa tu plazivo rozlieva červená škvrna, ktorá sa len tak hemží žltými kosákmi a kladivami.   Tieto sa však pre kovové časti dostávajú na povrch len ťažšie. Na povrchu plávajú uvoľnené národné trikolóry a nepoužité návrhy vlasteneckých školských násteniek s preambulou Slovenskej ústavy. Kde tu sa vynárajú zamastené postery Slotu, Mečiara a Fica ako rôzne variácie ich rozmiestnenia v štýle Wordle.      Skartovacie stroje rozomleli prednovembrovú realitu. Ideály disidentov sa zmenili na nástroj demokracie predchádzajúcich vládcov. Z Tisovej vily sa dôležití svedkovia minulosti presťahovali do Elektry. Po širokých cestách uháňajú vládne limuzíny vládcov čo to robia tak, a nikdy inak... Nad Slovenskom sem-tam zaduní žilinský tryskáč. Na večné časy. Zdá sa, že zodraté červené trenírky nebudú lacné. Už ani nevie u ktorej ich súdruh zabudol. Koniec vodníkov v Čechách a (pod)vodníkov) na Slovensku? Asi ťažko... Raz národne raz pospolito im požehnáva raz retrokardinál, raz retroarcibiskup.   Nič nové pod SLovenNsKOM. Len taká malá retroaktivita kontraprávnikov. Čas na skartovanie posledných retroideálov. Krajina kde včera znamená zajtra. 12. jún 2010 ako "Víťazný" február? Všetci porazení na "Februárku".    

                 
                                        
                        
                        Zdieľať
                    

                    
                            
                                    
                                    Zdieľať na
                            
                             
                                    
                             
                    

                                                                                                                        
                            
                            Diskusia: (1)
                        
                    
                    
                        
                        Zvýšte karmu
                    
                 
             

                             
            
                     
                         Ďalšie články blogera 
                         
                                                             
                                    
                    	                                                                                        

                                                                        
                                    
                                        Miroslav Kocúr 
                                        
                                            Františkova cirkev s ľudskou tvárou
                                        
                                    
                                 
                                                             
                                    
                    	                                                                                        

                                                                        
                                    
                                        Miroslav Kocúr 
                                        
                                            Nežiť aj žiť v demokracii
                                        
                                    
                                 
                                                             
                                    
                    	                                                                                        

                                                                        
                                    
                                        Miroslav Kocúr 
                                        
                                            Pocit bezpečia vystriedali kultúrne vojny
                                        
                                    
                                 
                                                             
                                    
                    	                                                                                        

                                                                        
                                    
                                        Miroslav Kocúr 
                                        
                                            Vydať sa na zaprášené chodníky
                                        
                                    
                                 
                                                             
                                    
                    	                                                                                        

                                                                        
                                    
                                        Miroslav Kocúr 
                                        
                                            Pápež František, rodová rovnosť a idea machizmu
                                        
                                    
                                 
                                                     
                        
                            Ďalšie články blogera: Miroslav Kocúr
                        
                     
            
                     
                         Ďalšie články z rubriky politika 
                         
                                                             
                                    
                                                            	                                                                                        

                                                                                                
                                    
                                        Tomáš Hudec 
                                        
                                            Chceme zvýšiť účasť ľudí vo voľbách? Zaveďme eVoľby!
                                        
                                    
                                 
                                                             
                                    
                                                            	                                                                                        

                                                                                                
                                    
                                        Robert Bestro 
                                        
                                            Výmena vedenia parlamentu zjavne prospela
                                        
                                    
                                 
                                                             
                                    
                                                            	                                                                                        

                                                                                                
                                    
                                        Júlia Piraňa Mikolášiková 
                                        
                                            Obvinia ďalšiu novinárku z údajného ohovárania policajného šéfa Ševčíka?
                                        
                                    
                                 
                                                             
                                    
                                                            	                                                                                        

                                                                                                
                                    
                                        Stanislav Martinčko 
                                        
                                            Stužka z kvetinárstva za 16 centov a rozkradnuté milióny!!
                                        
                                    
                                 
                                                             
                                    
                                                            	                                                                                        

                                                                                                
                                    
                                        Veronika Remisova 
                                        
                                            Elektronické mýto podľa Ficovej vlády – prehľadnejšie sa to skrátka nedá
                                        
                                    
                                 
                                                     
                        
                            Ďalšie články z rubriky politika
                        
                     
                 
            
                    
 
     Hlavné správy 
         
        
                                

        
         
            AKTUALIZOVANÉ 20:22
             Slovenky v hlavnej skupine nebodovali, Švédky vyhrali o 9 gólov 
             Naše hádzanárky hrali na ME piaty zápas. V Záhrebe proti Švédkam. 
         
     
         
        
                                

        
         
            AKTUALIZOVANÉ O 20:00
             Rubeľ pocítil pád na dno, Rusko je vo finančnej kríze 
             Dolár včera stál už takmer 80 rubľov, pod hladinu ho tlačia najmä nízke ceny ropy. 
         
     
         
        
                                

        
         
            ZAHRANIČIE
             Taliban zaútočil na citlivé miesto Pakistanu. Na deti 
             Taliban zabil v škole v Pakistane najmenej 141 ľudí, väčšinou deti. 
         
     
     

                 
     
    
     
        
 

     
                
                            
                    



         
            
                Miroslav Kocúr
            
         
        kocur.blog.sme.sk (rss)
         
                        VIP
                             
     
        www.aomega.sk


  
 

        
     
     
                     
                             
             

     
        
            
                
                    Počet článkov
                    181
                
                
                    Celková karma
                    
                                                0.00
                    
                
                
                    Priemerná čítanosť
                    2877
                
            
        
     

             

             Zoznam rubrík 
            
             
                                     
                        
                            Spoločnosť
                        
                     
                                     
                        
                            Today
                        
                     
                                     
                        
                            WEEK
                        
                     
                                     
                        
                            Theology Today
                        
                     
                                     
                        
                            MK Weekly
                        
                     
                                     
                        
                            Scriptures
                        
                     
                                     
                        
                            Listáreň
                        
                     
                                     
                        
                            Nechceme sa prizerať
                        
                     
                                     
                        
                            Oral History
                        
                     
                                     
                        
                            Zo školských lavíc
                        
                     
                                     
                        
                            Epigramiáda
                        
                     
                             
         
    

                     
                        
                                                            
                     Čo práve počúvam 
                    
                     
                                                 
                                            Last_FM
                                     
                                                                             
                                            BBC_All Things ...
                                     
                                                                             
                                            Radio_FM
                                     
                                                                   
                     Obľúbené stránky 
                    
                     
                                                 
                                            www.aomega.sk
                                     
                                                                             
                                            The Tablet
                                     
                                                                             
                                            www.bbc.co.uk
                                     
                                                                             
                                            www.bilgym.sk
                                     
                                                                             
                                            www.vatican.va
                                     
                            
             
         
            

           
     Pošlite odkaz blogerovi 
    
         
            
         

         
         
         
         

         
         
Odosielateľ (e-mail)
 
         
Text
 
         
             
Protispamová ochrana 
 
 Zle. Skúste znova. 
Opíšte slová z obrázku: Načítať iné slová 
 Get an image CAPTCHA 
 
 
         
                 
            
         
    
  


 

     






            
    
        
    
 

        
         
         
             Už ste čítali? 
         
         
 

 kultura.sme.sk 
 Margaréta sa spriahla s diablom, no mala Kristovu pravdu 
 
 

 www.sme.sk 
 Pútnické miesta The Beatles alebo ako ľudia kráčajú po zebre 
 
 

 cestovanie.sme.sk 
 Lovia za svitania a v hmle 
 
 

 www.sme.sk 
 Ako sa valila lavína slobody. Ako padal komunizmus 
 
 

 kultura.sme.sk 
 Žiadne retro, poriadny biznis. Takto sa lisuje platňa 
 
	   
 


        
         
            
         

     

    
     
 
 
	 

		Kontakty
		Predplatné
		Etický kódex
		Pomoc
		Mapa stránky
		
	 
 
 
	 
		 
			Widget
			RSS
			Newsletter
		 
		 
			Mobil
			Smartphone
			Kindle
			Televízor
		 
		 
			Facebook
			Twitter
			Google+
		 
	 
	 
		
	 
	 
		Ďalšie weby skupiny: Prihlásenie do Post.sk
		Új Szó Slovak Spectator
		Agentúrne správy 
		Vydavateľstvo
		Inzercia
		Osobné údaje
		Návštevnosť webu
		Predajnosť tlače
		Petit Academy
		SME v škole 		© Copyright 1997-2014 Petit Press, a.s. 
	 
 
 
 


          
        
            
            

        
    

    
    


    


    
        
        
        
        
        
        
        
            
            
        
        
        
        
         
                                
               





 

 



        

 




