
      
    
    

     
	 
	 
 SME.sk 
 Zľavy 
 Zoznámenie 
 Reality 
 Dovolenky 
 Pizza 
 Reštaurácie 
 Recenzie 
 Inzeráty 
 Naničmama 	 
Nákupy 
		 
 Filmy na DVD 
 Hodinky 
 Parfémy 
 SME knihy a DVD 
 Superhosting 
 Tlačiareň 
 Víno 
 Tvorba webov 
 Predplatné SME 
 ProSenior 		 
	 
	 
 
	 
 


    
    
        
        
         
          
         
    

    
      
         
            
             
     
        
        
     
    Blog.SME.sk
 

    

         
        
                 
     
         
            Sme.sk
         
         
            Domov
         
         
            Regióny
         
         
            Ekonomika
         
         
            Svet
         
         
            Komentáre
         
         
            Kultúra
         
         
            Šport
         
         
            TV
         
         
            Auto
         
         
            Tech
         
         
            Poradňa
         
         
            Žena
         
         
            Bývanie
         
         
            Zdravie
         
         
            Blog
         
     
 

         
            
     
                                                         Politika 
                                                                                     Spoločnosť 
                                                                                     Cestovanie 
                                                                                     Ekonomika 
                                                                                     Fotografie 
                                                                                     Jedlo 
                                                                                     Kultúra 
                                                                                             
Ďalšie
                             
                                                                                         Lifestyle 
                                                                                                                                                                             Médiá 
                                                                                                                                                                             Nezaradené 
                                                                                                                                                                             Súkromné 
                                                                                                                                                                             Šport 
                                                                                                                                                                             Veda a technika 
                                                                                                                                                                             Zábava 
                                                                                                                                                                             Poézia 
                                                                                                                                                                             Próza 
                                                                                                                                                                             Kódex blogera 
                                                                                 
                         
                                                 
            Blogeri
         
     


            

    
    Prihlásiť sa


    
    Založte si blog



    
    Odhlásiť sa


    
    




         

        
        
         
            
         
         
                
     
                 
            SME.sk &gt;
            Blog.SME.sk &gt;
                            Rastislav Čurma
                                        &gt;
                doprava, nákladná a iná
                     
                 Pre šoférov kamiónov. Vypočítajte si svoju mzdu II. 

        
            
                                    30.6.2010
            o
            16:40
                        (upravené
                30.6.2010
                o
                17:06)
                        |
            Karma článku:
                12.18
            |
            Prečítané 
            6615-krát
                    
         
     
         
             

                 
                    Nakoľko všetci mudrujeme len na parkoviskách a čakáme na.. Vlastne ani neviem na čo čakáme. Už skôr som spomínal, že mám snahu o založenie odborovej organizácie (ďalej len OO) v doprave. OO o nás a hlavne pre nás. Bez politiky a vedľajších úmyslov.Chcem, aby to bola organizácia založená na platforme OO. A to z jediného dôvodu. Ochrana svojich členov. Verím, že založením tejto organizácie  dosiahneme, že nás prestane spoločnosť vnímať ako trestancov a vyvrheľov a domôžeme sa svojich práv. Bez takejto organizácie sa nevieme spojiť a vydobyť si svoje právo na slušnú mzdu, slušný život, skrátka na to, čo nám patrí.
                 

                  A jedným z prvých krokov tejto OO by mala byť aplikácia zákonníka práce na naše povolanie. Žiadna minimálna základná mzda bez ohľadu na odpracované hodiny. Žiadne víkendy zadarmo. Žiadne celoročné jazdenie. Žiadne vydieranie.    Aby som bol konkrétny uvediem príklad aplikácie zákonníka práce. Momentálne je to tak, že väčšina z vás jazdí za základnú mzdu a diétu. Niekto to má od kilometra, niekto od faktúry, niekto paušálne. Pokiaľ sa jedná o základnú mzdu, tam väčšina zamestnávateľov „vyhovuje". Platí toľko, koľko ukladá zákonník práce. Teda aspoň podľa inšpektorátu práce.   Dovolím si odcitovať z mailu, ktorý som obdržal ako  odpoveď z inšpektorátu práce:   Z odpovede len odcitujem:   1./ Práca vodiča M K D   je klasifikovaná v II. kvalifikačnej triede tam je určená základná mzda 369.24 eur. Žiadne iné platobné podmienky/kilometrovné, hodinová mzda, alebo percentá z tržby neprichádzajú do úvahy/ 78 % vodičov na SK má takú mzdu/    2./ Keď je vodič vonku a stojí na parkovisku či sobotu alebo nedeľu robí pauzu, oddych, spánok víkendovú pauzu, alebo čaká  na vyloženie, alebo naloženie stojí z dôvodov sviatku v krajine, alebo iných príčin /.teda je klasifikovaný ako vo výkone práce/  prináležia mu diéty v štátom stanovenej výške .Nemá nárok na žiadny iný príplatok.  3./Vodičovi M K D neprislúcha za prácu, alebo jazdu  v noci žiadny príplatok iba diéty.       Takže vodič MKD spadá do platového ohodnotenia 2,1216 Eur/h   Ak to vynásobím 300h náleží mu 636,48 Eur mzda. Prečo je potom vyplácaný základom 369,24 Eur? A to som v 300 hodinách len 23 pracovných dní. ( 2x sobota) tých hodín môže byť podstatne viac.   Ako z citácie vyplýva 78% vodičov dostáva základ. 78% vodičov je vyplácaných sumou 1,2308Eur/h. (300h /základná mzda).   Týmto chcem upraviť môj blog publikovaný skôr, kde som vodiča kamiónu zaradil do zlej platovej triedy a objasniť ešte iné otázky.   A tu je náš problém.   99% vodičov:   -si nevie vypočítať svoju mzdu   -neovláda zákonník práce, alebo si myslí, že sa na jeho výkon povolania nevzťahuje   teda si nemôže nárokovať nič, lebo ani nevie, čo si má nárokovať.       Skúsim teda objasniť. Po lopate. Budem aplikovať veci, ktoré mám zakotvené v belgickej pracovnej zmluve. Bohužiaľ až tu som sa to naučil.   Pracovný čas je „denný výkon" každého z nás. Od doby začiatku práce, po jej ukončenie. Alebo ak chcete trošku odborne, tak je to čas medzi dvomi dobami denného odpočinku. V skutočnosti, je to 13-15h denne. To si môžete násobiť hodinovou sadzbou 2,1216 Eur/h. Nakoľko každý z nás robí aj „malé pauzy" tie        ( v mojom prípade) sa tak isto započítavajú, aj keď len v trvaní 45 min, do výkonu práce. Takže ak niekto pracuje 13h a má v tom 3x 45 min pauzu, tak to môže započítať všetko a vynásobiť hodinovou sadzbou. Ak má pauzu 3x1h tak od celkovej doby práce odpočíta 3x15min. (45min je pauza podľa AETR, tých 15 min navyše -bohužiaľ).   V praxi a pri dodržiavaní zákonníka práce smie vodič pracovať len maximálne 40h v týždni. Ak pripočítam ešte povolené ročné nadčasy t.j.200h a vydelím 52 týždňami tak je výsledok , že vodič kamiónu smie odpracovať týždenne 43,8 h. Takže v skutočnosti a v praxi by to znamenalo, že každý z nás môže pracovať od pondelka do stredy. A vo štvrtok ešte cca 5h. !!!   Realita je taká, že jazdíme celoročne. Mesačne cca 300 a viac hodín práce. Zaplatených 174h. Kde sa stratí tých zvyšných 126h??? Mesačne???   126h je čas, na ktorý máte nárok v rámci náhradného voľna. MESAČNE!!! Ak to vydelím 8h pracovnej zmeny tak je to 15 dní!!!  Po odpracovaní jedného mesiaca, má každý z vás nárok na 15 dní náhradného voľna. Chlapi v turnusových firmách ho aj čerpajú. Zhruba. 3 týždne na ceste, týždeň doma. Ale ak niekto nejazdí turnusovo a tieto hodiny nečerpá, NÁLEŽÍ MU ZA NICH NÁHRADA MZDY. V Belgicku sú to tzv. „čierne hodiny". Vyplácajú sa tak isto, akurát nie každá firma ich uvádza na výplatnej páske. Ak na páske nie sú, vyplácajú sa „trošku zvýhodnenou sadzbou dane".  ALE VYPLÁCAJÚ SA. A vodič má na nich oprávnený nárok, lebo ich odpracoval. Nehovoriac o tom , že nadčasové hodiny, nečerpané v rámci náhradného voľna, by mali byť ohodnotené príplatkom 25% takže sadzbou 2,2652 Eur/h.       Nočná práca:   Definícia zákonníka práce:   Mzdové zvýhodnenie za nočnú prácu    Podľa § 123 ods. 1 Zákonníka práce:    Zamestnancovi patrí za nočnú prácu popri dosiahnutej mzde za každú hodinu nočnej práce mzdové zvýhodnenie najmenej 20 % minimálneho mzdového nároku ustanoveného v § 120 ods. 4 v eurách za hodinu pre prvý stupeň, teda najmenej 0,3536 €.       V praxi ak je vodič kalkulovaný sadzbou 2,1216 Eur za hodinu a prináleží mu 20%, nočná hodinová práca by mala byť kalkulovaná sadzbou 2,5459 Eur/h.   Práca cez víkendy a sviatky:   Zákonník práce stanovuje príplatok za prácu cez víkendy a sviatky vo výške minimálne 50%.   V praxi a po prepočte je to 3,1824 Eur/h Netreba prehľadnúť slovíčko minimálne. Zo skúseností a od známych viem, že je bežne zaužívané 50% za prácu v sobotu a 100% príplatok za prácu v nedeľu a štátny sviatok.   K tomu všetkému nám patrí stravné, alebo ľudovo diéta. Väčšinou 45 Eur/deň. Zamestnávateľ má právo ju zvýšiť alebo znížiť o 25%. Takže reálne je to od 36-62,5 Eur/deň.    Keď som citoval vyššie uvedený mail od inšpektorátu práce, udivilo ma, že v našom stravnom je zahrnutý aj čas uvedený v bode 2 odpovede. Takže zákonník práce platí pre všetkých??? Alebo sa na vodičov kamiónov nevzťahuje? Ako to, že nám nepatria príplatky za prácu cez víkend, za prácu v noci...? Odkedy stravné zahrňuje aj čakanie na vykládku alebo nakládku? Je to predsa stravné a nie „čakacie"?    Toto by mal byť nosný bod našej OO. Dosiahnuť, aby každý zamestnanec v našej sfére dostal to, na čo má nárok. Takže skúste si prepočítať svoju mzdu!!! Zoberte do ruky vaše zošity, tachografové kotúče, prípadne výpisy z digitálneho tachografu. A vypočítajte si sami, čo vám patrí. A nenechajme sa okrádať, vydierať a zdierať.     

                 
                                        
                        
                        Zdieľať
                    

                    
                            
                                    
                                    Zdieľať na
                            
                             
                                    
                             
                    

                                                                                                                        
                            
                            Diskusia: (11)
                        
                    
                    
                        
                        Zvýšte karmu
                    
                 
             

                             
            
                     
                         Ďalšie články blogera 
                         
                                                             
                                    
                    	                                                                                        

                                                                        
                                    
                                        Rastislav Čurma 
                                        
                                            Nebezpečný smer
                                        
                                    
                                 
                                                             
                                    
                    	                                                                                        

                                                                        
                                    
                                        Rastislav Čurma 
                                        
                                            Prešovský Robin Hood
                                        
                                    
                                 
                                                             
                                    
                    	                                                                                        

                                                                        
                                    
                                        Rastislav Čurma 
                                        
                                            Predám charakter a česť
                                        
                                    
                                 
                                                             
                                    
                    	                                                                                        

                                                                        
                                    
                                        Rastislav Čurma 
                                        
                                            Cech taxi Bratislava a Slovensko
                                        
                                    
                                 
                                                             
                                    
                    	                                                                                        

                                                                        
                                    
                                        Rastislav Čurma 
                                        
                                            Pre vodičov kamiónov- Nie je to vaša vec II.
                                        
                                    
                                 
                                                     
                        
                            Ďalšie články blogera: Rastislav Čurma
                        
                     
            
                     
                         Ďalšie články z rubriky nezaradené 
                         
                                                             
                                    
                                                            	                                                                                        

                                                                                                
                                    
                                        Ján Spišiak 
                                        
                                            Sprayeri dejín.
                                        
                                    
                                 
                                                             
                                    
                                                            	                                                                                        

                                                                                                
                                    
                                        Pavel Ondrejmiška 
                                        
                                            Dnes farnosť Žitavany, pred tisíc rokmi kráľovská fara v Kňažiciach
                                        
                                    
                                 
                                                             
                                    
                                                            	                                                                                        

                                                                                                
                                    
                                        Milan Removčík 
                                        
                                            Zimný Šíp.
                                        
                                    
                                 
                                                             
                                    
                                                            	                                                                                        

                                                                                                
                                    
                                          esc-sr 
                                        
                                            Čas (ne)vhodných darčekov
                                        
                                    
                                 
                                                             
                                    
                                                            	                                                                                        

                                                                                                
                                    
                                        Michal Filek 
                                        
                                            Ako je ťažké darovať bezdomovcom polievku?
                                        
                                    
                                 
                                                     
                        
                            Ďalšie články z rubriky nezaradené
                        
                     
                 
            
                    
 
     Hlavné správy 
         
        
                                

        
         
            ZAHRANIČIE
             Protestujúci v Maďarsku strácajú dych, Fidesz ich mätie novými návrhmi 
             Na demonštrácii proti Orbánovej vláde bolo v utorok už len niekoľko tisíc ľudí. 
         
     
         
        
                                

        
         
            AKTUALIZOVANÉ O 21:30
             Rubeľ pocítil pád na dno, Rusko je vo finančnej kríze 
             Dolár v utorok stál už takmer 80 rubľov, pod hladinu ho tlačia najmä nízke ceny ropy. 
         
     
         
        
                                

        
         
            AKTUALIZOVANÉ 21:50
             Taliban zabil v škole v Pakistane 132 detí 
             Pakistan až teraz poriadne zatlačil na islamistov. Odplatou je útok na deti vojakov. 
         
     
     

                 
     
    
     
        
 

     
                
                            
                    



         
            
                Rastislav Čurma
            
         
        curma.blog.sme.sk (rss)
         
                                     
     
        Myslím, teda som.... A chcem zmeniť svet. (Spoluzakladateľ odborového združenia profesionálnych vodičov).
        
     
     
                     
                             
             

     
        
            
                
                    Počet článkov
                    72
                
                
                    Celková karma
                    
                                                0.00
                    
                
                
                    Priemerná čítanosť
                    2904
                
            
        
     

             

             Zoznam rubrík 
            
             
                                     
                        
                            doprava, nákladná a iná
                        
                     
                                     
                        
                            veselo i vážne z kabíny slona
                        
                     
                                     
                        
                            Súkromné
                        
                     
                                     
                        
                            Nezaradené
                        
                     
                             
         
    

    

             
             Čo ma zaujalo 
            Týmto článkom bloger klikol/klikla na karmu.
             
                                                         
                       Nebezpečný smer
                     
                                                         
                       Dobrý lekár vždy zachraňuje...
                     
                                                         
                       Prešovský Robin Hood
                     
                                                         
                       Predám charakter a česť
                     
                                                         
                       Ako v Nemecku nestíham
                     
                                                         
                       Niekedy stačí byť priemerným
                     
                                                         
                       Cech taxi Bratislava a Slovensko
                     
                                                         
                       Smer rezignoval
                     
                                                         
                       Pre vodičov kamiónov- Nie je to vaša vec II.
                     
                                                         
                       V Slovenskej sporiteľni alebo v Kocúrkove?
                     
                             
         
           
     Pošlite odkaz blogerovi 
    
         
            
         

         
         
         
         

         
         
Odosielateľ (e-mail)
 
         
Text
 
         
             
Protispamová ochrana 
 
 Zle. Skúste znova. 
Opíšte slová z obrázku: Načítať iné slová 
 Get an image CAPTCHA 
 
 
         
                 
            
         
    
  


 

     






            
    
        
    
 

        
         
         
             Už ste čítali? 
         
         
 

 kultura.sme.sk 
 Margaréta sa spriahla s diablom, no mala Kristovu pravdu 
 
 

 www.sme.sk 
 Pútnické miesta The Beatles alebo ako ľudia kráčajú po zebre 
 
 

 cestovanie.sme.sk 
 Lovia za svitania a v hmle 
 
 

 www.sme.sk 
 Ako sa valila lavína slobody. Ako padal komunizmus 
 
 

 kultura.sme.sk 
 Žiadne retro, poriadny biznis. Takto sa lisuje platňa 
 
	   
 


        
         
            
         

     

    
     
 
 
	 

		Kontakty
		Predplatné
		Etický kódex
		Pomoc
		Mapa stránky
		
	 
 
 
	 
		 
			Widget
			RSS
			Newsletter
		 
		 
			Mobil
			Smartphone
			Kindle
			Televízor
		 
		 
			Facebook
			Twitter
			Google+
		 
	 
	 
		
	 
	 
		Ďalšie weby skupiny: Prihlásenie do Post.sk
		Új Szó Slovak Spectator
		Agentúrne správy 
		Vydavateľstvo
		Inzercia
		Osobné údaje
		Návštevnosť webu
		Predajnosť tlače
		Petit Academy
		SME v škole 		© Copyright 1997-2014 Petit Press, a.s. 
	 
 
 
 


          
        
            
            

        
    

    
    


    


    
        
        
        
        
        
        
        
            
            
        
        
        
        
         
                                
               





 

 



        

 




