
      
    
    

     
	 
	 
 SME.sk 
 Zľavy 
 Zoznámenie 
 Reality 
 Dovolenky 
 Pizza 
 Reštaurácie 
 Recenzie 
 Inzeráty 
 Naničmama 	 
Nákupy 
		 
 Filmy na DVD 
 Hodinky 
 Parfémy 
 SME knihy a DVD 
 Superhosting 
 Tlačiareň 
 Víno 
 Tvorba webov 
 Predplatné SME 
 ProSenior 		 
	 
	 
 
	 
 


    
    
        
        
         
          
         
    

    
      
         
            
             
     
        
        
     
    Blog.SME.sk
 

    

         
        
                 
     
         
            Sme.sk
         
         
            Domov
         
         
            Regióny
         
         
            Ekonomika
         
         
            Svet
         
         
            Komentáre
         
         
            Kultúra
         
         
            Šport
         
         
            TV
         
         
            Auto
         
         
            Tech
         
         
            Poradňa
         
         
            Žena
         
         
            Bývanie
         
         
            Zdravie
         
         
            Blog
         
     
 

         
            
     
                                                         Politika 
                                                                                     Spoločnosť 
                                                                                     Cestovanie 
                                                                                     Ekonomika 
                                                                                     Fotografie 
                                                                                     Jedlo 
                                                                                     Kultúra 
                                                                                             
Ďalšie
                             
                                                                                         Lifestyle 
                                                                                                                                                                             Médiá 
                                                                                                                                                                             Nezaradené 
                                                                                                                                                                             Súkromné 
                                                                                                                                                                             Šport 
                                                                                                                                                                             Veda a technika 
                                                                                                                                                                             Zábava 
                                                                                                                                                                             Poézia 
                                                                                                                                                                             Próza 
                                                                                                                                                                             Kódex blogera 
                                                                                 
                         
                                                 
            Blogeri
         
     


            

    
    Prihlásiť sa


    
    Založte si blog



    
    Odhlásiť sa


    
    




         

        
        
         
            
         
         
                
     
                 
            SME.sk &gt;
            Blog.SME.sk &gt;
                            Roman Herda
                                        &gt;
                čierna hora
                     
                 Podgorica (fotografie) 

        
            
                                    19.4.2010
            o
            14:23
                        (upravené
                2.3.2013
                o
                21:44)
                        |
            Karma článku:
                8.51
            |
            Prečítané 
            2676-krát
                    
         
     
         
             

                 
                    Kvôli absencií dopravného spojenia medzi Tiranou a Podgoricou využívame alternatívne riešenie a krátko pred ôsmou večer vystupujeme v centre Podgorice z jedného z legendárnych albánskych mercedesov.
                 

                 Podgorica je hlavné mesto prvej "ekologickej" krajiny na svete - Čiernej Hory. Má približne 173 000 obyvateľov. V čase našej návštevy tu panovali veľké horúčavy a dusno.          ulica Slobode v centre          Mali park                                námestie Trg Republike v centre          socha kráľa Nikoly I.          147 metrov dlhý Millennium Bridge          rieka Morača          deti hrajúce sa na ulici          Zastava 128                     štvrť kúsok od centra          hodinová veža Sahat-kula - centrum starého mesta                                    ulica s obytnými domami neďaleko autobusovej stanice          čakanie na autobusovej stanici na náš autobus do Sarajeva       15.7. -16.7.2009    stručný denník z cesty nájdete tu 

                 
                                        
                        
                        Zdieľať
                    

                    
                            
                                    
                                    Zdieľať na
                            
                             
                                    
                             
                    

                                                                                                                        
                            
                            Diskusia: (15)
                        
                    
                    
                        
                        Zvýšte karmu
                    
                 
             

                             
            
                     
                         Ďalšie články blogera 
                         
                                                             
                                    
                                                                                                    

                                                                        
                                    
                                        Roman Herda 
                                        
                                            Ukrajina 2013 (fotografie)
                                        
                                    
                                 
                                                             
                                    
                    	                                                                                        

                                                                        
                                    
                                        Roman Herda 
                                        
                                            Dnepropetrovsk (fotografie)
                                        
                                    
                                 
                                                             
                                    
                    	                                                                                        

                                                                        
                                    
                                        Roman Herda 
                                        
                                            Doneck (fotografie)
                                        
                                    
                                 
                                                             
                                    
                    	                                                                                        

                                                                        
                                    
                                        Roman Herda 
                                        
                                            Aerotechnické múzeum v Lugansku (fotografie)
                                        
                                    
                                 
                                                             
                                    
                    	                                                                                        

                                                                        
                                    
                                        Roman Herda 
                                        
                                            Lugansk (fotografie)
                                        
                                    
                                 
                                                     
                        
                            Ďalšie články blogera: Roman Herda
                        
                     
            
                     
                         Ďalšie články z rubriky cestovanie 
                         
                                                             
                                    
                                                                                                                    

                                                                                                
                                    
                                        Miroslav Lisinovič 
                                        
                                            Horná brána v Modre
                                        
                                    
                                 
                                                             
                                    
                                                                                                                    

                                                                                                
                                    
                                        Martina Rúčková 
                                        
                                            Z Európy na Kaukaz: Çanakkale a bájna Trója
                                        
                                    
                                 
                                                             
                                    
                                                            	                                                                                        

                                                                                                
                                    
                                        Andrea Grešová 
                                        
                                            To je moje Rumunsko
                                        
                                    
                                 
                                                             
                                    
                                                                                                                    

                                                                                                
                                    
                                        Ján Serbák 
                                        
                                            Pamätník čs. armády s vojnovým cintorínom na Dukle
                                        
                                    
                                 
                                                             
                                    
                                                            	                                                                                        

                                                                                                
                                    
                                        Peter Kover 
                                        
                                            22 krajín (miest), ktoré sa naozaj oplatí vidieť
                                        
                                    
                                 
                                                     
                        
                            Ďalšie články z rubriky cestovanie
                        
                     
                 
            
                    
 
     Hlavné správy 
         
        
                                

        
         
            AKTUALIZOVANÉ 16:00
             Rubeľ kolabuje, ruská vláda má mimoriadne rokovať 
             Jeden dolár stál v utorok poobede už viac ako 78 rubľov, razantné zvýšenie úrokov nepomohlo. 
         
     
         
        
                                

        
         
            ZAHRANIČIE
             Taliban zabil v škole v Pakistane vyše sto ľudí, väčšinou deti 
             Militanti vtrhli do vojenskej školy v policajných rovnošatách. 
         
     
         
        
                                

        
         
            KOMENTARE.SME.SK
             Cynická obluda: Medzičasom na opustenom ostrove 
             Stroskotanci majú veľké šťastie, že sú dvaja. Lacné vtipy na úrovni ich autora. 
         
     
     

                 
     
    
     
        
 

     
                
                            
                    



         
            
                Roman Herda
            
         
        herda.blog.sme.sk (rss)
         
                        VIP
                             
     
         www.romanherda.com 
        
     
     
                     
                             
             

     
        
            
                
                    Počet článkov
                    71
                
                
                    Celková karma
                    
                                                0.00
                    
                
                
                    Priemerná čítanosť
                    2248
                
            
        
     

             

             Zoznam rubrík 
            
             
                                     
                        
                            rumunsko
                        
                     
                                     
                        
                            česká republika
                        
                     
                                     
                        
                            nórsko
                        
                     
                                     
                        
                            belgicko
                        
                     
                                     
                        
                            turecko
                        
                     
                                     
                        
                            bulharsko
                        
                     
                                     
                        
                            macedónsko
                        
                     
                                     
                        
                            albánsko
                        
                     
                                     
                        
                            čierna hora
                        
                     
                                     
                        
                            bosna &amp; hercegovina
                        
                     
                                     
                        
                            srbsko
                        
                     
                                     
                        
                            taliansko
                        
                     
                                     
                        
                            moldavsko
                        
                     
                                     
                        
                            ukrajina
                        
                     
                                     
                        
                            gruzínsko
                        
                     
                                     
                        
                            arménsko
                        
                     
                                     
                        
                            irán
                        
                     
                                     
                        
                            irak
                        
                     
                                     
                        
                            maďarsko
                        
                     
                                     
                        
                            holandsko
                        
                     
                                     
                        
                            rusko
                        
                     
                                     
                        
                            chorvástko
                        
                     
                                     
                        
                            estónsko
                        
                     
                                     
                        
                            lotyšsko
                        
                     
                                     
                        
                            litva
                        
                     
                                     
                        
                            foto
                        
                     
                                     
                        
                            poľsko
                        
                     
                             
         
    

    

           
     Pošlite odkaz blogerovi 
    
         
            
         

         
         
         
         

         
         
Odosielateľ (e-mail)
 
         
Text
 
         
             
Protispamová ochrana 
 
 Zle. Skúste znova. 
Opíšte slová z obrázku: Načítať iné slová 
 Get an image CAPTCHA 
 
 
         
                 
            
         
    
  


 

     






            
    
        
    
 

        
         
         
             Už ste čítali? 
         
         
 

 kultura.sme.sk 
 Margaréta sa spriahla s diablom, no mala Kristovu pravdu 
 
 

 www.sme.sk 
 Pútnické miesta The Beatles alebo ako ľudia kráčajú po zebre 
 
 

 cestovanie.sme.sk 
 Lovia za svitania a v hmle 
 
 

 www.sme.sk 
 Ako sa valila lavína slobody. Ako padal komunizmus 
 
 

 kultura.sme.sk 
 Žiadne retro, poriadny biznis. Takto sa lisuje platňa 
 
	   
 


        
         
            
         

     

    
     
 
 
	 

		Kontakty
		Predplatné
		Etický kódex
		Pomoc
		Mapa stránky
		
	 
 
 
	 
		 
			Widget
			RSS
			Newsletter
		 
		 
			Mobil
			Smartphone
			Kindle
			Televízor
		 
		 
			Facebook
			Twitter
			Google+
		 
	 
	 
		
	 
	 
		Ďalšie weby skupiny: Prihlásenie do Post.sk
		Új Szó Slovak Spectator
		Agentúrne správy 
		Vydavateľstvo
		Inzercia
		Osobné údaje
		Návštevnosť webu
		Predajnosť tlače
		Petit Academy
		SME v škole 		© Copyright 1997-2014 Petit Press, a.s. 
	 
 
 
 


          
        
            
            

        
    

    
    


    


    
        
        
        
        
        
        
        
            
            
        
        
        
        
         
                                
               





 

 



        

 




