
      
    
    

     
	 
	 
 SME.sk 
 Zľavy 
 Zoznámenie 
 Reality 
 Dovolenky 
 Pizza 
 Reštaurácie 
 Recenzie 
 Inzeráty 
 Naničmama 	 
Nákupy 
		 
 Filmy na DVD 
 Hodinky 
 Parfémy 
 SME knihy a DVD 
 Superhosting 
 Tlačiareň 
 Víno 
 Tvorba webov 
 Predplatné SME 
 ProSenior 		 
	 
	 
 
	 
 


    
    
        
        
         
          
         
    

    
      
         
            
             
     
        
        
     
    Blog.SME.sk
 

    

         
        
                 
     
         
            Sme.sk
         
         
            Domov
         
         
            Regióny
         
         
            Ekonomika
         
         
            Svet
         
         
            Komentáre
         
         
            Kultúra
         
         
            Šport
         
         
            TV
         
         
            Auto
         
         
            Tech
         
         
            Poradňa
         
         
            Žena
         
         
            Bývanie
         
         
            Zdravie
         
         
            Blog
         
     
 

         
            
     
                                                         Politika 
                                                                                     Spoločnosť 
                                                                                     Cestovanie 
                                                                                     Ekonomika 
                                                                                     Fotografie 
                                                                                     Jedlo 
                                                                                     Kultúra 
                                                                                             
Ďalšie
                             
                                                                                         Lifestyle 
                                                                                                                                                                             Médiá 
                                                                                                                                                                             Nezaradené 
                                                                                                                                                                             Súkromné 
                                                                                                                                                                             Šport 
                                                                                                                                                                             Veda a technika 
                                                                                                                                                                             Zábava 
                                                                                                                                                                             Poézia 
                                                                                                                                                                             Próza 
                                                                                                                                                                             Kódex blogera 
                                                                                 
                         
                                                 
            Blogeri
         
     


            

    
    Prihlásiť sa


    
    Založte si blog



    
    Odhlásiť sa


    
    




         

        
        
         
            
         
         
                
     
                 
            SME.sk &gt;
            Blog.SME.sk &gt;
                            Jana Dratvová
                                        &gt;
                Nezaradené kadečo
                     
                 Uvarte si rúž, milé dámy 

        
            
                                    15.5.2010
            o
            13:22
                        (upravené
                15.5.2010
                o
                14:12)
                        |
            Karma článku:
                10.32
            |
            Prečítané 
            1676-krát
                    
         
     
         
             

                 
                    Pýtate sa, či mi už z tých tém okolo varenia nezačalo šibať? Nie, odpoviem s kľudným svedomím. Pri bdelom, triezvom a zdravom vedomí sa pýtam, či ste si už niekedy uvarili rúž...
                 

                 
  
   Milé dámy,   máte doma zvyšky svojich obľúbených rúžov a akosi  nemáte srdce hodiť ich do koša? Viem, že rúž sa dá domíňať špeciálnym štetcom až do poslednej bodky, ale povedzme si úprimne, koľké to tak robíme?   Tiež uznávam, že na trhu je  nepreberné množstvo rúžov a ich farebná ponuka je úžasná.  Tak isto je pravdou, že rúže som pravidelne zvykla "variť", keď  to v drogériach a kozmetikách vyzeralo úplne ináč. Vykúzlila som si tak vlastný odtieň a môj rúž bol originál. Naučila som to aj maminku a tak sme sa predbiehali, ktorá akú farbu ukuchtí. V ostatné roky sa tejto alchýmii venujem pomenej, ale predsa.   Ale k veci! Ak ste naozaj majiteľkou niekoľkých nedomíňaných rúžov, dám vám tip. Stačí, aby ste mali po ruke malú keramickú nádobku (robím v takej, čo je určená na vajíčko na tvrdo), malý hrniec s vodou, špachtličku - stačí kúsok špajle.   Postup je jednoduchý a zaberie pár minút. Špachtličkou povyberáme zvyšky rúžov a vložíme ich do keramickej nádobky. Keď sa podarí táto časť operácie, tak už máte to najprácnejšie za sebou. Nádobku ponoríme do malého hrnca s vriacou vodou, tak, aby voda siahala približne do polovice výšky nádobky. Počkáme kým sa hmota neroztopí. Špajlou ju občas premiešame.   Prichádza konečná fáza. Vyberieme si jedno puzdierko z vyprázdnených rúžov, trebárs to,  ktoré sme najradšej používali. Stihaneme ho tak, ako keby sme chceli rúž po použití uzavrieť. Hmotu tam opatrne nalejeme. Rúž uzatvoríme a vo zvislej polohe uložíme na krátky čas do mrazničky, alebo o čosi dlhšie, do chladničky.   Po stuhnutí si môžeme rúž povytiahnuť a špičku skrojiť tak, ako to býva u nových rúžov. Je to škoda, lebo kus rúžu vyhodíte. Špička vznikne po pár použitiach, takže sa s tým netreba vopred zaoberať.   Nahovorila som vás? Možno niektoré krútite hlavami, (ani sa moc nečudujem) a možno niektoré už prezeráte staré zásoby. Verte, neverte, ale taký doma "uvarený" rúž vie často príjemne prekvapiť.   Kozmetické firmy by mi zaiste za tento návod vďačné neboli, ale občas je vhodné ušetriť nejaké to euro a vytešiť sa z vlastného dielka.   Tak, do varenia, dámy! 

                 
                                        
                        
                        Zdieľať
                    

                    
                            
                                    
                                    Zdieľať na
                            
                             
                                    
                             
                    

                                                                                                                        
                            
                            Diskusia: (159)
                        
                    
                    
                        
                        Zvýšte karmu
                    
                 
             

                             
            
                     
                         Ďalšie články blogera 
                         
                                                             
                                    
                    	                                                                                        

                                                                        
                                    
                                        Jana Dratvová 
                                        
                                            Chcem byť strom
                                        
                                    
                                 
                                                             
                                    
                    	                                                                                        

                                                                        
                                    
                                        Jana Dratvová 
                                        
                                            Zabudnutá
                                        
                                    
                                 
                                                             
                                    
                    	                                                                                        

                                                                        
                                    
                                        Jana Dratvová 
                                        
                                            Sama sa  rozhodla
                                        
                                    
                                 
                                                             
                                    
                    	                                                                                        

                                                                        
                                    
                                        Jana Dratvová 
                                        
                                            Kľúč nosíš v sebe
                                        
                                    
                                 
                                                             
                                    
                    	                                                                                        

                                                                        
                                    
                                        Jana Dratvová 
                                        
                                            Vraj
                                        
                                    
                                 
                                                     
                        
                            Ďalšie články blogera: Jana Dratvová
                        
                     
            
                     
                         Ďalšie články z rubriky nezaradené 
                         
                                                             
                                    
                                                            	                                                                                        

                                                                                                
                                    
                                        Pavel Ondrejmiška 
                                        
                                            Dnes farnosť Žitavany, pred tisíc rokmi kráľovská fara v Kňažiciach
                                        
                                    
                                 
                                                             
                                    
                                                            	                                                                                        

                                                                                                
                                    
                                        Milan Removčík 
                                        
                                            Zimný Šíp.
                                        
                                    
                                 
                                                             
                                    
                                                            	                                                                                        

                                                                                                
                                    
                                          esc-sr 
                                        
                                            Čas (ne)vhodných darčekov
                                        
                                    
                                 
                                                             
                                    
                                                            	                                                                                        

                                                                                                
                                    
                                        Michal Filek 
                                        
                                            Ako je ťažké darovať bezdomovcom polievku?
                                        
                                    
                                 
                                                             
                                    
                                                                                                                    

                                                                                                
                                    
                                        Anna Kováčová 
                                        
                                            Na sexi postavu, zdravie, energiu a šťastný život nepotrebujete tabletky!
                                        
                                    
                                 
                                                     
                        
                            Ďalšie články z rubriky nezaradené
                        
                     
                 
            
                    
 
     Hlavné správy 
         
        
                                

        
         
            AKTUALIZOVANÉ O 20:00
             Rubeľ pocítil pád na dno, Rusko je vo finančnej kríze 
             Dolár včera stál už takmer 80 rubľov, pod hladinu ho tlačia najmä nízke ceny ropy. 
         
     
         
        
                                

        
         
            ZAHRANIČIE
             Taliban zaútočil na citlivé miesto Pakistanu. Na deti 
             Taliban zabil v škole v Pakistane najmenej 141 ľudí, väčšinou deti. 
         
     
         
        
                                

        
         
            KOMENTARE.SME.SK
             Cynická obluda: Medzičasom na opustenom ostrove 
             Stroskotanci majú veľké šťastie, že sú dvaja. Lacné vtipy na úrovni ich autora. 
         
     
     

                 
     
    
     
        
 

     
                
                            
                    



         
            
                Jana Dratvová
            
         
        dratvova.blog.sme.sk (rss)
         
                                     
     
        Milujem písmenká a rada sa s nimi hrám.
        
     
     
                     
                             
             

     
        
            
                
                    Počet článkov
                    590
                
                
                    Celková karma
                    
                                                0.00
                    
                
                
                    Priemerná čítanosť
                    1365
                
            
        
     

             

             Zoznam rubrík 
            
             
                                     
                        
                            Sprcha duše vo verši
                        
                     
                                     
                        
                            jedlo, bylinky
                        
                     
                                     
                        
                            oprášené spomienky
                        
                     
                                     
                        
                            Môj zverinec
                        
                     
                                     
                        
                            Čriepky dňa
                        
                     
                                     
                        
                            Uletené, pokus o fejtón
                        
                     
                                     
                        
                            Súkromné
                        
                     
                                     
                        
                            Nezaradené kadečo
                        
                     
                             
         
    

    

           
     Pošlite odkaz blogerovi 
    
         
            
         

         
         
         
         

         
         
Odosielateľ (e-mail)
 
         
Text
 
         
             
Protispamová ochrana 
 
 Zle. Skúste znova. 
Opíšte slová z obrázku: Načítať iné slová 
 Get an image CAPTCHA 
 
 
         
                 
            
         
    
  


 

     






            
    
        
    
 

        
         
         
             Už ste čítali? 
         
         
 

 kultura.sme.sk 
 Margaréta sa spriahla s diablom, no mala Kristovu pravdu 
 
 

 www.sme.sk 
 Pútnické miesta The Beatles alebo ako ľudia kráčajú po zebre 
 
 

 cestovanie.sme.sk 
 Lovia za svitania a v hmle 
 
 

 www.sme.sk 
 Ako sa valila lavína slobody. Ako padal komunizmus 
 
 

 kultura.sme.sk 
 Žiadne retro, poriadny biznis. Takto sa lisuje platňa 
 
	   
 


        
         
            
         

     

    
     
 
 
	 

		Kontakty
		Predplatné
		Etický kódex
		Pomoc
		Mapa stránky
		
	 
 
 
	 
		 
			Widget
			RSS
			Newsletter
		 
		 
			Mobil
			Smartphone
			Kindle
			Televízor
		 
		 
			Facebook
			Twitter
			Google+
		 
	 
	 
		
	 
	 
		Ďalšie weby skupiny: Prihlásenie do Post.sk
		Új Szó Slovak Spectator
		Agentúrne správy 
		Vydavateľstvo
		Inzercia
		Osobné údaje
		Návštevnosť webu
		Predajnosť tlače
		Petit Academy
		SME v škole 		© Copyright 1997-2014 Petit Press, a.s. 
	 
 
 
 


          
        
            
            

        
    

    
    


    


    
        
        
        
        
        
        
        
            
            
        
        
        
        
         
                                
               





 

 



        

 




