
      
    
    

     
	 
	 
 SME.sk 
 Zľavy 
 Zoznámenie 
 Reality 
 Dovolenky 
 Pizza 
 Reštaurácie 
 Recenzie 
 Inzeráty 
 Naničmama 	 
Nákupy 
		 
 Filmy na DVD 
 Hodinky 
 Parfémy 
 SME knihy a DVD 
 Superhosting 
 Tlačiareň 
 Víno 
 Tvorba webov 
 Predplatné SME 
 ProSenior 		 
	 
	 
 
	 
 


    
    
        
        
         
          
         
    

    
      
         
            
             
     
        
        
     
    Blog.SME.sk
 

    

         
        
                 
     
         
            Sme.sk
         
         
            Domov
         
         
            Regióny
         
         
            Ekonomika
         
         
            Svet
         
         
            Komentáre
         
         
            Kultúra
         
         
            Šport
         
         
            TV
         
         
            Auto
         
         
            Tech
         
         
            Poradňa
         
         
            Žena
         
         
            Bývanie
         
         
            Zdravie
         
         
            Blog
         
     
 

         
            
     
                                                         Politika 
                                                                                     Spoločnosť 
                                                                                     Cestovanie 
                                                                                     Ekonomika 
                                                                                     Fotografie 
                                                                                     Jedlo 
                                                                                     Kultúra 
                                                                                             
Ďalšie
                             
                                                                                         Lifestyle 
                                                                                                                                                                             Médiá 
                                                                                                                                                                             Nezaradené 
                                                                                                                                                                             Súkromné 
                                                                                                                                                                             Šport 
                                                                                                                                                                             Veda a technika 
                                                                                                                                                                             Zábava 
                                                                                                                                                                             Poézia 
                                                                                                                                                                             Próza 
                                                                                                                                                                             Kódex blogera 
                                                                                 
                         
                                                 
            Blogeri
         
     


            

    
    Prihlásiť sa


    
    Založte si blog



    
    Odhlásiť sa


    
    




         

        
        
         
            
         
         
                
     
                 
            SME.sk &gt;
            Blog.SME.sk &gt;
                            Alojz Hlina
                                        &gt;
                Nezaradené
                     
                 Zastavme posledný HZDSácky kšeft! 

        
            
                                    30.6.2010
            o
            13:34
                        (upravené
                30.6.2010
                o
                13:41)
                        |
            Karma článku:
                16.83
            |
            Prečítané 
            3685-krát
                    
         
     
         
             

                 
                    Zastavme posledný HZDSácky kšeft! /Na pomoc si zoberte Vuvuzely ,aby to bolo počuť/
                 

                  HZDS sa pripravuje na prácu v opozícii a mimo parlamentu. Po tých všetkých rokoch je to pre nich prvá skúsenosť, tak si teda počkajme, čo pre nás pripravia. Teraz je však veľmi dôležité, aby sa jeden z posledných, ak nie posledný z HZDS kšeftov nekonal. Ministerstvo pôdohospodárstva /Minister je nominant HZDS/ má údajne odobriť poriadny kšeft. Okolo Rusoveckého jazera sú lesy. A predstavte si, na tieto niekto dostal zálusk. Keďže štátne lesy sa nemôžu predávať, géniovia v HZDS to vykúmali a lesy zamenia. Takže lesy pri Bratislave vymenia za lesy niekde pri Lučenci. Čo sa potom stane? Nový vlastník pozemkov okolo Rusoveckého jazera spraví plot, čím znemožní prístup obyvateľom k jazeru, mimochodom k jazeru, ktoré je zdrojom pitnej vody a údajne sa tam potom bude stavať a stavať .... No, však to poznáte. HZDS si na záver svojej parlamentnej kariéry chce vyskúšať nový rozmer de facto privatizácie, a to privatizácie vodných zdrojov, zdrojov pitnej vody a prístupu k nim. Minister HZDS mal už dávno odovzdať kľúče na vrátnici a ničoho sa už nechytať, a zdá sa, že mu to treba pripomenúť.  Príďte v piatok o 14,00 hod /už sú prázdniny/ vyzvať už ani nie ministra pred budovu jeho ministerstva/Ministerstvo pôdohospodárstva Dobrovičová 12/, aby opustil budovu a podpísal tak akurát protokol o odovzdaní kľúčov .  Na pomoc si zoberte Vuvuzely ,aby to bolo počuť. P.S.: Rusovecké jazero je obľúbené miesto na kúpanie. Tak tí, čo prídu pred ministerstvo v plavkách, a najmä pekné dievčatá, dostanú špeciálnu odmenu. P.S.2 Večer si na Nám.SNP v Bratislave pozrieme na veľkoplošnom platne film :Strážca divočiny.          Začiatok o cca 20:30 

                 
                                        
                        
                        Zdieľať
                    

                    
                            
                                    
                                    Zdieľať na
                            
                             
                                    
                             
                    

                                                                                                                        
                            
                            Diskusia: (27)
                        
                    
                    
                        
                        Zvýšte karmu
                    
                 
             

                             
            
                     
                         Ďalšie články blogera 
                         
                                                             
                                    
                    	                                                                                        

                                                                        
                                    
                                        Alojz Hlina 
                                        
                                            Čo sa Penta v Číne nenaučila
                                        
                                    
                                 
                                                             
                                    
                    	                                                                                        

                                                                        
                                    
                                        Alojz Hlina 
                                        
                                            Zrušiť zdravotné odvody je nebotyčná hlúposť!
                                        
                                    
                                 
                                                             
                                    
                    	                                                                                        

                                                                        
                                    
                                        Alojz Hlina 
                                        
                                            Nočné rokovanie bude aj pred Paškovou vilou
                                        
                                    
                                 
                                                             
                                    
                    	                                                                                        

                                                                        
                                    
                                        Alojz Hlina 
                                        
                                            Smer zlegalizoval nezákonné billboardy
                                        
                                    
                                 
                                                             
                                    
                    	                                                                                        

                                                                        
                                    
                                        Alojz Hlina 
                                        
                                            O slovenskej žurnalistike rozhodne Shooty
                                        
                                    
                                 
                                                     
                        
                            Ďalšie články blogera: Alojz Hlina
                        
                     
            
                     
                         Ďalšie články z rubriky politika 
                         
                                                             
                                    
                                                            	                                                                                        

                                                                                                
                                    
                                        Tomáš Hudec 
                                        
                                            Chceme zvýšiť účasť ľudí vo voľbách? Zaveďme eVoľby!
                                        
                                    
                                 
                                                             
                                    
                                                            	                                                                                        

                                                                                                
                                    
                                        Robert Bestro 
                                        
                                            Výmena vedenia parlamentu zjavne prospela
                                        
                                    
                                 
                                                             
                                    
                                                            	                                                                                        

                                                                                                
                                    
                                        Júlia Piraňa Mikolášiková 
                                        
                                            Obvinia ďalšiu novinárku z údajného ohovárania policajného šéfa Ševčíka?
                                        
                                    
                                 
                                                             
                                    
                                                            	                                                                                        

                                                                                                
                                    
                                        Stanislav Martinčko 
                                        
                                            Stužka z kvetinárstva za 16 centov a rozkradnuté milióny!!
                                        
                                    
                                 
                                                             
                                    
                                                            	                                                                                        

                                                                                                
                                    
                                        Veronika Remisova 
                                        
                                            Elektronické mýto podľa Ficovej vlády – prehľadnejšie sa to skrátka nedá
                                        
                                    
                                 
                                                     
                        
                            Ďalšie články z rubriky politika
                        
                     
                 
            
                    
 
     Hlavné správy 
         
        
                                

        
         
            ZAHRANIČIE
             Protestujúci v Maďarsku strácajú dych, Fidesz ich mätie novými návrhmi 
             Na demonštrácii proti Orbánovej vláde bolo v utorok už len niekoľko tisíc ľudí. 
         
     
         
        
                                

        
         
            AKTUALIZOVANÉ O 21:30
             Rubeľ pocítil pád na dno, Rusko je vo finančnej kríze 
             Dolár v utorok stál už takmer 80 rubľov, pod hladinu ho tlačia najmä nízke ceny ropy. 
         
     
         
        
                                

        
         
            AKTUALIZOVANÉ 21:50
             Taliban zabil v škole v Pakistane 132 detí 
             Pakistan až teraz poriadne zatlačil na islamistov. Odplatou je útok na deti vojakov. 
         
     
     

                 
     
    
     
        
 

     
                
                            
                    



         
            
                Alojz Hlina
            
         
        alojzhlina.blog.sme.sk (rss)
         
                                     
     
        Alojz Hlina - nezávislý poslanec NR SR, občan Slovenska, občan mesta Bratislava, oravský bača. www.alojzhlina.sk
        
     
     
                     
                             
             

     
        
            
                
                    Počet článkov
                    518
                
                
                    Celková karma
                    
                                                8.94
                    
                
                
                    Priemerná čítanosť
                    3789
                
            
        
     

             

             Zoznam rubrík 
            
             
                                     
                        
                            Súkromné
                        
                     
                                     
                        
                            Nezaradené
                        
                     
                             
         
    

    

             
             Čo ma zaujalo 
            Týmto článkom bloger klikol/klikla na karmu.
             
                                                         
                       Tak kvôli tomu vyhodili Čaploviča?
                     
                                                         
                       Politický nekorektné úvahy k Dňu Európy a Dňu víťazstva
                     
                                                         
                       Hanebná nominácia na ústavného sudcu
                     
                                                         
                       Stane sa  SMER chrapúňom  roka?
                     
                                                         
                       Košičania, budete svietiť ako baterky?
                     
                                                         
                       Simpsonovci a Hlinovo hrdinstvo
                     
                                                         
                       Ako udržiavajú P.Paška a R.Kaliňák krehkú rovnováhu?
                     
                                                         
                       Môžete ísť do kostola, ale omša nebude
                     
                                                         
                       Keď SMER zabezpečuje koledy
                     
                                                         
                       Študenti, ako chutila držková u premiéra?
                     
                             
         
           
     Pošlite odkaz blogerovi 
    
         
            
         

         
         
         
         

         
         
Odosielateľ (e-mail)
 
         
Text
 
         
             
Protispamová ochrana 
 
 Zle. Skúste znova. 
Opíšte slová z obrázku: Načítať iné slová 
 Get an image CAPTCHA 
 
 
         
                 
            
         
    
  


 

     






            
    
        
    
 

        
         
         
             Už ste čítali? 
         
         
 

 kultura.sme.sk 
 Margaréta sa spriahla s diablom, no mala Kristovu pravdu 
 
 

 www.sme.sk 
 Pútnické miesta The Beatles alebo ako ľudia kráčajú po zebre 
 
 

 cestovanie.sme.sk 
 Lovia za svitania a v hmle 
 
 

 www.sme.sk 
 Ako sa valila lavína slobody. Ako padal komunizmus 
 
 

 kultura.sme.sk 
 Žiadne retro, poriadny biznis. Takto sa lisuje platňa 
 
	   
 


        
         
            
         

     

    
     
 
 
	 

		Kontakty
		Predplatné
		Etický kódex
		Pomoc
		Mapa stránky
		
	 
 
 
	 
		 
			Widget
			RSS
			Newsletter
		 
		 
			Mobil
			Smartphone
			Kindle
			Televízor
		 
		 
			Facebook
			Twitter
			Google+
		 
	 
	 
		
	 
	 
		Ďalšie weby skupiny: Prihlásenie do Post.sk
		Új Szó Slovak Spectator
		Agentúrne správy 
		Vydavateľstvo
		Inzercia
		Osobné údaje
		Návštevnosť webu
		Predajnosť tlače
		Petit Academy
		SME v škole 		© Copyright 1997-2014 Petit Press, a.s. 
	 
 
 
 


          
        
            
            

        
    

    
    


    


    
        
        
        
        
        
        
        
            
            
        
        
        
        
         
                                
               





 

 



        

 




