
      
    
    

     
	 
	 
 SME.sk 
 Zľavy 
 Zoznámenie 
 Reality 
 Dovolenky 
 Pizza 
 Reštaurácie 
 Recenzie 
 Inzeráty 
 Naničmama 	 
Nákupy 
		 
 Filmy na DVD 
 Hodinky 
 Parfémy 
 SME knihy a DVD 
 Superhosting 
 Tlačiareň 
 Víno 
 Tvorba webov 
 Predplatné SME 
 ProSenior 		 
	 
	 
 
	 
 


    
    
        
        
         
          
         
    

    
      
         
            
             
     
        
        
     
    Blog.SME.sk
 

    

         
        
                 
     
         
            Sme.sk
         
         
            Domov
         
         
            Regióny
         
         
            Ekonomika
         
         
            Svet
         
         
            Komentáre
         
         
            Kultúra
         
         
            Šport
         
         
            TV
         
         
            Auto
         
         
            Tech
         
         
            Poradňa
         
         
            Žena
         
         
            Bývanie
         
         
            Zdravie
         
         
            Blog
         
     
 

         
            
     
                                                         Politika 
                                                                                     Spoločnosť 
                                                                                     Cestovanie 
                                                                                     Ekonomika 
                                                                                     Fotografie 
                                                                                     Jedlo 
                                                                                     Kultúra 
                                                                                             
Ďalšie
                             
                                                                                         Lifestyle 
                                                                                                                                                                             Médiá 
                                                                                                                                                                             Nezaradené 
                                                                                                                                                                             Súkromné 
                                                                                                                                                                             Šport 
                                                                                                                                                                             Veda a technika 
                                                                                                                                                                             Zábava 
                                                                                                                                                                             Poézia 
                                                                                                                                                                             Próza 
                                                                                                                                                                             Kódex blogera 
                                                                                 
                         
                                                 
            Blogeri
         
     


            

    
    Prihlásiť sa


    
    Založte si blog



    
    Odhlásiť sa


    
    




         

        
        
         
            
         
         
                
     
                 
            SME.sk &gt;
            Blog.SME.sk &gt;
                            Marek Jusko
                                        &gt;
                Politika
                     
                 Nová politická strana - strana nevoličov 

        
            
                                    23.3.2010
            o
            11:09
                        (upravené
                23.3.2010
                o
                11:31)
                        |
            Karma článku:
                6.82
            |
            Prečítané 
            1380-krát
                    
         
     
         
             

                 
                    Plitická strana nevoličov sa može zdať ako nezmysel, nakoľko ak je raz niekto nevolič, nepodporí žiadnu politickú stranu. Z marketingového hľadiska, by to však bol bezpochyby mega-úspešný projekt.
                 

                 Založiť takúto politickú stranu navrhol položartom poradca prezidenta Václava Klausa - Petr Hájek. V Čechách je mnoho ľudí pohoršených z úpadku politických strán - práve týchto nie málo ľudí, by podobná strana oslovila. Strana by nemala žiaden program a po jej zvolení do parlamentu by sa jej zástupcovia jednoducho nezúčastňovali na chode štátu. Ak by získala primeranú podporu vo voľbách, mohla by značne znefunkčniť štát a dostať ostatné politcké strany do patovej situácie. Takýto scenár je samozrejme nereálny a politická strana nevoličov je len taký žartík. Predstavme si však, aký obrovský potenciál do nej vkladajú svojou zlodejinou a neporiadnosťou súčasné politické strany. Koľko by sa našlo ľudí, ktorý nechcú dať svoj hlas ani jednej strane a miesto neúčasti na voľbách by podporili tento projekt? Pri dobrej mediálnej kampani by to mohli byř desiatky percent. Aj to je memento pre súčastných politikov.   Demokracia dovoľuje mnoho sposobov na vyjadrenie nespokojnosti. Ak sa nájde človek, čo založí politickú stranu Paliho kapurková a zaplatí za ňu kauciu, kľudne sa može nájsť človek, čo založí stranu nevoličov. Bolo by zaujimavé sledovať vývoj vysledky tejto strany... 

                 
                                        
                        
                        Zdieľať
                    

                    
                            
                                    
                                    Zdieľať na
                            
                             
                                    
                             
                    

                                                                                                                        
                            
                            Diskusia: (10)
                        
                    
                    
                        
                        Zvýšte karmu
                    
                 
             

                             
            
                     
                         Ďalšie články blogera 
                         
                                                             
                                    
                    	                                                                                        

                                                                        
                                    
                                        Marek Jusko 
                                        
                                            Z ihriska parkovisko, zo športovca feťák
                                        
                                    
                                 
                                                             
                                    
                    	                                                                                        

                                                                        
                                    
                                        Marek Jusko 
                                        
                                            Nesystémová finančná podpora cestovnému ruchu na východe Slovenska
                                        
                                    
                                 
                                                             
                                    
                    	                                                                                        

                                                                        
                                    
                                        Marek Jusko 
                                        
                                            Zákon o turizme - ďalší dôkaz o ignorácií cestovného ruchu na Slove
                                        
                                    
                                 
                                                     
                        
                            Ďalšie články blogera: Marek Jusko
                        
                     
            
                     
                         Ďalšie články z rubriky nezaradené 
                         
                                                             
                                    
                                                            	                                                                                        

                                                                                                
                                    
                                        Michal Pazič 
                                        
                                            Prečo školské zariadenie v Pakistane?
                                        
                                    
                                 
                                                             
                                    
                                                            	                                                                                        

                                                                                                
                                    
                                        Milan Removčík 
                                        
                                            Zimný Šíp.
                                        
                                    
                                 
                                                             
                                    
                                                            	                                                                                        

                                                                                                
                                    
                                          esc-sr 
                                        
                                            Čas (ne)vhodných darčekov
                                        
                                    
                                 
                                                             
                                    
                                                            	                                                                                        

                                                                                                
                                    
                                        Michal Filek 
                                        
                                            Ako je ťažké darovať bezdomovcom polievku?
                                        
                                    
                                 
                                                             
                                    
                                                                                                                    

                                                                                                
                                    
                                        Anna Kováčová 
                                        
                                            Na sexi postavu, zdravie, energiu a šťastný život nepotrebujete tabletky!
                                        
                                    
                                 
                                                     
                        
                            Ďalšie články z rubriky nezaradené
                        
                     
                 
            
                    
 
     Hlavné správy 
         
        
                                

        
         
            AKTUALIZOVANÉ 16:00
             Rubeľ kolabuje, ruská vláda má mimoriadne rokovať 
             Jeden dolár stál v utorok poobede už viac ako 78 rubľov, razantné zvýšenie úrokov nepomohlo. 
         
     
         
        
                                

        
         
            ZAHRANIČIE
             Taliban zabil v škole v Pakistane vyše sto ľudí, väčšinou deti 
             Militanti vtrhli do vojenskej školy v policajných rovnošatách. 
         
     
         
        
                                

        
         
            KOMENTARE.SME.SK
             Cynická obluda: Medzičasom na opustenom ostrove 
             Stroskotanci majú veľké šťastie, že sú dvaja. Lacné vtipy na úrovni ich autora. 
         
     
     

                 
     
    
     
        
 

     
                
                            
                    



         
            
                Marek Jusko
            
         
        marekjusko.blog.sme.sk (rss)
         
                                     
     
        Mám rád dobré víno a užívam si života. Ľudia ako Slota, Rafaj, Fico, Mečiar, Kotleba mi ten život znechucujú. Ale bojujem stým...
        
     
     
                     
                             
             

     
        
            
                
                    Počet článkov
                    4
                
                
                    Celková karma
                    
                                                0.00
                    
                
                
                    Priemerná čítanosť
                    1312
                
            
        
     

             

             Zoznam rubrík 
            
             
                                     
                        
                            Politika
                        
                     
                                     
                        
                            Cestovný ruch
                        
                     
                                     
                        
                            Školstvo
                        
                     
                             
         
    

    

        

     






            
    
        
    
 

        
         
         
             Už ste čítali? 
         
         
 

 kultura.sme.sk 
 Margaréta sa spriahla s diablom, no mala Kristovu pravdu 
 
 

 www.sme.sk 
 Pútnické miesta The Beatles alebo ako ľudia kráčajú po zebre 
 
 

 cestovanie.sme.sk 
 Lovia za svitania a v hmle 
 
 

 www.sme.sk 
 Ako sa valila lavína slobody. Ako padal komunizmus 
 
 

 kultura.sme.sk 
 Žiadne retro, poriadny biznis. Takto sa lisuje platňa 
 
	   
 


        
         
            
         

     

    
     
 
 
	 

		Kontakty
		Predplatné
		Etický kódex
		Pomoc
		Mapa stránky
		
	 
 
 
	 
		 
			Widget
			RSS
			Newsletter
		 
		 
			Mobil
			Smartphone
			Kindle
			Televízor
		 
		 
			Facebook
			Twitter
			Google+
		 
	 
	 
		
	 
	 
		Ďalšie weby skupiny: Prihlásenie do Post.sk
		Új Szó Slovak Spectator
		Agentúrne správy 
		Vydavateľstvo
		Inzercia
		Osobné údaje
		Návštevnosť webu
		Predajnosť tlače
		Petit Academy
		SME v škole 		© Copyright 1997-2014 Petit Press, a.s. 
	 
 
 
 


          
        
            
            

        
    

    
    


    


    
        
        
        
        
        
        
        
            
            
        
        
        
        
         
                                
               





 

 



        

 




