
      
    
    

     
	 
	 
 SME.sk 
 Zľavy 
 Zoznámenie 
 Reality 
 Dovolenky 
 Pizza 
 Reštaurácie 
 Recenzie 
 Inzeráty 
 Naničmama 	 
Nákupy 
		 
 Filmy na DVD 
 Hodinky 
 Parfémy 
 SME knihy a DVD 
 Superhosting 
 Tlačiareň 
 Víno 
 Tvorba webov 
 Predplatné SME 
 ProSenior 		 
	 
	 
 
	 
 


    
    
        
        
         
          
         
    

    
      
         
            
             
     
        
        
     
    Blog.SME.sk
 

    

         
        
                 
     
         
            Sme.sk
         
         
            Domov
         
         
            Regióny
         
         
            Ekonomika
         
         
            Svet
         
         
            Komentáre
         
         
            Kultúra
         
         
            Šport
         
         
            TV
         
         
            Auto
         
         
            Tech
         
         
            Poradňa
         
         
            Žena
         
         
            Bývanie
         
         
            Zdravie
         
         
            Blog
         
     
 

         
            
     
                                                         Politika 
                                                                                     Spoločnosť 
                                                                                     Cestovanie 
                                                                                     Ekonomika 
                                                                                     Fotografie 
                                                                                     Jedlo 
                                                                                     Kultúra 
                                                                                             
Ďalšie
                             
                                                                                         Lifestyle 
                                                                                                                                                                             Médiá 
                                                                                                                                                                             Nezaradené 
                                                                                                                                                                             Súkromné 
                                                                                                                                                                             Šport 
                                                                                                                                                                             Veda a technika 
                                                                                                                                                                             Zábava 
                                                                                                                                                                             Poézia 
                                                                                                                                                                             Próza 
                                                                                                                                                                             Kódex blogera 
                                                                                 
                         
                                                 
            Blogeri
         
     


            

    
    Prihlásiť sa


    
    Založte si blog



    
    Odhlásiť sa


    
    




         

        
        
         
            
         
         
                
     
                 
            SME.sk &gt;
            Blog.SME.sk &gt;
                            Zdenka Bencúrová
                                        &gt;
                Nezaradené
                     
                 Je načase položiť si otázku... 

        
            
                                    4.5.2008
            o
            11:40
                        |
            Karma článku:
                0.00
            |
            Prečítané 
            4722-krát
                    
         
     
         
             

                 
                    
                 

                       Zdroj: http://halbot.haluze.sk/images/2008-05/4153_stur_ludovit.jpg  

                 
                                        
                        
                        Zdieľať
                    

                    
                            
                                    
                                    Zdieľať na
                            
                             
                                    
                             
                    

                                                                                                                        
                            
                            Diskusia: (11)
                        
                    
                    
                        
                        Zvýšte karmu
                    
                 
             

                             
            
                     
                         Ďalšie články blogera 
                         
                                                             
                                    
                    	                                                                                        

                                                                        
                                    
                                        Zdenka Bencúrová 
                                        
                                            Pohľadnica z Prahy
                                        
                                    
                                 
                                                             
                                    
                    	                                                                                        

                                                                        
                                    
                                        Zdenka Bencúrová 
                                        
                                            Dnes mi puklo srdce
                                        
                                    
                                 
                                                             
                                    
                    	                                                                                        

                                                                        
                                    
                                        Zdenka Bencúrová 
                                        
                                            Piešťany
                                        
                                    
                                 
                                                             
                                    
                    	                                                                                        

                                                                        
                                    
                                        Zdenka Bencúrová 
                                        
                                            Kaštiele v Tokajskej oblasti II.
                                        
                                    
                                 
                                                             
                                    
                    	                                                                                        

                                                                        
                                    
                                        Zdenka Bencúrová 
                                        
                                            Kaštiele v Tokajskej oblasti I.
                                        
                                    
                                 
                                                     
                        
                            Ďalšie články blogera: Zdenka Bencúrová
                        
                     
            
                     
                         Ďalšie články z rubriky nezaradené 
                         
                                                             
                                    
                                                            	                                                                                        

                                                                                                
                                    
                                        Pavel Ondrejmiška 
                                        
                                            Dnes farnosť Žitavany, pred tisíc rokmi kráľovská fara v Kňažiciach
                                        
                                    
                                 
                                                             
                                    
                                                            	                                                                                        

                                                                                                
                                    
                                        Michal Pazič 
                                        
                                            Prečo školské zariadenie v Pakistane?
                                        
                                    
                                 
                                                             
                                    
                                                            	                                                                                        

                                                                                                
                                    
                                        Milan Removčík 
                                        
                                            Zimný Šíp.
                                        
                                    
                                 
                                                             
                                    
                                                            	                                                                                        

                                                                                                
                                    
                                          esc-sr 
                                        
                                            Čas (ne)vhodných darčekov
                                        
                                    
                                 
                                                             
                                    
                                                            	                                                                                        

                                                                                                
                                    
                                        Michal Filek 
                                        
                                            Ako je ťažké darovať bezdomovcom polievku?
                                        
                                    
                                 
                                                     
                        
                            Ďalšie články z rubriky nezaradené
                        
                     
                 
            
                    
 
     Hlavné správy 
         
        
                                

        
         
            AKTUALIZOVANÉ 16:00
             Rubeľ kolabuje, ruská vláda má mimoriadne rokovať 
             Jeden dolár stál v utorok poobede už viac ako 78 rubľov, razantné zvýšenie úrokov nepomohlo. 
         
     
         
        
                                

        
         
            ZAHRANIČIE
             Taliban zabil v škole v Pakistane vyše sto ľudí, väčšinou deti 
             Militanti vtrhli do vojenskej školy v policajných rovnošatách. 
         
     
         
        
                                

        
         
            KOMENTARE.SME.SK
             Cynická obluda: Medzičasom na opustenom ostrove 
             Stroskotanci majú veľké šťastie, že sú dvaja. Lacné vtipy na úrovni ich autora. 
         
     
     

                 
     
    
     
        
 

     
                
                            
                    



         
            
                Zdenka Bencúrová
            
         
        bencurova.blog.sme.sk (rss)
         
                                     
     
        všetko sa dozviete včas


	
	
	
	
	
     
     
                     
                             
             

     
        
            
                
                    Počet článkov
                    64
                
                
                    Celková karma
                    
                                                0.00
                    
                
                
                    Priemerná čítanosť
                    2805
                
            
        
     

             

             Zoznam rubrík 
            
             
                                     
                        
                            Súkromné intro
                        
                     
                                     
                        
                            Nezaradené
                        
                     
                                     
                        
                            Po hradoch a zámkoch
                        
                     
                                     
                        
                            Spoločnosť
                        
                     
                                     
                        
                            Fotografie
                        
                     
                             
         
    

                     
                        
                                                            
                     Obľúbené články 
                    
                     
                                                 
                                            Jedna moja obľúbená báseň
                                     
                                                                   
                     Obľúbené knihy 
                    
                     
                                                 
                                            Eliadeho
                                     
                                                                   
                     Čo práve počúvam 
                    
                     
                                                 
                                            Jacqueline du Pré
                                     
                                                                             
                                            Björk
                                     
                                                                             
                                            Max Bruch
                                     
                                                                             
                                            Diana Krall
                                     
                                                                             
                                            Katie Melua
                                     
                                                                             
                                            Astor Piazzolla
                                     
                                                                             
                                            Enya
                                     
                                                                             
                                            Trobar De Morte
                                     
                                                                   
                     Obľúbené blogy 
                    
                     
                                                 
                                            Muoj blog v štúrovčiňe vizerá asi takto
                                     
                                                                             
                                            Môj braček
                                     
                                                                             
                                            Moja sestra :)
                                     
                                                                   
                     Obľúbené stránky 
                    
                     
                                                 
                                            Hrady, zámky, kaštiele - v Maďarsku
                                     
                                                                             
                                            Encyklopedia
                                     
                                                                             
                                            Hrady, zámky, kaštiele - trochu inšpirácie na výlety
                                     
                                                                             
                                            Religionistika
                                     
                            
             
         
            

             
             Čo ma zaujalo 
            Týmto článkom bloger klikol/klikla na karmu.
             
                                                         
                       Mikulášsky cintorín
                     
                                                         
                       Spiaci zámok čaká na princa
                     
                                                         
                       Prechádzka Podhradím
                     
                                                         
                       vlčí
                     
                                                         
                       Búrka
                     
                                                         
                       každodenná
                     
                                                         
                       Dávajte si pozor! Môžete prísť o dieťa.
                     
                                                         
                       Vďaka, herr Kotleba, za búranie mýtov o tejto krajine
                     
                                                         
                       Kto platí Vášho finančného poradcu
                     
                                                         
                       Vyzerá to tak, že ženy názor nemajú. Alebo nie je dôležitý.
                     
                             
         
           
     Pošlite odkaz blogerovi 
    
         
            
         

         
         
         
         

         
         
Odosielateľ (e-mail)
 
         
Text
 
         
             
Protispamová ochrana 
 
 Zle. Skúste znova. 
Opíšte slová z obrázku: Načítať iné slová 
 Get an image CAPTCHA 
 
 
         
                 
            
         
    
  


 

     






            
    
        
    
 

        
         
         
             Už ste čítali? 
         
         
 

 kultura.sme.sk 
 Margaréta sa spriahla s diablom, no mala Kristovu pravdu 
 
 

 www.sme.sk 
 Pútnické miesta The Beatles alebo ako ľudia kráčajú po zebre 
 
 

 cestovanie.sme.sk 
 Lovia za svitania a v hmle 
 
 

 www.sme.sk 
 Ako sa valila lavína slobody. Ako padal komunizmus 
 
 

 kultura.sme.sk 
 Žiadne retro, poriadny biznis. Takto sa lisuje platňa 
 
	   
 


        
         
            
         

     

    
     
 
 
	 

		Kontakty
		Predplatné
		Etický kódex
		Pomoc
		Mapa stránky
		
	 
 
 
	 
		 
			Widget
			RSS
			Newsletter
		 
		 
			Mobil
			Smartphone
			Kindle
			Televízor
		 
		 
			Facebook
			Twitter
			Google+
		 
	 
	 
		
	 
	 
		Ďalšie weby skupiny: Prihlásenie do Post.sk
		Új Szó Slovak Spectator
		Agentúrne správy 
		Vydavateľstvo
		Inzercia
		Osobné údaje
		Návštevnosť webu
		Predajnosť tlače
		Petit Academy
		SME v škole 		© Copyright 1997-2014 Petit Press, a.s. 
	 
 
 
 


          
        
            
            

        
    

    
    


    


    
        
        
        
        
        
        
        
            
            
        
        
        
        
         
                                
               





 

 



        

 




