
      
    
    

     
	 
	 
 SME.sk 
 Zľavy 
 Zoznámenie 
 Reality 
 Dovolenky 
 Pizza 
 Reštaurácie 
 Recenzie 
 Inzeráty 
 Naničmama 	 
Nákupy 
		 
 Filmy na DVD 
 Hodinky 
 Parfémy 
 SME knihy a DVD 
 Superhosting 
 Tlačiareň 
 Víno 
 Tvorba webov 
 Predplatné SME 
 ProSenior 		 
	 
	 
 
	 
 


    
    
        
        
         
          
         
    

    
      
         
            
             
     
        
        
     
    Blog.SME.sk
 

    

         
        
                 
     
         
            Sme.sk
         
         
            Domov
         
         
            Regióny
         
         
            Ekonomika
         
         
            Svet
         
         
            Komentáre
         
         
            Kultúra
         
         
            Šport
         
         
            TV
         
         
            Auto
         
         
            Tech
         
         
            Poradňa
         
         
            Žena
         
         
            Bývanie
         
         
            Zdravie
         
         
            Blog
         
     
 

         
            
     
                                                         Politika 
                                                                                     Spoločnosť 
                                                                                     Cestovanie 
                                                                                     Ekonomika 
                                                                                     Fotografie 
                                                                                     Jedlo 
                                                                                     Kultúra 
                                                                                             
Ďalšie
                             
                                                                                         Lifestyle 
                                                                                                                                                                             Médiá 
                                                                                                                                                                             Nezaradené 
                                                                                                                                                                             Súkromné 
                                                                                                                                                                             Šport 
                                                                                                                                                                             Veda a technika 
                                                                                                                                                                             Zábava 
                                                                                                                                                                             Poézia 
                                                                                                                                                                             Próza 
                                                                                                                                                                             Kódex blogera 
                                                                                 
                         
                                                 
            Blogeri
         
     


            

    
    Prihlásiť sa


    
    Založte si blog



    
    Odhlásiť sa


    
    




         

        
        
         
            
         
         
                
     
                 
            SME.sk &gt;
            Blog.SME.sk &gt;
                            Zuzka Baranova
                                        &gt;
                Nezaradené
                     
                 Ihličnany... 

        
            
                                    10.6.2008
            o
            10:18
                        |
            Karma článku:
                10.52
            |
            Prečítané 
            7924-krát
                    
         
     
         
             

                 
                    Tento rok sa im mimoriadne darí... viditeľne podrástli. Nie sú také nápadné ako kvety na lúkach, ale majú svoje čaro... veď posúďte.
                 

                Mladé výhonky upútajú svojou bledozelenou farbou...              Séria borovíc...                                Pinus nigra so samčími a samičími šišticami...                Picea abies (smrek obyčajný)...                       Smrekovec opadavý  (Larix decidua) s ihličím vyrastajúcim z brachyplastov                na záver Juniperus...         

                 
                                        
                        
                        Zdieľať
                    

                    
                            
                                    
                                    Zdieľať na
                            
                             
                                    
                             
                    

                                                                                                                        
                            
                            Diskusia: (2)
                        
                    
                    
                        
                        Zvýšte karmu
                    
                 
             

                             
            
                     
                         Ďalšie články blogera 
                         
                                                             
                                    
                    	                                                                                        

                                                                        
                                    
                                        Zuzka Baranova 
                                        
                                            Hrebeňom Veľkej Fatry - časť II.
                                        
                                    
                                 
                                                             
                                    
                    	                                                                                        

                                                                        
                                    
                                        Zuzka Baranova 
                                        
                                            Hrebeňom Veľkej Fatry - časť I.
                                        
                                    
                                 
                                                             
                                    
                    	                                                                                        

                                                                        
                                    
                                        Zuzka Baranova 
                                        
                                            Spomienky na leto...
                                        
                                    
                                 
                                                             
                                    
                    	                                                                                        

                                                                        
                                    
                                        Zuzka Baranova 
                                        
                                            Pár nízkotatranských krásavcov...
                                        
                                    
                                 
                                                             
                                    
                    	                                                                                        

                                                                        
                                    
                                        Zuzka Baranova 
                                        
                                            Pár minút s obojživelníkmi
                                        
                                    
                                 
                                                     
                        
                            Ďalšie články blogera: Zuzka Baranova
                        
                     
            
                     
                         Ďalšie články z rubriky fotografie 
                         
                                                             
                                    
                                                                                                                    

                                                                                                
                                    
                                        Miroslav Lisinovič 
                                        
                                            Motorový rušeň 754.045 ČD "Brejlovec"
                                        
                                    
                                 
                                                             
                                    
                                                                                                                    

                                                                                                
                                    
                                        Jan Pražák 
                                        
                                            Jeníček v zemi divů - Lurdy
                                        
                                    
                                 
                                                             
                                    
                                                                                                                    

                                                                                                
                                    
                                        Anton Lisinovič 
                                        
                                            Detaily života v lese.....
                                        
                                    
                                 
                                                             
                                    
                                                                                                                    

                                                                                                
                                    
                                        Jaromír Šiša 
                                        
                                            Porazit Rusy? Šlo to jedině roku 1805 u Slavkova.
                                        
                                    
                                 
                                                             
                                    
                                                            	                                                                                        

                                                                                                
                                    
                                        Gabriela Szabová 
                                        
                                            Nezabudnuteľní
                                        
                                    
                                 
                                                     
                        
                            Ďalšie články z rubriky fotografie
                        
                     
                 
            
                    
 
     Hlavné správy 
         
        
                                

        
         
            AKTUALIZOVANÉ 16:00
             Rubeľ kolabuje, ruská vláda má mimoriadne rokovať 
             Jeden dolár stál v utorok poobede už viac ako 78 rubľov, razantné zvýšenie úrokov nepomohlo. 
         
     
         
        
                                

        
         
            ZAHRANIČIE
             Taliban zaútočil na citlivé miesto Pakistanu. Na deti 
             Taliban zabil v škole v Pakistane najmenej 141 ľudí, väčšinou deti. 
         
     
         
        
                                

        
         
            KOMENTARE.SME.SK
             Cynická obluda: Medzičasom na opustenom ostrove 
             Stroskotanci majú veľké šťastie, že sú dvaja. Lacné vtipy na úrovni ich autora. 
         
     
     

                 
     
    
     
        
 

     
                
                            
                    



         
            
                Zuzka Baranova
            
         
        zuzkabaranova.blog.sme.sk (rss)
         
                                     
     
        Rastúce dieťa. Učiteľka prírodopisu, chémie a momentálne aj matematiky v Prahe.
        
     
     
                     
                             
             

     
        
            
                
                    Počet článkov
                    30
                
                
                    Celková karma
                    
                                                0.00
                    
                
                
                    Priemerná čítanosť
                    1805
                
            
        
     

             

             Zoznam rubrík 
            
             
                                     
                        
                            Súkromné
                        
                     
                                     
                        
                            Nezaradené
                        
                     
                             
         
    

                     
                        
                                                            
                     Obľúbené články 
                    
                     
                                                 
                                            Keď dvaja robia to isté... (o zlých developeroch)
                                     
                                                                             
                                            deti z Petržalky
                                     
                                                                             
                                            Výpadky elektriny programátorke neprekážajú - žije na Šalamúnoch
                                     
                                                                             
                                            Rozkopem ťa, Láska!!!
                                     
                                                                             
                                            Európska komisia, prosím, nechráň ma!
                                     
                                                                             
                                            Čo je nebo?
                                     
                                                                             
                                            V deťoch uchovávame všetky marazmy ľudstva.
                                     
                                                                             
                                            Kto chce drahšie mlieko?
                                     
                                                                             
                                            Tri sestry
                                     
                                                                             
                                            Ústavný súd rozhodol… Falconemu to už je jedno
                                     
                                                                             
                                            Farebná pestrosť sirôtok
                                     
                                                                             
                                            Nenecháme je zakuklit pod zemí...
                                     
                                                                             
                                            Vodná nádrž Slepčany
                                     
                                                                             
                                            Koľko toho unesie dieťa
                                     
                                                                             
                                            Privatizujme vzdelávanie III.
                                     
                                                                             
                                            také prvé pokusy fotiť niekoho iného
                                     
                                                                             
                                            Jar v Bratislavských kopcoch...
                                     
                                                                             
                                            Malina
                                     
                                                                             
                                            Obyčajné zázraky
                                     
                                                                             
                                            Prví poslovia jari II
                                     
                                                                             
                                            Poniklece
                                     
                                                                             
                                            Počas Veľkej noci sa pravidelne so ženou opíjame
                                     
                                                                             
                                            Fotky z výstupu na Choč a z fototúlačky po Liptove
                                     
                                                                             
                                            Sedem mesiacov v Tatrách
                                     
                                                                             
                                            Prví poslovia jari I
                                     
                                                                             
                                            Svetlozelená
                                     
                                                                             
                                            Päť percent aj čosi – dobrý aj zlý výsledok
                                     
                                                                             
                                            Kresťania, poďme voliť (ako kresťania)
                                     
                                                                             
                                            Slnko pre všetkých
                                     
                                                                             
                                            Samuel Abrahám – hanba slovenských politológov
                                     
                                                                             
                                            Radosť vidieť opozičnú kandidátku
                                     
                                                                             
                                            Kampaň nielen o prezidentovi (čoho sa liberáli boja?)
                                     
                                                                             
                                            Návrat zimy
                                     
                                                                             
                                            Baláž vs. Radičová – podľa očakávania
                                     
                                                                             
                                            Biskup neprirovnal Radičovú k Hitlerovi!
                                     
                                                                             
                                            Do nového strediska v Košiciach dorazil aj pozdrav dona Cháveza
                                     
                                                                             
                                            Karneval
                                     
                                                                             
                                            Jarné prebúdzanie
                                     
                                                                             
                                            Farby zimy
                                     
                                                                             
                                            Aj na mojom okne
                                     
                                                                             
                                            Čierny krásavec
                                     
                                                                             
                                            Hovorte mi niečo o zodpovednosti!
                                     
                                                                             
                                            Turistická atrakcia Prešova
                                     
                                                                             
                                            Morálny dlh Lipšica, ale aj Radičovej
                                     
                                                                             
                                            Ako ľahko sa robí radosť
                                     
                                                                             
                                            Dúfam, že budeš raz na mňa hrdý...
                                     
                                                                             
                                            Místo, na němž stojíš, je posvátná země
                                     
                                                                             
                                            Chcem prezidenta s názorom
                                     
                                                                             
                                            Ak chces, ja ti ju dam aj zadarmo..
                                     
                                                                             
                                            Bratislavská zima
                                     
                                                                             
                                            Alena Vojenčiakova o misiách
                                     
                                                                             
                                            O tom zvláštnom pocite
                                     
                                                                             
                                            Sľub ako univerzálna strava
                                     
                                                                             
                                            V zajatí ľadu
                                     
                                                                             
                                            U nás sa narodila kniha...
                                     
                                                                             
                                            Chceš byť moja kamarátka?
                                     
                                                                             
                                            Návraty 2
                                     
                                                                             
                                            Exupery - citáty o priateľstve
                                     
                                                                             
                                            Zase sneh...
                                     
                                                                             
                                            Iba sneh...
                                     
                                                                             
                                            Prečo (ne)byť učiteľkou
                                     
                                                                             
                                            Exuperyho modlitba
                                     
                                                                             
                                            Vianoce v škôlke
                                     
                                                                             
                                            Siena
                                     
                                                                             
                                            Paťkova prosba o najkrajší darček
                                     
                                                                             
                                            Včera narodený a už na drogách...
                                     
                                                                             
                                            Jazvinská jaskyňa
                                     
                                                                             
                                            Dva brehy
                                     
                                                                             
                                            Filmix trochu inak (foto)
                                     
                                                                             
                                            Böses Weibl
                                     
                                                                             
                                            Trofej viezli domov len sedemdesiat kilometrov
                                     
                                                                             
                                            SAVIO bude podporovať Sudán
                                     
                                                                             
                                            Azerbajdžan má Matku
                                     
                                                                             
                                            Levie kráľovné
                                     
                                                                             
                                            Zábava pod Barancom (2184m) 30. 11. 2008
                                     
                                                                             
                                            Školský šok
                                     
                                                                             
                                            Martinke Bobáňovej nedali možnosť poďakovať...
                                     
                                                                             
                                            Za prvým snehom
                                     
                                                                             
                                            Už nečakali Mikuláša
                                     
                                                                             
                                            Vodníkovou cestou - fotografie
                                     
                                                                             
                                            Kľukatý chodník...
                                     
                                                                             
                                            Neporovnávajme sa s ľuďmi
                                     
                                                                             
                                            Ktorý vek je najkrajší?
                                     
                                                                             
                                            Nie. Nie si slepica a nežiješ s bohom
                                     
                                                                             
                                            Vianočná atmosféra objektívom - Bratislava
                                     
                                                                             
                                            Pohľad otca na tzv. Umelé prerušenie tehotenstva
                                     
                                                                             
                                            V novom športovom centre v Baku sa tešili víťazstvu i Slováci
                                     
                                                                             
                                            "Menejcenní"
                                     
                                                                             
                                            Rodičovské združenie
                                     
                                                                             
                                            Dobrý zubár
                                     
                                                                             
                                            Vivat, učitelia
                                     
                                                                             
                                            Splynutie dvoch svetov I.
                                     
                                                                             
                                            Veľkí malí ľudia z Hálkovej - portréty
                                     
                                                                             
                                            chata pod Rysmi
                                     
                                                                             
                                            Umenie skryté v šúpolí
                                     
                                                                             
                                            Kam sa hrabe Božie kráľovstvo...?
                                     
                                                                             
                                            Veveričia fotostory
                                     
                                                                             
                                            Hrnček
                                     
                                                                             
                                            Moja mama nás doma zabíja
                                     
                                                                             
                                            Denný režim
                                     
                                                                             
                                            Tribečské pohľady
                                     
                                                                             
                                            Zlatý kúpeľ
                                     
                                                                             
                                            Pes pohodlnejší ako dieťa?
                                     
                                                                             
                                            Len krátka modlitba tam hore...
                                     
                                                                             
                                            O rozchodoch a pohľadniciach
                                     
                                                                             
                                            Kto študuje teológiu, stráca vieru ...
                                     
                                                                             
                                            zarastené i holé, liptovské lesy i jesenné hole
                                     
                                                                             
                                            Farby babieho leta
                                     
                                                                             
                                            Letná stopovačka do strednej Ázie
                                     
                                                                             
                                            rosa a pavučiny
                                     
                                                                             
                                            Sklamala si ma
                                     
                                                                             
                                            Jedno veľké mužské srdce...
                                     
                                                                             
                                            Jeseň v Cigánskej doline
                                     
                                                                             
                                            Otec ma nikdy neudrel
                                     
                                                                             
                                            Záhada héliového balóna
                                     
                                                                             
                                            Dážď v Hanoi
                                     
                                                                             
                                            Na ako dlho do očistca?
                                     
                                                                             
                                            Requiem za tých, čo nemohli prísť
                                     
                                                                             
                                            Katolícka Cirkev mojimi očami
                                     
                                                                             
                                            Ani som ťa nestihol držať na rukách...
                                     
                                                                             
                                            Nezabiješ!!!
                                     
                                                                             
                                            Učme sa teda rozmýšľať a ctiť si Krista, ako si on praje
                                     
                                                                             
                                            Jesenná krajina - časť 1
                                     
                                                                             
                                            Irán – Perzská ríša v novom šate
                                     
                                                                             
                                            Košickí animátori znovu zažili Valdocco
                                     
                                                                             
                                            Tri hôrky pred záverečným finišom
                                     
                                                                             
                                            Saleziáni v azerbajdžanskej televízii
                                     
                                                                             
                                            neznáme slovo mama...
                                     
                                                                             
                                            Luxus do bytu
                                     
                                                                             
                                            Na cestách je sranda I.
                                     
                                                                             
                                            Islandské impresie alebo Prišiel som, videl som, prídem zas
                                     
                                                                             
                                            Môj syn to má zrátané - zomiera
                                     
                                                                             
                                            Mozaika z NP Krka
                                     
                                                                             
                                            Spišský hrad
                                     
                                                                             
                                            Naše najbližšie more - Neusiedlerské jazero
                                     
                                                                             
                                            Zabudnutý drahokam
                                     
                                                                             
                                            Jeseň na poli
                                     
                                                                             
                                            Pavučina...
                                     
                                                                             
                                            Kráľovstvo Mustang, Nepál
                                     
                                                                             
                                            Turín
                                     
                                                                             
                                            Colle don Bosco
                                     
                                                                   
                     Obľúbené knihy 
                    
                     
                                                 
                                            Zničení člověka - C.S.Lewis
                                     
                                                                             
                                            Poustevník - David Torkington
                                     
                                                                             
                                            K jádru křesťanství - C.S.Lewis
                                     
                                                                   
                     Čo práve počúvam 
                    
                     
                                                 
                                            Delirious
                                     
                                                                             
                                            Michael W. Smith
                                     
                                                                   
                     Obľúbené stránky 
                    
                     
                                                 
                                            eQUARK
                                     
                                                                             
                                            Savio
                                     
                                                                             
                                            Proste SALEZIANI
                                     
                                                                             
                                            Friends from Baku
                                     
                                                                             
                                            Saloši KE
                                     
                            
             
         
            

           
     Pošlite odkaz blogerovi 
    
         
            
         

         
         
         
         

         
         
Odosielateľ (e-mail)
 
         
Text
 
         
             
Protispamová ochrana 
 
 Zle. Skúste znova. 
Opíšte slová z obrázku: Načítať iné slová 
 Get an image CAPTCHA 
 
 
         
                 
            
         
    
  


 

     






            
    
        
    
 

        
         
         
             Už ste čítali? 
         
         
 

 kultura.sme.sk 
 Margaréta sa spriahla s diablom, no mala Kristovu pravdu 
 
 

 www.sme.sk 
 Pútnické miesta The Beatles alebo ako ľudia kráčajú po zebre 
 
 

 cestovanie.sme.sk 
 Lovia za svitania a v hmle 
 
 

 www.sme.sk 
 Ako sa valila lavína slobody. Ako padal komunizmus 
 
 

 kultura.sme.sk 
 Žiadne retro, poriadny biznis. Takto sa lisuje platňa 
 
	   
 


        
         
            
         

     

    
     
 
 
	 

		Kontakty
		Predplatné
		Etický kódex
		Pomoc
		Mapa stránky
		
	 
 
 
	 
		 
			Widget
			RSS
			Newsletter
		 
		 
			Mobil
			Smartphone
			Kindle
			Televízor
		 
		 
			Facebook
			Twitter
			Google+
		 
	 
	 
		
	 
	 
		Ďalšie weby skupiny: Prihlásenie do Post.sk
		Új Szó Slovak Spectator
		Agentúrne správy 
		Vydavateľstvo
		Inzercia
		Osobné údaje
		Návštevnosť webu
		Predajnosť tlače
		Petit Academy
		SME v škole 		© Copyright 1997-2014 Petit Press, a.s. 
	 
 
 
 


          
        
            
            

        
    

    
    


    


    
        
        
        
        
        
        
        
            
            
        
        
        
        
         
                                
               





 

 



        

 




