
      
    
    

     
	 
	 
 SME.sk 
 Zľavy 
 Zoznámenie 
 Reality 
 Dovolenky 
 Pizza 
 Reštaurácie 
 Recenzie 
 Inzeráty 
 Naničmama 	 
Nákupy 
		 
 Filmy na DVD 
 Hodinky 
 Parfémy 
 SME knihy a DVD 
 Superhosting 
 Tlačiareň 
 Víno 
 Tvorba webov 
 Predplatné SME 
 ProSenior 		 
	 
	 
 
	 
 


    
    
        
        
         
          
         
    

    
      
         
            
             
     
        
        
     
    Blog.SME.sk
 

    

         
        
                 
     
         
            Sme.sk
         
         
            Domov
         
         
            Regióny
         
         
            Ekonomika
         
         
            Svet
         
         
            Komentáre
         
         
            Kultúra
         
         
            Šport
         
         
            TV
         
         
            Auto
         
         
            Tech
         
         
            Poradňa
         
         
            Žena
         
         
            Bývanie
         
         
            Zdravie
         
         
            Blog
         
     
 

         
            
     
                                                         Politika 
                                                                                     Spoločnosť 
                                                                                     Cestovanie 
                                                                                     Ekonomika 
                                                                                     Fotografie 
                                                                                     Jedlo 
                                                                                     Kultúra 
                                                                                             
Ďalšie
                             
                                                                                         Lifestyle 
                                                                                                                                                                             Médiá 
                                                                                                                                                                             Nezaradené 
                                                                                                                                                                             Súkromné 
                                                                                                                                                                             Šport 
                                                                                                                                                                             Veda a technika 
                                                                                                                                                                             Zábava 
                                                                                                                                                                             Poézia 
                                                                                                                                                                             Próza 
                                                                                                                                                                             Kódex blogera 
                                                                                 
                         
                                                 
            Blogeri
         
     


            

    
    Prihlásiť sa


    
    Založte si blog



    
    Odhlásiť sa


    
    




         

        
        
         
            
         
         
                
     
                 
            SME.sk &gt;
            Blog.SME.sk &gt;
                            Gabo Németh
                                        &gt;
                Súkromné
                     
                 Politický profil Ivety Radičovej 

        
            
                                    29.5.2010
            o
            13:53
                        (upravené
                29.5.2010
                o
                14:42)
                        |
            Karma článku:
                6.95
            |
            Prečítané 
            464-krát
                    
         
     
         
             

                 
                    Politička Iveta Radičová vniesla do slovenskej politiky akýsi nový prvok politickej ľudskosti a férovej politiky, ako takej.
                 

                 Za všetko svedčí jej spôsob boja, v roku 2009, v prezidentskej kampani, v ktorých  síce vyhral Ivan Gašparovič, ale v očiach  mnohých skutočnou  víťazkou sa stala Iveta Radičová. Ako politička presvedčila mnohých, ukázala, že má veľký politický potenciál. Mnohí jej však vyčítali, že v boji o prezidentské kreslo, nebola ostrejšia a svojím spôsobom i ráznejšia. Možno....., by obstála lepšie a výsledky prezidentských volieb, by boli pre samotnú Radičovú prijateľnejšie, možno o krok bližšie  k samotnému víťazstvu.   Otázka znela jasne: Radičová alebo Gašparovič? Ľudia sa rozhodli pre Gašparoviča. Sympatický mi bol názor Ivety Radičovej, ktorá odpovedala na podobné reakcie takto.   - Vždy hrám fair-play. Voľba je na voličoch, ako sa rozhodnú. -   Iveta Radičova sa angažuje ako predvolebná líderka SDKÚ- DS, v parlamentných voľbách tento rok za stranu, ktorej politickým krédom  - Kde je vôľa, tam je cesta. -. A možno premenené na drobné, je lepšia  cesta ako smer. Predvolebná líderka Iveta Radičová SDKÚ-DS, ukázala, že bojovať a pracovať pre voliča, občana sa dá i férovo, v prospech samotného voliča, bez akýchkoľvek bilbordoch, ktoré osočujú, bez zbytočného špinenia a a predvolebného ohovárania len, aby sa tá, či ona politická strana obstála, čo najlepšie v parlamentných voľbách.   Iveta Radičová vniesla do slovenskej politiky nové svetlo, ktoré nám má ukazať cestu za lepšou budúcnosťou a prosperitou slovenského občana. Možno prídu časy,  keď podľa tejto političky, politici  budú pracovať  svedomitejšou cestou pre blaho každého z nás. Bude to oveľa férovejšie ako rôzne politické aféry, ktoré robia hanbu samotnému Slovensku, ktoré sa stalo  pulzujúcim srdcom Európy.         

                 
                                        
                        
                        Zdieľať
                    

                    
                            
                                    
                                    Zdieľať na
                            
                             
                                    
                             
                    

                                                                                                                        
                            
                            Diskusia: (6)
                        
                    
                    
                        
                        Zvýšte karmu
                    
                 
             

                             
            
                     
                         Ďalšie články blogera 
                         
                                                             
                                    
                    	                                                                                        

                                                                        
                                    
                                        Gabo Németh 
                                        
                                            Spomienky a čas
                                        
                                    
                                 
                                                             
                                    
                    	                                                                                        

                                                                        
                                    
                                        Gabo Németh 
                                        
                                            Plač kvetov
                                        
                                    
                                 
                                                             
                                    
                    	                                                                                        

                                                                        
                                    
                                        Gabo Németh 
                                        
                                            Nočná návšteva
                                        
                                    
                                 
                                                             
                                    
                    	                                                                                        

                                                                        
                                    
                                        Gabo Németh 
                                        
                                            Spomienky
                                        
                                    
                                 
                                                             
                                    
                    	                                                                                        

                                                                        
                                    
                                        Gabo Németh 
                                        
                                            Dušičková
                                        
                                    
                                 
                                                     
                        
                            Ďalšie články blogera: Gabo Németh
                        
                     
            
                     
                         Ďalšie články z rubriky politika 
                         
                                                             
                                    
                                                            	                                                                                        

                                                                                                
                                    
                                        Tomáš Hudec 
                                        
                                            Chceme zvýšiť účasť ľudí vo voľbách? Zaveďme eVoľby!
                                        
                                    
                                 
                                                             
                                    
                                                            	                                                                                        

                                                                                                
                                    
                                        Robert Bestro 
                                        
                                            Výmena vedenia parlamentu zjavne prospela
                                        
                                    
                                 
                                                             
                                    
                                                            	                                                                                        

                                                                                                
                                    
                                        Júlia Piraňa Mikolášiková 
                                        
                                            Obvinia ďalšiu novinárku z údajného ohovárania policajného šéfa Ševčíka?
                                        
                                    
                                 
                                                             
                                    
                                                            	                                                                                        

                                                                                                
                                    
                                        Stanislav Martinčko 
                                        
                                            Stužka z kvetinárstva za 16 centov a rozkradnuté milióny!!
                                        
                                    
                                 
                                                             
                                    
                                                            	                                                                                        

                                                                                                
                                    
                                        Veronika Remisova 
                                        
                                            Elektronické mýto podľa Ficovej vlády – prehľadnejšie sa to skrátka nedá
                                        
                                    
                                 
                                                     
                        
                            Ďalšie články z rubriky politika
                        
                     
                 
            
                    
 
     Hlavné správy 
         
        
                                

        
         
            AKTUALIZOVANÉ 20:22
             Slovenky v hlavnej skupine nebodovali, Švédky vyhrali o 9 gólov 
             Naše hádzanárky hrali na ME piaty zápas. V Záhrebe proti Švédkam. 
         
     
         
        
                                

        
         
            AKTUALIZOVANÉ O 20:00
             Rubeľ pocítil pád na dno, Rusko je vo finančnej kríze 
             Dolár včera stál už takmer 80 rubľov, pod hladinu ho tlačia najmä nízke ceny ropy. 
         
     
         
        
                                

        
         
            ZAHRANIČIE
             Taliban zaútočil na citlivé miesto Pakistanu. Na deti 
             Taliban zabil v škole v Pakistane najmenej 141 ľudí, väčšinou deti. 
         
     
     

                 
     
    
     
        
 

     
                
                            
                    



         
            
                Gabo Németh
            
         
        gabonemeth.blog.sme.sk (rss)
         
                                     
     
         profesionálny knihovník, básnik, spisovateľ, od roku 2006 člen Spolku slovenských spisovateľov. Vydal básnické zbierky: Za súmraku, Slnko nad básňou, Rodinný album. Venuje sa duchovnej poézii. Chce byť pokračovateľom katolíckej moderny. 
        
     
     
                     
                             
             

     
        
            
                
                    Počet článkov
                    917
                
                
                    Celková karma
                    
                                                2.75
                    
                
                
                    Priemerná čítanosť
                    335
                
            
        
     

             

             Zoznam rubrík 
            
             
                                     
                        
                            denná čítannosť
                        
                     
                                     
                        
                            -
                        
                     
                                     
                        
                            -
                        
                     
                                     
                        
                            -
                        
                     
                                     
                        
                            -
                        
                     
                                     
                        
                            Súkromné
                        
                     
                                     
                        
                            A300
                        
                     
                             
         
    

                     
                        
                                                            
                     Obľúbené články 
                    
                     
                                                 
                                             
                                     
                                                                             
                                            len a len dobré knihy
                                     
                                                                             
                                             
                                     
                                                                             
                                             
                                     
                                                                             
                                             
                                     
                                                                             
                                             
                                     
                                                                             
                                             
                                     
                                                                             
                                            o politike  vôbec
                                     
                                                                             
                                            o politike  vôbec
                                     
                                                                             
                                             
                                     
                                                                             
                                            denník Sme všetky články
                                     
                                                                             
                                             
                                     
                                                                   
                     Obľúbené knihy 
                    
                     
                                                 
                                            Skôr než zaspím od S.J. Watson
                                     
                                                                   
                     Čo práve počúvam 
                    
                     
                                                 
                                            Queen
                                     
                                                                   
                     Obľúbené stránky 
                    
                     
                                                 
                                            blog spisovateľky Miroslavy Varáčkovej
                                     
                                                                             
                                             
                                     
                                                                             
                                             
                                     
                                                                             
                                            všetky dobré a kvalitné blogy na Sme.sk
                                     
                                                                             
                                            facebook
                                     
                            
             
         
            

             
             Čo ma zaujalo 
            Týmto článkom bloger klikol/klikla na karmu.
             
                                                         
                       Muž z kríža
                     
                                                         
                       Spomienky a čas
                     
                                                         
                       Jesenné dotyky
                     
                                                         
                       Plač kvetov
                     
                                                         
                       Nočná návšteva
                     
                                                         
                       Spomienky
                     
                                                         
                       Na prechádzke
                     
                                                         
                       Dušičková
                     
                                                         
                       Ranný obraz
                     
                                                         
                       Po stopách vlastného príbehu
                     
                             
         
           
     Pošlite odkaz blogerovi 
    
         
            
         

         
         
         
         

         
         
Odosielateľ (e-mail)
 
         
Text
 
         
             
Protispamová ochrana 
 
 Zle. Skúste znova. 
Opíšte slová z obrázku: Načítať iné slová 
 Get an image CAPTCHA 
 
 
         
                 
            
         
    
  


 

     






            
    
        
    
 

        
         
         
             Už ste čítali? 
         
         
 

 kultura.sme.sk 
 Margaréta sa spriahla s diablom, no mala Kristovu pravdu 
 
 

 www.sme.sk 
 Pútnické miesta The Beatles alebo ako ľudia kráčajú po zebre 
 
 

 cestovanie.sme.sk 
 Lovia za svitania a v hmle 
 
 

 www.sme.sk 
 Ako sa valila lavína slobody. Ako padal komunizmus 
 
 

 kultura.sme.sk 
 Žiadne retro, poriadny biznis. Takto sa lisuje platňa 
 
	   
 


        
         
            
         

     

    
     
 
 
	 

		Kontakty
		Predplatné
		Etický kódex
		Pomoc
		Mapa stránky
		
	 
 
 
	 
		 
			Widget
			RSS
			Newsletter
		 
		 
			Mobil
			Smartphone
			Kindle
			Televízor
		 
		 
			Facebook
			Twitter
			Google+
		 
	 
	 
		
	 
	 
		Ďalšie weby skupiny: Prihlásenie do Post.sk
		Új Szó Slovak Spectator
		Agentúrne správy 
		Vydavateľstvo
		Inzercia
		Osobné údaje
		Návštevnosť webu
		Predajnosť tlače
		Petit Academy
		SME v škole 		© Copyright 1997-2014 Petit Press, a.s. 
	 
 
 
 


          
        
            
            

        
    

    
    


    


    
        
        
        
        
        
        
        
            
            
        
        
        
        
         
                                
               





 

 



        

 




