
      
    
    

     
	 
	 
 SME.sk 
 Zľavy 
 Zoznámenie 
 Reality 
 Dovolenky 
 Pizza 
 Reštaurácie 
 Recenzie 
 Inzeráty 
 Naničmama 	 
Nákupy 
		 
 Filmy na DVD 
 Hodinky 
 Parfémy 
 SME knihy a DVD 
 Superhosting 
 Tlačiareň 
 Víno 
 Tvorba webov 
 Predplatné SME 
 ProSenior 		 
	 
	 
 
	 
 


    
    
        
        
         
          
         
    

    
      
         
            
             
     
        
        
     
    Blog.SME.sk
 

    

         
        
                 
     
         
            Sme.sk
         
         
            Domov
         
         
            Regióny
         
         
            Ekonomika
         
         
            Svet
         
         
            Komentáre
         
         
            Kultúra
         
         
            Šport
         
         
            TV
         
         
            Auto
         
         
            Tech
         
         
            Poradňa
         
         
            Žena
         
         
            Bývanie
         
         
            Zdravie
         
         
            Blog
         
     
 

         
            
     
                                                         Politika 
                                                                                     Spoločnosť 
                                                                                     Cestovanie 
                                                                                     Ekonomika 
                                                                                     Fotografie 
                                                                                     Jedlo 
                                                                                     Kultúra 
                                                                                             
Ďalšie
                             
                                                                                         Lifestyle 
                                                                                                                                                                             Médiá 
                                                                                                                                                                             Nezaradené 
                                                                                                                                                                             Súkromné 
                                                                                                                                                                             Šport 
                                                                                                                                                                             Veda a technika 
                                                                                                                                                                             Zábava 
                                                                                                                                                                             Poézia 
                                                                                                                                                                             Próza 
                                                                                                                                                                             Kódex blogera 
                                                                                 
                         
                                                 
            Blogeri
         
     


            

    
    Prihlásiť sa


    
    Založte si blog



    
    Odhlásiť sa


    
    




         

        
        
         
            
         
         
                
     
                 
            SME.sk &gt;
            Blog.SME.sk &gt;
                            Kristina Neuszerova
                                        &gt;
                Nezaradené
                     
                 veci muzsko-zenske 

        
            
                                    23.7.2008
            o
            11:00
                        |
            Karma článku:
                4.53
            |
            Prečítané 
            1272-krát
                    
         
     
         
             

                 
                    Nedavno sa mi dostal do pozornosti clanok, ze XY veci, ktore musia chlapi vediet o zenach. Celkom ma tento clanok pobavil, ale chcem sa spytat jednu vec. PRECO??? Preco sa toto vsetko muselo dostat na muzsku verejnost? Na co je muzom vediet vsetky tieto veci? (myslim tie, ktore su aspon scasti pravdive)
                 

                    Neda mi nereagovat..      tak za prve:   Na prvom rande si žena nikdy neobjedná to, na čo má naozaj chuť. Dá si   malý Caesar šalát bez pečiva, ale bude omdlievať od závisti nad vaším medium   stejkom s hranolčekmi. - chlapi si bezne na prvom rande daju pivo a nieco s klobasou? A okrem toho, objedname si to, na co mame chut z jedalneho listka... verte tomu....      za druhe:   Ak vám partnerka hovorí o problémoch v práci, s rodičmi, s kamoškou, s   čímkoľvek, väčšinou nečaká, že jej poradíte riešenie. Celkom stačí, keď ju   vypočujete. Úľava? - ako kedy. mimochodom, ked sa muzi stazuju, cakaju radu? Prd makovy. Len sa chcu postazovat      za tretie:   Keď odbehnete v podniku na toaletu obaja naraz, na sto percent tam bude   trikrát dlhšie ako vy. Máte päť minút k dobru na veselý flirt s čašníčkou - na zachodoch nebyva papier, po pouziti toalety si treba umyt ruky, vysusit, pripadne vysmrkat si nos.. Nemozeme za to, ze muzi na zachode len vykonaju svoju potrebu... Cim, pochopitelne, sa z toalety dostanu von skor      za stvrte:   Na záchodovú dosku si naozaj sadne len doma alebo v päťhviezdičkovom   hoteli. Všade inde levituje v zjazdárskom postoji. - na zaklade anatomie zene nestaci sa len postavit k zachodovej misi. Jaj a uz ste niekedy mali kvasinky alebo nieco podobne z nicoho nic? Nie? A ked idete "na velku", vy si sadate? na hociake wc?      za piate:   Dve z troch žien si pravidelne farbia vlasy. Často takmer identickou   farbou, akú majú od prírody. - fakt? nevsimla som si      za sieste:   Ak sa dá zrazu bez varovania ostrihať nakrátko, máte to u nej zrátané - nerozumiem...      za siedme:   Každá žena nabetón zmení účes a nakúpi si kopu nových handier, hneď ako   sa rozídete - smejem sa      za osme:   Ak má fakt podozrenie, že ju podvádzate, je schopná vás špehovať,   vyzvedať sa, liezť vám do pošty. Tie strelenejšie vás budú sledovať v   prezlečení, tie bohatšie na vás možno pošlú súkromné očko - nemali by ste pozerat tolko filmov...      za deviate:   Ak si chcete byť istý, že večer bude sex, len tak mimochodom jej   porozprávajte, ako s vami dnes flirtovala nejaká atraktívna kozatá cica z   ofisu. U 68 % to zaberá - myslite?? :-D      za desiate:   To, že máte veľký penis, neznamená, že sa môžete vykašľať na predohru - zeny, uprimne, ktora z nas naozaj tuzi po velkom penise?      za jedenaste:   Keď si vyrazíte niekam bez nej, zavolajte okolo desiatej (skôr než začne   byť ona nervózna a vy opitý) a zaklamte, že vám chýba. Ona zaspí ako batoľa   a vy to môžete pokojne roztočiť. Keď sa nadránom priplazíte domov, nikto vás   nebude čakať s výrazom pitbula a s rukami v bok - opat, zeny: ktora z nas ocakava, ze sa jej drahy ozve, ked je s kamosmi na pive?      za dvanaste:   Každá tvrdí, že ju najviac potešia malé romantické drobnosti. Každú   naozaj poteší šperk alebo kožuch. - ked je kazda zena Mojsejova a pod, tak ano. Ale kolko je na svete Mojsejovych?      za trinaste:   Priemerne dve jej najlepšie kamarátky vedia o vás všetko. Aj to, akú   polohu máte najradšej, či bol jej orgazmus včera pravý a či vám smrdia nohy. - vasi kamosi take veci nevedia? vedia.      za strnaste:   Mokrá podlaha v kúpeľni, vlhký uterák na zemi, chlpy vo vani a záchodová   doska hore vytočia každú jednu do nepríčetnosti. - hygiena, muzi, hygiena... To je vam taka normalna vec... Mimochodom, zdvihnuta doska zatial ziadnu zenu v mojom okoli nevytocila.      za patnaste:   Vždy chce veriť, že to, čo hovoríte, je pravda - nuz, v podstate, kto ma rad klamstva, oblbovaky a kaleraby? Nikto, ani vy, muzi...      za sestnaste   Vždy keď klamete, príde na to - ano.Vždy keď pred ňou niečo tajíte, prevalí sa to - ano      za sedemnaste:   Väčšina žien potrebuje k životu latentné napätie. Z času na čas sa   prosto potrebuje ofučať, vyštekať alebo vykričať a vy nikdy nebudete vedieť,   kedy si nabehnete rovno na vidly. Bude vás buzerovať za niečo, čím ste ju   naštvali pred sto rokmi, za to, čo ste urobili, za to, čo ste neurobili, za   to, čo sa chystáte urobiť, aj za to, o čom si myslí, že sa chystáte urobiť. - to iste robite aj vy....      za osemnaste:   Nech sa pohádate akokoľvek a pre čokoľvek, vždy bude od vás čakať, že VY   sa ospravedlníte - strasne sa smejem... (nechodi autor s 15 rocnou slecnou?)      za devatnaste:   Najjednoduchší spôsob, ako mať svätý pokoj, je dať jej vždy zapravdu. - popravde, dost nas to vytaca. Je velmi lahko prekuknutelne, ked nam date za pravdu len preto, ze vas nebavi nas pocuvat. Tak si trhnite...      za dvadsiate:   Mali by ste zvládať valčík i latino a vedieť ju viesť. Ženy sú   presvedčené, že dobrý tanečník je aj dobrý milenec. - nie su      za dvadsiateprve:   Nepodceňujte bozkávanie. Je pre ne mimoriadne dôležité. Pomaly a nežne,   drsne a vášnivo... sledujte atmosféru a reč jej tela - spravne      legenda na zaver:   -ked sa vam zda, ze cely svoj volny cas travime s vami, je to omyl. My si len vieme veci zariadit tak, aby sme stihali toho za den viac.   -aj my mame narok byt za cely den unavene a mat vsetkeho plne zuby. Od nas sa vsak na rozdiel od vas ocakava vyborny vykon v posteli, pripadne obriadenie domacnosti. Ak sa tak nestane, vytiahnete na nas nieco na sposob: a ty si stale.. A ty si vzdy... Zakazdym, ked... Ked ste unaveni vy, mame len ticho sediet a respektovat...      Otazka na zaver:   to naco potrebuju muzi pisat o zenskom svete? a o vsetkych takychto veciach? sa nudia?             

                 
                                        
                        
                        Zdieľať
                    

                    
                            
                                    
                                    Zdieľať na
                            
                             
                                    
                             
                    

                                                                                                                        
                            
                            Diskusia: (8)
                        
                    
                    
                        
                        Zvýšte karmu
                    
                 
             

                             
            
                     
                         Ďalšie články blogera 
                         
                                                             
                                    
                    	                                                                                        

                                                                        
                                    
                                        Kristina Neuszerova 
                                        
                                            Hľadám anjela
                                        
                                    
                                 
                                                             
                                    
                    	                                                                                        

                                                                        
                                    
                                        Kristina Neuszerova 
                                        
                                            Od dnes mám vo svojich dokladoch novú kartu...
                                        
                                    
                                 
                                                             
                                    
                    	                                                                                        

                                                                        
                                    
                                        Kristina Neuszerova 
                                        
                                            Svet nie je pre chodcov...
                                        
                                    
                                 
                                                             
                                    
                    	                                                                                        

                                                                        
                                    
                                        Kristina Neuszerova 
                                        
                                            Prečo strácame ľudí?
                                        
                                    
                                 
                                                             
                                    
                    	                                                                                        

                                                                        
                                    
                                        Kristina Neuszerova 
                                        
                                            Obyčajná kocka a ja ju neviem poskladať...
                                        
                                    
                                 
                                                     
                        
                            Ďalšie články blogera: Kristina Neuszerova
                        
                     
            
                     
                         Ďalšie články z rubriky nezaradené 
                         
                                                             
                                    
                                                            	                                                                                        

                                                                                                
                                    
                                        Veronika Mráziková 
                                        
                                            Ako tri Slovenky z UKF precestovali Ameriku
                                        
                                    
                                 
                                                             
                                    
                                                            	                                                                                        

                                                                                                
                                    
                                        Martin Pinter 
                                        
                                            Aké sú výhody exkluzívnej zmluvy pri predaji vašej nehnuteľnosti?
                                        
                                    
                                 
                                                             
                                    
                                                            	                                                                                        

                                                                                                
                                    
                                        Ján Spišiak 
                                        
                                            Sprayeri dejín.
                                        
                                    
                                 
                                                             
                                    
                                                            	                                                                                        

                                                                                                
                                    
                                        Pavel Ondrejmiška 
                                        
                                            Dnes farnosť Žitavany, pred tisíc rokmi kráľovská fara v Kňažiciach
                                        
                                    
                                 
                                                             
                                    
                                                            	                                                                                        

                                                                                                
                                    
                                        Milan Removčík 
                                        
                                            Zimný Šíp.
                                        
                                    
                                 
                                                     
                        
                            Ďalšie články z rubriky nezaradené
                        
                     
                 
            
                    
 
     Hlavné správy 
         
        
                                

        
         
            KOMENTÁR PETRA SCHUTZA
             Len korupčné škandály preferencie Smeru nepotopia 
             Ak chce opozícia vo voľbách zvrhnúť Smer, bez rozšírenia repertoáru si neporadí. 
         
     
         
        
                                

        
         
            AKTUALIZOVANÉ O 21:30
             Rubeľ pocítil pád na dno, Rusko je vo finančnej kríze 
             Dolár v utorok stál už takmer 80 rubľov, pod hladinu ho tlačia najmä nízke ceny ropy. 
         
     
         
        
                                

        
         
            AKTUALIZOVANÉ 23:50
             Taliban zabil v škole v Pakistane 132 detí 
             Pakistan až teraz poriadne zatlačil na islamistov. Odplatou je útok na deti vojakov. 
         
     
     

                 
     
    
     
        
 

     
                
                            
                    



         
            
                Kristina Neuszerova
            
         
        neuszerova.blog.sme.sk (rss)
         
                                     
     
        Som Kristina. Tesi ma. Mozte mi kludne tykat.
        
     
     
                     
                             
             

     
        
            
                
                    Počet článkov
                    21
                
                
                    Celková karma
                    
                                                0.00
                    
                
                
                    Priemerná čítanosť
                    857
                
            
        
     

             

             Zoznam rubrík 
            
             
                                     
                        
                            Súkromné
                        
                     
                                     
                        
                            Nezaradené
                        
                     
                             
         
    

    

           
     Pošlite odkaz blogerovi 
    
         
            
         

         
         
         
         

         
         
Odosielateľ (e-mail)
 
         
Text
 
         
             
Protispamová ochrana 
 
 Zle. Skúste znova. 
Opíšte slová z obrázku: Načítať iné slová 
 Get an image CAPTCHA 
 
 
         
                 
            
         
    
  


 

     






            
    
        
    
 

        
         
         
             Už ste čítali? 
         
         
 

 kultura.sme.sk 
 Margaréta sa spriahla s diablom, no mala Kristovu pravdu 
 
 

 www.sme.sk 
 Pútnické miesta The Beatles alebo ako ľudia kráčajú po zebre 
 
 

 cestovanie.sme.sk 
 Lovia za svitania a v hmle 
 
 

 www.sme.sk 
 Ako sa valila lavína slobody. Ako padal komunizmus 
 
 

 kultura.sme.sk 
 Žiadne retro, poriadny biznis. Takto sa lisuje platňa 
 
	   
 


        
         
            
         

     

    
     
 
 
	 

		Kontakty
		Predplatné
		Etický kódex
		Pomoc
		Mapa stránky
		
	 
 
 
	 
		 
			Widget
			RSS
			Newsletter
		 
		 
			Mobil
			Smartphone
			Kindle
			Televízor
		 
		 
			Facebook
			Twitter
			Google+
		 
	 
	 
		
	 
	 
		Ďalšie weby skupiny: Prihlásenie do Post.sk
		Új Szó Slovak Spectator
		Agentúrne správy 
		Vydavateľstvo
		Inzercia
		Osobné údaje
		Návštevnosť webu
		Predajnosť tlače
		Petit Academy
		SME v škole 		© Copyright 1997-2014 Petit Press, a.s. 
	 
 
 
 


          
        
            
            

        
    

    
    


    


    
        
        
        
        
        
        
        
            
            
        
        
        
        
         
                                
               





 

 



        

 




