
      
    
    

     
	 
	 
 SME.sk 
 Zľavy 
 Zoznámenie 
 Reality 
 Dovolenky 
 Pizza 
 Reštaurácie 
 Recenzie 
 Inzeráty 
 Naničmama 	 
Nákupy 
		 
 Filmy na DVD 
 Hodinky 
 Parfémy 
 SME knihy a DVD 
 Superhosting 
 Tlačiareň 
 Víno 
 Tvorba webov 
 Predplatné SME 
 ProSenior 		 
	 
	 
 
	 
 


    
    
        
        
         
          
         
    

    
      
         
            
             
     
        
        
     
    Blog.SME.sk
 

    

         
        
                 
     
         
            Sme.sk
         
         
            Domov
         
         
            Regióny
         
         
            Ekonomika
         
         
            Svet
         
         
            Komentáre
         
         
            Kultúra
         
         
            Šport
         
         
            TV
         
         
            Auto
         
         
            Tech
         
         
            Poradňa
         
         
            Žena
         
         
            Bývanie
         
         
            Zdravie
         
         
            Blog
         
     
 

         
            
     
                                                         Politika 
                                                                                     Spoločnosť 
                                                                                     Cestovanie 
                                                                                     Ekonomika 
                                                                                     Fotografie 
                                                                                     Jedlo 
                                                                                     Kultúra 
                                                                                             
Ďalšie
                             
                                                                                         Lifestyle 
                                                                                                                                                                             Médiá 
                                                                                                                                                                             Nezaradené 
                                                                                                                                                                             Súkromné 
                                                                                                                                                                             Šport 
                                                                                                                                                                             Veda a technika 
                                                                                                                                                                             Zábava 
                                                                                                                                                                             Poézia 
                                                                                                                                                                             Próza 
                                                                                                                                                                             Kódex blogera 
                                                                                 
                         
                                                 
            Blogeri
         
     


            

    
    Prihlásiť sa


    
    Založte si blog



    
    Odhlásiť sa


    
    




         

        
        
         
            
         
         
                
     
                 
            SME.sk &gt;
            Blog.SME.sk &gt;
                            Eduard Kladiva
                                        &gt;
                Mikrokozmos
                     
                 Čo sa deje v najväčšom urýchľovači sveta LHC? 

        
            
                                    20.9.2008
            o
            19:30
                        |
            Karma článku:
                14.68
            |
            Prečítané 
            18336-krát
                    
         
     
         
             

                 
                     
  Kto si myslí, že vedecká práca je pokojné hĺbanie nad problémami ľudstva, alebo nerušené vysedávanie nad vedeckými prístrojmi v tichom šere laboratória, hlboko sa mýli. Ozajstná vedecká práca je neustály boj s problémami, hľadanie chýb a ich odstraňovanie, nekonečné ladenie a vylepšovanie aparatúry, zdokonaľovanie algoritmov, vyhodnocovanie priebežných aj výsledných nepresností a kdesi na konci úsilia formulovanie výslednej správy v optimistickom tóne. Aj na urýchľovači LHC začal bežný vedecký život. K nemu patria poruchy, havárie, opravy.  
                

                  Minulú stredu, 10. septembra 2008, bol v medzinárodnom výskumnom stredisku CERN pri Ženeve oficiálne uvedený do prevádzky najväčší urýchľovač sveta nazývaný LHC (Large Hadron Collider, do slovenčiny prekladaný najčastejšie ako Veľký hadrónový zrážač). Udalosť  zaznamenali všetky význačné svetové aj slovenské média a vyvolali silnú vlnu záujmu o subjadrový fyzikálny výskum predovšetkým vďaka fantastickej hypotéze vzniku čiernej diery počas prevádzky urýchľovača, ktorá by  údajne mala pohltiť nielen vedcov aj s urýchľovačom, ale celú Zem a snáď aj celý vesmír.       Uvedenie do stabilnej prevádzky tak zložitého zariadenia, ako je urýchľovač LHC, nemôže byť záležitosť jedného dňa, ale desiatok mesiacov. Minulý týždeň iba vyvrcholilo úsilie medzinárodného kolektívu vedcov, inžinierov a technikov v jednej z etáp montáže a otestovania kryogénnych magnetov. Ide o tzv. dipólové magnety, ktoré majú udržiavať zväzok častíc na kruhovej dráhe dlhej skoro 27 km s presnosťou na mikrometre (na hrúbku ľudského vlasu).       Kritickým v tejto fáze bolo predovšetkým zosynchronizovanie poldruha tisícky magnetov s predstupňom LHC – urýchľovačom SPS, ktorý vstrekuje protóny s energiou 450 GeV do trubíc LHC. Po úspešných testoch v auguste 2008 bolo možné pristúpiť k naladeniu a vedeniu zväzku celým okruhom urýchľovača. Najskôr jedným smerom, potom opačným. V tejto fáze ešte neboli častice v trubici LHC urýchľované na vyššie energie a ani oba zväzky protónov neboli vedené v trubiciach urýchľovača proti sebe súčasne. Nemohlo teda dôjsť k intenzívnym zrážkam protónov. Detektorové komplexy rozmiestnené po obvode urýchľovača ale predsa len zaregistrovali prvé prípady zrážok protónov s atómmi, ktoré ostali vo vákuu urýchľovacej trubice.      V stredu 10. septembra bol verejnosti prostredníctvom akreditovaných novinárov demonštrovaný dosiahnutý úspech -  vedenie protónov po presnej dráhe celým okruhom urýchľovača najskôr v jednom smere a potom v opačnom. Na druhý deň, keď novinári odišli, cirkuloval zväzok v okruhu celú polhodinu. Zatiaľ čo svet čítal správy o štarte urýchľovača, chlapci z urýchľovacieho komplexu vedcom ukázali najdôležitejší výsledok tejto etapy - že vedia zväzok stabilne udržať v trubici.         Inžinieri kontrolujú elektornické obvody supravodivého magnetu urýchľovača LHC (foto CERN)         Na urýchľovač sa vrátil bežný život. Krátko po úspešnom predvedení urýchľovača došlo k vážnejšej poruche napájacieho systému. Nevydržal tridsaťtonový transformátor s výkonom 12 MW a 11. septembra v noci prestal dodávať elektrickú energiu kompresorom systému chladenia magnetov. Teplota magnetov stúpla z prevádzkovej teploty 1,9 K (-271,3 °C) na 4,5 K, čo je nedostatočné pre ich normálnu činnosť.       Nový urýchľovač LHC čiastočne využíva starú infraštruktúru svojho predchodcu v podzemnom tuneli, urýchľovača LEP, ktorý urýchľoval na vysoké energie ľahšie elektróny. Podobné  poruchy starších zariadení sa očakávali. Technici vymenili starý transformátor za nový a 18. septembra pripravili urýchľovač k nasledujúcej etape testovania - súčasnému vedeniu dvoch zväzkov protónov proti sebe a k ich zrážkam v miestach križovania sa zväzkov – v miestach detektorových komplexov ATLAS, CMS, ALICE a LHCb.       Počas prípravy posledného sektora magnetov ale došlo k prvej serióznej havárii v tunelu urýchľovača. Pravdepodobne v dôsledku  prerušenia elektrického spojenia medzi magnetmi jeden zo supravodivých magnetov v sektore 34 prešiel včera v 11:27 doobeda do tzv. quench režimu. Ide o stav, kedy cievka magnetu nekontrolovane prejde zo supravodivého  stavu do  stavu normálneho odporu cievky. Zapracujú ochranné systémy a obrovská energia (rádovo stovky megajoulov), ktorá normálne cirkuluje v supravodivej cievke bez strát, sa na ochrannom odpore premení na teplo. Teplo spôsobí prudké odparenie kvapalného hélia z magnetu do zádržných nádrží ale pokiaľ je prechod veľmi prudký, hélium unikne aj cez poistné ventily do tunelu. To stalo práve včera. Pri prevádzke urýchľovača platia prísne bezpečnostné pravidlá, prístup ľudí do tunelu je viacnásobne blokovaný, nikto zo zamestnancov preto nebol v ohrození zdravia alebo života.         Jednotka hasičov na ceste k miestu havárie počas cvičnej akcie (foto CERN)        Podobná udalosť na supravodivom magnetu nie je výnimočná, aj keď nie celkom bežná. Pokiaľ pri nej nedôjde k mechanickému poškodeniu častí magnetu, jeho kryogénneho systému alebo vakuového systému urýchľovacej trubice, potom nahradenie uniknutého hélia a opätovné ochladenie magnetov na prevádzkovú teplotu zaberie iba 1-3 týždne.       V sektore 34 urýchľovača LHC sa poškodili časti magnetov a bude potrebné ich zameniť. Presný rozsah poškodenia ešte nie je známy, na mieste havárie pracuje tím odborníkov. Je potrebné celý sektor magnetov (jednu osminu okruhu urýchľovača) ohriať na bežnú teplotu, urobiť potrebné opravy a celý sektor opäť ochladiť na prevádzkovú teplotu 1,9 K. Ohrievanie aj ochladzovanie magnetov je zložitá procedúra, celá odstávka sektoru zrejme potrvá dva mesiace.         Pohľad do riadiacej miestnosti detektora ATLAS (foto E. Kladiva)        Na zrážky častíc, ktoré vedci dúfali zaregistrovať v detektorových komplexoch už tento víkend, si preto budú musieť ešte počkať. Samotné detektory sú pripravené k registrácii zrážok už niekoľko mesiacov. Nestoja ale bez úžitku, naopak, fyzici na nich intenzívne pracujú v osemhodinových smenách vo dne v noci. Na smenách detektorov ATLAS a ALICE sa zúčastňujú aj slovenskí fyzici z Fakulty matematiky, fyziky a informatiky UK Bratislava, z Ústavu experimentálnej fyziky SAV Košice a z Prírodovedeckej fakulty UPJŠ Košice. Detektory priebežne registrujú častice kozmického žiarenia alebo testujú svoje rôzne vnútorné systémy, namerané údaje sa priebežne spracovávajú. Na základe získaných dát môžu fyzici svoje aparatúry presnejšie naladiť a pripraviť pre prvé ozajstné zrážky častíc.         Neočakávanú prestávku v práci urýchľovača zrejme detektorové tímy využijú tiež na opravenie tých častí vlastnej aparatúry uloženej v podzemí, ku ktorej počas práce urýchľovača nie je prístup. Pôvodne tieto podzemné opravy boli naplánované na zimnú niekoľkomesačnú prestávku urýchľovača, ale teraz bude  nutné plány operatívne zmeniť. Zatiaľ nie je známe, či urýchľovač bude po oprave poškodeného sektora uvedený do prevádzky ešte pred zimnou odstávkou a či uvidíme prvé zrážky protibežných protónov v LHC ešte tento rok. Čaká sa na rozhodnutie vedenia CERN.      Aktualizácia z 23.9.2008    Podľa oficiálneho oznámenia Roberta Aymara, riaditeľa CERN, sa zatiaľ potvrdzuje pôvodná hypotéza vzniku havárie v sektoru 34 urýchľovača LHC – zlyhanie elektrického prepojenia medzi dvoma magnetmi, ktoré vyvolalo rozsiahly quenching, únik hélia a poškodenie niektorých častí urýchľovača. Pre výmenu poškodených častí a detailné preskúmanie príčin havárie je nutné celý sektor ohriať na izbovú teplotu. Ohrievanie už začalo a potrvá asi 3 týždne.   Vedenie CERN rozhodlo dôkladne vyšetriť príčiny havárie, preto urýchľovač LHC nebude uvedený do prevádzky  pred plánovanou zimnou odstávkou, ale až začiatkom jari 2009. Výskumné tímy v CERN už začali pripravovať údržbu podzemných častí svojich detektorov, pôvodne plánovanú na zimu. Naďalej pokračuje testovanie a kalibrácia detektorov s využitím kozmického žiarenia až kým nezačnú práce v podzemí. Spracovanie nameraných údajov bude pochopiteľne na programe celú zimu.         Publikované v rámci projektu LPP-0181-07 Agentúry na podporu výskumu a vývoja SR 

                 
                                        
                        
                        Zdieľať
                    

                    
                            
                                    
                                    Zdieľať na
                            
                             
                                    
                             
                    

                                                                                                                        
                            
                            Diskusia: (257)
                        
                    
                    
                        
                        Zvýšte karmu
                    
                 
             

                             
            
                     
                         Ďalšie články blogera 
                         
                                                             
                                    
                    	                                                                                        

                                                                        
                                    
                                        Eduard Kladiva 
                                        
                                            Slovenský prezident v špičkovom výskumnom centre
                                        
                                    
                                 
                                                             
                                    
                    	                                                                                        

                                                                        
                                    
                                        Eduard Kladiva 
                                        
                                            Objavili v CERNe Higgsov bozón alebo neobjavili?
                                        
                                    
                                 
                                                             
                                    
                    	                                                                                        

                                                                        
                                    
                                        Eduard Kladiva 
                                        
                                            Zopár výročí na 1. decembra 2011
                                        
                                    
                                 
                                                             
                                    
                    	                                                                                        

                                                                        
                                    
                                        Eduard Kladiva 
                                        
                                            Pred polstoročím sme videli koniec sveta
                                        
                                    
                                 
                                                             
                                    
                    	                                                                                        

                                                                        
                                    
                                        Eduard Kladiva 
                                        
                                            Fridtjof Nansen – univerzálna osobnosť
                                        
                                    
                                 
                                                     
                        
                            Ďalšie články blogera: Eduard Kladiva
                        
                     
            
                     
                         Ďalšie články z rubriky veda a technika 
                         
                                                             
                                    
                                                            	                                                                                        

                                                                                                
                                    
                                        Mária Džunková 
                                        
                                            Prečo vôbec nevadí, ak nemáte DNA sekvenátor
                                        
                                    
                                 
                                                             
                                    
                                                            	                                                                                        

                                                                                                
                                    
                                        Jana K. Jones 
                                        
                                            Filozofia vedy - Čo, podľa Poppera, veda dokazuje?
                                        
                                    
                                 
                                                             
                                    
                                                            	                                                                                        

                                                                                                
                                    
                                        MUDr. Peter Žiak, PhD. 
                                        
                                            Prečo si niekedy nevšimneme červenú?
                                        
                                    
                                 
                                                             
                                    
                                                            	                                                                                        

                                                                                                
                                    
                                        Jana K. Jones 
                                        
                                            Filozofia vedy - kritérium falzifikovateľnosti podľa Karla Poppera
                                        
                                    
                                 
                                                             
                                    
                                                                                                                    

                                                                                                
                                    
                                        Miroslav Lisinovič 
                                        
                                            Tatra 87
                                        
                                    
                                 
                                                     
                        
                            Ďalšie články z rubriky veda a technika
                        
                     
                 
            
                    
 
     Hlavné správy 
         
        
                                

        
         
            AKTUALIZOVANÉ 16:00
             Rubeľ kolabuje, ruská vláda má mimoriadne rokovať 
             Jeden dolár stál v utorok poobede už viac ako 78 rubľov, razantné zvýšenie úrokov nepomohlo. 
         
     
         
        
                                

        
         
            ZAHRANIČIE
             Taliban zabil v škole v Pakistane vyše sto ľudí, väčšinou deti 
             Militanti vtrhli do vojenskej školy v policajných rovnošatách. 
         
     
         
        
                                

        
         
            KOMENTARE.SME.SK
             Cynická obluda: Medzičasom na opustenom ostrove 
             Stroskotanci majú veľké šťastie, že sú dvaja. Lacné vtipy na úrovni ich autora. 
         
     
     

                 
     
    
     
        
 

     
                
                            
                    



         
            
                Eduard Kladiva
            
         
        kladiva.blog.sme.sk (rss)
         
                        VIP
                             
     
        robotník vo vede, dobrodruh na dôchodku, insitný fotograf, papučový jaskyniar, teoretický romantik.
 
 
 Jednou vetou na Twitteri 
 
 
 


        
     
     
                     
                                                        
                        
                    
                                                        
                        
                    
                                                        
                        
                    
                             
             

     
        
            
                
                    Počet článkov
                    52
                
                
                    Celková karma
                    
                                                0.00
                    
                
                
                    Priemerná čítanosť
                    3878
                
            
        
     

             

             Zoznam rubrík 
            
             
                                     
                        
                            Mikrokozmos
                        
                     
                                     
                        
                            LHC a CERN
                        
                     
                                     
                        
                            Udalosti vo vede
                        
                     
                                     
                        
                            Svet vzdelávania
                        
                     
                                     
                        
                            Podzemný svet
                        
                     
                                     
                        
                            Košické zaujímavosti
                        
                     
                                     
                        
                            Dotyky s umením
                        
                     
                                     
                        
                            Výlety do minulosti
                        
                     
                                     
                        
                            Svet úvah
                        
                     
                                     
                        
                            Súkromné
                        
                     
                                     
                        
                            Nezaradené
                        
                     
                             
         
    

                     
                        
                                                            
                     Obľúbené články 
                    
                     
                                                 
                                            Superpočítač předpovídá „kosmické počasí“
                                     
                                                                             
                                            Vedecké umenie - umelecká veda
                                     
                                                                             
                                            Jaderná energetika v roce 2011
                                     
                                                                             
                                            Termojaderná fúze má patřit k prioritám vědeckého výzkumu
                                     
                                                                             
                                            3D tvary skládané světlem
                                     
                                                                             
                                            Slovenská veda môže prísť o stovky miliónov eu
                                     
                                                                             
                                            Poslední minuty Tevatronu
                                     
                                                                             
                                            Noc výskumníkov v Košiciach
                                     
                                                                             
                                            Pocta košickému vedcovi- keramikovi
                                     
                                                                             
                                            Je temná hmota pouhou iluzí z kvantového vakua?
                                     
                                                                             
                                            Krteček a temná hmota
                                     
                                                                             
                                            Erwin Schrödinger
                                     
                                                                             
                                            99,97% koncentrát temné hmoty
                                     
                                                                             
                                            Další přímý důkaz existence temné hmoty
                                     
                                                                             
                                            Jak polapit pozitronium
                                     
                                                                             
                                            EDU | One, nový informační systém pro VŠ zdarma
                                     
                                                                             
                                            Jaderná elektrárna Dukovany prošla bezpečnostní prověrkou
                                     
                                                                             
                                            WiggleZ podpořil koncept temné energie
                                     
                                                                             
                                            Schváleno: V Brně bude evropské vědecké centrum CEITEC
                                     
                                                                             
                                            Nové nejtěžší prvky v periodické tabulce
                                     
                                                                             
                                            Američané se Fukušimy nebojí, jaderná energie v USA jede dál
                                     
                                                                             
                                            Varování všem popularizátorům vědy
                                     
                                                                             
                                            Velká veda - Česko, Maďarsko, Rumunsko
                                     
                                                                             
                                            Německé odstoupení od jádra už je jasné
                                     
                                                                             
                                            Nečekaný zvrat. Kvůli EU jsou ohroženy Temelín a Dukovany
                                     
                                                                             
                                            Za klimatickými změnami může být pohyb Slunce
                                     
                                                                             
                                            Nový rekord v rychlosti přenesených dat
                                     
                                                                             
                                            Prírodná ochrana pred rádioaktivitou
                                     
                                                                             
                                            Kozmické žiarenie pomáha tvoriť oblaky
                                     
                                                                             
                                            Kam s tím krtkem?
                                     
                                                                             
                                            Čeští učitelé opět v laboratoři CERN
                                     
                                                                             
                                            Soutěž o nejzajímavější fotografii lednového zatmění Slunce 2011
                                     
                                                                             
                                            Z Hawkingovy Stručné historie času bude opera
                                     
                                                                             
                                            Pavol Kočiš: Zanikne aj Dobšinská ľadová jaskyňa
                                     
                                                                             
                                            95. vyročie obecnej teórie relativity
                                     
                                                                             
                                            Ig Nobelovy ceny 2010
                                     
                                                                             
                                            Budeme opravdu přepisovat učebnice?
                                     
                                                                             
                                            Učená spoločnosť SAV k situácii s rozpočtom Akadémie
                                     
                                                                             
                                            Přesný pohled do nitra molekul
                                     
                                                                             
                                            Ve věku 71 let zemřel Jiří Niederle
                                     
                                                                             
                                            Atóm prichádza opäť do módy
                                     
                                                                             
                                            Lovci kosmického záření (z Fyzikálu v Praze)
                                     
                                                                             
                                            Jaromír Pastorek: Do vedy na Slovensku treba investovať
                                     
                                                                             
                                            Globální renesance jaderné energie na obzoru
                                     
                                                                             
                                            Článok o podvodoch vo vede
                                     
                                                                             
                                            Verím, že nie sme vo vesmíre sami
                                     
                                                                             
                                            Cesta k vědě
                                     
                                                                             
                                            Chceme nájsť niečo, o čom nič nevieme
                                     
                                                                             
                                            Zdroj synchrotrónového žiarenia postavia v Poľsku
                                     
                                                                             
                                            Podivnosti kvantového světa
                                     
                                                                             
                                            Přijde vesmír o temné tajemství?
                                     
                                                                             
                                            Asymetrie mezi hmotou a antihmotou
                                     
                                                                             
                                            První přímé pozorování oscilace mionového neutrina na tauonové
                                     
                                                                             
                                            Experiment Atlas v Třetí dimenzi
                                     
                                                                             
                                            Konto Míša, Gama nůž a Perfexion: karty na stůl
                                     
                                                                             
                                            Oscilace neutrin – cesta k nové fyzice
                                     
                                                                             
                                            Temný proud opět na scéně ...
                                     
                                                                             
                                            Objev prvku 117 oficiálně potvrzen
                                     
                                                                             
                                            Protónový urýchľovač vo vojenskej nemocnici v Ružomberku
                                     
                                                                             
                                            O Velkém třesku, černých dírách, temné hmotě a jiné zvířeně
                                     
                                                                             
                                            Povinná maturita z matematiky !? (6 článkov))
                                     
                                                                             
                                            Dlouhá evropská cesta k jaderné syntéze
                                     
                                                                             
                                            Kvark-gluonové plazma - nejžhavější známá forma hmoty
                                     
                                                                             
                                            Jadrový fyzik o politike
                                     
                                                                             
                                            VĚDA: Veřejnost by se měla bránit
                                     
                                                                             
                                            Další velmi exotický obyvatel antihmotné ZOO
                                     
                                                                             
                                            Proč jsou (mladí) intelektuálové většinou příznivci „pravice“?
                                     
                                                                             
                                            Seriál Ekonomická situace SSSR v průběhu 1941-42
                                     
                                                                             
                                            Phil Jones přiznává: od roku 1995 globální oteplování neexistuje
                                     
                                                                             
                                            Měření teploty ozonové vrstvy pomocí detektoru neutrin
                                     
                                                                             
                                            Jak neutrina lovit – detektory neutrin
                                     
                                                                             
                                            Climategate: pohľad do zákulisia vedeckého konsenzu
                                     
                                                                             
                                            Kde všude vznikají neutrina?
                                     
                                                                             
                                            CERN hostil slovenských študentov
                                     
                                                                             
                                            Čeští vědci připravují obří laser
                                     
                                                                             
                                            Hokejkový graf čelí novému skandálu
                                     
                                                                             
                                            Mikolajov model financovania vedy zabudol na základný výskum
                                     
                                                                             
                                            Dopis kancléřce Merkelové
                                     
                                                                             
                                            Co ti vědci vlastně chtějí?
                                     
                                                                             
                                            International Young Physicist Tournament
                                     
                                                                             
                                            Opět LHC a Tevatron
                                     
                                                                             
                                            Prioritou je stabilita celého vedeckého systému
                                     
                                                                             
                                            SAV: Z okraja priepasti do centra výskumu
                                     
                                                                             
                                            Slovensko by malo vstúpiť do ILL
                                     
                                                                             
                                            Termojaderná fúze netradičně
                                     
                                                                             
                                            Životopis vesmíru
                                     
                                                                             
                                            Využití Trojského koně v jaderné astrofyzice
                                     
                                                                             
                                            Opravdu pochybná věda?
                                     
                                                                             
                                            Najväčším nepriateľom slovenskej vedy sú slovenskí vedci
                                     
                                                                             
                                            Chemický prvek pojmenovaný dle Koperníka
                                     
                                                                             
                                            Výkonný galaktický urychlovač částic
                                     
                                                                             
                                            VĚDA: Už je to i v Nature!
                                     
                                                                             
                                            S Wittenem o LHC: Supersymetrie, higgsy a černé díry požírající
                                     
                                                                             
                                            Dušan Bruncko: Najkrajšia je fyzika nepoznaného
                                     
                                                                             
                                            Profesor Šáro: Žijeme vôbec v atómovom veku?
                                     
                                                                             
                                            Bez zlých rozhodnutí Greenpeace by bol vzduch čistejší
                                     
                                                                             
                                            Spustenie najväčšieho urýchľovača častíc odložili na október
                                     
                                                                             
                                            Vědecké časopisy přijmou i nesmysl generovaný počítačem
                                     
                                                                             
                                            Vesmír jako podvrh. Vesmír jako simulace.
                                     
                                                                             
                                            Teoretický fyzik Lee Smolin: Ani neviem, prečo som sa nezbláznil
                                     
                                                                             
                                            Krásna a potrebná veda v štýle 21. storočia
                                     
                                                                             
                                            Nositel Nobelovy ceny v Praze obhajoval základní výzkum
                                     
                                                                             
                                            Zničení Akademie věd na pořadu dne?
                                     
                                                                             
                                            Zdá se, že bylo rozhodnuto o postupné likvidaci Akademie věd ČR
                                     
                                                                             
                                            Rakúsko vystúpi z Európskej organizácie pre jadrový výskum
                                     
                                                                             
                                            Medzinárodný rok astronómie 2009 - Kalendár udalostí
                                     
                                                                             
                                            Predstavujú slovenskú cestu do mikrokozmu
                                     
                                                                             
                                            Zakladatel českého jaderného výzkumu slaví devadesátiny
                                     
                                                                             
                                            Andělé a démoni aneb jak se v laboratoři CERN vyrábí antihmota
                                     
                                                                             
                                            Nová mapa vesmíru odhalila obrovité struktury
                                     
                                                                             
                                            České firmy láká vesmír
                                     
                                                                             
                                            Nová kometa C/2009 F6 (Yi-SWAN)
                                     
                                                                             
                                            Aktuálne vydanie: Technika, č. 4, r. 2009
                                     
                                                                             
                                            Začal sa Európsky rok tvorivosti a inovácie na Slovensku
                                     
                                                                             
                                            Astronóm Vojtech Rušin: Zo Slnka raz bude len železný šrot
                                     
                                                                             
                                            Dejiny etického myslenia
                                     
                                                                             
                                            Príliš veľa pozitrónov – odkaz od tmavej hmoty?
                                     
                                                                             
                                            Kosmické záření a klimatické změny
                                     
                                                                             
                                            Konference CHEP 2009 (anglicky)
                                     
                                                                   
                     Obľúbené blogy 
                    
                     
                                                 
                                            Teoretický fyzik
                                     
                                                                             
                                            Colník o kozmonautike
                                     
                                                                             
                                            ... malé dievčatko z lúky plnej kvetov ...
                                     
                                                                             
                                            Menšinové názory na vačšinu
                                     
                                                                             
                                            Profesionálny jaskyniar
                                     
                                                                             
                                            uletená výtvarníčka
                                     
                                                                             
                                            Úžasné rozprávania
                                     
                                                                             
                                            Taký malý marketing
                                     
                                                                             
                                            Vedecký konsenzus revisited
                                     
                                                                             
                                            Za kandíkom a odpadom
                                     
                                                                             
                                            The God Delusion
                                     
                                                                             
                                            Vyradení z výberu
                                     
                            
             
         
            

             
             Čo ma zaujalo 
            Týmto článkom bloger klikol/klikla na karmu.
             
                                                         
                       Mladí vedci: Robili sme na vesmírnom reaktore v Kórei
                     
                                                         
                       Strácame dôvody behať pod magnóliovými kvetmi
                     
                                                         
                       Môj pes Vás ľúbi
                     
                                                         
                       Keď vtáčiky veselo štebocú, stromy začínajú farbisto oživovať svet
                     
                                                         
                       Najstarší príbeh stavby mosta
                     
                                                         
                       Uväznená mitochondria a zrod komplexného života
                     
                                                         
                       5 otázok a odpovedí súčasnej vedy na prekyslenie organizmu
                     
                                                         
                       Kristínka, ahóóój
                     
                                                         
                       Keď človek nevládze
                     
                                                         
                       Dieťa sa  k  horolezcom vždy rado pridá ;)
                     
                             
         
           
     Pošlite odkaz blogerovi 
    
         
            
         

         
         
         
         

         
         
Odosielateľ (e-mail)
 
         
Text
 
         
             
Protispamová ochrana 
 
 Zle. Skúste znova. 
Opíšte slová z obrázku: Načítať iné slová 
 Get an image CAPTCHA 
 
 
         
                 
            
         
    
  


 

     






            
    
        
    
 

        
         
         
             Už ste čítali? 
         
         
 

 kultura.sme.sk 
 Margaréta sa spriahla s diablom, no mala Kristovu pravdu 
 
 

 www.sme.sk 
 Pútnické miesta The Beatles alebo ako ľudia kráčajú po zebre 
 
 

 cestovanie.sme.sk 
 Lovia za svitania a v hmle 
 
 

 www.sme.sk 
 Ako sa valila lavína slobody. Ako padal komunizmus 
 
 

 kultura.sme.sk 
 Žiadne retro, poriadny biznis. Takto sa lisuje platňa 
 
	   
 


        
         
            
         

     

    
     
 
 
	 

		Kontakty
		Predplatné
		Etický kódex
		Pomoc
		Mapa stránky
		
	 
 
 
	 
		 
			Widget
			RSS
			Newsletter
		 
		 
			Mobil
			Smartphone
			Kindle
			Televízor
		 
		 
			Facebook
			Twitter
			Google+
		 
	 
	 
		
	 
	 
		Ďalšie weby skupiny: Prihlásenie do Post.sk
		Új Szó Slovak Spectator
		Agentúrne správy 
		Vydavateľstvo
		Inzercia
		Osobné údaje
		Návštevnosť webu
		Predajnosť tlače
		Petit Academy
		SME v škole 		© Copyright 1997-2014 Petit Press, a.s. 
	 
 
 
 


          
        
            
            

        
    

    
    


    


    
        
        
        
        
        
        
        
            
            
        
        
        
        
         
                                
               





 

 



        

 




