
      
    
    

     
	 
	 
 SME.sk 
 Zľavy 
 Zoznámenie 
 Reality 
 Dovolenky 
 Pizza 
 Reštaurácie 
 Recenzie 
 Inzeráty 
 Naničmama 	 
Nákupy 
		 
 Filmy na DVD 
 Hodinky 
 Parfémy 
 SME knihy a DVD 
 Superhosting 
 Tlačiareň 
 Víno 
 Tvorba webov 
 Predplatné SME 
 ProSenior 		 
	 
	 
 
	 
 


    
    
        
        
         
          
         
    

    
      
         
            
             
     
        
        
     
    Blog.SME.sk
 

    

         
        
                 
     
         
            Sme.sk
         
         
            Domov
         
         
            Regióny
         
         
            Ekonomika
         
         
            Svet
         
         
            Komentáre
         
         
            Kultúra
         
         
            Šport
         
         
            TV
         
         
            Auto
         
         
            Tech
         
         
            Poradňa
         
         
            Žena
         
         
            Bývanie
         
         
            Zdravie
         
         
            Blog
         
     
 

         
            
     
                                                         Politika 
                                                                                     Spoločnosť 
                                                                                     Cestovanie 
                                                                                     Ekonomika 
                                                                                     Fotografie 
                                                                                     Jedlo 
                                                                                     Kultúra 
                                                                                             
Ďalšie
                             
                                                                                         Lifestyle 
                                                                                                                                                                             Médiá 
                                                                                                                                                                             Nezaradené 
                                                                                                                                                                             Súkromné 
                                                                                                                                                                             Šport 
                                                                                                                                                                             Veda a technika 
                                                                                                                                                                             Zábava 
                                                                                                                                                                             Poézia 
                                                                                                                                                                             Próza 
                                                                                                                                                                             Kódex blogera 
                                                                                 
                         
                                                 
            Blogeri
         
     


            

    
    Prihlásiť sa


    
    Založte si blog



    
    Odhlásiť sa


    
    




         

        
        
         
            
         
         
                
     
                 
            SME.sk &gt;
            Blog.SME.sk &gt;
                            Mária Lazárová
                                        &gt;
                dotkla som sa lásky
                     
                 dúhová... 

        
            
                                    26.6.2010
            o
            1:00
                        (upravené
                2.1.2011
                o
                12:25)
                        |
            Karma článku:
                5.01
            |
            Prečítané 
            783-krát
                    
         
     
         
             

                 
                    nechala som pretekať cez prsty slnečné lúče
                 

                 a pozorovala ich smiech   na svojich dlaniach   priložila som si ich ku tvári   a oni mi na lícach vytvorili   krivoľakú dúhu   a potom som sa   s tou farebnou maskou na tvári   vybrala hľadať niekoho   s nebom v očiach...     

                 
                                        
                        
                        Zdieľať
                    

                    
                            
                                    
                                    Zdieľať na
                            
                             
                                    
                             
                    

                                                                                                                        
                            
                            Diskusia: (5)
                        
                    
                    
                        
                        Zvýšte karmu
                    
                 
             

                             
            
                     
                         Ďalšie články blogera 
                         
                                                             
                                    
                    	                                                                                        

                                                                        
                                    
                                        Mária Lazárová 
                                        
                                            A bolo za kým ísť
                                        
                                    
                                 
                                                             
                                    
                    	                                                                                        

                                                                        
                                    
                                        Mária Lazárová 
                                        
                                            Bol som tu
                                        
                                    
                                 
                                                             
                                    
                    	                                                                                        

                                                                        
                                    
                                        Mária Lazárová 
                                        
                                            Nikto z nás nepozná deň ani hodinu
                                        
                                    
                                 
                                                             
                                    
                    	                                                                                        

                                                                        
                                    
                                        Mária Lazárová 
                                        
                                            Čaro spoločného čítania
                                        
                                    
                                 
                                                             
                                    
                    	                                                                                        

                                                                        
                                    
                                        Mária Lazárová 
                                        
                                            A správna odpoveď znie?
                                        
                                    
                                 
                                                     
                        
                            Ďalšie články blogera: Mária Lazárová
                        
                     
            
                     
                         Ďalšie články z rubriky poézia 
                         
                                                             
                                    
                                                            	                                                                                        

                                                                                                
                                    
                                        Filip Glejdura 
                                        
                                            Do mňa sa omáčaj
                                        
                                    
                                 
                                                             
                                    
                                                            	                                                                                        

                                                                                                
                                    
                                        Filip Glejdura 
                                        
                                            Nežná
                                        
                                    
                                 
                                                             
                                    
                                                            	                                                                                        

                                                                                                
                                    
                                        Maťo Chudík 
                                        
                                            Niečo sa stalo
                                        
                                    
                                 
                                                             
                                    
                                                            	                                                                                        

                                                                                                
                                    
                                        Tomáš Fuček 
                                        
                                            Posúvam sa dozadu
                                        
                                    
                                 
                                                             
                                    
                                                            	                                                                                        

                                                                                                
                                    
                                        Filip Glejdura 
                                        
                                            . . .  a bolo mu to aj tak jedno
                                        
                                    
                                 
                                                     
                        
                            Ďalšie články z rubriky poézia
                        
                     
                 
            
                    
 
     Hlavné správy 
         
        
                                

        
         
            ZAHRANIČIE
             Protestujúci v Maďarsku strácajú dych, Fidesz ich mätie novými návrhmi 
             Na demonštrácii proti Orbánovej vláde bolo v utorok už len niekoľko tisíc ľudí. 
         
     
         
        
                                

        
         
            AKTUALIZOVANÉ O 21:30
             Rubeľ pocítil pád na dno, Rusko je vo finančnej kríze 
             Dolár v utorok stál už takmer 80 rubľov, pod hladinu ho tlačia najmä nízke ceny ropy. 
         
     
         
        
                                

        
         
            AKTUALIZOVANÉ 21:50
             Taliban zabil v škole v Pakistane 132 detí 
             Pakistan až teraz poriadne zatlačil na islamistov. Odplatou je útok na deti vojakov. 
         
     
     

                 
     
    
     
        
 

     
                
                            
                    



         
            
                Mária Lazárová
            
         
        lazarova.blog.sme.sk (rss)
         
                        VIP
                             
     
        Nemám rada surovcov a hlupákov... 
 



        
     
     
                     
                             
             

     
        
            
                
                    Počet článkov
                    300
                
                
                    Celková karma
                    
                                                0.00
                    
                
                
                    Priemerná čítanosť
                    2567
                
            
        
     

             

             Zoznam rubrík 
            
             
                                     
                        
                            ostrovné správy
                        
                     
                                     
                        
                            ako sa rodia rozprávky
                        
                     
                                     
                        
                            lebo medveď :)
                        
                     
                                     
                        
                            správy vo fľaši
                        
                     
                                     
                        
                            dotkla som sa lásky
                        
                     
                                     
                        
                            nauč ma povedať zbohom
                        
                     
                                     
                        
                            deti a ich svet
                        
                     
                                     
                        
                            dobrú chuť :)
                        
                     
                                     
                        
                            ľudia okolo mňa
                        
                     
                                     
                        
                            tak mi napadlo
                        
                     
                                     
                        
                            o čom sa (ne)hovorí
                        
                     
                                     
                        
                            smiech je liek
                        
                     
                                     
                        
                            zápisky spoza oceánu
                        
                     
                                     
                        
                            Súkromné
                        
                     
                             
         
    

                     
                        
                                                            
                     Obľúbené články 
                    
                     
                                                 
                                             
                                     
                                                                             
                                            O mojej knihe na Sieťovke
                                     
                                                                   
                     Čo práve počúvam 
                    
                     
                                                 
                                            hudbu - vždy a všade
                                     
                                                                   
                     Obľúbené blogy 
                    
                     
                                                 
                                            * blogy mojich priateľov
                                     
                                                                   
                     Obľúbené stránky 
                    
                     
                                                 
                                            Ema a ružová veľryba
                                     
                                                                             
                                            Medvedík bez mena na FB
                                     
                                                                             
                                            Sieťovka
                                     
                                                                             
                                            Moje knihy na Martinuse
                                     
                                                                             
                                            Krásna stránka o cestovaní
                                     
                                                                             
                                            Galéria slovenských autorov
                                     
                            
             
         
            

             
             Čo ma zaujalo 
            Týmto článkom bloger klikol/klikla na karmu.
             
                                                         
                       Bosoráctvo sa u nás naozaj dedí. Po praslici!
                     
                                                         
                       Skúste o tom pouvažovať
                     
                                                         
                       Ak by ste nevedeli, ako vyzerá šakal, tak ako orol
                     
                                                         
                       O jednom obchodnom stretnutí a láske k veľrybám
                     
                                                         
                       Slovenský hokejový fanúšik
                     
                                                         
                       Je o päť minút dvanásť...
                     
                                                         
                       Bábätká sa nepýtajú na deň v kalendári
                     
                                                         
                       Na zdravotných sestrách stoja a padajú nemocnice,
                     
                                                         
                       A čo tak lotéria z daňových priznaní?
                     
                                                         
                       Cesta
                     
                             
         
           
     Pošlite odkaz blogerovi 
    
         
            
         

         
         
         
         

         
         
Odosielateľ (e-mail)
 
         
Text
 
         
             
Protispamová ochrana 
 
 Zle. Skúste znova. 
Opíšte slová z obrázku: Načítať iné slová 
 Get an image CAPTCHA 
 
 
         
                 
            
         
    
  


 

     






            
    
        
    
 

        
         
         
             Už ste čítali? 
         
         
 

 kultura.sme.sk 
 Margaréta sa spriahla s diablom, no mala Kristovu pravdu 
 
 

 www.sme.sk 
 Pútnické miesta The Beatles alebo ako ľudia kráčajú po zebre 
 
 

 cestovanie.sme.sk 
 Lovia za svitania a v hmle 
 
 

 www.sme.sk 
 Ako sa valila lavína slobody. Ako padal komunizmus 
 
 

 kultura.sme.sk 
 Žiadne retro, poriadny biznis. Takto sa lisuje platňa 
 
	   
 


        
         
            
         

     

    
     
 
 
	 

		Kontakty
		Predplatné
		Etický kódex
		Pomoc
		Mapa stránky
		
	 
 
 
	 
		 
			Widget
			RSS
			Newsletter
		 
		 
			Mobil
			Smartphone
			Kindle
			Televízor
		 
		 
			Facebook
			Twitter
			Google+
		 
	 
	 
		
	 
	 
		Ďalšie weby skupiny: Prihlásenie do Post.sk
		Új Szó Slovak Spectator
		Agentúrne správy 
		Vydavateľstvo
		Inzercia
		Osobné údaje
		Návštevnosť webu
		Predajnosť tlače
		Petit Academy
		SME v škole 		© Copyright 1997-2014 Petit Press, a.s. 
	 
 
 
 


          
        
            
            

        
    

    
    


    


    
        
        
        
        
        
        
        
            
            
        
        
        
        
         
                                
               





 

 



        

 




