
      
    
    

     
	 
	 
 SME.sk 
 Zľavy 
 Zoznámenie 
 Reality 
 Dovolenky 
 Pizza 
 Reštaurácie 
 Recenzie 
 Inzeráty 
 Naničmama 	 
Nákupy 
		 
 Filmy na DVD 
 Hodinky 
 Parfémy 
 SME knihy a DVD 
 Superhosting 
 Tlačiareň 
 Víno 
 Tvorba webov 
 Predplatné SME 
 ProSenior 		 
	 
	 
 
	 
 


    
    
        
        
         
          
         
    

    
      
         
            
             
     
        
        
     
    Blog.SME.sk
 

    

         
        
                 
     
         
            Sme.sk
         
         
            Domov
         
         
            Regióny
         
         
            Ekonomika
         
         
            Svet
         
         
            Komentáre
         
         
            Kultúra
         
         
            Šport
         
         
            TV
         
         
            Auto
         
         
            Tech
         
         
            Poradňa
         
         
            Žena
         
         
            Bývanie
         
         
            Zdravie
         
         
            Blog
         
     
 

         
            
     
                                                         Politika 
                                                                                     Spoločnosť 
                                                                                     Cestovanie 
                                                                                     Ekonomika 
                                                                                     Fotografie 
                                                                                     Jedlo 
                                                                                     Kultúra 
                                                                                             
Ďalšie
                             
                                                                                         Lifestyle 
                                                                                                                                                                             Médiá 
                                                                                                                                                                             Nezaradené 
                                                                                                                                                                             Súkromné 
                                                                                                                                                                             Šport 
                                                                                                                                                                             Veda a technika 
                                                                                                                                                                             Zábava 
                                                                                                                                                                             Poézia 
                                                                                                                                                                             Próza 
                                                                                                                                                                             Kódex blogera 
                                                                                 
                         
                                                 
            Blogeri
         
     


            

    
    Prihlásiť sa


    
    Založte si blog



    
    Odhlásiť sa


    
    




         

        
        
         
            
         
         
                
     
                 
            SME.sk &gt;
            Blog.SME.sk &gt;
                            Dana Janebová
                                        &gt;
                Poézia
                     
                 V mojich slovách leží 

        
            
                                    9.8.2010
            o
            8:20
                        (upravené
                8.8.2010
                o
                15:50)
                        |
            Karma článku:
                11.85
            |
            Prečítané 
            295-krát
                    
         
     
         
             

                 
                    
                 

                dieťa i starena dúha i dážď slnko i vietor Klania sa mi ten zvláštny vánok keď sa započúvam doň Velí a ja mu verím lebo chce byť iba môj chce byť mojou inšpiráciou Ty môžeš len nakuknúť mne nemôžeš nič vziať čo v sebe tajím a na okno dňa maľujem ty si len dážď čo chce ma umlčať V mojej záveti spisujem srdcia čo do mňa načreli a zanechávam slová ktoré sú presne také aké so mnou rástli z detstva do staroby To som ja... A ty nič na tom nezmeníš... * (13.2.2010 22:05:25)

                 
                                        
                        
                        Zdieľať
                    

                    
                            
                                    
                                    Zdieľať na
                            
                             
                                    
                             
                    

                                                                                                                        
                            
                            Diskusia: (28)
                        
                    
                    
                        
                        Zvýšte karmu
                    
                 
             

                             
            
                     
                         Ďalšie články blogera 
                         
                                                             
                                    
                    	                                                                                        

                                                                        
                                    
                                        Dana Janebová 
                                        
                                            Svetlo 3
                                        
                                    
                                 
                                                             
                                    
                    	                                                                                        

                                                                        
                                    
                                        Dana Janebová 
                                        
                                            Svetlo 2
                                        
                                    
                                 
                                                             
                                    
                    	                                                                                        

                                                                        
                                    
                                        Dana Janebová 
                                        
                                            Svetlo 1
                                        
                                    
                                 
                                                             
                                    
                    	                                                                                        

                                                                        
                                    
                                        Dana Janebová 
                                        
                                            Som človek - kto je viac?
                                        
                                    
                                 
                                                             
                                    
                    	                                                                                        

                                                                        
                                    
                                        Dana Janebová 
                                        
                                            Ako smädný pútnik tohto sveta
                                        
                                    
                                 
                                                     
                        
                            Ďalšie články blogera: Dana Janebová
                        
                     
            
                     
                         Ďalšie články z rubriky poézia 
                         
                                                             
                                    
                                                            	                                                                                        

                                                                                                
                                    
                                        Filip Glejdura 
                                        
                                            Do mňa sa omáčaj
                                        
                                    
                                 
                                                             
                                    
                                                            	                                                                                        

                                                                                                
                                    
                                        Filip Glejdura 
                                        
                                            Nežná
                                        
                                    
                                 
                                                             
                                    
                                                            	                                                                                        

                                                                                                
                                    
                                        Maťo Chudík 
                                        
                                            Niečo sa stalo
                                        
                                    
                                 
                                                             
                                    
                                                            	                                                                                        

                                                                                                
                                    
                                        Tomáš Fuček 
                                        
                                            Posúvam sa dozadu
                                        
                                    
                                 
                                                             
                                    
                                                            	                                                                                        

                                                                                                
                                    
                                        Filip Glejdura 
                                        
                                            . . .  a bolo mu to aj tak jedno
                                        
                                    
                                 
                                                     
                        
                            Ďalšie články z rubriky poézia
                        
                     
                 
            
                    
 
     Hlavné správy 
         
        
                                

        
         
            KOMENTÁR PETRA SCHUTZA
             Len korupčné škandály preferencie Smeru nepotopia 
             Ak chce opozícia vo voľbách zvrhnúť Smer, bez rozšírenia repertoáru si neporadí. 
         
     
         
        
                                

        
         
            AKTUALIZOVANÉ O 21:30
             Rubeľ pocítil pád na dno, Rusko je vo finančnej kríze 
             Dolár v utorok stál už takmer 80 rubľov, pod hladinu ho tlačia najmä nízke ceny ropy. 
         
     
         
        
                                

        
         
            AKTUALIZOVANÉ 23:50
             Taliban zabil v škole v Pakistane 132 detí 
             Pakistan až teraz poriadne zatlačil na islamistov. Odplatou je útok na deti vojakov. 
         
     
     

                 
     
    
     
        
 

     
                
                            
                    



         
            
                Dana Janebová
            
         
        janebova.blog.sme.sk (rss)
         
                        VIP
                             
     
         ...MOJE RUKY SÚ LÁSKA... http://www.artforum.sk/catalog/janebova-dana:moje-ruky-su-laska-/?mod=catalog&amp;detail=32019 -...ODSÚDENÁ NA LÁSKU... http://www.perfekt.sk/knihy-odsudena-na-lasku....................................... TVOJE OČI SÚ CESTA... http://www.perfekt.sk/knihy-tvoje-oci-su-cesta 
        
     
     
                     
                             
             

     
        
            
                
                    Počet článkov
                    562
                
                
                    Celková karma
                    
                                                0.00
                    
                
                
                    Priemerná čítanosť
                    380
                
            
        
     

             

             Zoznam rubrík 
            
             
                                     
                        
                            Poézia
                        
                     
                                     
                        
                            Prehlasované smútky
                        
                     
                                     
                        
                            Osudova je vždy piata
                        
                     
                                     
                        
                            Elégia misterioso
                        
                     
                                     
                        
                            Fotografie
                        
                     
                                     
                        
                            Listy dôverné
                        
                     
                                     
                        
                            Mojim priateľom
                        
                     
                                     
                        
                            Asteroidy
                        
                     
                                     
                        
                            Impresie
                        
                     
                                     
                        
                            Fragmenty
                        
                     
                                     
                        
                            Pieseň pre lásku
                        
                     
                                     
                        
                            Tretí rozmer
                        
                     
                                     
                        
                            Iný rozmer
                        
                     
                                     
                        
                            Rozhovory s Bohom
                        
                     
                                     
                        
                            Vibrácie
                        
                     
                                     
                        
                            Próza
                        
                     
                                     
                        
                            Súkromné
                        
                     
                             
         
    

    

        

     






            
    
        
    
 

        
         
         
             Už ste čítali? 
         
         
 

 kultura.sme.sk 
 Margaréta sa spriahla s diablom, no mala Kristovu pravdu 
 
 

 www.sme.sk 
 Pútnické miesta The Beatles alebo ako ľudia kráčajú po zebre 
 
 

 cestovanie.sme.sk 
 Lovia za svitania a v hmle 
 
 

 www.sme.sk 
 Ako sa valila lavína slobody. Ako padal komunizmus 
 
 

 kultura.sme.sk 
 Žiadne retro, poriadny biznis. Takto sa lisuje platňa 
 
	   
 


        
         
            
         

     

    
     
 
 
	 

		Kontakty
		Predplatné
		Etický kódex
		Pomoc
		Mapa stránky
		
	 
 
 
	 
		 
			Widget
			RSS
			Newsletter
		 
		 
			Mobil
			Smartphone
			Kindle
			Televízor
		 
		 
			Facebook
			Twitter
			Google+
		 
	 
	 
		
	 
	 
		Ďalšie weby skupiny: Prihlásenie do Post.sk
		Új Szó Slovak Spectator
		Agentúrne správy 
		Vydavateľstvo
		Inzercia
		Osobné údaje
		Návštevnosť webu
		Predajnosť tlače
		Petit Academy
		SME v škole 		© Copyright 1997-2014 Petit Press, a.s. 
	 
 
 
 


          
        
            
            

        
    

    
    


    


    
        
        
        
        
        
        
        
            
            
        
        
        
        
         
                                
               





 

 



        

 




