
      
    
    

     
	 
	 
 SME.sk 
 Zľavy 
 Zoznámenie 
 Reality 
 Dovolenky 
 Pizza 
 Reštaurácie 
 Recenzie 
 Inzeráty 
 Naničmama 	 
Nákupy 
		 
 Filmy na DVD 
 Hodinky 
 Parfémy 
 SME knihy a DVD 
 Superhosting 
 Tlačiareň 
 Víno 
 Tvorba webov 
 Predplatné SME 
 ProSenior 		 
	 
	 
 
	 
 


    
    
        
        
         
          
         
    

    
      
         
            
             
     
        
        
     
    Blog.SME.sk
 

    

         
        
                 
     
         
            Sme.sk
         
         
            Domov
         
         
            Regióny
         
         
            Ekonomika
         
         
            Svet
         
         
            Komentáre
         
         
            Kultúra
         
         
            Šport
         
         
            TV
         
         
            Auto
         
         
            Tech
         
         
            Poradňa
         
         
            Žena
         
         
            Bývanie
         
         
            Zdravie
         
         
            Blog
         
     
 

         
            
     
                                                         Politika 
                                                                                     Spoločnosť 
                                                                                     Cestovanie 
                                                                                     Ekonomika 
                                                                                     Fotografie 
                                                                                     Jedlo 
                                                                                     Kultúra 
                                                                                             
Ďalšie
                             
                                                                                         Lifestyle 
                                                                                                                                                                             Médiá 
                                                                                                                                                                             Nezaradené 
                                                                                                                                                                             Súkromné 
                                                                                                                                                                             Šport 
                                                                                                                                                                             Veda a technika 
                                                                                                                                                                             Zábava 
                                                                                                                                                                             Poézia 
                                                                                                                                                                             Próza 
                                                                                                                                                                             Kódex blogera 
                                                                                 
                         
                                                 
            Blogeri
         
     


            

    
    Prihlásiť sa


    
    Založte si blog



    
    Odhlásiť sa


    
    




         

        
        
         
            
         
         
                
     
                 
            SME.sk &gt;
            Blog.SME.sk &gt;
                            Michal Kravčík
                                        &gt;
                www.theglobalcoolingproject.co
                     
                 Hričovská vodná cesta 

        
            
                                    13.4.2010
            o
            11:20
                        |
            Karma článku:
                10.39
            |
            Prečítané 
            2597-krát
                    
         
     
         
             

                 
                    Obec Horný Hričov v partnerstve s MVO Ľudia  a voda realizovali v roku 2008 projekt Hričovská vodná cesta, v ktorom sa spojilo užitočné s príjemným. Pôvodným zámerom bolo utlmiť prívalové  povodňové prietoky. Zároveň vznikla myšlienka, že by sa mohla voda z mnohých menších  zdrojov v okolí zachytávať, skrášľovať a zatraktívniť prostredie. V doline okolo Šípovej studničky a Zlatného potoka, opradenej históriou si môžu ľudia  prísť a oddýchnuť, napiť sa, ale aj okúpať sa vo vode, ktorá má podľa rozprávania  pamätníkov liečivé účinky.
                 

                 Voda zo studničiek v lesných ekosystémoch sa zachytáva a zdržiava vo vybudovaných priehradkách a drevených hrádzach a prepadmi postupne odteká. V rámci projektu vzniklo relaxačné miesto pre tých, ktorí tu chcú posedieť, oddýchnuť si, opláchnuť sa vo vode. K tomuto miestu sa viaže povesť, podľa ktorej tu žil mních. Modlil sa za túto oblasť a vyprosoval pre okolie pozitívne účinky. Preto v novej oddychovej zóne, osadili aj drevenú sochu mnícha. Projekt financovala obec z Environmentálneho fondu ministerstva životného prostredia a piatimi percentami z vlastného rozpočtu. Od myšlienky až po zrealizovanie všetko trvalo dva roky, náklady sú vo výške 2 milióny 400 tisíc korún. Projekt realizovala firma Ekostav z Oščadnice.  V obrázkovej prílohe ponúkame zábery o štruktúre zachytávania vody hrádzkami od hornej časti mikropovodia až po oddychové miesto, kde sa dá kúpať, resp. nabrať si čistej pramenistej  vody  zo Šípkovej studničky u „Mnícha".       Vybudované hrádze na zadržanie splachu dažďových vôd v hornej časti Hričovskej vodnej cesty v suchej časti pod studničkami          Charakter drevených zrubov v strednej časti Hričovskej vodnej cesty      Vodná zdrž s priepustom      Vodná nádrž s možnosťou kúpania      Kamenná hrádza s dnovým priepustom a utlmovanie povodňových prietokov      ...a prameň pri Šipkovej studničke u „Mnícha"     

                 
                                        
                        
                        Zdieľať
                    

                    
                            
                                    
                                    Zdieľať na
                            
                             
                                    
                             
                    

                                                                                                                        
                            
                            Diskusia: (44)
                        
                    
                    
                        
                        Zvýšte karmu
                    
                 
             

                             
            
                     
                         Ďalšie články blogera 
                         
                                                             
                                    
                    	                                                                                        

                                                                        
                                    
                                        Michal Kravčík 
                                        
                                            Poloz na hrad!
                                        
                                    
                                 
                                                             
                                    
                    	                                                                                        

                                                                        
                                    
                                        Michal Kravčík 
                                        
                                            Zavšivavená spoločnosť trollami s podporou SME?
                                        
                                    
                                 
                                                             
                                    
                    	                                                                                        

                                                                        
                                    
                                        Michal Kravčík 
                                        
                                            Bratislava šiestym najbohatším regiónom EÚ. Západné Slovensko 239-tým…
                                        
                                    
                                 
                                                             
                                    
                    	                                                                                        

                                                                        
                                    
                                        Michal Kravčík 
                                        
                                            Nemajú Boha pri sebe!
                                        
                                    
                                 
                                                             
                                    
                    	                                                                                        

                                                                        
                                    
                                        Michal Kravčík 
                                        
                                            Ako sa zbaviť straníckej korupcie v štáte. Časť eurofondy
                                        
                                    
                                 
                                                     
                        
                            Ďalšie články blogera: Michal Kravčík
                        
                     
            
                     
                         Ďalšie články z rubriky nezaradené 
                         
                                                             
                                    
                                                            	                                                                                        

                                                                                                
                                    
                                        Pavel Ondrejmiška 
                                        
                                            Dnes farnosť Žitavany, pred tisíc rokmi kráľovská fara v Kňažiciach
                                        
                                    
                                 
                                                             
                                    
                                                            	                                                                                        

                                                                                                
                                    
                                        Michal Pazič 
                                        
                                            Prečo školské zariadenie v Pakistane?
                                        
                                    
                                 
                                                             
                                    
                                                            	                                                                                        

                                                                                                
                                    
                                        Milan Removčík 
                                        
                                            Zimný Šíp.
                                        
                                    
                                 
                                                             
                                    
                                                            	                                                                                        

                                                                                                
                                    
                                          esc-sr 
                                        
                                            Čas (ne)vhodných darčekov
                                        
                                    
                                 
                                                             
                                    
                                                            	                                                                                        

                                                                                                
                                    
                                        Michal Filek 
                                        
                                            Ako je ťažké darovať bezdomovcom polievku?
                                        
                                    
                                 
                                                     
                        
                            Ďalšie články z rubriky nezaradené
                        
                     
                 
            
                    
 
     Hlavné správy 
         
        
                                

        
         
            AKTUALIZOVANÉ 16:00
             Rubeľ kolabuje, ruská vláda má mimoriadne rokovať 
             Jeden dolár stál v utorok poobede už viac ako 78 rubľov, razantné zvýšenie úrokov nepomohlo. 
         
     
         
        
                                

        
         
            ZAHRANIČIE
             Taliban zabil v škole v Pakistane vyše sto ľudí, väčšinou deti 
             Militanti vtrhli do vojenskej školy v policajných rovnošatách. 
         
     
         
        
                                

        
         
            KOMENTARE.SME.SK
             Cynická obluda: Medzičasom na opustenom ostrove 
             Stroskotanci majú veľké šťastie, že sú dvaja. Lacné vtipy na úrovni ich autora. 
         
     
     

                 
     
    
     
        
 

     
                
                            
                    



         
            
                Michal Kravčík
            
         
        kravcik.blog.sme.sk (rss)
         
                                     
     
         Presadzujem a podporujem agendu „VODA PRE OZDRAVENIE KLÍMY“. Jej cieľom je posilnenie environmentálnej bezpečnosti prostredníctvom zodpovedného prístupu v ochrane prírodného a teda i kultúrneho dedičstva. Napĺňanie agendy, založenej na prijatí novej, vyššej kultúry vo vzťahu k vode, môže na Slovensku vytvoriť viac ako 100 tisíc a v Európe vyše 5 miliónov pracovných príležitostí. 
        
     
     
                     
                             
             

     
        
            
                
                    Počet článkov
                    629
                
                
                    Celková karma
                    
                                                7.10
                    
                
                
                    Priemerná čítanosť
                    2236
                
            
        
     

             

             Zoznam rubrík 
            
             
                                     
                        
                            Povodne
                        
                     
                                     
                        
                            Hladujúci potrebujú vodu
                        
                     
                                     
                        
                            Klimatická zmena
                        
                     
                                     
                        
                            VODA zrkadlo kultúry
                        
                     
                                     
                        
                            http://s07.flagcounter.com/mor
                        
                     
                                     
                        
                            Nová vodná paradigma
                        
                     
                                     
                        
                            Košice
                        
                     
                                     
                        
                            Spoločnosť
                        
                     
                                     
                        
                            http://moje.hnonline.sk/blog/4
                        
                     
                             
         
    

                     
                        
                                                            
                     Obľúbené články 
                    
                     
                                                 
                                            Kandidáti za poslancov do EP
                                     
                                                                             
                                            Ladislav Vozárik
                                     
                                                                             
                                             
                                     
                                                                             
                                             
                                     
                                                                   
                     Obľúbené knihy 
                    
                     
                                                 
                                            http://www.clim-past.net/2/187/2006/cp-2-187-2006.pdf
                                     
                                                                   
                     Obľúbené blogy 
                    
                     
                                                 
                                            http://blog.aktualne.centrum.cz/blogy/jana-hradilkova.php
                                     
                                                                   
                     Obľúbené stránky 
                    
                     
                                                 
                                            hospodarskyklub.sk
                                     
                                                                             
                                            ashoka.org
                                     
                                                                             
                                            bluegold-worldwaterwars.com
                                     
                                                                             
                                            holisticmanagement.org
                                     
                                                                             
                                            theglobalcoolingproject.com
                                     
                                                                             
                                            ludiaavoda.sk
                                     
                                                                             
                                            watergy.de
                                     
                                                                             
                                            waterparadigm.org
                                     
                            
             
         
            

             
             Čo ma zaujalo 
            Týmto článkom bloger klikol/klikla na karmu.
             
                                                         
                       Nemajú Boha pri sebe!
                     
                                                         
                       Ako sa zbaviť straníckej korupcie v štáte. Časť eurofondy
                     
                                                         
                       Ako sa z jednej ochranárskej ikony stala obyčajná nula
                     
                                                         
                       10 rokov po víchrici v Tatrách stále v zákopoch
                     
                                                         
                       Primátor všetkých Košičanov?
                     
                                                         
                       Dnes zasadá Vláda v Ubli
                     
                                                         
                       Aspoň pokus o integráciu Rómov? Za primátora Rašiho? Zabudnite!
                     
                                                         
                       Róbert Fico je bezpečnostným rizikom pre Slovensko
                     
                                                         
                       Kto je zodpovedný za pád starenky do kanalizačnej šachty v Michalovciach
                     
                                                         
                       Zdravé Košice
                     
                             
         
           
     Pošlite odkaz blogerovi 
    
         
            
         

         
         
         
         

         
         
Odosielateľ (e-mail)
 
         
Text
 
         
             
Protispamová ochrana 
 
 Zle. Skúste znova. 
Opíšte slová z obrázku: Načítať iné slová 
 Get an image CAPTCHA 
 
 
         
                 
            
         
    
  


 

     






            
    
        
    
 

        
         
         
             Už ste čítali? 
         
         
 

 kultura.sme.sk 
 Margaréta sa spriahla s diablom, no mala Kristovu pravdu 
 
 

 www.sme.sk 
 Pútnické miesta The Beatles alebo ako ľudia kráčajú po zebre 
 
 

 cestovanie.sme.sk 
 Lovia za svitania a v hmle 
 
 

 www.sme.sk 
 Ako sa valila lavína slobody. Ako padal komunizmus 
 
 

 kultura.sme.sk 
 Žiadne retro, poriadny biznis. Takto sa lisuje platňa 
 
	   
 


        
         
            
         

     

    
     
 
 
	 

		Kontakty
		Predplatné
		Etický kódex
		Pomoc
		Mapa stránky
		
	 
 
 
	 
		 
			Widget
			RSS
			Newsletter
		 
		 
			Mobil
			Smartphone
			Kindle
			Televízor
		 
		 
			Facebook
			Twitter
			Google+
		 
	 
	 
		
	 
	 
		Ďalšie weby skupiny: Prihlásenie do Post.sk
		Új Szó Slovak Spectator
		Agentúrne správy 
		Vydavateľstvo
		Inzercia
		Osobné údaje
		Návštevnosť webu
		Predajnosť tlače
		Petit Academy
		SME v škole 		© Copyright 1997-2014 Petit Press, a.s. 
	 
 
 
 


          
        
            
            

        
    

    
    


    


    
        
        
        
        
        
        
        
            
            
        
        
        
        
         
                                
               





 

 



        

 




