
      
    
    

     
	 
	 
 SME.sk 
 Zľavy 
 Zoznámenie 
 Reality 
 Dovolenky 
 Pizza 
 Reštaurácie 
 Recenzie 
 Inzeráty 
 Naničmama 	 
Nákupy 
		 
 Filmy na DVD 
 Hodinky 
 Parfémy 
 SME knihy a DVD 
 Superhosting 
 Tlačiareň 
 Víno 
 Tvorba webov 
 Predplatné SME 
 ProSenior 		 
	 
	 
 
	 
 


    
    
        
        
         
          
         
    

    
      
         
            
             
     
        
        
     
    Blog.SME.sk
 

    

         
        
                 
     
         
            Sme.sk
         
         
            Domov
         
         
            Regióny
         
         
            Ekonomika
         
         
            Svet
         
         
            Komentáre
         
         
            Kultúra
         
         
            Šport
         
         
            TV
         
         
            Auto
         
         
            Tech
         
         
            Poradňa
         
         
            Žena
         
         
            Bývanie
         
         
            Zdravie
         
         
            Blog
         
     
 

         
            
     
                                                         Politika 
                                                                                     Spoločnosť 
                                                                                     Cestovanie 
                                                                                     Ekonomika 
                                                                                     Fotografie 
                                                                                     Jedlo 
                                                                                     Kultúra 
                                                                                             
Ďalšie
                             
                                                                                         Lifestyle 
                                                                                                                                                                             Médiá 
                                                                                                                                                                             Nezaradené 
                                                                                                                                                                             Súkromné 
                                                                                                                                                                             Šport 
                                                                                                                                                                             Veda a technika 
                                                                                                                                                                             Zábava 
                                                                                                                                                                             Poézia 
                                                                                                                                                                             Próza 
                                                                                                                                                                             Kódex blogera 
                                                                                 
                         
                                                 
            Blogeri
         
     


            

    
    Prihlásiť sa


    
    Založte si blog



    
    Odhlásiť sa


    
    




         

        
        
         
            
         
         
                
     
                 
            SME.sk &gt;
            Blog.SME.sk &gt;
                            Daniela Belicová
                                        &gt;
                Súkromné
                     
                 Medzi vlčími makmi 

        
            
                                    20.6.2010
            o
            9:49
                        (upravené
                20.6.2010
                o
                9:59)
                        |
            Karma článku:
                7.80
            |
            Prečítané 
            1202-krát
                    
         
     
         
             

                 
                    Takú sobotu sme sa kdesi stratili.
                 

                 A vlastne niet o čom písať.   Jeden z ďalších červených dní júna, teplý, no nie horúci, ako stvorený na sedenie medzi ďatelinou a čítanie Adamsa.   Na prechádzky medzi vlčími makmi.       Na také výlety.     

                 
                                        
                        
                        Zdieľať
                    

                    
                            
                                    
                                    Zdieľať na
                            
                             
                                    
                             
                    

                                                                                                                        
                            
                            Diskusia: (10)
                        
                    
                    
                        
                        Zvýšte karmu
                    
                 
             

                             
            
                     
                         Ďalšie články blogera 
                         
                                                             
                                    
                    	                                                                                        

                                                                        
                                    
                                        Daniela Belicová 
                                        
                                            Pri mori
                                        
                                    
                                 
                                                             
                                    
                    	                                                                                        

                                                                        
                                    
                                        Daniela Belicová 
                                        
                                            Analógovo.
                                        
                                    
                                 
                                                             
                                    
                    	                                                                                        

                                                                        
                                    
                                        Daniela Belicová 
                                        
                                            Doma. V zime.
                                        
                                    
                                 
                                                             
                                    
                    	                                                                                        

                                                                        
                                    
                                        Daniela Belicová 
                                        
                                            Nad riekou
                                        
                                    
                                 
                                                             
                                    
                    	                                                                                        

                                                                        
                                    
                                        Daniela Belicová 
                                        
                                            Blu(e)snenie
                                        
                                    
                                 
                                                     
                        
                            Ďalšie články blogera: Daniela Belicová
                        
                     
            
                     
                         Ďalšie články z rubriky fotografie 
                         
                                                             
                                    
                                                                                                                    

                                                                                                
                                    
                                        Miroslav Lisinovič 
                                        
                                            Motorový rušeň 754.045 ČD "Brejlovec"
                                        
                                    
                                 
                                                             
                                    
                                                                                                                    

                                                                                                
                                    
                                        Jan Pražák 
                                        
                                            Jeníček v zemi divů - Lurdy
                                        
                                    
                                 
                                                             
                                    
                                                                                                                    

                                                                                                
                                    
                                        Anton Lisinovič 
                                        
                                            Detaily života v lese.....
                                        
                                    
                                 
                                                             
                                    
                                                                                                                    

                                                                                                
                                    
                                        Jaromír Šiša 
                                        
                                            Porazit Rusy? Šlo to jedině roku 1805 u Slavkova.
                                        
                                    
                                 
                                                             
                                    
                                                            	                                                                                        

                                                                                                
                                    
                                        Gabriela Szabová 
                                        
                                            Nezabudnuteľní
                                        
                                    
                                 
                                                     
                        
                            Ďalšie články z rubriky fotografie
                        
                     
                 
            
                    
 
     Hlavné správy 
         
        
                                

        
         
            ZAHRANIČIE
             Protestujúci v Maďarsku strácajú dych, Fidesz ich mätie novými návrhmi 
             Na demonštrácii proti Orbánovej vláde bolo v utorok už len niekoľko tisíc ľudí. 
         
     
         
        
                                

        
         
            AKTUALIZOVANÉ O 21:30
             Rubeľ pocítil pád na dno, Rusko je vo finančnej kríze 
             Dolár včera stál už takmer 80 rubľov, pod hladinu ho tlačia najmä nízke ceny ropy. 
         
     
         
        
                                

        
         
            AKTUALIZOVANÉ 21:50
             Taliban zabil v škole v Pakistane 132 detí 
             Pakistan až teraz poriadne zatlačil na islamistov. Odplatou je útok na deti vojakov. 
         
     
     

                 
     
    
     
        
 

     
                
                            
                    



         
            
                Daniela Belicová
            
         
        belicova.blog.sme.sk (rss)
         
                                     
     
        Úplne stratená.
        
     
     
                     
                             
             

     
        
            
                
                    Počet článkov
                    74
                
                
                    Celková karma
                    
                                                0.00
                    
                
                
                    Priemerná čítanosť
                    1963
                
            
        
     

             

             Zoznam rubrík 
            
             
                                     
                        
                            rýmovačky
                        
                     
                                     
                        
                            som si všimla
                        
                     
                                     
                        
                            SÝRIA ´07
                        
                     
                                     
                        
                            Súkromné
                        
                     
                                     
                        
                            cestou- necestou
                        
                     
                             
         
    

                     
                        
                                                            
                     Obľúbené články 
                    
                     
                                                 
                                            Život v Afganistane
                                     
                                                                             
                                            berlín.
                                     
                                                                             
                                            Natoč film, který máš v hlavě, řekl mi nakonec Murakami
                                     
                                                                             
                                            Sever/juh (Nesmierny svet, ktorý nosíme v hlave*)
                                     
                                                                             
                                            Preventívne
                                     
                                                                             
                                            Najlepšie fotografie sú u nás
                                     
                                                                             
                                            Russia in color, a century ago
                                     
                                                                             
                                            Letné skice
                                     
                                                                             
                                            Že sa mám letne
                                     
                                                                             
                                            Rudo: Nie som žiadna Bridget Jonesová v nohaviciach
                                     
                                                                             
                                            Chlad a teplo San Franciska
                                     
                                                                             
                                            End Theme*
                                     
                                                                             
                                            Ólafur Arnalds: Sú Islanďania beznádejní melancholici?
                                     
                                                                             
                                            V zrkadle pod nohami
                                     
                                                                             
                                            Muž zo samoty má bližšie k nebu ako do dediny
                                     
                                                                             
                                            Najstaršia
                                     
                                                                             
                                            Sedem rokov v džezovom klube
                                     
                                                                             
                                            vanilkovo
                                     
                                                                             
                                            Cestopisy na slovenský spôsob
                                     
                                                                             
                                            Istanbul.sem
                                     
                                                                             
                                            Čistý gýč
                                     
                                                                             
                                            Niekde
                                     
                                                                             
                                            Tomáš K.:Výlet do severného Iraku
                                     
                                                                             
                                            World Press Photo 2009
                                     
                                                                             
                                            Výtvarník Boris Ondreička: Umenie nie je len kumšt
                                     
                                                                             
                                            Guča
                                     
                                                                             
                                            Chuck Palahniuk vyzerá tak, ako jeho postavy
                                     
                                                                             
                                            Valletta.tu
                                     
                                                                             
                                            O cestách-necestách s Andrejom Bánom
                                     
                                                                             
                                            do Berlína.
                                     
                                                                             
                                            Emily
                                     
                                                                             
                                            Gruzínsko takto
                                     
                                                                             
                                            v posledných dňoch
                                     
                                                                             
                                            sem!
                                     
                                                                             
                                            toto
                                     
                                                                             
                                            Asi je to blbosť...
                                     
                                                                             
                                            Shina: Verím, že všetko, čo som zasiala, jedného dňa zožnem
                                     
                                                                             
                                            O Osemnástich Spišských Hradoch ...
                                     
                                                                             
                                            Istanbul
                                     
                                                                             
                                            o Svätuplukovom námestí v Nitre
                                     
                                                                             
                                            o Dežovi
                                     
                                                                             
                                            Prípad Janko K.
                                     
                                                                             
                                            aj o decembri
                                     
                                                                             
                                            Ponuré rána
                                     
                                                                             
                                            prečo neísť do Nórska
                                     
                                                                             
                                            "masívny útok"
                                     
                                                                             
                                            sem už čoskoro
                                     
                                                                             
                                            foto.príbeh
                                     
                                                                             
                                            Krakow
                                     
                                                                             
                                            czech press photo
                                     
                                                                             
                                            Interiér krajiny
                                     
                                                                             
                                            Rozumiete mladým dávačom?
                                     
                                                                             
                                            5
                                     
                                                                             
                                            sem
                                     
                                                                             
                                            A just idem do Estónska bahná pozerať!
                                     
                                                                             
                                            čosi slovenské
                                     
                                                                             
                                            Prečo sa oplatí vidieť Čínu...
                                     
                                                                             
                                            o Pakistane
                                     
                                                                             
                                            (aj) o Gruzínsku
                                     
                                                                             
                                            o Hrane
                                     
                                                                   
                     Obľúbené knihy 
                    
                     
                                                 
                                            M. Ibn Abdalláh Ibn Battúta Cesty po Afrike, Ázií a Európe...
                                     
                                                                             
                                            Jan Rozner Sedem dní do pohrebu
                                     
                                                                             
                                            Erlend Loe Fakta o Finsku
                                     
                                                                             
                                            Olga Tokarczuk Běguni
                                     
                                                                             
                                            Mila Haugová Zrkadlo dovnútra
                                     
                                                                             
                                            Paolo Giordani Osamělost prvočísel
                                     
                                                                             
                                            Haruki Murakami O čem mluvím, když mluvím o běhání
                                     
                                                                             
                                            Khaled Hosseini Tisíc žiarivých sĺnk
                                     
                                                                             
                                            Jón Svensson Slnečné dni Nonniho a Manniho
                                     
                                                                             
                                            Anna Gavalda Chcel by som, aby ma niekto niekde čakal
                                     
                                                                             
                                            Ivan Klíma Má veselá jitra
                                     
                                                                             
                                            Cormac McCarthy Cesta
                                     
                                                                             
                                            Lonely Planet Iceland
                                     
                                                                             
                                            Yrsa Sigurdardóttir Žeravý hrob
                                     
                                                                             
                                            Khaled Hosseini Majster šarkanov
                                     
                                                                             
                                            Douglas Adams Stopárov sprievodca galaxiou
                                     
                                                                             
                                            Pavel Sibyla Coffee Stories
                                     
                                                                             
                                            Ivana Dobrakovová Prvá smrť v rodine
                                     
                                                                             
                                            Sylvia Plath Hrana
                                     
                                                                             
                                            Olga Tokarczuk Dom vo dne, dom v noci
                                     
                                                                             
                                            Nóra Ružičková Parcelácia vzduchu
                                     
                                                                             
                                            Milan Kundera Žert
                                     
                                                                             
                                            Julio Cortázar Pronásledovatel
                                     
                                                                             
                                            Anthony Bourdian Šéfkuchař na cestách
                                     
                                                                             
                                            Franz Kafka Poviedky
                                     
                                                                             
                                            Atik Rahimi Kameň trpezlivosti
                                     
                                                                             
                                            Zděnek Svěrák Povídky
                                     
                                                                             
                                            Haruki Murakami Sputnik, má láska
                                     
                                                                             
                                            Sarah Kane Hry
                                     
                                                                             
                                            M.J.Lermontov Hrdina našich čias
                                     
                                                                             
                                            H.K.Laxness Islandský zvon
                                     
                                                                             
                                            Emily Dickinson
                                     
                                                                             
                                            G.S.Troller Parížske rozhovory
                                     
                                                                   
                     Čo práve počúvam 
                    
                     
                                                 
                                            Bonobo
                                     
                                                                             
                                            Norwegian Wood Soundtrack
                                     
                                                                             
                                            Sequence Theory Project
                                     
                                                                             
                                            Múm
                                     
                                                                             
                                            Youth Pictures of Florence Henderson
                                     
                                                                             
                                            Ólöf Arnalds
                                     
                                                                             
                                            DVA
                                     
                                                                             
                                            Arcade Fire
                                     
                                                                             
                                            Jónsi
                                     
                                                                             
                                            A Silver Mt. Zion
                                     
                                                                             
                                            Hindi Zahra
                                     
                                                                             
                                            Gotan Project
                                     
                                                                             
                                            Nils Frahm
                                     
                                                                             
                                            Emiliana Torrini
                                     
                                                                             
                                            Dan Brantigan
                                     
                                                                             
                                            Priscilla Ahn
                                     
                                                                             
                                            Coco Rosie
                                     
                                                                             
                                            Bat for Lashes
                                     
                                                                             
                                            Animal Collective
                                     
                                                                             
                                            Fever Ray
                                     
                                                                             
                                            Ane Brun
                                     
                                                                             
                                            Stafr&amp;#230;nn Hákon
                                     
                                                                             
                                            Riceboy Sleeps
                                     
                                                                             
                                            Donna Regina
                                     
                                                                             
                                            Air
                                     
                                                                             
                                            Amiina
                                     
                                                                             
                                            Oi Va Voi
                                     
                                                                             
                                            Lykke Li
                                     
                                                                             
                                            Beirut
                                     
                                                                             
                                            Ólafur Arnalds
                                     
                                                                             
                                            Sigur Rós
                                     
                                                                             
                                            Radiohead
                                     
                                                                             
                                            Nina Simone
                                     
                                                                             
                                            Oskar Rozsa, Marek Brezovský Hrana
                                     
                                                                   
                     Obľúbené blogy 
                    
                     
                                                 
                                            Mitošinkovie
                                     
                                                                             
                                            Inconnu/ /Unknown
                                     
                                                                             
                                            Saša G.
                                     
                                                                             
                                            Valentina Cugusi
                                     
                                                                             
                                            Roman H.
                                     
                                                                             
                                            s Jankou (nielen) do Bulharska
                                     
                                                                             
                                            .ona
                                     
                                                                             
                                            richie from south africa
                                     
                                                                             
                                            nevara
                                     
                                                                             
                                            rozhovory by džejn
                                     
                                                                             
                                            Sonine takto
                                     
                                                                             
                                            Alenka S.
                                     
                                                                             
                                            Janka a jej obrázky dní
                                     
                                                                             
                                            Peter.tak
                                     
                                                                             
                                            Ivan G.
                                     
                                                                             
                                            inšpiratívne
                                     
                                                                             
                                            Tomáš zo Severských zemí
                                     
                                                                             
                                            Simča
                                     
                                                                             
                                            Filip na ceste
                                     
                                                                             
                                            Marek P.
                                     
                                                                             
                                            on the road
                                     
                                                                             
                                            kuchárske inšpirácie
                                     
                                                                             
                                            kúsok Moraviec
                                     
                                                                             
                                            obrazy
                                     
                                                                             
                                            jednoducho Blanka
                                     
                                                                             
                                            Andrej H.
                                     
                                                                             
                                            o (ne)bežnostiach
                                     
                                                                   
                     Obľúbené stránky 
                    
                     
                                                 
                                            Artforum
                                     
                                                                             
                                            Lemon
                                     
                                                                             
                                            martinus
                                     
                                                                             
                                            Astrid Hagen Look Down
                                     
                                                                             
                                            farebný svet čačiek
                                     
                                                                             
                                            blogotheque/takeawayvideo
                                     
                                                                             
                                            pol photo
                                     
                                                                             
                                            slnko records
                                     
                                                                             
                                            LP
                                     
                                                                             
                                            Staré Divadlo v Nitre
                                     
                                                                             
                                            sem
                                     
                                                                             
                                            tu
                                     
                                                                             
                                            Pod vŕškom
                                     
                                                                             
                                            Murakami web
                                     
                                                                             
                                            nitrianska galéria
                                     
                                                                             
                                            radiohead lyrics
                                     
                                                                             
                                            do uší
                                     
                                                                             
                                            na východ
                                     
                                                                             
                                            Rena Efendi
                                     
                                                                             
                                            Človek v ohrození
                                     
                                                                             
                                            hedvabna stezka
                                     
                                                                             
                                            couchsurfing
                                     
                                                                             
                                            divadelná nitra
                                     
                                                                             
                                            filmová databáza
                                     
                                                                             
                                            freejam
                                     
                                                                             
                                            psychedelic cirkus
                                     
                            
             
         
            

           
     Pošlite odkaz blogerovi 
    
         
            
         

         
         
         
         

         
         
Odosielateľ (e-mail)
 
         
Text
 
         
             
Protispamová ochrana 
 
 Zle. Skúste znova. 
Opíšte slová z obrázku: Načítať iné slová 
 Get an image CAPTCHA 
 
 
         
                 
            
         
    
  


 

     






            
    
        
    
 

        
         
         
             Už ste čítali? 
         
         
 

 kultura.sme.sk 
 Margaréta sa spriahla s diablom, no mala Kristovu pravdu 
 
 

 www.sme.sk 
 Pútnické miesta The Beatles alebo ako ľudia kráčajú po zebre 
 
 

 cestovanie.sme.sk 
 Lovia za svitania a v hmle 
 
 

 www.sme.sk 
 Ako sa valila lavína slobody. Ako padal komunizmus 
 
 

 kultura.sme.sk 
 Žiadne retro, poriadny biznis. Takto sa lisuje platňa 
 
	   
 


        
         
            
         

     

    
     
 
 
	 

		Kontakty
		Predplatné
		Etický kódex
		Pomoc
		Mapa stránky
		
	 
 
 
	 
		 
			Widget
			RSS
			Newsletter
		 
		 
			Mobil
			Smartphone
			Kindle
			Televízor
		 
		 
			Facebook
			Twitter
			Google+
		 
	 
	 
		
	 
	 
		Ďalšie weby skupiny: Prihlásenie do Post.sk
		Új Szó Slovak Spectator
		Agentúrne správy 
		Vydavateľstvo
		Inzercia
		Osobné údaje
		Návštevnosť webu
		Predajnosť tlače
		Petit Academy
		SME v škole 		© Copyright 1997-2014 Petit Press, a.s. 
	 
 
 
 


          
        
            
            

        
    

    
    


    


    
        
        
        
        
        
        
        
            
            
        
        
        
        
         
                                
               





 

 



        

 




