
      
    
    

     
	 
	 
 SME.sk 
 Zľavy 
 Zoznámenie 
 Reality 
 Dovolenky 
 Pizza 
 Reštaurácie 
 Recenzie 
 Inzeráty 
 Naničmama 	 
Nákupy 
		 
 Filmy na DVD 
 Hodinky 
 Parfémy 
 SME knihy a DVD 
 Superhosting 
 Tlačiareň 
 Víno 
 Tvorba webov 
 Predplatné SME 
 ProSenior 		 
	 
	 
 
	 
 


    
    
        
        
         
          
         
    

    
      
         
            
             
     
        
        
     
    Blog.SME.sk
 

    

         
        
                 
     
         
            Sme.sk
         
         
            Domov
         
         
            Regióny
         
         
            Ekonomika
         
         
            Svet
         
         
            Komentáre
         
         
            Kultúra
         
         
            Šport
         
         
            TV
         
         
            Auto
         
         
            Tech
         
         
            Poradňa
         
         
            Žena
         
         
            Bývanie
         
         
            Zdravie
         
         
            Blog
         
     
 

         
            
     
                                                         Politika 
                                                                                     Spoločnosť 
                                                                                     Cestovanie 
                                                                                     Ekonomika 
                                                                                     Fotografie 
                                                                                     Jedlo 
                                                                                     Kultúra 
                                                                                             
Ďalšie
                             
                                                                                         Lifestyle 
                                                                                                                                                                             Médiá 
                                                                                                                                                                             Nezaradené 
                                                                                                                                                                             Súkromné 
                                                                                                                                                                             Šport 
                                                                                                                                                                             Veda a technika 
                                                                                                                                                                             Zábava 
                                                                                                                                                                             Poézia 
                                                                                                                                                                             Próza 
                                                                                                                                                                             Kódex blogera 
                                                                                 
                         
                                                 
            Blogeri
         
     


            

    
    Prihlásiť sa


    
    Založte si blog



    
    Odhlásiť sa


    
    




         

        
        
         
            
         
         
                
     
                 
            SME.sk &gt;
            Blog.SME.sk &gt;
                            Gabo Németh
                                        &gt;
                Súkromné
                     
                 Predvolebná nôta - Kto je Ján Slota 

        
            
                                    6.5.2010
            o
            20:21
                        (upravené
                8.5.2010
                o
                17:55)
                        |
            Karma článku:
                3.81
            |
            Prečítané 
            431-krát
                    
         
     
         
             

                 
                    Predvolebný bilbord SNS / s potetovaným Rómom /, je  je najnovším trhákom, ktorým Ján Slota  pohoršil mnohých.
                 

                 Je, až pritiahnuté za vlasy, ako strana SNS bojuje o svojich voličov. Používa všetky zbrane a účinok ako sa zdá bude opačný. Tento bilbord s podtextom " Aby sme nekrmili tých, čo nechcú pracovať " pohoršil nielen samotných občanov voličov, ale i pozíciu a hlavne  samotných Rómov, ktorí od Jána Slotu žiadajú  verejné ospravedlnenie. SMK upozornila prokuratúru na prešetrenie skutočnosti, či predvolebné bilbordy SNS, nie sú s rozporom so zákonom.   Tak Ján Slota ukázal v sebe naozajstného paprláka a obyčajného showmena, ktorý  s európskou politikou nemá vonkoncom nič spoločné. Bilbordy takého to razenia sú iba obyčajnou fraškou Jána Slotu. Ten pochybujem, že takýmto predvolebným ťahom pritiahne na stranu SNS svojich voličov. Tu už presahuje ľudská hlúposť všetky hranice.  Ján Slota opäť  ukázal, že nie je  politikom. Čím je Ján Slota naozaj?. Takto oslovovať svojich voličov  je naozaj  pod ľudskú úroveň. Ján Slota iba potvrdil jediné je iba bábkou svojej strany, ktorý si robí z politiky iba veľkú srandu a zábava sa na úkor iných. Vždy sa takáto zábava nevyplatí. Strana SNS ukázala, že kráča zlou cestou,  o čom svedčí  nielen predvolebný bilbord SNS,  pred júnovými parlamentnými voľbami 2010, ale celkové správanie na politickom fóre jeho predsedu Jána Slotu.       Ak sa jeden politik, akým je predseda SNS Ján Slota,  takto správa, aký predvolebný program môže mať jeho politická strana? Až ma pichá pri srdci. Jedno je isté pre mňa táto partička Jána Slotu nie je kóšer. A ľudia by sa naozaj mali zamyslieť, či SNS budú voliť, či ich posunú nad päť percentnú hranicu do parlamentu. Politika a showmenstvo akosi dokopy nejde a Ján Slota si jednoznačne zmýlil povolanie.   SNS nie je stranou do parlamentu, tobôž než politickou stranou, ktorá by mala reprezentovať Slovensko. Voľba a šanca voliť svojich zástupcov je v rukách samotných voličov. Strana SNS doteraz nepotvrdila, že háji záujmy voličov. Ide jej o niečo úplne iné a to by sme pred volebnými urnami mali mať na zreteli. 

                 
                                        
                        
                        Zdieľať
                    

                    
                            
                                    
                                    Zdieľať na
                            
                             
                                    
                             
                    

                                                                                                                        
                            
                            Diskusia: (0)
                        
                    
                    
                        
                        Zvýšte karmu
                    
                 
             

                             
            
                     
                         Ďalšie články blogera 
                         
                                                             
                                    
                    	                                                                                        

                                                                        
                                    
                                        Gabo Németh 
                                        
                                            Spomienky a čas
                                        
                                    
                                 
                                                             
                                    
                    	                                                                                        

                                                                        
                                    
                                        Gabo Németh 
                                        
                                            Plač kvetov
                                        
                                    
                                 
                                                             
                                    
                    	                                                                                        

                                                                        
                                    
                                        Gabo Németh 
                                        
                                            Nočná návšteva
                                        
                                    
                                 
                                                             
                                    
                    	                                                                                        

                                                                        
                                    
                                        Gabo Németh 
                                        
                                            Spomienky
                                        
                                    
                                 
                                                             
                                    
                    	                                                                                        

                                                                        
                                    
                                        Gabo Németh 
                                        
                                            Dušičková
                                        
                                    
                                 
                                                     
                        
                            Ďalšie články blogera: Gabo Németh
                        
                     
            
                     
                         Ďalšie články z rubriky politika 
                         
                                                             
                                    
                                                            	                                                                                        

                                                                                                
                                    
                                        Tomáš Hudec 
                                        
                                            Chceme zvýšiť účasť ľudí vo voľbách? Zaveďme eVoľby!
                                        
                                    
                                 
                                                             
                                    
                                                            	                                                                                        

                                                                                                
                                    
                                        Robert Bestro 
                                        
                                            Výmena vedenia parlamentu zjavne prospela
                                        
                                    
                                 
                                                             
                                    
                                                            	                                                                                        

                                                                                                
                                    
                                        Júlia Piraňa Mikolášiková 
                                        
                                            Obvinia ďalšiu novinárku z údajného ohovárania policajného šéfa Ševčíka?
                                        
                                    
                                 
                                                             
                                    
                                                            	                                                                                        

                                                                                                
                                    
                                        Stanislav Martinčko 
                                        
                                            Stužka z kvetinárstva za 16 centov a rozkradnuté milióny!!
                                        
                                    
                                 
                                                             
                                    
                                                            	                                                                                        

                                                                                                
                                    
                                        Veronika Remisova 
                                        
                                            Elektronické mýto podľa Ficovej vlády – prehľadnejšie sa to skrátka nedá
                                        
                                    
                                 
                                                     
                        
                            Ďalšie články z rubriky politika
                        
                     
                 
            
                    
 
     Hlavné správy 
         
        
                                

        
         
            AKTUALIZOVANÉ O 20:00
             Rubeľ pocítil pád na dno, Rusko je vo finančnej kríze 
             Dolár včera stál už takmer 80 rubľov, pod hladinu ho tlačia najmä nízke ceny ropy. 
         
     
         
        
                                

        
         
            ZAHRANIČIE
             Taliban zaútočil na citlivé miesto Pakistanu. Na deti 
             Taliban zabil v škole v Pakistane najmenej 141 ľudí, väčšinou deti. 
         
     
         
        
                                

        
         
            KOMENTARE.SME.SK
             Cynická obluda: Medzičasom na opustenom ostrove 
             Stroskotanci majú veľké šťastie, že sú dvaja. Lacné vtipy na úrovni ich autora. 
         
     
     

                 
     
    
     
        
 

     
                
                            
                    



         
            
                Gabo Németh
            
         
        gabonemeth.blog.sme.sk (rss)
         
                                     
     
         profesionálny knihovník, básnik, spisovateľ, od roku 2006 člen Spolku slovenských spisovateľov. Vydal básnické zbierky: Za súmraku, Slnko nad básňou, Rodinný album. Venuje sa duchovnej poézii. Chce byť pokračovateľom katolíckej moderny. 
        
     
     
                     
                             
             

     
        
            
                
                    Počet článkov
                    917
                
                
                    Celková karma
                    
                                                2.75
                    
                
                
                    Priemerná čítanosť
                    335
                
            
        
     

             

             Zoznam rubrík 
            
             
                                     
                        
                            denná čítannosť
                        
                     
                                     
                        
                            -
                        
                     
                                     
                        
                            -
                        
                     
                                     
                        
                            -
                        
                     
                                     
                        
                            -
                        
                     
                                     
                        
                            Súkromné
                        
                     
                                     
                        
                            A300
                        
                     
                             
         
    

                     
                        
                                                            
                     Obľúbené články 
                    
                     
                                                 
                                             
                                     
                                                                             
                                            len a len dobré knihy
                                     
                                                                             
                                             
                                     
                                                                             
                                             
                                     
                                                                             
                                             
                                     
                                                                             
                                             
                                     
                                                                             
                                             
                                     
                                                                             
                                            o politike  vôbec
                                     
                                                                             
                                            o politike  vôbec
                                     
                                                                             
                                             
                                     
                                                                             
                                            denník Sme všetky články
                                     
                                                                             
                                             
                                     
                                                                   
                     Obľúbené knihy 
                    
                     
                                                 
                                            Skôr než zaspím od S.J. Watson
                                     
                                                                   
                     Čo práve počúvam 
                    
                     
                                                 
                                            Queen
                                     
                                                                   
                     Obľúbené stránky 
                    
                     
                                                 
                                            blog spisovateľky Miroslavy Varáčkovej
                                     
                                                                             
                                             
                                     
                                                                             
                                             
                                     
                                                                             
                                            všetky dobré a kvalitné blogy na Sme.sk
                                     
                                                                             
                                            facebook
                                     
                            
             
         
            

             
             Čo ma zaujalo 
            Týmto článkom bloger klikol/klikla na karmu.
             
                                                         
                       Muž z kríža
                     
                                                         
                       Spomienky a čas
                     
                                                         
                       Jesenné dotyky
                     
                                                         
                       Plač kvetov
                     
                                                         
                       Nočná návšteva
                     
                                                         
                       Spomienky
                     
                                                         
                       Na prechádzke
                     
                                                         
                       Dušičková
                     
                                                         
                       Ranný obraz
                     
                                                         
                       Po stopách vlastného príbehu
                     
                             
         
           
     Pošlite odkaz blogerovi 
    
         
            
         

         
         
         
         

         
         
Odosielateľ (e-mail)
 
         
Text
 
         
             
Protispamová ochrana 
 
 Zle. Skúste znova. 
Opíšte slová z obrázku: Načítať iné slová 
 Get an image CAPTCHA 
 
 
         
                 
            
         
    
  


 

     






            
    
        
    
 

        
         
         
             Už ste čítali? 
         
         
 

 kultura.sme.sk 
 Margaréta sa spriahla s diablom, no mala Kristovu pravdu 
 
 

 www.sme.sk 
 Pútnické miesta The Beatles alebo ako ľudia kráčajú po zebre 
 
 

 cestovanie.sme.sk 
 Lovia za svitania a v hmle 
 
 

 www.sme.sk 
 Ako sa valila lavína slobody. Ako padal komunizmus 
 
 

 kultura.sme.sk 
 Žiadne retro, poriadny biznis. Takto sa lisuje platňa 
 
	   
 


        
         
            
         

     

    
     
 
 
	 

		Kontakty
		Predplatné
		Etický kódex
		Pomoc
		Mapa stránky
		
	 
 
 
	 
		 
			Widget
			RSS
			Newsletter
		 
		 
			Mobil
			Smartphone
			Kindle
			Televízor
		 
		 
			Facebook
			Twitter
			Google+
		 
	 
	 
		
	 
	 
		Ďalšie weby skupiny: Prihlásenie do Post.sk
		Új Szó Slovak Spectator
		Agentúrne správy 
		Vydavateľstvo
		Inzercia
		Osobné údaje
		Návštevnosť webu
		Predajnosť tlače
		Petit Academy
		SME v škole 		© Copyright 1997-2014 Petit Press, a.s. 
	 
 
 
 


          
        
            
            

        
    

    
    


    


    
        
        
        
        
        
        
        
            
            
        
        
        
        
         
                                
               





 

 



        

 




