
      
    
    

     
	 
	 
 SME.sk 
 Zľavy 
 Zoznámenie 
 Reality 
 Dovolenky 
 Pizza 
 Reštaurácie 
 Recenzie 
 Inzeráty 
 Naničmama 	 
Nákupy 
		 
 Filmy na DVD 
 Hodinky 
 Parfémy 
 SME knihy a DVD 
 Superhosting 
 Tlačiareň 
 Víno 
 Tvorba webov 
 Predplatné SME 
 ProSenior 		 
	 
	 
 
	 
 


    
    
        
        
         
          
         
    

    
      
         
            
             
     
        
        
     
    Blog.SME.sk
 

    

         
        
                 
     
         
            Sme.sk
         
         
            Domov
         
         
            Regióny
         
         
            Ekonomika
         
         
            Svet
         
         
            Komentáre
         
         
            Kultúra
         
         
            Šport
         
         
            TV
         
         
            Auto
         
         
            Tech
         
         
            Poradňa
         
         
            Žena
         
         
            Bývanie
         
         
            Zdravie
         
         
            Blog
         
     
 

         
            
     
                                                         Politika 
                                                                                     Spoločnosť 
                                                                                     Cestovanie 
                                                                                     Ekonomika 
                                                                                     Fotografie 
                                                                                     Jedlo 
                                                                                     Kultúra 
                                                                                             
Ďalšie
                             
                                                                                         Lifestyle 
                                                                                                                                                                             Médiá 
                                                                                                                                                                             Nezaradené 
                                                                                                                                                                             Súkromné 
                                                                                                                                                                             Šport 
                                                                                                                                                                             Veda a technika 
                                                                                                                                                                             Zábava 
                                                                                                                                                                             Poézia 
                                                                                                                                                                             Próza 
                                                                                                                                                                             Kódex blogera 
                                                                                 
                         
                                                 
            Blogeri
         
     


            

    
    Prihlásiť sa


    
    Založte si blog



    
    Odhlásiť sa


    
    




         

        
        
         
            
         
         
                
     
                 
            SME.sk &gt;
            Blog.SME.sk &gt;
                            Michal Cenker
                                        &gt;
                Politika
                     
                 Nie ste fešák, ani nehráte fér. 

        
            
                                    15.3.2010
            o
            16:03
                        (upravené
                15.3.2010
                o
                16:08)
                        |
            Karma článku:
                7.38
            |
            Prečítané 
            1416-krát
                    
         
     
         
             

                 
                    Koľko sme sa to napočúvali, že SAS chce byť iná, lepšia, férová, čistá, ...... A aká je skutočnosť?
                 

                 Krajcer vstupuje do politiky. Kandiduje. Že ste o tom pred týždňom, dvoma, nepočuli, keď SAS predstavila svoju kandidátnu listinu?   Nepočuli lebo Sulík and co. nám tu potrebovala zahrať pekne trápne marketingové divadielko. Len aby upútali mediálnu pozornosť, tak si počkali do včera, keď sa do polnoci museli odovzdať kandidátne listiny.   Hlavne, že sú iní, féroví.   A že si Krajcer pred týždňom pozval do svojej politickej relácie "NÁHODOU" ako hosťa stranu, za ktorú kandiduje?   To je čistota a férovosť ako vyšitá.   So stranou SAS ešte Slovensko zle dopadne. Je totiž absolútne (s výnimkou odvodového bonusu) nečitateľná. Všetko robí len na základe prieskumov verejnej mienky.   Ľudia nechcú komunistov a ŠTB-ákov? Dáme si do stanov. Mladí chcú fajčiť beztrestne marišku? Dáme do programu. Ľudom sa nepáči, že sme chceli vo vláde HZDS? Zvalíme to na novinárov, že to zle pochopili, že to bolo len akože.   Lenže vládnuť sa nedá cez prieskumy. Keď raz za niečo v parlamente zahlasujete, darmo si večer na diskusiách a blogoch SME prečítate, že je to blbosť. Čo z toho, že prieskum verejnej mienky to po týždni potvrdí.   Pri vážnych veciach bude neskoro a veci sa nebudú dať vrátiť späť.   Pán Sulík by si mal uvedomiť, že nepodniká. Nemôže sa v politike hrať na zisk alebo stratu, riskovať či obchod vyjde alebo nie.   V podnikaní príde maximálne tak o svoje peniaze. Ale ak to v politike svojimi nerozvážnymi krokmi pohnojí čo i len raz, pohnojí to kvalitne.   A nielen priaznivcom SAS klesne potom sánka. Im však v prvom momente len z prekvapenia. Nám ostatným z toho, kam nás svojou voľbu dostali. 

                 
                                        
                        
                        Zdieľať
                    

                    
                            
                                    
                                    Zdieľať na
                            
                             
                                    
                             
                    

                                                                                                                        
                            
                            Diskusia: (127)
                        
                    
                    
                        
                        Zvýšte karmu
                    
                 
             

                             
            
                     
                         Ďalšie články blogera 
                         
                                                             
                                    
                    	                                                                                        

                                                                        
                                    
                                        Michal Cenker 
                                        
                                            Mestská polícia - logická hádanka
                                        
                                    
                                 
                                                             
                                    
                    	                                                                                        

                                                                        
                                    
                                        Michal Cenker 
                                        
                                            Vitajme v Slovenskom Futbalovom baZmekistane? Uvidíme.
                                        
                                    
                                 
                                                             
                                    
                    	                                                                                        

                                                                        
                                    
                                        Michal Cenker 
                                        
                                            Prečo pravica nepotrebuje pomoc od Krajcera?
                                        
                                    
                                 
                                                             
                                    
                    	                                                                                        

                                                                        
                                    
                                        Michal Cenker 
                                        
                                            Dokedy bude ešte Kaliňák ministrom, resp. behať po slobode?
                                        
                                    
                                 
                                                             
                                    
                    	                                                                                        

                                                                        
                                    
                                        Michal Cenker 
                                        
                                            Ako sa nám nasrdený Kaliňák rozrozprával
                                        
                                    
                                 
                                                     
                        
                            Ďalšie články blogera: Michal Cenker
                        
                     
            
                     
                         Ďalšie články z rubriky politika 
                         
                                                             
                                    
                                                            	                                                                                        

                                                                                                
                                    
                                        Tomáš Hudec 
                                        
                                            Chceme zvýšiť účasť ľudí vo voľbách? Zaveďme eVoľby!
                                        
                                    
                                 
                                                             
                                    
                                                            	                                                                                        

                                                                                                
                                    
                                        Robert Bestro 
                                        
                                            Výmena vedenia parlamentu zjavne prospela
                                        
                                    
                                 
                                                             
                                    
                                                            	                                                                                        

                                                                                                
                                    
                                        Júlia Piraňa Mikolášiková 
                                        
                                            Obvinia ďalšiu novinárku z údajného ohovárania policajného šéfa Ševčíka?
                                        
                                    
                                 
                                                             
                                    
                                                            	                                                                                        

                                                                                                
                                    
                                        Stanislav Martinčko 
                                        
                                            Stužka z kvetinárstva za 16 centov a rozkradnuté milióny!!
                                        
                                    
                                 
                                                             
                                    
                                                            	                                                                                        

                                                                                                
                                    
                                        Veronika Remisova 
                                        
                                            Elektronické mýto podľa Ficovej vlády – prehľadnejšie sa to skrátka nedá
                                        
                                    
                                 
                                                     
                        
                            Ďalšie články z rubriky politika
                        
                     
                 
            
                    
 
     Hlavné správy 
         
        
                                

        
         
            AKTUALIZOVANÉ 16:00
             Rubeľ kolabuje, ruská vláda má mimoriadne rokovať 
             Jeden dolár stál v utorok poobede už viac ako 78 rubľov, razantné zvýšenie úrokov nepomohlo. 
         
     
         
        
                                

        
         
            ZAHRANIČIE
             Taliban zabil v škole v Pakistane vyše sto ľudí, väčšinou deti 
             Militanti vtrhli do vojenskej školy v policajných rovnošatách. 
         
     
         
        
                                

        
         
            KOMENTARE.SME.SK
             Cynická obluda: Medzičasom na opustenom ostrove 
             Stroskotanci majú veľké šťastie, že sú dvaja. Lacné vtipy na úrovni ich autora. 
         
     
     

                 
     
    
     
        
 

     
                
                            
                    



         
            
                Michal Cenker
            
         
        michalcenker.blog.sme.sk (rss)
         
                                     
     
        ak blog nebodaj nieco zmeni, bude fajn
        
     
     
                     
                             
             

     
        
            
                
                    Počet článkov
                    72
                
                
                    Celková karma
                    
                                                0.00
                    
                
                
                    Priemerná čítanosť
                    1702
                
            
        
     

             

             Zoznam rubrík 
            
             
                                     
                        
                            Carrefour
                        
                     
                                     
                        
                            Doprava
                        
                     
                                     
                        
                            Fotografie
                        
                     
                                     
                        
                            Hypernova
                        
                     
                                     
                        
                            Médiá
                        
                     
                                     
                        
                            Politika
                        
                     
                                     
                        
                            Tesco
                        
                     
                                     
                        
                            Nezaradené
                        
                     
                             
         
    

    

           
     Pošlite odkaz blogerovi 
    
         
            
         

         
         
         
         

         
         
Odosielateľ (e-mail)
 
         
Text
 
         
             
Protispamová ochrana 
 
 Zle. Skúste znova. 
Opíšte slová z obrázku: Načítať iné slová 
 Get an image CAPTCHA 
 
 
         
                 
            
         
    
  


 

     






            
    
        
    
 

        
         
         
             Už ste čítali? 
         
         
 

 kultura.sme.sk 
 Margaréta sa spriahla s diablom, no mala Kristovu pravdu 
 
 

 www.sme.sk 
 Pútnické miesta The Beatles alebo ako ľudia kráčajú po zebre 
 
 

 cestovanie.sme.sk 
 Lovia za svitania a v hmle 
 
 

 www.sme.sk 
 Ako sa valila lavína slobody. Ako padal komunizmus 
 
 

 kultura.sme.sk 
 Žiadne retro, poriadny biznis. Takto sa lisuje platňa 
 
	   
 


        
         
            
         

     

    
     
 
 
	 

		Kontakty
		Predplatné
		Etický kódex
		Pomoc
		Mapa stránky
		
	 
 
 
	 
		 
			Widget
			RSS
			Newsletter
		 
		 
			Mobil
			Smartphone
			Kindle
			Televízor
		 
		 
			Facebook
			Twitter
			Google+
		 
	 
	 
		
	 
	 
		Ďalšie weby skupiny: Prihlásenie do Post.sk
		Új Szó Slovak Spectator
		Agentúrne správy 
		Vydavateľstvo
		Inzercia
		Osobné údaje
		Návštevnosť webu
		Predajnosť tlače
		Petit Academy
		SME v škole 		© Copyright 1997-2014 Petit Press, a.s. 
	 
 
 
 


          
        
            
            

        
    

    
    


    


    
        
        
        
        
        
        
        
            
            
        
        
        
        
         
                                
               





 

 



        

 




