
      
    
    

     
	 
	 
 SME.sk 
 Zľavy 
 Zoznámenie 
 Reality 
 Dovolenky 
 Pizza 
 Reštaurácie 
 Recenzie 
 Inzeráty 
 Naničmama 	 
Nákupy 
		 
 Filmy na DVD 
 Hodinky 
 Parfémy 
 SME knihy a DVD 
 Superhosting 
 Tlačiareň 
 Víno 
 Tvorba webov 
 Predplatné SME 
 ProSenior 		 
	 
	 
 
	 
 


    
    
        
        
         
          
         
    

    
      
         
            
             
     
        
        
     
    Blog.SME.sk
 

    

         
        
                 
     
         
            Sme.sk
         
         
            Domov
         
         
            Regióny
         
         
            Ekonomika
         
         
            Svet
         
         
            Komentáre
         
         
            Kultúra
         
         
            Šport
         
         
            TV
         
         
            Auto
         
         
            Tech
         
         
            Poradňa
         
         
            Žena
         
         
            Bývanie
         
         
            Zdravie
         
         
            Blog
         
     
 

         
            
     
                                                         Politika 
                                                                                     Spoločnosť 
                                                                                     Cestovanie 
                                                                                     Ekonomika 
                                                                                     Fotografie 
                                                                                     Jedlo 
                                                                                     Kultúra 
                                                                                             
Ďalšie
                             
                                                                                         Lifestyle 
                                                                                                                                                                             Médiá 
                                                                                                                                                                             Nezaradené 
                                                                                                                                                                             Súkromné 
                                                                                                                                                                             Šport 
                                                                                                                                                                             Veda a technika 
                                                                                                                                                                             Zábava 
                                                                                                                                                                             Poézia 
                                                                                                                                                                             Próza 
                                                                                                                                                                             Kódex blogera 
                                                                                 
                         
                                                 
            Blogeri
         
     


            

    
    Prihlásiť sa


    
    Založte si blog



    
    Odhlásiť sa


    
    




         

        
        
         
            
         
         
                
     
                 
            SME.sk &gt;
            Blog.SME.sk &gt;
                            Zuzana Šubová
                                        &gt;
                Privat
                     
                 Najkrajšie stromy sú na Horehroní 

        
            
                                    13.3.2010
            o
            16:16
                        (upravené
                13.3.2010
                o
                17:40)
                        |
            Karma článku:
                0.00
            |
            Prečítané 
            2554-krát
                    
         
     
         
             

                 
                    Deratizácia lacno a so stopercentnou účinnosťou. Vyskúšané.   Domáca pohoda. Facebook, youtube a dobre socializované domáce zvieratká. Sedím pri počítači, počúvam hudbu a pri mne naše dva domáce potkany chrumkajú piškoty.  Zrazu upozornenie: "Si jediná na Slovensku, čo ešte nepočula stromy na Horehroní!" A ups, tak to treba napraviť, youtube to istí...Br, otrasiem sa...ale ide to ďalej...   Potkany sa tiež započúvali. Ako jeden pustili piškoty /to ešte v živote neurobili/, skočili zo stola a vyrazili z izby von. Po vypnutí eurovizijného hitu hlodavce zastali, počkali, kým som im doniesla piškoty a dobrovolne sa nechali zavrieť do klietky.   Takže - ak máte na Horehroní či Orave prebytok hlodavcov, lacná a účinná deratizácia je na youtube a vraj aj kdesi čosi vyhrala.
                 

                 
  
 

                 
                                        
                        
                        Zdieľať
                    

                    
                            
                                    
                                    Zdieľať na
                            
                             
                                    
                             
                    

                                                                                                                        
                            
                            Diskusia: (96)
                        
                    
                    
                        
                        Zvýšte karmu
                    
                 
             

                             
            
                     
                         Ďalšie články blogera 
                         
                                                             
                                    
                    	                                                                                        

                                                                        
                                    
                                        Zuzana Šubová 
                                        
                                            Od inakiaľ XVIII
                                        
                                    
                                 
                                                             
                                    
                    	                                                                                        

                                                                        
                                    
                                        Zuzana Šubová 
                                        
                                            Domov sú ruky, na ktorých smieš plakať...
                                        
                                    
                                 
                                                             
                                    
                    	                                                                                        

                                                                        
                                    
                                        Zuzana Šubová 
                                        
                                            Príspevok z kuchyne k výročiu Veľkého Novembra
                                        
                                    
                                 
                                                             
                                    
                    	                                                                                        

                                                                        
                                    
                                        Zuzana Šubová 
                                        
                                            Osudové okamžiky
                                        
                                    
                                 
                                                             
                                    
                    	                                                                                        

                                                                        
                                    
                                        Zuzana Šubová 
                                        
                                            Veď nejde o život
                                        
                                    
                                 
                                                     
                        
                            Ďalšie články blogera: Zuzana Šubová
                        
                     
            
                     
                         Ďalšie články z rubriky zábava 
                         
                                                             
                                    
                                                            	                                                                                        

                                                                                                
                                    
                                        Jozef Bednár 
                                        
                                            Ako Mikuláš moju dcérku o čižmičku „obral“
                                        
                                    
                                 
                                                             
                                    
                                                            	                                                                                        

                                                                                                
                                    
                                        Daniela Paculíková 
                                        
                                            Aké sú vaše topánky?
                                        
                                    
                                 
                                                             
                                    
                                                            	                                                                                        

                                                                                                
                                    
                                        Marian Letko 
                                        
                                            Maroško to má rád zozadu
                                        
                                    
                                 
                                                             
                                    
                                                            	                                                                                        

                                                                                                
                                    
                                        Fero Škoda 
                                        
                                            Nemecký vlog o horách, vode a takmer stratených nervoch
                                        
                                    
                                 
                                                             
                                    
                                                            	                                                                                        

                                                                                                
                                    
                                        Ján Vilček 
                                        
                                            Kritizovať politiku Absurdistanu inotajmi absurdít
                                        
                                    
                                 
                                                     
                        
                            Ďalšie články z rubriky zábava
                        
                     
                 
            
                    
 
     Hlavné správy 
         
        
                                

        
         
            AKTUALIZOVANÉ 16:00
             Rubeľ kolabuje, ruská vláda má mimoriadne rokovať 
             Jeden dolár stál v utorok poobede už viac ako 78 rubľov, razantné zvýšenie úrokov nepomohlo. 
         
     
         
        
                                

        
         
            ZAHRANIČIE
             Taliban zabil v škole v Pakistane vyše sto ľudí, väčšinou deti 
             Militanti vtrhli do vojenskej školy v policajných rovnošatách. 
         
     
         
        
                                

        
         
            KOMENTARE.SME.SK
             Cynická obluda: Medzičasom na opustenom ostrove 
             Stroskotanci majú veľké šťastie, že sú dvaja. Lacné vtipy na úrovni ich autora. 
         
     
     

                 
     
    
     
        
 

     
                
                            
                    



         
            
                Zuzana Šubová
            
         
        subova.blog.sme.sk (rss)
         
                        VIP
                             
     
        Nealternatívna mamina

        
     
     
                     
                             
             

     
        
            
                
                    Počet článkov
                    585
                
                
                    Celková karma
                    
                                                9.02
                    
                
                
                    Priemerná čítanosť
                    1919
                
            
        
     

             

             Zoznam rubrík 
            
             
                                     
                        
                            Nie súkromné
                        
                     
                                     
                        
                            Pod bielym krížom
                        
                     
                                     
                        
                            Služobne
                        
                     
                                     
                        
                            Damals
                        
                     
                                     
                        
                            Privat
                        
                     
                             
         
    

                     
                        
                                                            
                     Obľúbené články 
                    
                     
                                                 
                                            o rakovine pri pive
                                     
                                                                             
                                            moja videovizitka
                                     
                                                                             
                                            Recenzia na Pána Prsteňov 1977
                                     
                                                                             
                                            Epitaf
                                     
                                                                   
                     Čo práve počúvam 
                    
                     
                                                 
                                            Falco
                                     
                                                                             
                                            Karel Kryl
                                     
                                                                             
                                            Daniel Landa
                                     
                                                                   
                     Obľúbené blogy 
                    
                     
                                                 
                                            Apollo
                                     
                                                                             
                                            Lujza
                                     
                                                                             
                                            fan
                                     
                                                                             
                                            Hliva
                                     
                                                                             
                                            Kar-ma
                                     
                                                                             
                                            waboviny
                                     
                                                                             
                                            štvorica
                                     
                                                                             
                                            vlčko
                                     
                                                                             
                                            stranger
                                     
                                                                             
                                            štvorlístok
                                     
                                                                             
                                            germa píše
                                     
                                                                             
                                            Maroško bloguje
                                     
                                                                             
                                            Ywka
                                     
                                                                             
                                            Čára
                                     
                                                                             
                                            Halúzky zo života
                                     
                            
             
         
            

             
             Čo ma zaujalo 
            Týmto článkom bloger klikol/klikla na karmu.
             
                                                         
                       Varíme s medveďom - Rok v kuchyni
                     
                                                         
                       Domov sú ruky, na ktorých smieš plakať...
                     
                                                         
                       Okolo nedeľného obeda
                     
                                                         
                       Žiť si na morskej MHD
                     
                                                         
                       Tak vchádza svetlo je kanadská severská krimi
                     
                                                         
                       Nechceme podnikať, chceme pracovať pre euroinštitúcie
                     
                                                         
                       Grabstein - nem. náhrobný kameň
                     
                                                         
                       O čase a bytí
                     
                                                         
                       Bratislavčanka
                     
                                                         
                       Ľudia nechápu.
                     
                             
         
        

     






            
    
        
    
 

        
         
         
             Už ste čítali? 
         
         
 

 kultura.sme.sk 
 Margaréta sa spriahla s diablom, no mala Kristovu pravdu 
 
 

 www.sme.sk 
 Pútnické miesta The Beatles alebo ako ľudia kráčajú po zebre 
 
 

 cestovanie.sme.sk 
 Lovia za svitania a v hmle 
 
 

 www.sme.sk 
 Ako sa valila lavína slobody. Ako padal komunizmus 
 
 

 kultura.sme.sk 
 Žiadne retro, poriadny biznis. Takto sa lisuje platňa 
 
	   
 


        
         
            
         

     

    
     
 
 
	 

		Kontakty
		Predplatné
		Etický kódex
		Pomoc
		Mapa stránky
		
	 
 
 
	 
		 
			Widget
			RSS
			Newsletter
		 
		 
			Mobil
			Smartphone
			Kindle
			Televízor
		 
		 
			Facebook
			Twitter
			Google+
		 
	 
	 
		
	 
	 
		Ďalšie weby skupiny: Prihlásenie do Post.sk
		Új Szó Slovak Spectator
		Agentúrne správy 
		Vydavateľstvo
		Inzercia
		Osobné údaje
		Návštevnosť webu
		Predajnosť tlače
		Petit Academy
		SME v škole 		© Copyright 1997-2014 Petit Press, a.s. 
	 
 
 
 


          
        
            
            

        
    

    
    


    


    
        
        
        
        
        
        
        
            
            
        
        
        
        
         
                                
               





 

 



        

 




