

   
 a chodievam s tým noc čo noc  
 do neba za Bohom a pýtam sa 
 ako ti to povedať... 
   
   
 a kým sa tvárim 
 že sa ma netýkaš 
 medzi našimi brehmi slnko zmĺklo 
   
   
 ... 
   
   
 a zrazu divokej rieky niet 
   
   
   
 PREČÍTAJTE SI: NIEČO O MNE:-) 
   

