
      
    
    

     
	 
	 
 SME.sk 
 Zľavy 
 Zoznámenie 
 Reality 
 Dovolenky 
 Pizza 
 Reštaurácie 
 Recenzie 
 Inzeráty 
 Naničmama 	 
Nákupy 
		 
 Filmy na DVD 
 Hodinky 
 Parfémy 
 SME knihy a DVD 
 Superhosting 
 Tlačiareň 
 Víno 
 Tvorba webov 
 Predplatné SME 
 ProSenior 		 
	 
	 
 
	 
 


    
    
        
        
         
          
         
    

    
      
         
            
             
     
        
        
     
    Blog.SME.sk
 

    

         
        
                 
     
         
            Sme.sk
         
         
            Domov
         
         
            Regióny
         
         
            Ekonomika
         
         
            Svet
         
         
            Komentáre
         
         
            Kultúra
         
         
            Šport
         
         
            TV
         
         
            Auto
         
         
            Tech
         
         
            Poradňa
         
         
            Žena
         
         
            Bývanie
         
         
            Zdravie
         
         
            Blog
         
     
 

         
            
     
                                                         Politika 
                                                                                     Spoločnosť 
                                                                                     Cestovanie 
                                                                                     Ekonomika 
                                                                                     Fotografie 
                                                                                     Jedlo 
                                                                                     Kultúra 
                                                                                             
Ďalšie
                             
                                                                                         Lifestyle 
                                                                                                                                                                             Médiá 
                                                                                                                                                                             Nezaradené 
                                                                                                                                                                             Súkromné 
                                                                                                                                                                             Šport 
                                                                                                                                                                             Veda a technika 
                                                                                                                                                                             Zábava 
                                                                                                                                                                             Poézia 
                                                                                                                                                                             Próza 
                                                                                                                                                                             Kódex blogera 
                                                                                 
                         
                                                 
            Blogeri
         
     


            

    
    Prihlásiť sa


    
    Založte si blog



    
    Odhlásiť sa


    
    




         

        
        
         
            
         
         
                
     
                 
            SME.sk &gt;
            Blog.SME.sk &gt;
                            Martin Horanský
                                        &gt;
                Politika
                     
                 Robert Fico a Memorandum o porozumení s OZ Nie ropovodu ... 

        
            
                                    11.5.2010
            o
            13:28
                        (upravené
                11.5.2010
                o
                22:36)
                        |
            Karma článku:
                10.30
            |
            Prečítané 
            2367-krát
                    
         
     
         
             

                 
                    V minulom článku som písal o tom, prečo sa obávame, že Robert Fico nemyslí svoje slová o ropovode úprimne. Teraz prichádza jedinečná možnosť, aby tieto pochybnosti rozplynul (alebo potvrdil).
                 

                 V minulom článku som písal o tom, prečo sa obávame, že Robert Fico nemyslí svoje slová o ropovode úprimne. Teraz prichádza jedinečná možnosť, aby tieto pochybnosti rozplynul (alebo potvrdil).   OZ Nie ropovodu zverejnilo Memorandum o porozumení, v ktorom sa tí, čo ho podpíšu, zaväzujú, že budú chrániť Žitný ostrov a urobia všetko, čo je v ich silách, aby sa jeho stavbe cez toto vzácne územie zastavilo. Jeho znenie nájdete tu:   http://www.nieropovodu.sk/dokumenty/Memorandum_o_porozumeni.pdf   Do dnešného dňa ho podpísali zástupcovia politických strán SDKÚ-DS, Most-Híd a SaS.   POZOR ZMENA:   vo štvrtok 12.5. o 10:00 ideme na Úrad vlády (Námestie Slobody) odovzdať kópiu memoranda pánovi premiérovi.  Poďme sa spolu pozrieť, či si Robert Fico stojí za tým, čo hovorí.   Facebook event                         

                 
                                        
                        
                        Zdieľať
                    

                    
                            
                                    
                                    Zdieľať na
                            
                             
                                    
                             
                    

                                                                                                                        
                            
                            Diskusia: (9)
                        
                    
                    
                        
                        Zvýšte karmu
                    
                 
             

                             
            
                     
                         Ďalšie články blogera 
                         
                                                             
                                    
                    	                                                                                        

                                                                        
                                    
                                        Martin Horanský 
                                        
                                            Kosovo a Srbsko - good news
                                        
                                    
                                 
                                                             
                                    
                    	                                                                                        

                                                                        
                                    
                                        Martin Horanský 
                                        
                                            Never slovenskému Maďarovi! Určite chce maďarské občianstvo!
                                        
                                    
                                 
                                                             
                                    
                    	                                                                                        

                                                                        
                                    
                                        Martin Horanský 
                                        
                                            Bielorusko - stále posledná diktatúra Európy
                                        
                                    
                                 
                                                             
                                    
                    	                                                                                        

                                                                        
                                    
                                        Martin Horanský 
                                        
                                            Protest proti obmedzovaniu slobody internetu v Maďarsku
                                        
                                    
                                 
                                                             
                                    
                    	                                                                                        

                                                                        
                                    
                                        Martin Horanský 
                                        
                                            Robert Fico nepodpísal Memorandum o ochrane Žitného ostrova
                                        
                                    
                                 
                                                     
                        
                            Ďalšie články blogera: Martin Horanský
                        
                     
            
                     
                         Ďalšie články z rubriky politika 
                         
                                                             
                                    
                                                            	                                                                                        

                                                                                                
                                    
                                        Tomáš Hudec 
                                        
                                            Chceme zvýšiť účasť ľudí vo voľbách? Zaveďme eVoľby!
                                        
                                    
                                 
                                                             
                                    
                                                            	                                                                                        

                                                                                                
                                    
                                        Robert Bestro 
                                        
                                            Výmena vedenia parlamentu zjavne prospela
                                        
                                    
                                 
                                                             
                                    
                                                            	                                                                                        

                                                                                                
                                    
                                        Júlia Piraňa Mikolášiková 
                                        
                                            Obvinia ďalšiu novinárku z údajného ohovárania policajného šéfa Ševčíka?
                                        
                                    
                                 
                                                             
                                    
                                                            	                                                                                        

                                                                                                
                                    
                                        Stanislav Martinčko 
                                        
                                            Stužka z kvetinárstva za 16 centov a rozkradnuté milióny!!
                                        
                                    
                                 
                                                             
                                    
                                                            	                                                                                        

                                                                                                
                                    
                                        Veronika Remisova 
                                        
                                            Elektronické mýto podľa Ficovej vlády – prehľadnejšie sa to skrátka nedá
                                        
                                    
                                 
                                                     
                        
                            Ďalšie články z rubriky politika
                        
                     
                 
            
                    
 
     Hlavné správy 
         
        
                                

        
         
            AKTUALIZOVANÉ O 20:00
             Rubeľ pocítil pád na dno, Rusko je vo finančnej kríze 
             Dolár včera stál už takmer 80 rubľov, pod hladinu ho tlačia najmä nízke ceny ropy. 
         
     
         
        
                                

        
         
            ZAHRANIČIE
             Taliban zaútočil na citlivé miesto Pakistanu. Na deti 
             Taliban zabil v škole v Pakistane najmenej 141 ľudí, väčšinou deti. 
         
     
         
        
                                

        
         
            KOMENTARE.SME.SK
             Cynická obluda: Medzičasom na opustenom ostrove 
             Stroskotanci majú veľké šťastie, že sú dvaja. Lacné vtipy na úrovni ich autora. 
         
     
     

                 
     
    
     
        
 

     
                
                            
                    



         
            
                Martin Horanský
            
         
        horansky.blog.sme.sk (rss)
         
                                     
     
        Bc. FMFI UK aplikovaná informatika,
študent FMFI UK - aplikovaná informatika - magisterské št.,
podpredseda Občiansko-demokratická mládež,
člen správnej rady OZ Občan pre demokraciu - projekt Mladý občan.

Verím v osobnú zodpovednosť a slobodu jednotlivca, voľný trh, zdravé podnikateľské prostredie, jednoducho pravicové hodnoty :) Nemám rád socializmus, fašizmus a anarchizmus - extrémy. 

        
     
     
                     
                             
             

     
        
            
                
                    Počet článkov
                    12
                
                
                    Celková karma
                    
                                                0.00
                    
                
                
                    Priemerná čítanosť
                    1963
                
            
        
     

             

             Zoznam rubrík 
            
             
                                     
                        
                            IT
                        
                     
                                     
                        
                            Politika
                        
                     
                                     
                        
                            Súkromné
                        
                     
                                     
                        
                            Nezaradené
                        
                     
                             
         
    

    

             
             Čo ma zaujalo 
            Týmto článkom bloger klikol/klikla na karmu.
             
                                                         
                       Běž domů, Ivane! A už se nevracej
                     
                                                         
                       Ficova blondínka u Kotlebu
                     
                                                         
                       Skvelá Petržalka, skvelé Ovsište
                     
                                                         
                       LEX Kolesík - SMER chce ropovod cez Bratislavu
                     
                                                         
                       Pán Janukovič,  zabudol som sa predstaviť
                     
                                                         
                       Pre Oracle nie sú korupčné obvinenia za biznis so štátom nič nové
                     
                                                         
                       Kaliňákove hlášky
                     
                                                         
                       Všestranný sprievodca po Lisabone a okolí
                     
                                                         
                       V akej krajine to žijeme?!
                     
                                                         
                       Ako sa rozísť s UPC v 40 jednoduchých krokoch
                     
                             
         
        

     






            
    
        
    
 

        
         
         
             Už ste čítali? 
         
         
 

 kultura.sme.sk 
 Margaréta sa spriahla s diablom, no mala Kristovu pravdu 
 
 

 www.sme.sk 
 Pútnické miesta The Beatles alebo ako ľudia kráčajú po zebre 
 
 

 cestovanie.sme.sk 
 Lovia za svitania a v hmle 
 
 

 www.sme.sk 
 Ako sa valila lavína slobody. Ako padal komunizmus 
 
 

 kultura.sme.sk 
 Žiadne retro, poriadny biznis. Takto sa lisuje platňa 
 
	   
 


        
         
            
         

     

    
     
 
 
	 

		Kontakty
		Predplatné
		Etický kódex
		Pomoc
		Mapa stránky
		
	 
 
 
	 
		 
			Widget
			RSS
			Newsletter
		 
		 
			Mobil
			Smartphone
			Kindle
			Televízor
		 
		 
			Facebook
			Twitter
			Google+
		 
	 
	 
		
	 
	 
		Ďalšie weby skupiny: Prihlásenie do Post.sk
		Új Szó Slovak Spectator
		Agentúrne správy 
		Vydavateľstvo
		Inzercia
		Osobné údaje
		Návštevnosť webu
		Predajnosť tlače
		Petit Academy
		SME v škole 		© Copyright 1997-2014 Petit Press, a.s. 
	 
 
 
 


          
        
            
            

        
    

    
    


    


    
        
        
        
        
        
        
        
            
            
        
        
        
        
         
                                
               





 

 



        

 




