

 
   
  ...................................................................foto: Jela Ševecová  
   
  .............Letím, keď ma... 
 .............................................................O kúp ma v sebe ako v zrkadle, 
  ..........................................................P osyp rozkošnými úsmevmi 
 .......................................................A ko vanilkovým cukrom, 
  ....................................................N o a  potom ma celú zjedz! 
 ................................................ T eraz? 
  ............................................ .Á no! 
 ....... ......A  potom  zasa,  veď vie Š... 
  .............................(že smie Š)  
 
  
   
   
 






 

