
      
    
    

     
	 
	 
 SME.sk 
 Zľavy 
 Zoznámenie 
 Reality 
 Dovolenky 
 Pizza 
 Reštaurácie 
 Recenzie 
 Inzeráty 
 Naničmama 	 
Nákupy 
		 
 Filmy na DVD 
 Hodinky 
 Parfémy 
 SME knihy a DVD 
 Superhosting 
 Tlačiareň 
 Víno 
 Tvorba webov 
 Predplatné SME 
 ProSenior 		 
	 
	 
 
	 
 


    
    
        
        
         
          
         
    

    
      
         
            
             
     
        
        
     
    Blog.SME.sk
 

    

         
        
                 
     
         
            Sme.sk
         
         
            Domov
         
         
            Regióny
         
         
            Ekonomika
         
         
            Svet
         
         
            Komentáre
         
         
            Kultúra
         
         
            Šport
         
         
            TV
         
         
            Auto
         
         
            Tech
         
         
            Poradňa
         
         
            Žena
         
         
            Bývanie
         
         
            Zdravie
         
         
            Blog
         
     
 

         
            
     
                                                         Politika 
                                                                                     Spoločnosť 
                                                                                     Cestovanie 
                                                                                     Ekonomika 
                                                                                     Fotografie 
                                                                                     Jedlo 
                                                                                     Kultúra 
                                                                                             
Ďalšie
                             
                                                                                         Lifestyle 
                                                                                                                                                                             Médiá 
                                                                                                                                                                             Nezaradené 
                                                                                                                                                                             Súkromné 
                                                                                                                                                                             Šport 
                                                                                                                                                                             Veda a technika 
                                                                                                                                                                             Zábava 
                                                                                                                                                                             Poézia 
                                                                                                                                                                             Próza 
                                                                                                                                                                             Kódex blogera 
                                                                                 
                         
                                                 
            Blogeri
         
     


            

    
    Prihlásiť sa


    
    Založte si blog



    
    Odhlásiť sa


    
    




         

        
        
         
            
         
         
                
     
                 
            SME.sk &gt;
            Blog.SME.sk &gt;
                            Michal Daniel
                                        &gt;
                Nezaradené
                     
                 Ako Kaliňák nakupuje na trhu s voličmi 

        
            
                                    27.4.2010
            o
            9:36
                        |
            Karma článku:
                14.13
            |
            Prečítané 
            1949-krát
                    
         
     
         
             

                 
                    Páni zo SMERu rozdávajú veselo ďalej ako by sa nechumelilo. Teraz sa môžu tešiť policajti. Kaliňák ich odmení za ich bombovú prácu. Cca 23 000 príslušníkov PZ SR si finančne prilepší.
                 

                 
  
   Veď prečo by aj nie? Štát sa zrejme podľa SMERu zadlžuje pomalým tempom, tak sa snažia čo im sily stačia. Minister vnútra týmto prejavuje vďaku policajtom, ktorí ho podporili pri jeho odvolávaní. Ale to nie je jeho zámer. Zámerom tohto populistického kroku je kúpiť si voličov. Policajt nepolicajt, je to predsa volič. Dokonca 23 000 voličov. Pozrime sa teda na to bližšie.   Kaliňák kúpil na trhu 23 000 hlasov (ak nerátame príslušníkov rodiny policajta, ktorých si týmto kúpil zrejme tiež). Koľko to bude percent vo voľbách?   Máme cca 4 340 000 oprávnených voličov. Predpokladajme 60% účasť vo voľbách, čiže 2 604 000 voličov. Povedzme, že 4 000 hlasov bude neplatných (a to ich bude viac). To znamená 2 600 000 platných hlasov. 23 000 hlasov by v tomto prípade predstavovalo 0,88%. Čo by za to taký Mečiar teraz dal. SMER to nestálo ani cent a prilepšili si skoro o jedno percento.   Ak by neprepadli žiadne hlasy, tak by tých 0,88% znamenalo pre SMER jedného poslanca plus skoro polovicu ďalšieho. Keďže hlasy prepadnú, tak to budú dvaja poslanci.   Keď si to zhrnieme, tak Kaliňák kúpil SMERu za cudzie peniaze dvoch poslancov do NR SR pre ďalšie funkčné obdobie. Najlepšia sociálna politika!   Už sme si mohli zvyknúť na tieto praktiky našej najsociálnejšej strany z najsociálnejších. Veď si len spomeňme na stranícku tlačovku na Úrade vlády SR. To je tiež kampaň za peniaze bežných smrteľníkov. Náš pán premiér už dokonca vytiahol vlastný vlastenecký zákon a.k.a. hra populistického kráľa pokračuje. Týmto krokom nám všetkým ukázal ako sa bojí výsledku volieb. Královi Robertovi začína „lepiť", tešme sa.   Kto ich len môže voliť? Buď slepý alebo hlúpy. Ja dúfam, že sú to tí slepí a čoskoro otvoria oči, inak bude SaS kupovať viac ako 5 000 000 jednosmerných lístkov do Grécka. Aspoň pôjdeme na výlet, no aj to by si Fico prisvojil ako jeho sociálnu politiku.   Teším sa na deň, keď Král Robert slabučko dohryzká...     

                 
                                        
                        
                        Zdieľať
                    

                    
                            
                                    
                                    Zdieľať na
                            
                             
                                    
                             
                    

                                                                                                                        
                            
                            Diskusia: (25)
                        
                    
                    
                        
                        Zvýšte karmu
                    
                 
             

                             
            
                     
                         Ďalšie články blogera 
                         
                                                             
                                    
                    	                                                                                        

                                                                        
                                    
                                        Michal Daniel 
                                        
                                            Čaplovič ukazuje deťom vtáka alebo ako si vyrobiť voliča
                                        
                                    
                                 
                                                             
                                    
                    	                                                                                        

                                                                        
                                    
                                        Michal Daniel 
                                        
                                            Opitý plyn vrtuľníkom do Ruska
                                        
                                    
                                 
                                                             
                                    
                    	                                                                                        

                                                                        
                                    
                                        Michal Daniel 
                                        
                                            Bratia nás v tom nenechali
                                        
                                    
                                 
                                                             
                                    
                    	                                                                                        

                                                                        
                                    
                                        Michal Daniel 
                                        
                                            Parlamentná demokracia a la Matovič
                                        
                                    
                                 
                                                             
                                    
                    	                                                                                        

                                                                        
                                    
                                        Michal Daniel 
                                        
                                            Aspoň že pod stromček nedostaneme Fica
                                        
                                    
                                 
                                                     
                        
                            Ďalšie články blogera: Michal Daniel
                        
                     
            
                     
                         Ďalšie články z rubriky politika 
                         
                                                             
                                    
                                                            	                                                                                        

                                                                                                
                                    
                                        Tomáš Hudec 
                                        
                                            Chceme zvýšiť účasť ľudí vo voľbách? Zaveďme eVoľby!
                                        
                                    
                                 
                                                             
                                    
                                                            	                                                                                        

                                                                                                
                                    
                                        Robert Bestro 
                                        
                                            Výmena vedenia parlamentu zjavne prospela
                                        
                                    
                                 
                                                             
                                    
                                                            	                                                                                        

                                                                                                
                                    
                                        Júlia Piraňa Mikolášiková 
                                        
                                            Obvinia ďalšiu novinárku z údajného ohovárania policajného šéfa Ševčíka?
                                        
                                    
                                 
                                                             
                                    
                                                            	                                                                                        

                                                                                                
                                    
                                        Stanislav Martinčko 
                                        
                                            Stužka z kvetinárstva za 16 centov a rozkradnuté milióny!!
                                        
                                    
                                 
                                                             
                                    
                                                            	                                                                                        

                                                                                                
                                    
                                        Veronika Remisova 
                                        
                                            Elektronické mýto podľa Ficovej vlády – prehľadnejšie sa to skrátka nedá
                                        
                                    
                                 
                                                     
                        
                            Ďalšie články z rubriky politika
                        
                     
                 
            
                    
 
     Hlavné správy 
         
        
                                

        
         
            AKTUALIZOVANÉ 16:00
             Rubeľ kolabuje, ruská vláda má mimoriadne rokovať 
             Jeden dolár stál v utorok poobede už viac ako 78 rubľov, razantné zvýšenie úrokov nepomohlo. 
         
     
         
        
                                

        
         
            ZAHRANIČIE
             Taliban zaútočil na citlivé miesto Pakistanu. Na deti 
             Taliban zabil v škole v Pakistane najmenej 141 ľudí, väčšinou deti. 
         
     
         
        
                                

        
         
            KOMENTARE.SME.SK
             Cynická obluda: Medzičasom na opustenom ostrove 
             Stroskotanci majú veľké šťastie, že sú dvaja. Lacné vtipy na úrovni ich autora. 
         
     
     

                 
     
    
     
        
 

     
                
                            
                    



         
            
                Michal Daniel
            
         
        michaldaniel.blog.sme.sk (rss)
         
                                     
     
        Mladý Záhorák.




        
     
     
                     
                             
             

     
        
            
                
                    Počet článkov
                    27
                
                
                    Celková karma
                    
                                                0.00
                    
                
                
                    Priemerná čítanosť
                    2725
                
            
        
     

             

             Zoznam rubrík 
            
             
                                     
                        
                            Nezaradené
                        
                     
                             
         
    

    

           
     Pošlite odkaz blogerovi 
    
         
            
         

         
         
         
         

         
         
Odosielateľ (e-mail)
 
         
Text
 
         
             
Protispamová ochrana 
 
 Zle. Skúste znova. 
Opíšte slová z obrázku: Načítať iné slová 
 Get an image CAPTCHA 
 
 
         
                 
            
         
    
  


 

     






            
    
        
    
 

        
         
         
             Už ste čítali? 
         
         
 

 kultura.sme.sk 
 Margaréta sa spriahla s diablom, no mala Kristovu pravdu 
 
 

 www.sme.sk 
 Pútnické miesta The Beatles alebo ako ľudia kráčajú po zebre 
 
 

 cestovanie.sme.sk 
 Lovia za svitania a v hmle 
 
 

 www.sme.sk 
 Ako sa valila lavína slobody. Ako padal komunizmus 
 
 

 kultura.sme.sk 
 Žiadne retro, poriadny biznis. Takto sa lisuje platňa 
 
	   
 


        
         
            
         

     

    
     
 
 
	 

		Kontakty
		Predplatné
		Etický kódex
		Pomoc
		Mapa stránky
		
	 
 
 
	 
		 
			Widget
			RSS
			Newsletter
		 
		 
			Mobil
			Smartphone
			Kindle
			Televízor
		 
		 
			Facebook
			Twitter
			Google+
		 
	 
	 
		
	 
	 
		Ďalšie weby skupiny: Prihlásenie do Post.sk
		Új Szó Slovak Spectator
		Agentúrne správy 
		Vydavateľstvo
		Inzercia
		Osobné údaje
		Návštevnosť webu
		Predajnosť tlače
		Petit Academy
		SME v škole 		© Copyright 1997-2014 Petit Press, a.s. 
	 
 
 
 


          
        
            
            

        
    

    
    


    


    
        
        
        
        
        
        
        
            
            
        
        
        
        
         
                                
               





 

 



        

 




