
      
    
    

     
	 
	 
 SME.sk 
 Zľavy 
 Zoznámenie 
 Reality 
 Dovolenky 
 Pizza 
 Reštaurácie 
 Recenzie 
 Inzeráty 
 Naničmama 	 
Nákupy 
		 
 Filmy na DVD 
 Hodinky 
 Parfémy 
 SME knihy a DVD 
 Superhosting 
 Tlačiareň 
 Víno 
 Tvorba webov 
 Predplatné SME 
 ProSenior 		 
	 
	 
 
	 
 


    
    
        
        
         
          
         
    

    
      
         
            
             
     
        
        
     
    Blog.SME.sk
 

    

         
        
                 
     
         
            Sme.sk
         
         
            Domov
         
         
            Regióny
         
         
            Ekonomika
         
         
            Svet
         
         
            Komentáre
         
         
            Kultúra
         
         
            Šport
         
         
            TV
         
         
            Auto
         
         
            Tech
         
         
            Poradňa
         
         
            Žena
         
         
            Bývanie
         
         
            Zdravie
         
         
            Blog
         
     
 

         
            
     
                                                         Politika 
                                                                                     Spoločnosť 
                                                                                     Cestovanie 
                                                                                     Ekonomika 
                                                                                     Fotografie 
                                                                                     Jedlo 
                                                                                     Kultúra 
                                                                                             
Ďalšie
                             
                                                                                         Lifestyle 
                                                                                                                                                                             Médiá 
                                                                                                                                                                             Nezaradené 
                                                                                                                                                                             Súkromné 
                                                                                                                                                                             Šport 
                                                                                                                                                                             Veda a technika 
                                                                                                                                                                             Zábava 
                                                                                                                                                                             Poézia 
                                                                                                                                                                             Próza 
                                                                                                                                                                             Kódex blogera 
                                                                                 
                         
                                                 
            Blogeri
         
     


            

    
    Prihlásiť sa


    
    Založte si blog



    
    Odhlásiť sa


    
    




         

        
        
         
            
         
         
                
     
                 
            SME.sk &gt;
            Blog.SME.sk &gt;
                            Michal Kravčík
                                        &gt;
                www.theglobalcoolingproject.co
                     
                 Žalujem štát za podporu zvyšovania povodňových rizík 

        
            
                                    6.6.2010
            o
            9:09
                        |
            Karma článku:
                14.41
            |
            Prečítané 
            4271-krát
                    
         
     
         
             

                 
                    Ja občan  Slovenskej republiky žalujem tento štát za podporu zvyšovania povodňových rizík, pretože  svojimi zákonmi, legislatívnymi normami, rozvojovými stratégiami i finančnou  podporou sústavne podporuje realizáciu takých opatrení pre údajnú protipovodňovú ochranu  na území celého Slovenska, ktoré zvyšujú povodňové riziká.
                 

                 Týchto dôkazov o zvyšovaní rizík vzniku povodní po celom Slovensku je veľmi veľa. Uvádzam konkrétny príklad financovania projektov, ktoré toto dokazujú. Prvý dôkaz podpore zhoršovania povodňových rizík poskytujem na financovaní projektov do protipovodňovej ochrany na konkrétnych 31 projektoch, do ktorých bolo investovaných takmer 20 mil. EURO z verejných zdrojov, teda z našich daní. Projekty boli umiestnené náhodne po celom Slovensku, prevažne v horských a podhorských regiónoch a spočívali v regulácii potokov a riek, ktoré síce v danej lokalite ochraňujú občanov pred lokálnou povodňou, ale zároveň vytvárajú bleskové povodne rýchlou kulmináciou hladín vo všetkých obciach pod reguláciou.   Regulácia potokov a riek v horských a podhorských regiónoch spôsobuje rýchly odtok vody z miesta, kde bolo koryto zregulované a vylievanie tejto stečenej vody v nížinných lokalitách.  Uvádzam mapu, kde tieto projekty boli zrealizované za bačovania tej politickej strany na Ministerstve životného prostredia, ktorá údajne tvrdí, že bráni národné záujmy Slovenska.      Mapa SHMÚ o hydrologických výstrahách z 6.6.2010, zverejnená o 9,00 hod.      Ak bude tento štát naďalej podporovať reguláciu potokov a riek legislatívne, finančne i odborne, ktoré zvyšujú riziká vzniku rozsiahlych povodní v nížinách, odporúčam občanom Slovenska dať hromadnú súdnu žalobu na štát za sústavné ohrozovanie občanov Slovenska povodňami.  Navrhujem, aby termínom podania hromadnej žaloby na štát bol termín schválenia nových projektov na reguláciu potokov a riek z Operačného programu životné prostredia. Termín zverejnenia výzvy na protipovodňovú ochranu pre predkladanie žiadosti má byť údajne do konca júna. Je najvyšší čas zmeniť stratégiu i spôsob investovania do ochrany pred povodňami. Štát má príležitosť zmeniť charakter výzvy protipovodňovej ochrany, aby dokázal, že má záujem podporovať len také projekty, ktoré nepodporujú povodňovú katastrófu. Toto je prvý a nevyhnutný krok na ceste k ochrane národnoštátnych záujmov Slovenska. V opačnom prípade ho neminie žaloba.        

                 
                                        
                        
                        Zdieľať
                    

                    
                            
                                    
                                    Zdieľať na
                            
                             
                                    
                             
                    

                                                                                                                        
                            
                            Diskusia: (48)
                        
                    
                    
                        
                        Zvýšte karmu
                    
                 
             

                             
            
                     
                         Ďalšie články blogera 
                         
                                                             
                                    
                    	                                                                                        

                                                                        
                                    
                                        Michal Kravčík 
                                        
                                            Poloz na hrad!
                                        
                                    
                                 
                                                             
                                    
                    	                                                                                        

                                                                        
                                    
                                        Michal Kravčík 
                                        
                                            Zavšivavená spoločnosť trollami s podporou SME?
                                        
                                    
                                 
                                                             
                                    
                    	                                                                                        

                                                                        
                                    
                                        Michal Kravčík 
                                        
                                            Bratislava šiestym najbohatším regiónom EÚ. Západné Slovensko 239-tým…
                                        
                                    
                                 
                                                             
                                    
                    	                                                                                        

                                                                        
                                    
                                        Michal Kravčík 
                                        
                                            Nemajú Boha pri sebe!
                                        
                                    
                                 
                                                             
                                    
                    	                                                                                        

                                                                        
                                    
                                        Michal Kravčík 
                                        
                                            Ako sa zbaviť straníckej korupcie v štáte. Časť eurofondy
                                        
                                    
                                 
                                                     
                        
                            Ďalšie články blogera: Michal Kravčík
                        
                     
            
                     
                         Ďalšie články z rubriky nezaradené 
                         
                                                             
                                    
                                                            	                                                                                        

                                                                                                
                                    
                                        Pavel Ondrejmiška 
                                        
                                            Dnes farnosť Žitavany, pred tisíc rokmi kráľovská fara v Kňažiciach
                                        
                                    
                                 
                                                             
                                    
                                                            	                                                                                        

                                                                                                
                                    
                                        Milan Removčík 
                                        
                                            Zimný Šíp.
                                        
                                    
                                 
                                                             
                                    
                                                            	                                                                                        

                                                                                                
                                    
                                          esc-sr 
                                        
                                            Čas (ne)vhodných darčekov
                                        
                                    
                                 
                                                             
                                    
                                                            	                                                                                        

                                                                                                
                                    
                                        Michal Filek 
                                        
                                            Ako je ťažké darovať bezdomovcom polievku?
                                        
                                    
                                 
                                                             
                                    
                                                                                                                    

                                                                                                
                                    
                                        Anna Kováčová 
                                        
                                            Na sexi postavu, zdravie, energiu a šťastný život nepotrebujete tabletky!
                                        
                                    
                                 
                                                     
                        
                            Ďalšie články z rubriky nezaradené
                        
                     
                 
            
                    
 
     Hlavné správy 
         
        
                                

        
         
            ZAHRANIČIE
             Protestujúci v Maďarsku strácajú dych, Fidesz ich mätie novými návrhmi 
             Na demonštrácii proti Orbánovej vláde bolo v utorok už len niekoľko tisíc ľudí. 
         
     
         
        
                                

        
         
            AKTUALIZOVANÉ 20:22
             Slovenky v hlavnej skupine nebodovali, Švédky vyhrali o 9 gólov 
             Naše hádzanárky hrali na ME piaty zápas. V Záhrebe proti Švédkam. 
         
     
         
        
                                

        
         
            AKTUALIZOVANÉ O 21:30
             Rubeľ pocítil pád na dno, Rusko je vo finančnej kríze 
             Dolár včera stál už takmer 80 rubľov, pod hladinu ho tlačia najmä nízke ceny ropy. 
         
     
     

                 
     
    
     
        
 

     
                
                            
                    



         
            
                Michal Kravčík
            
         
        kravcik.blog.sme.sk (rss)
         
                                     
     
         Presadzujem a podporujem agendu „VODA PRE OZDRAVENIE KLÍMY“. Jej cieľom je posilnenie environmentálnej bezpečnosti prostredníctvom zodpovedného prístupu v ochrane prírodného a teda i kultúrneho dedičstva. Napĺňanie agendy, založenej na prijatí novej, vyššej kultúry vo vzťahu k vode, môže na Slovensku vytvoriť viac ako 100 tisíc a v Európe vyše 5 miliónov pracovných príležitostí. 
        
     
     
                     
                             
             

     
        
            
                
                    Počet článkov
                    629
                
                
                    Celková karma
                    
                                                7.10
                    
                
                
                    Priemerná čítanosť
                    2236
                
            
        
     

             

             Zoznam rubrík 
            
             
                                     
                        
                            Povodne
                        
                     
                                     
                        
                            Hladujúci potrebujú vodu
                        
                     
                                     
                        
                            Klimatická zmena
                        
                     
                                     
                        
                            VODA zrkadlo kultúry
                        
                     
                                     
                        
                            http://s07.flagcounter.com/mor
                        
                     
                                     
                        
                            Nová vodná paradigma
                        
                     
                                     
                        
                            Košice
                        
                     
                                     
                        
                            Spoločnosť
                        
                     
                                     
                        
                            http://moje.hnonline.sk/blog/4
                        
                     
                             
         
    

                     
                        
                                                            
                     Obľúbené články 
                    
                     
                                                 
                                            Kandidáti za poslancov do EP
                                     
                                                                             
                                            Ladislav Vozárik
                                     
                                                                             
                                             
                                     
                                                                             
                                             
                                     
                                                                   
                     Obľúbené knihy 
                    
                     
                                                 
                                            http://www.clim-past.net/2/187/2006/cp-2-187-2006.pdf
                                     
                                                                   
                     Obľúbené blogy 
                    
                     
                                                 
                                            http://blog.aktualne.centrum.cz/blogy/jana-hradilkova.php
                                     
                                                                   
                     Obľúbené stránky 
                    
                     
                                                 
                                            hospodarskyklub.sk
                                     
                                                                             
                                            ashoka.org
                                     
                                                                             
                                            bluegold-worldwaterwars.com
                                     
                                                                             
                                            holisticmanagement.org
                                     
                                                                             
                                            theglobalcoolingproject.com
                                     
                                                                             
                                            ludiaavoda.sk
                                     
                                                                             
                                            watergy.de
                                     
                                                                             
                                            waterparadigm.org
                                     
                            
             
         
            

             
             Čo ma zaujalo 
            Týmto článkom bloger klikol/klikla na karmu.
             
                                                         
                       Nemajú Boha pri sebe!
                     
                                                         
                       Ako sa zbaviť straníckej korupcie v štáte. Časť eurofondy
                     
                                                         
                       Ako sa z jednej ochranárskej ikony stala obyčajná nula
                     
                                                         
                       10 rokov po víchrici v Tatrách stále v zákopoch
                     
                                                         
                       Primátor všetkých Košičanov?
                     
                                                         
                       Dnes zasadá Vláda v Ubli
                     
                                                         
                       Aspoň pokus o integráciu Rómov? Za primátora Rašiho? Zabudnite!
                     
                                                         
                       Róbert Fico je bezpečnostným rizikom pre Slovensko
                     
                                                         
                       Kto je zodpovedný za pád starenky do kanalizačnej šachty v Michalovciach
                     
                                                         
                       Zdravé Košice
                     
                             
         
           
     Pošlite odkaz blogerovi 
    
         
            
         

         
         
         
         

         
         
Odosielateľ (e-mail)
 
         
Text
 
         
             
Protispamová ochrana 
 
 Zle. Skúste znova. 
Opíšte slová z obrázku: Načítať iné slová 
 Get an image CAPTCHA 
 
 
         
                 
            
         
    
  


 

     






            
    
        
    
 

        
         
         
             Už ste čítali? 
         
         
 

 kultura.sme.sk 
 Margaréta sa spriahla s diablom, no mala Kristovu pravdu 
 
 

 www.sme.sk 
 Pútnické miesta The Beatles alebo ako ľudia kráčajú po zebre 
 
 

 cestovanie.sme.sk 
 Lovia za svitania a v hmle 
 
 

 www.sme.sk 
 Ako sa valila lavína slobody. Ako padal komunizmus 
 
 

 kultura.sme.sk 
 Žiadne retro, poriadny biznis. Takto sa lisuje platňa 
 
	   
 


        
         
            
         

     

    
     
 
 
	 

		Kontakty
		Predplatné
		Etický kódex
		Pomoc
		Mapa stránky
		
	 
 
 
	 
		 
			Widget
			RSS
			Newsletter
		 
		 
			Mobil
			Smartphone
			Kindle
			Televízor
		 
		 
			Facebook
			Twitter
			Google+
		 
	 
	 
		
	 
	 
		Ďalšie weby skupiny: Prihlásenie do Post.sk
		Új Szó Slovak Spectator
		Agentúrne správy 
		Vydavateľstvo
		Inzercia
		Osobné údaje
		Návštevnosť webu
		Predajnosť tlače
		Petit Academy
		SME v škole 		© Copyright 1997-2014 Petit Press, a.s. 
	 
 
 
 


          
        
            
            

        
    

    
    


    


    
        
        
        
        
        
        
        
            
            
        
        
        
        
         
                                
               





 

 



        

 




