
      
    
    

     
	 
	 
 SME.sk 
 Zľavy 
 Zoznámenie 
 Reality 
 Dovolenky 
 Pizza 
 Reštaurácie 
 Recenzie 
 Inzeráty 
 Naničmama 	 
Nákupy 
		 
 Filmy na DVD 
 Hodinky 
 Parfémy 
 SME knihy a DVD 
 Superhosting 
 Tlačiareň 
 Víno 
 Tvorba webov 
 Predplatné SME 
 ProSenior 		 
	 
	 
 
	 
 


    
    
        
        
         
          
         
    

    
      
         
            
             
     
        
        
     
    Blog.SME.sk
 

    

         
        
                 
     
         
            Sme.sk
         
         
            Domov
         
         
            Regióny
         
         
            Ekonomika
         
         
            Svet
         
         
            Komentáre
         
         
            Kultúra
         
         
            Šport
         
         
            TV
         
         
            Auto
         
         
            Tech
         
         
            Poradňa
         
         
            Žena
         
         
            Bývanie
         
         
            Zdravie
         
         
            Blog
         
     
 

         
            
     
                                                         Politika 
                                                                                     Spoločnosť 
                                                                                     Cestovanie 
                                                                                     Ekonomika 
                                                                                     Fotografie 
                                                                                     Jedlo 
                                                                                     Kultúra 
                                                                                             
Ďalšie
                             
                                                                                         Lifestyle 
                                                                                                                                                                             Médiá 
                                                                                                                                                                             Nezaradené 
                                                                                                                                                                             Súkromné 
                                                                                                                                                                             Šport 
                                                                                                                                                                             Veda a technika 
                                                                                                                                                                             Zábava 
                                                                                                                                                                             Poézia 
                                                                                                                                                                             Próza 
                                                                                                                                                                             Kódex blogera 
                                                                                 
                         
                                                 
            Blogeri
         
     


            

    
    Prihlásiť sa


    
    Založte si blog



    
    Odhlásiť sa


    
    




         

        
        
         
            
         
         
                
     
                 
            SME.sk &gt;
            Blog.SME.sk &gt;
                            Dávid Králik
                                        &gt;
                Život je krásny
                     
                 جمهوريّة مصر العربيّة 

        
            
                                    30.3.2010
            o
            19:59
                        (upravené
                30.3.2010
                o
                20:13)
                        |
            Karma článku:
                8.60
            |
            Prečítané 
            2844-krát
                    
         
     
         
             

                 
                     يولد جميع الناس أحرارًا متساوين في الكرامة والحقوق. وقد وهبوا عقلاً وضميرًا وعليهم أن يعامل بعضهم بعضًا بروح الإخاء.
                 

                 Na počiatku...alebo v jedno sobotné ráno...      Počas...alebo víkendová dvadsaťštyrihodinovka detí, rodičov a (m)učiteľa alias bacila zubného...   
 
            
            
            
            
            
	   Na konci...alebo dnes bol TEN DRUHÝ DEŇ...      Všetci ľudia sa rodia slobodní a sebe rovní, čo sa týka ich dôstojnosti a práv. Sú obdarení rozumom a majú navzájom jednať v bratskom duchu. 

                 
                                        
                        
                        Zdieľať
                    

                    
                            
                                    
                                    Zdieľať na
                            
                             
                                    
                             
                    

                                                                                                                        
                            
                            Diskusia: (22)
                        
                    
                    
                        
                        Zvýšte karmu
                    
                 
             

                             
            
                     
                         Ďalšie články blogera 
                         
                                                             
                                    
                    	                                                                                        

                                                                        
                                    
                                        Dávid Králik 
                                        
                                            Redakcia SME sa musela zblázniť
                                        
                                    
                                 
                                                             
                                    
                    	                                                                                        

                                                                        
                                    
                                        Dávid Králik 
                                        
                                            To najlepšie nakoniec...už dnes
                                        
                                    
                                 
                                                             
                                    
                    	                                                                                        

                                                                        
                                    
                                        Dávid Králik 
                                        
                                            Ignoranti
                                        
                                    
                                 
                                                             
                                    
                    	                                                                                        

                                                                        
                                    
                                        Dávid Králik 
                                        
                                            Čo už by mi len mohol ponúknuť prepážkový zamestnanec Tatra Banky?!
                                        
                                    
                                 
                                                             
                                    
                    	                                                                                        

                                                                        
                                    
                                        Dávid Králik 
                                        
                                            Možno máte dieťa vo veku 9 až 99 rokov
                                        
                                    
                                 
                                                     
                        
                            Ďalšie články blogera: Dávid Králik
                        
                     
            
                     
                         Ďalšie články z rubriky spoločnosť 
                         
                                                             
                                    
                                                            	                                                                                        

                                                                                                
                                    
                                        Kristián Straka 
                                        
                                            Nebite ma, doktor Plzák... alebo POZVANIE NA VEČERU
                                        
                                    
                                 
                                                             
                                    
                                                            	                                                                                        

                                                                                                
                                    
                                        Kristián Straka 
                                        
                                            Oklamaní Ježiškom ?
                                        
                                    
                                 
                                                             
                                    
                                                            	                                                                                        

                                                                                                
                                    
                                        Milan Buno 
                                        
                                            Šup, šup, najesť sa. A utekať!
                                        
                                    
                                 
                                                             
                                    
                                                            	                                                                                        

                                                                                                
                                    
                                        Katarína Lorenčíková 
                                        
                                            Par uprimnych oslobodzujucich riadkov...
                                        
                                    
                                 
                                                             
                                    
                                                            	                                                                                        

                                                                                                
                                    
                                        Alžbeta Slováková Spáčilová 
                                        
                                            Selfie s nádychom hyenizmu a krutosti
                                        
                                    
                                 
                                                     
                        
                            Ďalšie články z rubriky spoločnosť
                        
                     
                 
            
                    
 
     Hlavné správy 
         
        
                                

        
         
            AKTUALIZOVANÉ 16:00
             Rubeľ kolabuje, ruská vláda má mimoriadne rokovať 
             Jeden dolár stál v utorok poobede už viac ako 78 rubľov, razantné zvýšenie úrokov nepomohlo. 
         
     
         
        
                                

        
         
            ZAHRANIČIE
             Taliban zabil v škole v Pakistane vyše sto ľudí, väčšinou deti 
             Militanti vtrhli do vojenskej školy v policajných rovnošatách. 
         
     
         
        
                                

        
         
            KOMENTARE.SME.SK
             Cynická obluda: Medzičasom na opustenom ostrove 
             Stroskotanci majú veľké šťastie, že sú dvaja. Lacné vtipy na úrovni ich autora. 
         
     
     

                 
     
    
     
        
 

     
                
                            
                    



         
            
                Dávid Králik
            
         
        davidkralik.blog.sme.sk (rss)
         
                                     
     
        Bývalý (m)učiteľ na I. stupni ZŠ, ktorý sa platonicky priatelí s Jonathanom Livingstonom, so Siddhárthom a hobitmi. Znamenie vodnára ho predurčuje k uletenosti všetkými smermi - hudba, literatúra, šport ...  




        
     
     
                     
                             
             

     
        
            
                
                    Počet článkov
                    930
                
                
                    Celková karma
                    
                                                0.00
                    
                
                
                    Priemerná čítanosť
                    3168
                
            
        
     

             

             Zoznam rubrík 
            
             
                                     
                        
                            Moja malá fikcia
                        
                     
                                     
                        
                            Viera ako ju cítim
                        
                     
                                     
                        
                            Aj také sa mi stalo
                        
                     
                                     
                        
                            Moje malé postrehy
                        
                     
                                     
                        
                            Zo života
                        
                     
                                     
                        
                            Život je krásny
                        
                     
                                     
                        
                            Malé gramatické okienko
                        
                     
                                     
                        
                            Logopedické okienko
                        
                     
                                     
                        
                            Rozprávky (aj) pre dospelých
                        
                     
                                     
                        
                            Milovaťžofiu
                        
                     
                                     
                        
                            Nedeľná ... veď viete : o )))
                        
                     
                                     
                        
                            Biblia očami laika : )
                        
                     
                                     
                        
                            ...cestou ma vanie...
                        
                     
                                     
                        
                            šerm
                        
                     
                                     
                        
                            moje hudobné výlevy
                        
                     
                                     
                        
                            Etika u mňa v triede :o)
                        
                     
                                     
                        
                            Moja poviedkovňa
                        
                     
                                     
                        
                            Pracujem ako divý :o)
                        
                     
                                     
                        
                            baška
                        
                     
                                     
                        
                            (pre mňa) zaujímaví ľudia
                        
                     
                                     
                        
                            na slovíčko
                        
                     
                                     
                        
                            Nápadník
                        
                     
                                     
                        
                            Súťaž krátkych videí
                        
                     
                                     
                        
                            Súkromné
                        
                     
                                     
                        
                            Nezaradené
                        
                     
                             
         
    

                     
                        
                                                            
                     Obľúbené články 
                    
                     
                                                 
                                            Veľmi (ne)chutná hmyzia knižka
                                     
                                                                             
                                            Niektoré rany sú príliš hlboké a nikdy sa skutočne nezahoja
                                     
                                                                             
                                            (pre mňa) Môj najlepší rozhovor
                                     
                                                                             
                                            Logopédia už aj vo vašej škôlke? Prečo nie :)
                                     
                                                                             
                                            Have a nice Day(vid:)
                                     
                                                                             
                                            Kam odchádzam zo školstva
                                     
                                                                             
                                            Chceli by ste ísť do neba, potom vedzte...
                                     
                                                                   
                     Obľúbené stránky 
                    
                     
                                                 
                                            Najlepšia logopédka v Rači/ na svete
                                     
                                                                             
                                            FELIX
                                     
                                                                             
                                            iní
                                     
                            
             
         
            

           
     Pošlite odkaz blogerovi 
    
         
            
         

         
         
         
         

         
         
Odosielateľ (e-mail)
 
         
Text
 
         
             
Protispamová ochrana 
 
 Zle. Skúste znova. 
Opíšte slová z obrázku: Načítať iné slová 
 Get an image CAPTCHA 
 
 
         
                 
            
         
    
  


 

     






            
    
        
    
 

        
         
         
             Už ste čítali? 
         
         
 

 kultura.sme.sk 
 Margaréta sa spriahla s diablom, no mala Kristovu pravdu 
 
 

 www.sme.sk 
 Pútnické miesta The Beatles alebo ako ľudia kráčajú po zebre 
 
 

 cestovanie.sme.sk 
 Lovia za svitania a v hmle 
 
 

 www.sme.sk 
 Ako sa valila lavína slobody. Ako padal komunizmus 
 
 

 kultura.sme.sk 
 Žiadne retro, poriadny biznis. Takto sa lisuje platňa 
 
	   
 


        
         
            
         

     

    
     
 
 
	 

		Kontakty
		Predplatné
		Etický kódex
		Pomoc
		Mapa stránky
		
	 
 
 
	 
		 
			Widget
			RSS
			Newsletter
		 
		 
			Mobil
			Smartphone
			Kindle
			Televízor
		 
		 
			Facebook
			Twitter
			Google+
		 
	 
	 
		
	 
	 
		Ďalšie weby skupiny: Prihlásenie do Post.sk
		Új Szó Slovak Spectator
		Agentúrne správy 
		Vydavateľstvo
		Inzercia
		Osobné údaje
		Návštevnosť webu
		Predajnosť tlače
		Petit Academy
		SME v škole 		© Copyright 1997-2014 Petit Press, a.s. 
	 
 
 
 


          
        
            
            

        
    

    
    


    


    
        
        
        
        
        
        
        
            
            
        
        
        
        
         
                                
               





 

 



        

 




