
      
    
    

     
	 
	 
 SME.sk 
 Zľavy 
 Zoznámenie 
 Reality 
 Dovolenky 
 Pizza 
 Reštaurácie 
 Recenzie 
 Inzeráty 
 Naničmama 	 
Nákupy 
		 
 Filmy na DVD 
 Hodinky 
 Parfémy 
 SME knihy a DVD 
 Superhosting 
 Tlačiareň 
 Víno 
 Tvorba webov 
 Predplatné SME 
 ProSenior 		 
	 
	 
 
	 
 


    
    
        
        
         
          
         
    

    
      
         
            
             
     
        
        
     
    Blog.SME.sk
 

    

         
        
                 
     
         
            Sme.sk
         
         
            Domov
         
         
            Regióny
         
         
            Ekonomika
         
         
            Svet
         
         
            Komentáre
         
         
            Kultúra
         
         
            Šport
         
         
            TV
         
         
            Auto
         
         
            Tech
         
         
            Poradňa
         
         
            Žena
         
         
            Bývanie
         
         
            Zdravie
         
         
            Blog
         
     
 

         
            
     
                                                         Politika 
                                                                                     Spoločnosť 
                                                                                     Cestovanie 
                                                                                     Ekonomika 
                                                                                     Fotografie 
                                                                                     Jedlo 
                                                                                     Kultúra 
                                                                                             
Ďalšie
                             
                                                                                         Lifestyle 
                                                                                                                                                                             Médiá 
                                                                                                                                                                             Nezaradené 
                                                                                                                                                                             Súkromné 
                                                                                                                                                                             Šport 
                                                                                                                                                                             Veda a technika 
                                                                                                                                                                             Zábava 
                                                                                                                                                                             Poézia 
                                                                                                                                                                             Próza 
                                                                                                                                                                             Kódex blogera 
                                                                                 
                         
                                                 
            Blogeri
         
     


            

    
    Prihlásiť sa


    
    Založte si blog



    
    Odhlásiť sa


    
    




         

        
        
         
            
         
         
                
     
                 
            SME.sk &gt;
            Blog.SME.sk &gt;
                            Lukáš Zeleník
                                        &gt;
                Report
                     
                 D 1 Sverepec – Vrtižer 

        
            
                                    30.5.2010
            o
            21:37
                        |
            Karma článku:
                9.12
            |
            Prečítané 
            3327-krát
                    
         
     
         
             

                 
                    Najkontroverznejšia, ale aj najvýznamnejšia. Zostručnené prívlastkové označenie stavby, ktorá výrazne ovplyvnila vzhľad Považskej Bystrice a spôsobila neaktuálnosť všetkých pohľadníc. O vplyvoch stavby a jej parametroch by sa dal napísať siahodlhý článok. Taktiež by sa dali spomenúť organizačné prešľapy a nevyužitý potenciál otvorenia diaľnice pre verejnosť. Bez všetkej dávky irónie treba vyzdvihnúť jeden dôležitý fakt: estakádový most, ktorý tvorí priechod ponad Považskú Bystricu je najväčším skvostom slovenského staviteľstva.
                 

                                                                                                                               

                 
                                        
                        
                        Zdieľať
                    

                    
                            
                                    
                                    Zdieľať na
                            
                             
                                    
                             
                    

                                                                                                                        
                            
                            Diskusia: (20)
                        
                    
                    
                        
                        Zvýšte karmu
                    
                 
             

                             
            
                     
                         Ďalšie články blogera 
                         
                                                             
                                    
                    	                                                                                        

                                                                        
                                    
                                        Lukáš Zeleník 
                                        
                                            Tatranská železničná pohostinnosť
                                        
                                    
                                 
                                                             
                                    
                    	                                                                                        

                                                                        
                                    
                                        Lukáš Zeleník 
                                        
                                            Skutočná televízia pre mužov
                                        
                                    
                                 
                                                             
                                    
                    	                                                                                        

                                                                        
                                    
                                        Lukáš Zeleník 
                                        
                                            Bažant Pohoda 2012
                                        
                                    
                                 
                                                             
                                    
                    	                                                                                        

                                                                        
                                    
                                        Lukáš Zeleník 
                                        
                                            Propagácia basketbalu na slovenský spôsob
                                        
                                    
                                 
                                                             
                                    
                    	                                                                                        

                                                                        
                                    
                                        Lukáš Zeleník 
                                        
                                            Späť ku koreňom
                                        
                                    
                                 
                                                     
                        
                            Ďalšie články blogera: Lukáš Zeleník
                        
                     
            
                     
                         Ďalšie články z rubriky fotografie 
                         
                                                             
                                    
                                                                                                                    

                                                                                                
                                    
                                        Miroslav Lisinovič 
                                        
                                            Motorový rušeň 754.045 ČD "Brejlovec"
                                        
                                    
                                 
                                                             
                                    
                                                                                                                    

                                                                                                
                                    
                                        Jan Pražák 
                                        
                                            Jeníček v zemi divů - Lurdy
                                        
                                    
                                 
                                                             
                                    
                                                                                                                    

                                                                                                
                                    
                                        Anton Lisinovič 
                                        
                                            Detaily života v lese.....
                                        
                                    
                                 
                                                             
                                    
                                                                                                                    

                                                                                                
                                    
                                        Jaromír Šiša 
                                        
                                            Porazit Rusy? Šlo to jedině roku 1805 u Slavkova.
                                        
                                    
                                 
                                                             
                                    
                                                            	                                                                                        

                                                                                                
                                    
                                        Gabriela Szabová 
                                        
                                            Nezabudnuteľní
                                        
                                    
                                 
                                                     
                        
                            Ďalšie články z rubriky fotografie
                        
                     
                 
            
                    
 
     Hlavné správy 
         
        
                                

        
         
            AKTUALIZOVANÉ 20:22
             Slovenky v hlavnej skupine nebodovali, Švédky vyhrali o 9 gólov 
             Naše hádzanárky hrali na ME piaty zápas. V Záhrebe proti Švédkam. 
         
     
         
        
                                

        
         
            AKTUALIZOVANÉ O 20:00
             Rubeľ pocítil pád na dno, Rusko je vo finančnej kríze 
             Dolár včera stál už takmer 80 rubľov, pod hladinu ho tlačia najmä nízke ceny ropy. 
         
     
         
        
                                

        
         
            ZAHRANIČIE
             Taliban zaútočil na citlivé miesto Pakistanu. Na deti 
             Taliban zabil v škole v Pakistane najmenej 141 ľudí, väčšinou deti. 
         
     
     

                 
     
    
     
        
 

     
                
                            
                    



         
            
                Lukáš Zeleník
            
         
        zelenik.blog.sme.sk (rss)
         
                        VIP
                             
     
        Autor má 26 rokov, má svoju lásku, staviteľstvo, cestovanie a umenie, má svoju Prievidzu a cíti sa šťastný.









        
     
     
                     
                             
             

     
        
            
                
                    Počet článkov
                    86
                
                
                    Celková karma
                    
                                                0.00
                    
                
                
                    Priemerná čítanosť
                    2787
                
            
        
     

             

             Zoznam rubrík 
            
             
                                     
                        
                            Report
                        
                     
                                     
                        
                            Moje (vý)tvory
                        
                     
                                     
                        
                            Ja a (môj) svet
                        
                     
                                     
                        
                            Culture
                        
                     
                                     
                        
                            Píšem - nemyslím
                        
                     
                                     
                        
                            Názory, komentáre
                        
                     
                                     
                        
                            Zivot na hrude britskej
                        
                     
                                     
                        
                            Elämä Suomessa
                        
                     
                                     
                        
                            Zivot na hrude britskej 2
                        
                     
                                     
                        
                            Súkromné
                        
                     
                                     
                        
                            Nezaradené
                        
                     
                             
         
    

                     
                        
                                                            
                     Obľúbené články 
                    
                     
                                                 
                                            Článok s najvyššou čítannosťou
                                     
                                                                             
                                            Článok s najvyššou karmou
                                     
                                                                   
                     Obľúbené knihy 
                    
                     
                                                 
                                            Miochal Hvorecký - Dunaj v Amerike
                                     
                                                                   
                     Čo práve počúvam 
                    
                     
                                                 
                                            Plan B - The Defamation of Strickland Banks
                                     
                                                                             
                                            Delphic - Acolyte
                                     
                                                                             
                                            Kele - The Boxer
                                     
                                                                             
                                            Rusko - O.M.G.
                                     
                                                                             
                                            Para - Povstanie
                                     
                                                                   
                     Obľúbené blogy 
                    
                     
                                                 
                                            Maryan - kráľovná filmklubu, budúca princezná blogu?
                                     
                                                                             
                                            Intonyho blog
                                     
                                                                             
                                            Katka - romantika nútiaca zamyslieť sa
                                     
                                                                             
                                            Maria - pisanie je v rodine :-) 253 rulez
                                     
                                                                             
                                            DJ Kinet - nu jazz is nu spirit of my life
                                     
                                                                             
                                            Thomas - vycibrený hudobný vkus
                                     
                                                                             
                                            Majo - kolega na druhú - blog, ŽUŽO
                                     
                                                                             
                                            Miška -moje ženské alter ego :-)
                                     
                                                                             
                                            Ivka - aké môžu byť maličkosti fascinujúce
                                     
                                                                             
                                            Zuzka - slová, ako pohľadenie duše
                                     
                                                                             
                                            Miška - sedembodkový blog
                                     
                                                                             
                                             
                                     
                                                                             
                                            Viktor - píšucí speaker
                                     
                                                                             
                                             
                                     
                                                                             
                                            Oleg - slová ako obraz reality
                                     
                                                                   
                     Obľúbené stránky 
                    
                     
                                                 
                                            Pitchfork - hudobný mag
                                     
                                                                             
                                            Nočná hudba
                                     
                                                                             
                                            Extreme Engineering - fascinujúce staviteľstvo
                                     
                                                                             
                                            Helsinki University of Technology
                                     
                                                                             
                                            Wegart - najlepšia hudba
                                     
                                                                             
                                            Newmusic
                                     
                                                                             
                                            BBC Radio One
                                     
                                                                             
                                            Ninja Tune - inovátorský pohľad na hudbu
                                     
                                                                             
                                            Pohoda - najlepší festival široko ďaleko
                                     
                                                                             
                                            Radio_FM
                                     
                            
             
         
            

             
             Čo ma zaujalo 
            Týmto článkom bloger klikol/klikla na karmu.
             
                                                         
                       Zmysel ženského orgazmu z pohľadu evolučných vied
                     
                                                         
                       O čom píšu 100-ročné noviny
                     
                                                         
                       Nohavice a sukne, dievčatá a ženy
                     
                                                         
                       List Karolovi: O bulvári a ľuďoch
                     
                                                         
                       Toto by sa v Bratislave nemohlo stať!
                     
                                                         
                       Šokujúce: Hosteska obťažovala víťazného cyklistu!
                     
                             
         
           
     Pošlite odkaz blogerovi 
    
         
            
         

         
         
         
         

         
         
Odosielateľ (e-mail)
 
         
Text
 
         
             
Protispamová ochrana 
 
 Zle. Skúste znova. 
Opíšte slová z obrázku: Načítať iné slová 
 Get an image CAPTCHA 
 
 
         
                 
            
         
    
  


 

     






            
    
        
    
 

        
         
         
             Už ste čítali? 
         
         
 

 kultura.sme.sk 
 Margaréta sa spriahla s diablom, no mala Kristovu pravdu 
 
 

 www.sme.sk 
 Pútnické miesta The Beatles alebo ako ľudia kráčajú po zebre 
 
 

 cestovanie.sme.sk 
 Lovia za svitania a v hmle 
 
 

 www.sme.sk 
 Ako sa valila lavína slobody. Ako padal komunizmus 
 
 

 kultura.sme.sk 
 Žiadne retro, poriadny biznis. Takto sa lisuje platňa 
 
	   
 


        
         
            
         

     

    
     
 
 
	 

		Kontakty
		Predplatné
		Etický kódex
		Pomoc
		Mapa stránky
		
	 
 
 
	 
		 
			Widget
			RSS
			Newsletter
		 
		 
			Mobil
			Smartphone
			Kindle
			Televízor
		 
		 
			Facebook
			Twitter
			Google+
		 
	 
	 
		
	 
	 
		Ďalšie weby skupiny: Prihlásenie do Post.sk
		Új Szó Slovak Spectator
		Agentúrne správy 
		Vydavateľstvo
		Inzercia
		Osobné údaje
		Návštevnosť webu
		Predajnosť tlače
		Petit Academy
		SME v škole 		© Copyright 1997-2014 Petit Press, a.s. 
	 
 
 
 


          
        
            
            

        
    

    
    


    


    
        
        
        
        
        
        
        
            
            
        
        
        
        
         
                                
               





 

 



        

 




