
      
    
    

     
	 
	 
 SME.sk 
 Zľavy 
 Zoznámenie 
 Reality 
 Dovolenky 
 Pizza 
 Reštaurácie 
 Recenzie 
 Inzeráty 
 Naničmama 	 
Nákupy 
		 
 Filmy na DVD 
 Hodinky 
 Parfémy 
 SME knihy a DVD 
 Superhosting 
 Tlačiareň 
 Víno 
 Tvorba webov 
 Predplatné SME 
 ProSenior 		 
	 
	 
 
	 
 


    
    
        
        
         
          
         
    

    
      
         
            
             
     
        
        
     
    Blog.SME.sk
 

    

         
        
                 
     
         
            Sme.sk
         
         
            Domov
         
         
            Regióny
         
         
            Ekonomika
         
         
            Svet
         
         
            Komentáre
         
         
            Kultúra
         
         
            Šport
         
         
            TV
         
         
            Auto
         
         
            Tech
         
         
            Poradňa
         
         
            Žena
         
         
            Bývanie
         
         
            Zdravie
         
         
            Blog
         
     
 

         
            
     
                                                         Politika 
                                                                                     Spoločnosť 
                                                                                     Cestovanie 
                                                                                     Ekonomika 
                                                                                     Fotografie 
                                                                                     Jedlo 
                                                                                     Kultúra 
                                                                                             
Ďalšie
                             
                                                                                         Lifestyle 
                                                                                                                                                                             Médiá 
                                                                                                                                                                             Nezaradené 
                                                                                                                                                                             Súkromné 
                                                                                                                                                                             Šport 
                                                                                                                                                                             Veda a technika 
                                                                                                                                                                             Zábava 
                                                                                                                                                                             Poézia 
                                                                                                                                                                             Próza 
                                                                                                                                                                             Kódex blogera 
                                                                                 
                         
                                                 
            Blogeri
         
     


            

    
    Prihlásiť sa


    
    Založte si blog



    
    Odhlásiť sa


    
    




         

        
        
         
            
         
         
                
     
                 
            SME.sk &gt;
            Blog.SME.sk &gt;
                            Zuzana Hollá
                                        &gt;
                Zamyslenia
                     
                 Na brehu... 

        
            
                                    14.6.2010
            o
            16:42
                        |
            Karma článku:
                7.69
            |
            Prečítané 
            781-krát
                    
         
     
         
             

                 
                    Čo všetko sa dá stretnúť na brehu jednej znečistenej priehrady...zopár foto...
                 

                    ...veľmi pichľavé na dotyk...      ...ako niekedy aj my ľudia...      ...ibaže ony boli také stvorené (my nie)...      ...tŕne k nim jednoducho patria...      ...aby sme sa nepopichali, musíme vedieť, ako s nimi zaobchádzať (podobne aj s ľuďmi)...      ...a tieto?...      ...na prvý pohľad malé, nevýrazné, ťažko povšimnuteľné...      ...ale predsa očarujúce...      ...a bolo tam aj takéto čosi...      :-) 

                 
                                        
                        
                        Zdieľať
                    

                    
                            
                                    
                                    Zdieľať na
                            
                             
                                    
                             
                    

                                                                                                                        
                            
                            Diskusia: (6)
                        
                    
                    
                        
                        Zvýšte karmu
                    
                 
             

                             
            
                     
                         Ďalšie články blogera 
                         
                                                             
                                    
                    	                                                                                        

                                                                        
                                    
                                        Zuzana Hollá 
                                        
                                            Spravodlivý je len na ťarchu
                                        
                                    
                                 
                                                             
                                    
                    	                                                                                        

                                                                        
                                    
                                        Zuzana Hollá 
                                        
                                            Prečo toľko agresie a zákernosti?
                                        
                                    
                                 
                                                             
                                    
                    	                                                                                        

                                                                        
                                    
                                        Zuzana Hollá 
                                        
                                            Modlitba 2
                                        
                                    
                                 
                                                             
                                    
                    	                                                                                        

                                                                        
                                    
                                        Zuzana Hollá 
                                        
                                            Zajko Pomáhajko
                                        
                                    
                                 
                                                             
                                    
                    	                                                                                        

                                                                        
                                    
                                        Zuzana Hollá 
                                        
                                            Modlitba
                                        
                                    
                                 
                                                     
                        
                            Ďalšie články blogera: Zuzana Hollá
                        
                     
            
                     
                         Ďalšie články z rubriky fotografie 
                         
                                                             
                                    
                                                                                                                    

                                                                                                
                                    
                                        Miroslav Lisinovič 
                                        
                                            Motorový rušeň 754.045 ČD "Brejlovec"
                                        
                                    
                                 
                                                             
                                    
                                                                                                                    

                                                                                                
                                    
                                        Jan Pražák 
                                        
                                            Jeníček v zemi divů - Lurdy
                                        
                                    
                                 
                                                             
                                    
                                                                                                                    

                                                                                                
                                    
                                        Anton Lisinovič 
                                        
                                            Detaily života v lese.....
                                        
                                    
                                 
                                                             
                                    
                                                                                                                    

                                                                                                
                                    
                                        Jaromír Šiša 
                                        
                                            Porazit Rusy? Šlo to jedině roku 1805 u Slavkova.
                                        
                                    
                                 
                                                             
                                    
                                                            	                                                                                        

                                                                                                
                                    
                                        Gabriela Szabová 
                                        
                                            Nezabudnuteľní
                                        
                                    
                                 
                                                     
                        
                            Ďalšie články z rubriky fotografie
                        
                     
                 
            
                    
 
     Hlavné správy 
         
        
                                

        
         
            ZAHRANIČIE
             Protestujúci v Maďarsku strácajú dych, Fidesz ich mätie novými návrhmi 
             Na demonštrácii proti Orbánovej vláde bolo v utorok už len niekoľko tisíc ľudí. 
         
     
         
        
                                

        
         
            AKTUALIZOVANÉ O 21:30
             Rubeľ pocítil pád na dno, Rusko je vo finančnej kríze 
             Dolár včera stál už takmer 80 rubľov, pod hladinu ho tlačia najmä nízke ceny ropy. 
         
     
         
        
                                

        
         
            AKTUALIZOVANÉ 21:50
             Taliban zabil v škole v Pakistane 132 detí 
             Pakistan až teraz poriadne zatlačil na islamistov. Odplatou je útok na deti vojakov. 
         
     
     

                 
     
    
     
        
 

     
                
                            
                    



         
            
                Zuzana Hollá
            
         
        holla.blog.sme.sk (rss)
         
                                     
     
        To podstatné je očiam neviditeľné.
        
     
     
                     
                             
             

     
        
            
                
                    Počet článkov
                    63
                
                
                    Celková karma
                    
                                                0.00
                    
                
                
                    Priemerná čítanosť
                    1065
                
            
        
     

             

             Zoznam rubrík 
            
             
                                     
                        
                            Zo života
                        
                     
                                     
                        
                            Zamyslenia
                        
                     
                                     
                        
                            Ako z rozprávky
                        
                     
                                     
                        
                            Súkromné
                        
                     
                                     
                        
                            Nezaradené
                        
                     
                             
         
    

                     
                        
                                                            
                     Obľúbené články 
                    
                     
                                                 
                                            List učiteliek z východného Slovenska
                                     
                                                                             
                                            Človek
                                     
                                                                   
                     Obľúbené knihy 
                    
                     
                                                 
                                            Křivohlavý, J.: Mať pre čo žiť
                                     
                                                                             
                                            Lewis, C.S.: Rady skúseného diabla
                                     
                                                                   
                     Obľúbené blogy 
                    
                     
                                                 
                                            brat Šavol
                                     
                                                                             
                                            + Ladislav Lencz
                                     
                                                                             
                                            Lenka Romančíková
                                     
                                                                             
                                            Marcela Bagínová
                                     
                                                                             
                                            Katka Pytlíková
                                     
                                                                             
                                            Ifka Babiková
                                     
                                                                             
                                            Jožko Možiešik
                                     
                                                                             
                                            Terezka Podolanová
                                     
                                                                   
                     Obľúbené stránky 
                    
                     
                                                 
                                            ...aby ste prinášali ovocie...
                                     
                            
             
         
            

           
     Pošlite odkaz blogerovi 
    
         
            
         

         
         
         
         

         
         
Odosielateľ (e-mail)
 
         
Text
 
         
             
Protispamová ochrana 
 
 Zle. Skúste znova. 
Opíšte slová z obrázku: Načítať iné slová 
 Get an image CAPTCHA 
 
 
         
                 
            
         
    
  


 

     






            
    
        
    
 

        
         
         
             Už ste čítali? 
         
         
 

 kultura.sme.sk 
 Margaréta sa spriahla s diablom, no mala Kristovu pravdu 
 
 

 www.sme.sk 
 Pútnické miesta The Beatles alebo ako ľudia kráčajú po zebre 
 
 

 cestovanie.sme.sk 
 Lovia za svitania a v hmle 
 
 

 www.sme.sk 
 Ako sa valila lavína slobody. Ako padal komunizmus 
 
 

 kultura.sme.sk 
 Žiadne retro, poriadny biznis. Takto sa lisuje platňa 
 
	   
 


        
         
            
         

     

    
     
 
 
	 

		Kontakty
		Predplatné
		Etický kódex
		Pomoc
		Mapa stránky
		
	 
 
 
	 
		 
			Widget
			RSS
			Newsletter
		 
		 
			Mobil
			Smartphone
			Kindle
			Televízor
		 
		 
			Facebook
			Twitter
			Google+
		 
	 
	 
		
	 
	 
		Ďalšie weby skupiny: Prihlásenie do Post.sk
		Új Szó Slovak Spectator
		Agentúrne správy 
		Vydavateľstvo
		Inzercia
		Osobné údaje
		Návštevnosť webu
		Predajnosť tlače
		Petit Academy
		SME v škole 		© Copyright 1997-2014 Petit Press, a.s. 
	 
 
 
 


          
        
            
            

        
    

    
    


    


    
        
        
        
        
        
        
        
            
            
        
        
        
        
         
                                
               





 

 



        

 




