
      
    
    

     
	 
	 
 SME.sk 
 Zľavy 
 Zoznámenie 
 Reality 
 Dovolenky 
 Pizza 
 Reštaurácie 
 Recenzie 
 Inzeráty 
 Naničmama 	 
Nákupy 
		 
 Filmy na DVD 
 Hodinky 
 Parfémy 
 SME knihy a DVD 
 Superhosting 
 Tlačiareň 
 Víno 
 Tvorba webov 
 Predplatné SME 
 ProSenior 		 
	 
	 
 
	 
 


    
    
        
        
         
          
         
    

    
      
         
            
             
     
        
        
     
    Blog.SME.sk
 

    

         
        
                 
     
         
            Sme.sk
         
         
            Domov
         
         
            Regióny
         
         
            Ekonomika
         
         
            Svet
         
         
            Komentáre
         
         
            Kultúra
         
         
            Šport
         
         
            TV
         
         
            Auto
         
         
            Tech
         
         
            Poradňa
         
         
            Žena
         
         
            Bývanie
         
         
            Zdravie
         
         
            Blog
         
     
 

         
            
     
                                                         Politika 
                                                                                     Spoločnosť 
                                                                                     Cestovanie 
                                                                                     Ekonomika 
                                                                                     Fotografie 
                                                                                     Jedlo 
                                                                                     Kultúra 
                                                                                             
Ďalšie
                             
                                                                                         Lifestyle 
                                                                                                                                                                             Médiá 
                                                                                                                                                                             Nezaradené 
                                                                                                                                                                             Súkromné 
                                                                                                                                                                             Šport 
                                                                                                                                                                             Veda a technika 
                                                                                                                                                                             Zábava 
                                                                                                                                                                             Poézia 
                                                                                                                                                                             Próza 
                                                                                                                                                                             Kódex blogera 
                                                                                 
                         
                                                 
            Blogeri
         
     


            

    
    Prihlásiť sa


    
    Založte si blog



    
    Odhlásiť sa


    
    




         

        
        
         
            
         
         
                
     
                 
            SME.sk &gt;
            Blog.SME.sk &gt;
                            Peter 02 Novak
                                        &gt;
                Nezaradené
                     
                 Až 33% voličov sa má veľmi dobre !!! 

        
            
                                    6.6.2010
            o
            10:23
                        (upravené
                22.6.2010
                o
                22:42)
                        |
            Karma článku:
                11.36
            |
            Prečítané 
            975-krát
                    
         
     
         
             

                 
                    vychádza mi to z pohľadu na prieskumy renomovaných agentúr.
                 

                Lenže, kto sú títo voliči? Sú to tí, ktorým sa nechce pracovať a využívajú resp. zneužívajú sociálne dávky? Vezú sa na vlne sociánych podpôr a užívajú si výhody sociálnej politiky tejto vlády? Takáto skupina ľudí podobne ako premiér, nikdy poriadne nepracovali, nikdy netvorili hodnoty, nestarali sa sami o seba, a preto nikdy neprežívali muky a stresy keď im včas nebola zaplatená faktúra, nemali z čoho zaplatiť účty. Títo ľudia žijú z hodnôt, ktoré tvoria pracujúci ľudia. Títo ľudia sami hodnoty netvoria iba ich prežierajú. Nedávno som bol na prednáške o Indii, v rámci diskusie padla otázka: Ako vyzerá sociálny systém v Indii, aká je výška podpory? Odpoveď bola jednoduchá a jednoznačná. " V Indii neexistuje žiadny systém podpory nepracujúcich. Upozorňujem na slovo NEPRACUJÚCICH! "Kto pracuje má, kto nepracuje nemá. Kto si šetrí má, kto si nešetrí nemá." India má 1,3 miliardy obyvateľov a rozlohou je veľká ako Európa a Ukrajina dokopy. Je 4. najsilnejšou ekonomikou sveta. Čím to je, že tam si takýto prístup môžu dovoliť, kým na Slovensku nie?

                 
                                        
                        
                        Zdieľať
                    

                    
                            
                                    
                                    Zdieľať na
                            
                             
                                    
                             
                    

                                                                                                                        
                            
                            Diskusia: (38)
                        
                    
                    
                        
                        Zvýšte karmu
                    
                 
             

                             
            
                     
                         Ďalšie články blogera 
                         
                                                             
                                    
                    	                                                                                        

                                                                        
                                    
                                        Peter 02 Novak 
                                        
                                            Jedzme tabletky!
                                        
                                    
                                 
                                                             
                                    
                    	                                                                                        

                                                                        
                                    
                                        Peter 02 Novak 
                                        
                                            O vlcích...
                                        
                                    
                                 
                                                             
                                    
                    	                                                                                        

                                                                        
                                    
                                        Peter 02 Novak 
                                        
                                            Arroy Mak Mak !!!  alebo – dokáž si, že si chlap!
                                        
                                    
                                 
                                                             
                                    
                    	                                                                                        

                                                                        
                                    
                                        Peter 02 Novak 
                                        
                                            5-mesačné odstupné poslancov - Grécko?
                                        
                                    
                                 
                                                             
                                    
                    	                                                                                        

                                                                        
                                    
                                        Peter 02 Novak 
                                        
                                            Ujo, Vy ste začiatočník?
                                        
                                    
                                 
                                                     
                        
                            Ďalšie články blogera: Peter 02 Novak
                        
                     
            
                     
                         Ďalšie články z rubriky politika 
                         
                                                             
                                    
                                                            	                                                                                        

                                                                                                
                                    
                                        Tomáš Hudec 
                                        
                                            Chceme zvýšiť účasť ľudí vo voľbách? Zaveďme eVoľby!
                                        
                                    
                                 
                                                             
                                    
                                                            	                                                                                        

                                                                                                
                                    
                                        Robert Bestro 
                                        
                                            Výmena vedenia parlamentu zjavne prospela
                                        
                                    
                                 
                                                             
                                    
                                                            	                                                                                        

                                                                                                
                                    
                                        Júlia Piraňa Mikolášiková 
                                        
                                            Obvinia ďalšiu novinárku z údajného ohovárania policajného šéfa Ševčíka?
                                        
                                    
                                 
                                                             
                                    
                                                            	                                                                                        

                                                                                                
                                    
                                        Stanislav Martinčko 
                                        
                                            Stužka z kvetinárstva za 16 centov a rozkradnuté milióny!!
                                        
                                    
                                 
                                                             
                                    
                                                            	                                                                                        

                                                                                                
                                    
                                        Veronika Remisova 
                                        
                                            Elektronické mýto podľa Ficovej vlády – prehľadnejšie sa to skrátka nedá
                                        
                                    
                                 
                                                     
                        
                            Ďalšie články z rubriky politika
                        
                     
                 
            
                    
 
     Hlavné správy 
         
        
                                

        
         
            ZAHRANIČIE
             Protestujúci v Maďarsku strácajú dych, Fidesz ich mätie novými návrhmi 
             Na demonštrácii proti Orbánovej vláde bolo v utorok už len niekoľko tisíc ľudí. 
         
     
         
        
                                

        
         
            AKTUALIZOVANÉ 20:22
             Slovenky v hlavnej skupine nebodovali, Švédky vyhrali o 9 gólov 
             Naše hádzanárky hrali na ME piaty zápas. V Záhrebe proti Švédkam. 
         
     
         
        
                                

        
         
            AKTUALIZOVANÉ O 21:30
             Rubeľ pocítil pád na dno, Rusko je vo finančnej kríze 
             Dolár včera stál už takmer 80 rubľov, pod hladinu ho tlačia najmä nízke ceny ropy. 
         
     
     

                 
     
    
     
        
 

     
                
                            
                    



         
            
                Peter 02 Novak
            
         
        peter02novak.blog.sme.sk (rss)
         
                                     
     
        Mám rád život, mám rád slobodu a voľnosť. Rád sa stretávam s ľuďmi, rád ich počúvam a pozorujem. Častokrát ma prekvapia príbehy jednoduchých ľudí. Fascinuje ma múdrosť v mnohých z nich ukrytá.  Popri mojej tvrdej technokratickej práci ma takýto druh spoločenského života nabíja. 
Je pre mňa Relaxom. Cez blog sa s Vami môžem o niektoré zážitky podeliť
        
     
     
                     
                             
             

     
        
            
                
                    Počet článkov
                    8
                
                
                    Celková karma
                    
                                                0.00
                    
                
                
                    Priemerná čítanosť
                    1241
                
            
        
     

             

             Zoznam rubrík 
            
             
                                     
                        
                            Súkromné
                        
                     
                                     
                        
                            Nezaradené
                        
                     
                             
         
    

    

        

     






            
    
        
    
 

        
         
         
             Už ste čítali? 
         
         
 

 kultura.sme.sk 
 Margaréta sa spriahla s diablom, no mala Kristovu pravdu 
 
 

 www.sme.sk 
 Pútnické miesta The Beatles alebo ako ľudia kráčajú po zebre 
 
 

 cestovanie.sme.sk 
 Lovia za svitania a v hmle 
 
 

 www.sme.sk 
 Ako sa valila lavína slobody. Ako padal komunizmus 
 
 

 kultura.sme.sk 
 Žiadne retro, poriadny biznis. Takto sa lisuje platňa 
 
	   
 


        
         
            
         

     

    
     
 
 
	 

		Kontakty
		Predplatné
		Etický kódex
		Pomoc
		Mapa stránky
		
	 
 
 
	 
		 
			Widget
			RSS
			Newsletter
		 
		 
			Mobil
			Smartphone
			Kindle
			Televízor
		 
		 
			Facebook
			Twitter
			Google+
		 
	 
	 
		
	 
	 
		Ďalšie weby skupiny: Prihlásenie do Post.sk
		Új Szó Slovak Spectator
		Agentúrne správy 
		Vydavateľstvo
		Inzercia
		Osobné údaje
		Návštevnosť webu
		Predajnosť tlače
		Petit Academy
		SME v škole 		© Copyright 1997-2014 Petit Press, a.s. 
	 
 
 
 


          
        
            
            

        
    

    
    


    


    
        
        
        
        
        
        
        
            
            
        
        
        
        
         
                                
               





 

 



        

 




