
      
    
    

     
	 
	 
 SME.sk 
 Zľavy 
 Zoznámenie 
 Reality 
 Dovolenky 
 Pizza 
 Reštaurácie 
 Recenzie 
 Inzeráty 
 Naničmama 	 
Nákupy 
		 
 Filmy na DVD 
 Hodinky 
 Parfémy 
 SME knihy a DVD 
 Superhosting 
 Tlačiareň 
 Víno 
 Tvorba webov 
 Predplatné SME 
 ProSenior 		 
	 
	 
 
	 
 


    
    
        
        
         
          
         
    

    
      
         
            
             
     
        
        
     
    Blog.SME.sk
 

    

         
        
                 
     
         
            Sme.sk
         
         
            Domov
         
         
            Regióny
         
         
            Ekonomika
         
         
            Svet
         
         
            Komentáre
         
         
            Kultúra
         
         
            Šport
         
         
            TV
         
         
            Auto
         
         
            Tech
         
         
            Poradňa
         
         
            Žena
         
         
            Bývanie
         
         
            Zdravie
         
         
            Blog
         
     
 

         
            
     
                                                         Politika 
                                                                                     Spoločnosť 
                                                                                     Cestovanie 
                                                                                     Ekonomika 
                                                                                     Fotografie 
                                                                                     Jedlo 
                                                                                     Kultúra 
                                                                                             
Ďalšie
                             
                                                                                         Lifestyle 
                                                                                                                                                                             Médiá 
                                                                                                                                                                             Nezaradené 
                                                                                                                                                                             Súkromné 
                                                                                                                                                                             Šport 
                                                                                                                                                                             Veda a technika 
                                                                                                                                                                             Zábava 
                                                                                                                                                                             Poézia 
                                                                                                                                                                             Próza 
                                                                                                                                                                             Kódex blogera 
                                                                                 
                         
                                                 
            Blogeri
         
     


            

    
    Prihlásiť sa


    
    Založte si blog



    
    Odhlásiť sa


    
    




         

        
        
         
            
         
         
                
     
                 
            SME.sk &gt;
            Blog.SME.sk &gt;
                            Anton Kaiser
                                        &gt;
                Videoblogy
                     
                 Gejzír Herľany 

        
            
                                    13.8.2007
            o
            7:53
                        |
            Karma článku:
                10.75
            |
            Prečítané 
            10511-krát
                    
         
     
         
             

                 
                    Národná prírodná pamiatka Slovenska Herľanský gejzír je jediným studeným artézskym prameňom v Európe a svetovou raritou. Vznikol v 19. storočí umelým vrtom do hĺbky 404,5 metra, pre zabezpečenie dostatočnej minerálnej vody pre ďalší rozvoj kúpeľov Herľany.
                 

                 
Herľanský gejzír je vyhľadávanou turisticko atrakciouText a snímky: Anton Kaiser
   Gejzír v Herľanoch si už takmer 130 rokov zachováva svoju jedinečnosť a je unikátom medzi gejzírmi.              Liečivé pramene v tejto oblasti boli známe už v 17. storočí za vlády Jozefa II. V rokoch najväčšej slávy patrili kúpele k európskej rarite a stali sa nielen liečebným, ale i spoločenským strediskom rakúsko-uhorskej šľachty a mešťanov.  V roku 1874, keď hĺbka vrtu dosahovala 330 m, stĺp striekajúcej vody dosiahol výšku až 112 metrov a striekal bez prestávky 10 dní. V súčasnosti je gejzír upravený do podoby fontány v areáli historického parku s cennými drevinami a historickými budovami kúpeľov Herľany – Rankovce. Pri erupcii, ktorá trvá 30 minút, dosahuje gejzír výšku približne 20 metrov a intervaly medzi jednotlivými erupciami sú 32 až 36 hodín.   Gejzír silne mineralizovanej vody sa nachádza pod úpätím Slanských vrchov, približne 28 km od Košíc.    ((video))                           Postupné doznievanie erupčnej činnosti.                                           

                 
                                        
                        
                        Zdieľať
                    

                    
                            
                                    
                                    Zdieľať na
                            
                             
                                    
                             
                    

                                                                                                                        
                            
                            Diskusia: (17)
                        
                    
                    
                        
                        Zvýšte karmu
                    
                 
             

                             
            
                     
                         Ďalšie články blogera 
                         
                                                             
                                    
                    	                                                                                        

                                                                        
                                    
                                        Anton Kaiser 
                                        
                                            Tradičné Vianoce
                                        
                                    
                                 
                                                             
                                    
                                                                                                    

                                                                        
                                    
                                        Anton Kaiser 
                                        
                                            Jesenné Dudince
                                        
                                    
                                 
                                                             
                                    
                    	                                                                                        

                                                                        
                                    
                                        Anton Kaiser 
                                        
                                            Zlatomoravecký jarmok 2014
                                        
                                    
                                 
                                                             
                                    
                    	                                                                                        

                                                                        
                                    
                                        Anton Kaiser 
                                        
                                            Háčkovanie - moja záľuba
                                        
                                    
                                 
                                                             
                                    
                    	                                                                                        

                                                                        
                                    
                                        Anton Kaiser 
                                        
                                            Obrazy Kataríny Gálikovej a Kataríny Valentovej
                                        
                                    
                                 
                                                     
                        
                            Ďalšie články blogera: Anton Kaiser
                        
                     
            
                     
                         Ďalšie články z rubriky cestovanie 
                         
                                                             
                                    
                                                                                                                    

                                                                                                
                                    
                                        Miroslav Lisinovič 
                                        
                                            Horná brána v Modre
                                        
                                    
                                 
                                                             
                                    
                                                                                                                    

                                                                                                
                                    
                                        Martina Rúčková 
                                        
                                            Z Európy na Kaukaz: Çanakkale a bájna Trója
                                        
                                    
                                 
                                                             
                                    
                                                            	                                                                                        

                                                                                                
                                    
                                        Andrea Grešová 
                                        
                                            To je moje Rumunsko
                                        
                                    
                                 
                                                             
                                    
                                                                                                                    

                                                                                                
                                    
                                        Ján Serbák 
                                        
                                            Pamätník čs. armády s vojnovým cintorínom na Dukle
                                        
                                    
                                 
                                                             
                                    
                                                            	                                                                                        

                                                                                                
                                    
                                        Peter Kover 
                                        
                                            22 krajín (miest), ktoré sa naozaj oplatí vidieť
                                        
                                    
                                 
                                                     
                        
                            Ďalšie články z rubriky cestovanie
                        
                     
                 
            
                    
 
     Hlavné správy 
         
        
                                

        
         
            AKTUALIZOVANÉ 20:22
             Slovenky v hlavnej skupine nebodovali, Švédky vyhrali o 9 gólov 
             Naše hádzanárky hrali na ME piaty zápas. V Záhrebe proti Švédkam. 
         
     
         
        
                                

        
         
            AKTUALIZOVANÉ O 20:00
             Rubeľ pocítil pád na dno, Rusko je vo finančnej kríze 
             Dolár včera stál už takmer 80 rubľov, pod hladinu ho tlačia najmä nízke ceny ropy. 
         
     
         
        
                                

        
         
            ZAHRANIČIE
             Taliban zaútočil na citlivé miesto Pakistanu. Na deti 
             Taliban zabil v škole v Pakistane najmenej 141 ľudí, väčšinou deti. 
         
     
     

                 
     
    
     
        
 

     
                
                            
                    



         
            
                Anton Kaiser
            
         
        antonkaiser.blog.sme.sk (rss)
         
                        VIP
                             
     
        Rád fotím, píšem, propagujem a šírim dobré meno mestu, v ktorom žijem a tvorím.  


        
     
     
                     
                             
             

     
        
            
                
                    Počet článkov
                    311
                
                
                    Celková karma
                    
                                                0.00
                    
                
                
                    Priemerná čítanosť
                    2429
                
            
        
     

             

             Zoznam rubrík 
            
             
                                     
                        
                            Kultúra
                        
                     
                                     
                        
                            Šport
                        
                     
                                     
                        
                            Cestujeme
                        
                     
                                     
                        
                            Videoblogy
                        
                     
                                     
                        
                            Súkromné
                        
                     
                                     
                        
                            Príroda
                        
                     
                             
         
    

                     
                        
                                                            
                     Obľúbené blogy 
                    
                     
                                                 
                                            Spomienka na Rab
                                     
                                                                             
                                            Úvaha blogerky
                                     
                                                                             
                                            Pezinčan na Veľkom Inovci
                                     
                                                                             
                                            Rodáčka v Zlatých Moravciach
                                     
                                                                   
                     Obľúbené stránky 
                    
                     
                                                 
                                            Leustach
                                     
                                                                             
                                            Tostabur Espadrones
                                     
                                                                             
                                            ephoto
                                     
                                                                             
                                            Zlatomoravecká stránka
                                     
                                                                             
                                            Dovolenka
                                     
                                                                             
                                            Tekovské noviny
                                     
                                                                             
                                            Fotky sme.sk
                                     
                                                                             
                                            FoTOP
                                     
                                                                             
                                            Portál Žitava
                                     
                            
             
         
            

           
     Pošlite odkaz blogerovi 
    
         
            
         

         
         
         
         

         
         
Odosielateľ (e-mail)
 
         
Text
 
         
             
Protispamová ochrana 
 
 Zle. Skúste znova. 
Opíšte slová z obrázku: Načítať iné slová 
 Get an image CAPTCHA 
 
 
         
                 
            
         
    
  


 

     






            
    
        
    
 

        
         
         
             Už ste čítali? 
         
         
 

 kultura.sme.sk 
 Margaréta sa spriahla s diablom, no mala Kristovu pravdu 
 
 

 www.sme.sk 
 Pútnické miesta The Beatles alebo ako ľudia kráčajú po zebre 
 
 

 cestovanie.sme.sk 
 Lovia za svitania a v hmle 
 
 

 www.sme.sk 
 Ako sa valila lavína slobody. Ako padal komunizmus 
 
 

 kultura.sme.sk 
 Žiadne retro, poriadny biznis. Takto sa lisuje platňa 
 
	   
 


        
         
            
         

     

    
     
 
 
	 

		Kontakty
		Predplatné
		Etický kódex
		Pomoc
		Mapa stránky
		
	 
 
 
	 
		 
			Widget
			RSS
			Newsletter
		 
		 
			Mobil
			Smartphone
			Kindle
			Televízor
		 
		 
			Facebook
			Twitter
			Google+
		 
	 
	 
		
	 
	 
		Ďalšie weby skupiny: Prihlásenie do Post.sk
		Új Szó Slovak Spectator
		Agentúrne správy 
		Vydavateľstvo
		Inzercia
		Osobné údaje
		Návštevnosť webu
		Predajnosť tlače
		Petit Academy
		SME v škole 		© Copyright 1997-2014 Petit Press, a.s. 
	 
 
 
 


          
        
            
            

        
    

    
    


    


    
        
        
        
        
        
        
        
            
            
        
        
        
        
         
                                
               





 

 



        

 




