
      
    
    

     
	 
	 
 SME.sk 
 Zľavy 
 Zoznámenie 
 Reality 
 Dovolenky 
 Pizza 
 Reštaurácie 
 Recenzie 
 Inzeráty 
 Naničmama 	 
Nákupy 
		 
 Filmy na DVD 
 Hodinky 
 Parfémy 
 SME knihy a DVD 
 Superhosting 
 Tlačiareň 
 Víno 
 Tvorba webov 
 Predplatné SME 
 ProSenior 		 
	 
	 
 
	 
 


    
    
        
        
         
          
         
    

    
      
         
            
             
     
        
        
     
    Blog.SME.sk
 

    

         
        
                 
     
         
            Sme.sk
         
         
            Domov
         
         
            Regióny
         
         
            Ekonomika
         
         
            Svet
         
         
            Komentáre
         
         
            Kultúra
         
         
            Šport
         
         
            TV
         
         
            Auto
         
         
            Tech
         
         
            Poradňa
         
         
            Žena
         
         
            Bývanie
         
         
            Zdravie
         
         
            Blog
         
     
 

         
            
     
                                                         Politika 
                                                                                     Spoločnosť 
                                                                                     Cestovanie 
                                                                                     Ekonomika 
                                                                                     Fotografie 
                                                                                     Jedlo 
                                                                                     Kultúra 
                                                                                             
Ďalšie
                             
                                                                                         Lifestyle 
                                                                                                                                                                             Médiá 
                                                                                                                                                                             Nezaradené 
                                                                                                                                                                             Súkromné 
                                                                                                                                                                             Šport 
                                                                                                                                                                             Veda a technika 
                                                                                                                                                                             Zábava 
                                                                                                                                                                             Poézia 
                                                                                                                                                                             Próza 
                                                                                                                                                                             Kódex blogera 
                                                                                 
                         
                                                 
            Blogeri
         
     


            

    
    Prihlásiť sa


    
    Založte si blog



    
    Odhlásiť sa


    
    




         

        
        
         
            
         
         
                
     
                 
            SME.sk &gt;
            Blog.SME.sk &gt;
                            Tomáš Bella
                                        &gt;
                Spoločnosť
                     
                 Dnešné deti už nečítajú knihy? Super! 

        
            
                                    9.10.2009
            o
            10:35
                        |
            Karma článku:
                16.87
            |
            Prečítané 
            17241-krát
                    
         
     
         
             

                 
                    Na blogu Martinusu vyšiel prototyp klasického alarmistického textu "Budúca slovenská yntelikencia", ktorý je príkladom nepochopenia elementárnych základov vplyvu technológií na spoločnosť a historického vývoja ľudských zručností.
                 

                     Autor Juraj Šlesar narieka, že deti dnes už nečítajú, chradne im gramatika, sú obmedzené a vôbec, tento svet nedopadne dobre:   Čísla hovoria jasne – počas školského dňa nečíta knihy 45,9% respondentov. Ak k tomu pridáme ďalších 25,7% respondentov, ktorí čítajú len menej ako 15 minút denne, zistíme, že nám vyrastá generácia, z ktorej takmer tri štvrtiny nečíta, alebo číta zanedbateľne.       Naozaj, nečíta? Ani manuály? Ani blogy? Ani esemesky? Ani e-maily? Ani Twitter? Ani Facebook statusy? Vážne nič nečíta?       Je to, samozrejme, nezmysel; po prvé, samotné tvrdenie, že deti menej čítajú knihy, je dosť pochybné (skúste aj tu). (Ozaj, vedeli ste, že dnešné deti vedia vďaka internetu a mobilom písať lepšie, ako v minulosti?)       Po druhé, aj keby sme prijali, že knihy sa čítajú oveľa menej, tak dnešné deti každopádne čítajú viac, ako kedykoľvek predtým v histórii, ibaže technológia na čítanie sa zmenila.       Čo chcú alarmisti povedať je, že sa viac čítajú iné médiá a menej knihy a že toto je z nejakého dôvodu zlé.       V duchu klasického postrehu "Každá technológia vynájdená pred mojou tridsiatkou je prirodzená, každá vynájdená keď som mal 30-60 je podozrivá a tie vynájdené po mojej šesťdesiatke sú už čistý diablov vynález" sa to dá pochopiť - všetkým nad 25-30 rokov sa zdajú knihy prirodzenejšie ako Facebook (aj mne).       Okrem toho máme prirodzenú tendenciu vlastné záľuby považovať za dôstojné a prospešné a cudzie za zvláštne a nepochopiteľné.       Ale stačí si prečítať trebárs niečo z tohoto:   Science and Technology in World History   
The visions of Technology alebo dokonca   
The Experts Speak: The Definitive Compendium of Authoritative Misinformation  (áno, viem, hrubé knihy, komu by sa chcelo čítať! :)       ...alebo napokon čokoľvek iné zo vzdialenejšej histórie médií a technológií, a dočítate sa napríklad, že:       mnohí vplyvní starogrécki filozofi boli proti zapisovaniu slov na papier, pretože to umožňovalo odtrhnutie myšlienok od autora a ich prekrútenie a znehodnotenie skutočného vedenia   po vynáleze knihtlače začalo dlhé obdobie morálneho boja "intelektuálnych a morálnych elít" proti knihám, ktoré narušia mravy spoločnosti (!)   prvé noviny boli považované za definitívny klinec do rakvy morálky civilizácie (bol to čistý bulvár)   príchod rádia bol zvestovaný ako zabiják kníh   televízia bola prorokovaná ako zabiják starého dobrého rádia (z ktorého sa zrazu stala prospešná technológia a zrazu sa zdôrazňovalo, ako podnecuje fantáziu, vzdeláva... - ako keby to tak nebolo už pri jeho vzniku, keď sa o ňom hovorilo ako o antikultúrnom vynáleze)   Technológie (médiá), ktoré boli len v poslednom storočí obvinené z toho, že zabijú knihy a pokazia mládež: rádio, televízia, časopisy pre mladých, počítačové hry, e-mail, chat...       Inými slovami: v histórii neexistovalo žiadne obdobie, kedy by sa dospelí nebáli, že nejaké nové médium kazí mravy a schopností mladých, a neexistovalo žiadne médium, ktoré by nebolo terčom takejto kritiky.       Sú teda len dve možnosti: buď ľudstvo od svojho vzniku ide stále len dolu kopcom (dúfam, že všetci, čo si to myslia, by naozaj radšej žili v stredovekej osade v 14. storočí), alebo sa jednoducho tí, ktorí sa obávajú o mravy a schopnosti mladých a katastrofálne dopady zániku starých mediálnych zručností, vždy a úplne konzistentne mýlia (pravdepodobne to má dobré evolučné dôvody, prečo máme tendenciu takto uvažovať a nové veci apriórne odmietať - pre ľudí tisícročia pred nami to bola najlepšia stratégia prežitia).       Áno, deti dnes menej čítajú Tajovského a Timravu a môj tip by bol, že to zmenšuje ich schopnosť písať hatallovskou slovenčinou.       Ale nariekať nad tým je ako plakať, že už dnes máloktoré dieťa vie poorať pole alebo utkať si nohavice, v ktorých sa vyberie ráno 7 kilometrov pešo cez snehové záveje do najbližšej malotriedky.       Áno, čítanie kníh je romantické, rovnako tak oranie poľa (to druhé aspoň pre toho, kto naň len spomína), ale je to romantika technológie, ktorá už stratila svoju výlučnosť a v rebríčku užitočnosti pre život sa posunula nižšie, tak ako ona pri svojom vynájdení odsunula iné médiá.       
Jednoducho nie je žiaden dôvod, prečo by čítanie Timravy malo urobiť z niekoho dobrého a šťastného človeka skôr, ako sledovanie prednášky na Ted.com.
       Kto apriórne stojí za Timravou len preto, že je vytlačená na mŕtvom strome (alebo vôbec apriórne obhajuje mŕtvy strom proti videoprednáške), neobhajuje morálku ani šťastie detí ani prospech pre spoločnosť, ale jednoducho len bojuje za médium svojho detstva, lebo to bolo jeho detstvo - bez ohľadu na to, čo urobí šťastné deti dnes.       
Krasopis, gramatika alebo schopnosť poorať pole sú zručnosti, ktoré nemajú žiadnu hodnotu samé o sebe - v minulosti im bola pridelená hodnota, pretože pomáhali prežiť v spoločnosti a posúvať ju dopredu.       Keď však chcete od svojho dieťaťa, aby vám naprogramovalo videoprehrávač a zrešeršovalo za 30 minút 20 zdrojov z internetu, nemôžete od neho zároveň chcieť, aby si zachovalo aj všetky vaše staré znalosti a zvyky - jednoducho niektoré, ktoré už preň nie sú potrebné, vypustí, aby mohlo nabrať iné.       Automatická obrana všetkého, čo sme poznali ako mladí, je úplne prirodzená a ľudsky pochopiteľná. Ale ľudia, ktorí naznačujú, že práve vďaka čítaniu kníhu sú vzdelanejší, by mali byť schopní aj trochu racionálnej analýzy a pohľadu do histórie - ak toho nie sú schopní, tak, ehm, nečítali tie knihy zbytočne? 

                 
                                        
                        
                        Zdieľať
                    

                    
                            
                                    
                                    Zdieľať na
                            
                             
                                    
                             
                    

                                                                                                                        
                            
                            Diskusia: (283)
                        
                    
                    
                        
                        Zvýšte karmu
                    
                 
             

                             
            
                     
                         Ďalšie články blogera 
                         
                                                             
                                    
                    	                                                                                        

                                                                        
                                    
                                        Tomáš Bella 
                                        
                                            Čitateľský denník: 11 mojich najlepších non-fiction kníh roka
                                        
                                    
                                 
                                                             
                                    
                    	                                                                                        

                                                                        
                                    
                                        Tomáš Bella 
                                        
                                            Testujem keepstream.com: knihy z môjho wishlistu na Amazon.com
                                        
                                    
                                 
                                                             
                                    
                    	                                                                                        

                                                                        
                                    
                                        Tomáš Bella 
                                        
                                            Ktorí Slováci majú najviac priateľov na Facebooku? (verzia 1.31)
                                        
                                    
                                 
                                                             
                                    
                    	                                                                                        

                                                                        
                                    
                                        Tomáš Bella 
                                        
                                            Čitateľský denník: Sú slovenské mestá krajšie ako americké?
                                        
                                    
                                 
                                                             
                                    
                    	                                                                                        

                                                                        
                                    
                                        Tomáš Bella 
                                        
                                            free.perohryz.eu
                                        
                                    
                                 
                                                     
                        
                            Ďalšie články blogera: Tomáš Bella
                        
                     
            
                     
                         Ďalšie články z rubriky spoločnosť 
                         
                                                             
                                    
                                                            	                                                                                        

                                                                                                
                                    
                                        Mária Levočská 
                                        
                                            Ďalšia obeť pomsty monsignora Jaraba
                                        
                                    
                                 
                                                             
                                    
                                                            	                                                                                        

                                                                                                
                                    
                                        Kristián Straka 
                                        
                                            Nebite ma, doktor Plzák... alebo POZVANIE NA VEČERU
                                        
                                    
                                 
                                                             
                                    
                                                            	                                                                                        

                                                                                                
                                    
                                        Kristián Straka 
                                        
                                            Oklamaní Ježiškom ?
                                        
                                    
                                 
                                                             
                                    
                                                            	                                                                                        

                                                                                                
                                    
                                        Milan Buno 
                                        
                                            Šup, šup, najesť sa. A utekať!
                                        
                                    
                                 
                                                             
                                    
                                                            	                                                                                        

                                                                                                
                                    
                                        Katarína Lorenčíková 
                                        
                                            Par uprimnych oslobodzujucich riadkov...
                                        
                                    
                                 
                                                     
                        
                            Ďalšie články z rubriky spoločnosť
                        
                     
                 
            
                    
 
     Hlavné správy 
         
        
                                

        
         
            KOMENTÁR PETRA SCHUTZA
             Len korupčné škandály preferencie Smeru nepotopia 
             Ak chce opozícia vo voľbách zvrhnúť Smer, bez rozšírenia repertoáru si neporadí. 
         
     
         
        
                                

        
         
            ZAHRANIČIE
             Protestujúci v Maďarsku strácajú dych, Fidesz ich mätie novými návrhmi 
             Na demonštrácii proti Orbánovej vláde bolo v utorok už len niekoľko tisíc ľudí. 
         
     
         
        
                                

        
         
            AKTUALIZOVANÉ O 21:30
             Rubeľ pocítil pád na dno, Rusko je vo finančnej kríze 
             Dolár v utorok stál už takmer 80 rubľov, pod hladinu ho tlačia najmä nízke ceny ropy. 
         
     
     

                 
     
    
     
        
 

     
                
                            
                    



         
            
                Tomáš Bella
            
         
        bella.blog.sme.sk (rss)
         
                        VIP
                             
     
         Osobná stránka: about.me/tomas.bella 
Skúste aj môj blog 1vetou.sme.sk. 
        
     
     
                     
                             
             

     
        
            
                
                    Počet článkov
                    338
                
                
                    Celková karma
                    
                                                0.00
                    
                
                
                    Priemerná čítanosť
                    3686
                
            
        
     

             

             Zoznam rubrík 
            
             
                                     
                        
                            Surfujem
                        
                     
                                     
                        
                            Technológie a my
                        
                     
                                     
                        
                            Zábava
                        
                     
                                     
                        
                            Médiá
                        
                     
                                     
                        
                            Stalo sa, napísalo sa
                        
                     
                                     
                        
                            Spoločnosť
                        
                     
                                     
                        
                            Postrehy
                        
                     
                                     
                        
                            Foto
                        
                     
                                     
                        
                            Súkromné
                        
                     
                                     
                        
                            O blogoch
                        
                     
                             
         
    

                     
                        
                                                            
                     Obľúbené články 
                    
                     
                                                 
                                            .
                                     
                                                                             
                                            .
                                     
                                                                             
                                            .
                                     
                                                                             
                                            .
                                     
                                                                             
                                            .
                                     
                                                                             
                                            .
                                     
                                                                             
                                            .
                                     
                                                                             
                                            if fox news had existed...
                                     
                                                                             
                                            Drive Like a Cop
                                     
                                                                             
                                            Creators, Critics and Collectors...
                                     
                                                                             
                                            10 najlepších titulkov
                                     
                                                                             
                                            N.J. town to set barking dog time limit
                                     
                                                                             
                                            I Survived My Internet Vacation
                                     
                                                                             
                                            10 foods you should never eat
                                     
                                                                             
                                            Wild Predictions for a Wired 2007
                                     
                                                                             
                                            Help for maths dunces baffled by sales offers
                                     
                                                                             
                                            A few big sites increasingly dominate the web.
                                     
                                                                             
                                            Goodbye, Production (and Maybe Innovation)
                                     
                                                                             
                                            How to get your blog (or yourself) mentioned in print
                                     
                                                                             
                                            What Comes After Web 2.0?
                                     
                                                                             
                                            Kterak si Atlas a Centrum spletli líbivost s účinností
                                     
                                                                             
                                            Manly Men, Oil Platforms, and Breaking Stereotypes
                                     
                                                                             
                                            Hacking Email: 99 tips to make you more secure and productive
                                     
                                                                             
                                            ‘Yours Truly,’ the E-Variations
                                     
                                                                             
                                            In certain circles, two is a crowd
                                     
                                                                             
                                            Style, function and the imperfect cellphone
                                     
                                                                             
                                            The Internet Black Hole That Is North Korea
                                     
                                                                             
                                            America's Most Fonted: The 7 Worst Fonts
                                     
                                                                             
                                            Čo sa váš biznis môže naučiť od omáčky na špagety
                                     
                                                                             
                                            Rebuilding Microsoft
                                     
                                                                             
                                            Classical's Class and Rap's Bad Rap
                                     
                                                                             
                                            Budou mít blogy konečně Respekt?
                                     
                                                                             
                                            Unsolicited E-Mail Press Releases = Spam (To Me)
                                     
                                                                             
                                            Web 2.0 Winners and Losers
                                     
                                                                             
                                            Missed call marketing
                                     
                                                                             
                                            Forget about a faster processor. Splurge on a bigger screen.
                                     
                                                                             
                                            Bloggers struggle with what to do about vacation
                                     
                                                                             
                                            Hlas webu
                                     
                                                                             
                                            Don't Marry Career Women
                                     
                                                                             
                                            Psychológia fotografie
                                     
                                                                             
                                            BigBloger: jak noviny válčí s blogy
                                     
                                                                             
                                            Newsmaker:  A blogger's battle from behind bars
                                     
                                                                             
                                            Men and women think differently. But not that differently
                                     
                                                                             
                                            Investor Protection: The Czech Experience
                                     
                                                                             
                                            The great PC 'what-if'
                                     
                                                                             
                                            The Moral Panic over Social-Networking Sites
                                     
                                                                             
                                            How the web went world wide
                                     
                                                                             
                                            O blogu na ČT24
                                     
                                                                             
                                            Window or Aisle? How to Increase Your Odds
                                     
                                                                             
                                            Perspective:  Teen's tips for avoiding MySpace dorkiness
                                     
                                                                             
                                            Záludnost internetových vztahů
                                     
                                                                             
                                            Kto je Melinda Gatesová?
                                     
                                                                             
                                            Kameňák mesiaca: Kaliňák by chránil len tajné dáta
                                     
                                                                             
                                            Blogováním za lepší noviny? Jen to ne
                                     
                                                                             
                                            Brain sensor allows mind-control
                                     
                                                                             
                                            Digitálny fotoaparát: Fotíme draho zadarmo
                                     
                                                                             
                                            Bill Gates' Legacy: Microsoft's Top 10 Flops
                                     
                                                                             
                                            Slováci, za Dunaj!
                                     
                                                                             
                                            Warren Buffett gives away his fortune
                                     
                                                                             
                                            Pocta Billovi Gatesovi
                                     
                                                                             
                                            Preboha, nepodnikajte pre radosť!
                                     
                                                                             
                                            V galerii šmejdů
                                     
                                                                             
                                            O škole, kde sa nič nemusí
                                     
                                                                             
                                            Pozoruhodná úvaha o plagiátorstve v médiách
                                     
                                                                             
                                            Top 10 Windows XP Tips Of All Time
                                     
                                                                             
                                            A čo tak pomenovať dcéru Bratislava? :)
                                     
                                                                             
                                            Google in China: The Big Disconnect
                                     
                                                                             
                                            Americans commute longer, farther than ever
                                     
                                                                             
                                            THE SOUNDTRACK OF YOUR LIFE
                                     
                                                                             
                                            režisér Bohdan Sláma: Žiadny ľudský tvor nemôže byť cudzí
                                     
                                                                             
                                            This Week's Worst Headline (Don't let this happen to you)
                                     
                                                                             
                                            Diplom je krásná věc, ale chleba si za něj nekoupím
                                     
                                                                             
                                            How to Unmask an Anonymous Blogger
                                     
                                                                             
                                            Smothering Me With Customer Service
                                     
                                                                             
                                            The 5 phases of a Hype Cycle
                                     
                                                                             
                                            Jak zkrotit nevázané diskutéry?
                                     
                                                                             
                                            AutoStitch - softvér, ktorý poskladá panorámy za vás
                                     
                                                                             
                                            Jak sdílet fotografie na Internetu
                                     
                                                                             
                                            Konec levných CD-R?
                                     
                                                                             
                                            Life Without Mouse &gt;&gt; Tips &amp; Tricks
                                     
                                                                             
                                            10 rules to manage your boss
                                     
                                                                             
                                            Hyped Web Stories Are Irrelevant
                                     
                                                                             
                                            Firefox plugin jako politicko-umělecké dílo
                                     
                                                                             
                                            Geekonomics
                                     
                                                                             
                                            Peer review and 'media science'
                                     
                                                                             
                                            Small study points to addictive effects of frequent tanning
                                     
                                                                             
                                            InZine je mŕtvy, autori žijú
                                     
                                                                             
                                            Antik: Košický telekom
                                     
                                                                             
                                            Cenzura!
                                     
                                                                             
                                            Kam sa ľudia na stránkach pozerajú
                                     
                                                                             
                                            Understand What Motivates Your Boss
                                     
                                                                             
                                            Zrušenie konta vulgárnym bloggerom nie je neetické
                                     
                                                                             
                                            The blog in the corporate machine
                                     
                                                                             
                                            The mystery of the skipping stone
                                     
                                                                             
                                            NetMeter.sk: priepastné rozdiely pri flatovom DSL
                                     
                                                                             
                                            'Sleeping on it' best for complex decisions
                                     
                                                                             
                                            The Rise of Guerrilla Media
                                     
                                                                             
                                            The path less travelled feels shorter
                                     
                                                                             
                                            Jaká bude kancelář budoucnosti?
                                     
                                                                             
                                            A GAME THEORETIC APPROACH TO THE TOILET SEAT PROBLEM
                                     
                                                                             
                                            Ako písať spamy
                                     
                                                                             
                                            NSA eavesdropping: How it might work
                                     
                                                                             
                                            Solve problems by writing a note to yourself
                                     
                                                                             
                                            Top ten reasons Geeks make good fathers
                                     
                                                                             
                                            TA3 vysiela po internete
                                     
                                                                             
                                            Skvelý článok totálne, absolútne o ničom
                                     
                                                                             
                                            No Opinions? No Problem
                                     
                                                                             
                                            Productivity Means Working Smarter, Not Longer
                                     
                                                                             
                                            Michal Hvorecký: Úpadok prežijeme so šálkou lahodnej kávy
                                     
                                                                             
                                            Laughter paves the way for romance
                                     
                                                                             
                                            Jak blogovat a přežít (Ivo Lukačovič)
                                     
                                                                             
                                            Ochrana prevozu peňazí je prehnaná a pridrahá
                                     
                                                                             
                                            Český blog bude len na pozvánky
                                     
                                                                             
                                            8 mistakes when creating PowerPoint presentations
                                     
                                                                             
                                            Looking up old love? Think twice
                                     
                                                                             
                                            Starbucks Economics
                                     
                                                                             
                                            So long, and thanks for the Ph.D.
                                     
                                                                             
                                            Slovensko má v OSN šanci se zviditelnit
                                     
                                                                             
                                            Ten Reasons Why You Should Never Accept a Diamond Ring
                                     
                                                                             
                                            100 things we didn't know this time last year
                                     
                                                                             
                                            Nine factors that affect your heart's health
                                     
                                                                             
                                            Lesson for Murdoch: Keep the bloggers happy
                                     
                                                                             
                                            How to order wine without looking like an asshole
                                     
                                                                             
                                            Cartoons ignite cultural combat in Denmark
                                     
                                                                             
                                            Bulvár horší ako na Bleskovky.cz
                                     
                                                                             
                                            Minúta, ktorá bude trvať 61 sekúnd
                                     
                                                                             
                                            Tak trochu jiných patnáct let (internetu)
                                     
                                                                             
                                            What was hot in the blogosphere in 2005?
                                     
                                                                             
                                            Predpovede na rok 2005 - čo sa splnilo?
                                     
                                                                             
                                            Most Predictable Stories of 2005
                                     
                                                                             
                                            Better than people (Japan's humanoid robots)
                                     
                                                                             
                                            (Technologické) výroky roka
                                     
                                                                             
                                            What would Jesus blog?
                                     
                                                                             
                                            Namiesto zbierania informácií radšej rozmýšľajme (anglicky)
                                     
                                                                             
                                            Google Search Tips 2005
                                     
                                                                             
                                            Návštěvnost blogu životu nebezpečná
                                     
                                                                             
                                            How to Win Any Argument On the Internet
                                     
                                                                             
                                            Wiki-ústava neuspela (Onion :-)
                                     
                                                                             
                                            Vyhadzov za blogovanie (komiks)
                                     
                                                                             
                                            Rozhovors s Rayom Kurzweilom o budúcnosti ľudstva (anglicky)
                                     
                                                                             
                                            Nine Fads to Ignore
                                     
                                                                             
                                            Nun Terrorized by Terror Watch
                                     
                                                                             
                                            From ape to 'Homo digitas'?
                                     
                                                                             
                                            Writing sensible email messages
                                     
                                                                             
                                            Zaujímavý rozhovor o slovenských televíziách
                                     
                                                                             
                                            Ways to use your 2005 leap second
                                     
                                                                             
                                            ST vstupuje do internetu hlavnou bránou
                                     
                                                                             
                                            Blog ako spôsob existencie
                                     
                                                                             
                                            O cenzúre na blog.sme.sk
                                     
                                                                             
                                            The Top Ten Mistakes to Avoid When Blogging
                                     
                                                                             
                                            Ako nesprávne vybrať doménu
                                     
                                                                             
                                            Najčastejšie reklamné klišé (anglicky)
                                     
                                                                             
                                            After Failures, Government Officials Play Blame Game
                                     
                                                                             
                                            Mayor to feds: 'Get off your asses'
                                     
                                                                             
                                            How Not to Catch a Thief
                                     
                                                                             
                                            And now we are in hell (USA po hurikáne)
                                     
                                                                             
                                            Poistite sa proti útoku robotov (video)
                                     
                                                                             
                                            A guide for would-be conspiracy theorists
                                     
                                                                             
                                            What kind of mobile phone user are you? (ja som holub :-)
                                     
                                                                             
                                            Astronomický obrázok dňa
                                     
                                                                             
                                            Zastavenie lunárneho projektu ZSSR a USA spôsobil strach z UFO
                                     
                                                                             
                                            Attention? I Don't Want Your Freakin' Attention!
                                     
                                                                             
                                            Virtuálně reálné hry
                                     
                                                                             
                                            Fyzika v partnerských vzťahoch (anglicky)
                                     
                                                                             
                                            The Etiquette of vomiting (hmm :-)
                                     
                                                                             
                                            Erotic images can turn you blind
                                     
                                                                             
                                            Umberto Eco: Knihy, čo pomáhajú popularite Dana Browna
                                     
                                                                             
                                            Ropa sa prežila - nastane vodíková ekonomika?
                                     
                                                                             
                                            KarbanáTek 2005 - analýza CzechTeku
                                     
                                                                             
                                            Typologie „potížistů“ na Internetu (2.)
                                     
                                                                             
                                            Prečo investovať do eur :-) (prvý obrázok)
                                     
                                                                             
                                            Watch my hands deceive you
                                     
                                                                             
                                            CzechTek blog - letné radovánky českej polície
                                     
                                                                             
                                            Najlepšie blogy na svete podľa Forbesu
                                     
                                                                             
                                            Pre lenivých: práčka namiesto sprchy
                                     
                                                                             
                                            Najhoršie vety v próze (anglicky)
                                     
                                                                             
                                            Blogovací desatero
                                     
                                                                             
                                            Playgrounds of the Self (esej o PC hrách)
                                     
                                                                             
                                            Typologie „potížistů“ na Internetu
                                     
                                                                             
                                            Fool vs. Jerk: Whom Would You Hire?
                                     
                                                                             
                                            Looking to Get Promoted? Emotions Will Help...
                                     
                                                                             
                                            A very different future is calling — on billions of cell phones
                                     
                                                                             
                                            Slovenské pastierske psy zabudli na svoju robotu
                                     
                                                                             
                                            CEOs are faking it
                                     
                                                                             
                                            Driven to distraction by technology
                                     
                                                                             
                                            If World War Two had been an online game...
                                     
                                                                             
                                            How Google Maps Got Me Out Of A Traffic Ticket
                                     
                                                                             
                                            SME: Juščenko plánuje rozpustiť dopravnú políciu
                                     
                                                                             
                                            LiveScience: Tretina medicínskych štúdii sa mýli
                                     
                                                                             
                                            NYT: On the Job, the Pauses That Refresh
                                     
                                                                             
                                            NYT: A Pass on Privacy?
                                     
                                                                             
                                            NYT: Corrupted PC's Find New Home in the Dumpster
                                     
                                                                             
                                            Extra.cz: Ako prebiehajú v novinách porady :-)
                                     
                                                                             
                                            OJR.org: What Newspapers and Their Web Sites Must Do to Survive
                                     
                                                                             
                                            Ako nespraviť písomku z chémie (srandovné)
                                     
                                                                             
                                            Death Less Painful for the Rich
                                     
                                                                             
                                            Women Suffer More than Men
                                     
                                                                             
                                            Cut down - teroristické útoky zruinovali výrobcu nožíkov
                                     
                                                                   
                     Obľúbené knihy 
                    
                     
                                                 
                                            Tento zoznam už dávno nie je aktualizovaný, ale skúste klik sem
                                     
                                                                             
                                            Don't Make Me Think
                                     
                                                                             
                                            Made to Stick
                                     
                                                                             
                                            Google story
                                     
                                                                             
                                            The No-asshole rule
                                     
                                                                             
                                            Ryanair - How a Small Irish Airline Conquered Europe
                                     
                                                                             
                                            The Walmart Effect
                                     
                                                                             
                                            Blink (skvelé)
                                     
                                                                             
                                            The Long Tail
                                     
                                                                             
                                            The Undercover Economist
                                     
                                                                             
                                            Tipping Point (skvelé)
                                     
                                                                             
                                            Hlúpi bieli muži
                                     
                                                                             
                                            Hari Kunzru: Virus (fajn)
                                     
                                                                             
                                            Úspešné komunikačné stratégie
                                     
                                                                             
                                            Boj o média
                                     
                                                                             
                                            Contagious Success
                                     
                                                                             
                                            Práce s emoční inteligencí
                                     
                                                                             
                                            Storočie propagandy
                                     
                                                                             
                                            Good to Great (skvelé)
                                     
                                                                             
                                            The Men Who Stare at Goats
                                     
                                                                             
                                            Stres za volantom (vodič má ráno zjesť 2 vajíčka a 15 dk salámy)
                                     
                                                                             
                                            The Psychology of Cyberspace
                                     
                                                                             
                                            Them (Adventures with Extremists)
                                     
                                                                             
                                            Small Things Considered (Why There Is No Perfect Design)
                                     
                                                                             
                                            Better Humans?
                                     
                                                                             
                                            Kundera: Směšné lásky
                                     
                                                                             
                                            How To Survive a Robot Uprising
                                     
                                                                             
                                            Freaconomics
                                     
                                                                             
                                            Karel Čapek: Krakatit
                                     
                                                                             
                                            Karel Hvížďala: Jak myslet média
                                     
                                                                             
                                            Proč se věci mstí
                                     
                                                                             
                                            P. Johnson: Dějiny 20. století (via Lacné knihy :-)
                                     
                                                                             
                                            Experts speak
                                     
                                                                             
                                            Visions of technology
                                     
                                                                             
                                            Michal Hvorecký: Plyš
                                     
                                                                             
                                            Ján Kalina: Tisíc a jeden vtip
                                     
                                                                             
                                            Pozpátku (Červený trpaslík IV.)
                                     
                                                                             
                                            Vilikovský: Kôň na poschodí, slepec vo Vrábľoch (lahôdka)
                                     
                                                                             
                                            Watching the English (super)
                                     
                                                                             
                                            Trust Us, We're experts (poučné)
                                     
                                                                             
                                            The Microsoft Way (užitočné)
                                     
                                                                             
                                            Psychologie a internet (môže byť)
                                     
                                                                             
                                            Mýty naše slovenské (slabé)
                                     
                                                                             
                                            Jak na to - rukovět praktické ženy
                                     
                                                                   
                     Čo práve počúvam 
                    
                     
                                                 
                                            Cars (soundtrack)
                                     
                                                                             
                                            BBC Radio 2
                                     
                                                                             
                                            Virgin radio
                                     
                                                                             
                                            Four Non Blondes radio
                                     
                                                                             
                                            Ivo Jahelka (lepší do oka drátem, než setkání s advokátem)
                                     
                                                                             
                                            Pandora - hudba podľa vašej chuti
                                     
                                                                             
                                            Les Choristes (úžasný) Soundtrack
                                     
                                                                             
                                            Presburger klezmer band
                                     
                                                                             
                                            The Rolling Stones
                                     
                                                                             
                                            Radiohead (Karma Police :-)
                                     
                                                                             
                                            Leonard Cohen
                                     
                                                                             
                                            Janice Joplin
                                     
                                                                             
                                            Hair Soundtrack
                                     
                                                                             
                                            Bob Dylan
                                     
                                                                             
                                            Moonlight Mile Soundtrack
                                     
                                                                             
                                            Zuzana Navarová
                                     
                                                                   
                     Obľúbené blogy 
                    
                     
                                                 
                                            Javor
                                     
                                                                             
                                            Putting people first
                                     
                                                                             
                                            Freakonomics blog
                                     
                                                                             
                                            Slovenské ebankovníctvo
                                     
                                                                             
                                            Sex sells
                                     
                                                                             
                                            AIFove veselé príhody
                                     
                                                                             
                                            Kozo
                                     
                                                                             
                                            František Fuka
                                     
                                                                             
                                            Noubady
                                     
                                                                             
                                            Garfieldov blog :)
                                     
                                                                             
                                            43folders.com (pracovné tipy)
                                     
                                                                             
                                            Life Hacker
                                     
                                                                             
                                            Ronyho blog
                                     
                                                                             
                                            Dusoftov blog
                                     
                                                                             
                                            O novinovej grafike
                                     
                                                                             
                                            ** Zaujímavosti
                                     
                                                                             
                                            Consumerist.com - shoppers bite back
                                     
                                                                             
                                            InsideGoogle - zo zákulisia Google
                                     
                                                                             
                                            500 najpopulárnejších blogov na svete
                                     
                                                                             
                                            ** Koho najviac vykrádam:
                                     
                                                                             
                                            GeekPress - zaujímavé tech linky
                                     
                                                                             
                                            TechDirt - technológie a komentáre
                                     
                                                                             
                                            Textually - ľudia a mobilné telefóny
                                     
                                                                             
                                            Metafilter
                                     
                                                                             
                                            Linkfilter
                                     
                                                                             
                                            Found on the web
                                     
                                                                             
                                            Memopool
                                     
                                                                             
                                            Popurls (news junkies only)
                                     
                                                                   
                     Obľúbené stránky 
                    
                     
                                                 
                                            Didaktické hračky
                                     
                                                                             
                                            Church of Flying Spaghetti Monster
                                     
                                                                             
                                            Reflex (najlepšie offline :)
                                     
                                                                             
                                            Demotivátor
                                     
                                                                             
                                            To najlepšie z denníka Pravda ;-)
                                     
                                                                             
                                            Moja najobľúbenejšia hra na webe :-)
                                     
                                                                             
                                            MediaTrend.sk
                                     
                                                                             
                                            Nekonečná zábava s Photoshopom
                                     
                                                                             
                                            Hospitality club - ubytovanie zadarmo
                                     
                                                                             
                                            del.icio.us - inšpirácia pri surfovaní
                                     
                                                                             
                                            First Monday - vedecké práce o internete
                                     
                                                                             
                                            New Atlantis - a journal about technology, society
                                     
                                                                             
                                            New Scientist
                                     
                                                                             
                                            MIT Technology Review
                                     
                                                                             
                                            SME Počítače :-)
                                     
                            
             
         
            

             
             Čo ma zaujalo 
            Týmto článkom bloger klikol/klikla na karmu.
             
                                                         
                       Čitateľský denník: 11 mojich najlepších non-fiction kníh roka
                     
                                                         
                       SME.sk zavádza moderované diskusie
                     
                                                         
                       Sila (zlo)zvyku
                     
                                                         
                       Straty a nálezy
                     
                                                         
                       Skutočnosť a model: riadiaci vozeň 951.001 Push-Pull
                     
                                                         
                       O tom, prečo u nás aj upratovačka musí vedieť anglicky
                     
                             
         
        

     






            
    
        
    
 

        
         
         
             Už ste čítali? 
         
         
 

 kultura.sme.sk 
 Margaréta sa spriahla s diablom, no mala Kristovu pravdu 
 
 

 www.sme.sk 
 Pútnické miesta The Beatles alebo ako ľudia kráčajú po zebre 
 
 

 cestovanie.sme.sk 
 Lovia za svitania a v hmle 
 
 

 www.sme.sk 
 Ako sa valila lavína slobody. Ako padal komunizmus 
 
 

 kultura.sme.sk 
 Žiadne retro, poriadny biznis. Takto sa lisuje platňa 
 
	   
 


        
         
            
         

     

    
     
 
 
	 

		Kontakty
		Predplatné
		Etický kódex
		Pomoc
		Mapa stránky
		
	 
 
 
	 
		 
			Widget
			RSS
			Newsletter
		 
		 
			Mobil
			Smartphone
			Kindle
			Televízor
		 
		 
			Facebook
			Twitter
			Google+
		 
	 
	 
		
	 
	 
		Ďalšie weby skupiny: Prihlásenie do Post.sk
		Új Szó Slovak Spectator
		Agentúrne správy 
		Vydavateľstvo
		Inzercia
		Osobné údaje
		Návštevnosť webu
		Predajnosť tlače
		Petit Academy
		SME v škole 		© Copyright 1997-2014 Petit Press, a.s. 
	 
 
 
 


          
        
            
            

        
    

    
    


    


    
        
        
        
        
        
        
        
            
            
        
        
        
        
         
                                
               





 

 



        

 




