
      
    
    

     
	 
	 
 SME.sk 
 Zľavy 
 Zoznámenie 
 Reality 
 Dovolenky 
 Pizza 
 Reštaurácie 
 Recenzie 
 Inzeráty 
 Naničmama 	 
Nákupy 
		 
 Filmy na DVD 
 Hodinky 
 Parfémy 
 SME knihy a DVD 
 Superhosting 
 Tlačiareň 
 Víno 
 Tvorba webov 
 Predplatné SME 
 ProSenior 		 
	 
	 
 
	 
 


    
    
        
        
         
          
         
    

    
      
         
            
             
     
        
        
     
    Blog.SME.sk
 

    

         
        
                 
     
         
            Sme.sk
         
         
            Domov
         
         
            Regióny
         
         
            Ekonomika
         
         
            Svet
         
         
            Komentáre
         
         
            Kultúra
         
         
            Šport
         
         
            TV
         
         
            Auto
         
         
            Tech
         
         
            Poradňa
         
         
            Žena
         
         
            Bývanie
         
         
            Zdravie
         
         
            Blog
         
     
 

         
            
     
                                                         Politika 
                                                                                     Spoločnosť 
                                                                                     Cestovanie 
                                                                                     Ekonomika 
                                                                                     Fotografie 
                                                                                     Jedlo 
                                                                                     Kultúra 
                                                                                             
Ďalšie
                             
                                                                                         Lifestyle 
                                                                                                                                                                             Médiá 
                                                                                                                                                                             Nezaradené 
                                                                                                                                                                             Súkromné 
                                                                                                                                                                             Šport 
                                                                                                                                                                             Veda a technika 
                                                                                                                                                                             Zábava 
                                                                                                                                                                             Poézia 
                                                                                                                                                                             Próza 
                                                                                                                                                                             Kódex blogera 
                                                                                 
                         
                                                 
            Blogeri
         
     


            

    
    Prihlásiť sa


    
    Založte si blog



    
    Odhlásiť sa


    
    




         

        
        
         
            
         
         
                
     
                 
            SME.sk &gt;
            Blog.SME.sk &gt;
                            Juraj Lörinc
                                        &gt;
                Výbery, zoznamy
                     
                 Urodilo sa v marci 2010 (diskusie) 

        
            
                                    12.4.2010
            o
            7:07
                        (upravené
                12.4.2010
                o
                1:38)
                        |
            Karma článku:
                9.06
            |
            Prečítané 
            2669-krát
                    
         
     
         
             

                 
                    Urodilo sa statočne. Tak sa mi to páči. Sám som našiel pekných pár záderov, i mi hromada prišla od prispievateľov, ktorými boli tentoraz: Blanka, Zuzana, Matúš, Samušo, Martin, a diskutérky(-i) Jety, ikke11 a murtnecitna.
                 

                 
Daňové úrady budú kvôli priznaniam otvorené dlhšie a diskusia
 
  Marcovou klasikou je podávanie daňových priznaní. Tento rok sa rozkošatili sťažnosti na internetový portál Daňového riaditeľstva. A nejde len o technické problémy.      Internal Server Error   Ked mi stranka drsr.sk s online formularmy pre danove priznanie cely den hlasi Internal Server Error, jedna sa o porusenie jazykoveho zakona? :D   yerythoo  
 samozrejme, že áno, ale pokutu dostaneš ty, pretože to bolo na tvojom PC :)   ay  
    
Sanitka sa zrazila s hasičským autom - obe autá mali zapnuté majáky a diskusia
 
  Stalo sa 4.3.2010 v Bratislave na Špitálskej ulici blízko policajného prezídia. V článku sa popri štandardných správach o nehode pokúsili riešiť otázku, ktoré z dvoch áut s právom prednostnej jazdy malo na križovatke prednosť, pokiaľ do nej dorazili naraz. Podľa redaktorov sa to v zákone nerieši, takže by mal nastúpiť zdravý rozum alebo... alebo v diskusii padlo x názorov a návrhov. Napríklad:      co ja viem....  michaldo  
 hups, omylom enter ked som vypisoval prihlasovacie udaje :-) tak dokoncenie:    podla mna mala ist prva sanitka, hasici su predsa len o dost pomalsi hlavne co sa tyka rozbehu aj manevrovania po uliciach a tak pokym sanitka uz moze byt na mieste, tak hasici sa este mozu len pajdat ulicami a zbytocne by zdrzovali sanitku...  michaldo  
 ...si to radšej nemal dokončiť .  daniel111  
       kuriozita  len skoda tych zranenych...ale znie to fakt humorne...hasici naburali a hned aj pomahali vyprostovat zachranarov, tí na oplatku osetrili hasicov...  p.s.  
       kto má prednosť?  na križovatku,kde sú všetky štyri cesty rovnocenné,prichádzajú:1.policajti,2.hasiči,3.sanitka,4.prezidentská kolóna.V akom poradí prejdú križovatkou?  richard_sorge  
 Prezidentská kolóna ma prednosť a potom pravidlo pravej ruky. Nemôžu ísť do križovatky ako barani  Gejzapr  
 prvý by mal vojsť prezident a následne by ho malo prevalcovať hasičské auto ;)  Robiňo  
    
Facebook v slovenčine oslávi čoskoro prvé výročie a diskusia
 
  Martin Poliačik sa podieľal na preklade Facebooku do jazyka slovenského. Sám priznáva, že takýto projekt má svoje muchy. A našli sa aj iné, napr.:      len mi nejde do hlavy, že ako je možné že pri pomerne solídne zvládnutom preklade, na úvodnej stránke ešte doteraz svieti veľkými písmenami "Facebook - miesto kde sa stretnúť a podeliť so svojimi priateľmi" :D   The Čučo  
 To mas asi tu kanibalisticku verziu.   dick riddick  
    
O Sulíkovi, alebo rozdiel medzi manažérom a lídrom a diskusia
 
  Marian Jánoš si pozrel DeFacto Belousová vs. Sulík. Nakoplo ho k tomu, aby napísal svoj názor, kritický k Sulíkovi, i keď nie "proti" nemu. A zosumarizovať sa to dalo i bez videnia:      Nevidel som,   ale viem si to zivo predstavit, Sulik jen lepsi v pisomnej forme, nazivo posobi ako panic, ktoreho oslovi stara prostitutka. Vlastne, tak to asi aj vyzeralo.   Boris 'Paris' Burger  
    
Odštartuje Jurský park vtákmi? a diskusia
 
  Austrálski vedci vyvinuli metódu, ako z fosílií vaječných škrupín získať DNA vtákov. Poznanie genómu živočíchov by raz v budúcnosti mohlo viesť k ich znovzrodeniu.       Zbytočne sa namáhajú tí protinožci,   Jurský park už funguje a to u nás, na Slovensku - keď sa pozriem na ten náš parlament, tak tam je tých Byrosaurosov, Judrosaurusov, Buzisaurusov, Debosaurusov a inej jurskej hávede až až...   dopito  
 To máš tak, dinosauri a platený jurský park. Ako dinosauri pomaly žijú, ako sa pomaly hýbu, tak aj pomaly odchádzajú. A u nás to potrvá ešte veľmi dlho   graf  
 hmm   nedavno sa vedci dohodli, ze dinosaury vyhynuli vdaka narazu asteroidu   mohli by sme sa my, volici dohodnut, ako sa zbavit nasich dinosaurov...   encart  
 Mohli by sme sa, ako občania, uzniesť, že nechceme túto vládu   graf  
    
Orhan Pamuk: Čierna kniha a diskusia
 
  Juraj Lörinc (to akože ja) si prečítal knihu laureáta Nobelovej ceny za literatúru a aj o ňom niečo popísal. Ako sa dalo čakať, je to náročná literatúra.      no pravda pravda tazka kniha. Ja uz 3 krat citam kapitolu v kt Dzelal opisuje ako si pomoct ked v noci neviete zaspat. Mna to vzdy zarucene uspi ;-)   diablosharp  
    
Lada 2190 nahradí staré „žiguláky“ a diskusia
 
  Obľúbené modely Lada 2105 a 2107 sa ešte stále vyrábajú. A zase sa uvažuje o ich nahradení novšími modelmi. Pritom žiguláky mali aj svetlé chvíle.      Normálne som ostal prekvapený, že sa ešte vyrába Lada Samara, 2105, 2107 - to už sú skoro veterány ;). Ladu by som samozrejme nekúpil - má to škaredé tvary... Dácia je aspoň v svojej podstate Renault. Laad by sa mala s niekym spojiť a vyrábať ladné autá - po príklade Dácie.   pali3xx  
 no keby   no keby sa spojila lada a dacia tak z toho vyjde auto Lajdacia. ...   kyklopko  
    
Nedávajme deťom mená po rodičoch a diskusia
 
  Ján Kinik sa pokúsil prehovoriť do duše nastávajúcim rodičom. Aby napríklad taký Juraj Lörinc nenazval svojho syna Jurajom. No... nenazval, ale rozhodne nie z dôvodov, ktoré autor uviedol, pokiaľ teda môžem súdiť.      Toľko sprostostí pokope som dávno nečítal. Nevadí Ti že rodičia určia deťom aj ich bydlisko? Alebo v čom pôjdu do škôlky, čo budú mať na večeru? Pracovníčka pošty je Vaša príbuzná? - ak ju nazývate tetuškou   sLias  
 Ty ani nechoď do kostola, lebo budeš prekvapený z toho počtu otcov, bratov a sestier čo tam môžeš stretnúť...   Oberon  
    
Prečo nás ničia letným časom? a diskusia
 
  Tomáš Makatúra by bol najradšej, keby sa už letný čas konečne prestal používať. Zďaleka nie je jediným, kto má isté problémy vďaka byrokratickému pretočeniu hodinových ručičiek.      Prechod na letný čas mi spôsobuje problémy, pred tým som mával rannú erekciu doma, teraz až v autobuse. :)   nonkonformny provokater  
 Čo tam...   ...po erekcii ale to pravidelné ranné vyprázdňovanie v autobuse ;-) :-)) :-DDD   súkromný blbológ  
    
Bratislavu v stredu večer prekvapil výbuch, bol neškodný a diskusia
 
  Slovnaft zase po roku mohutne odtlakoval. Najvýraznejším prejavom odtlakovania je zvuk podobný detonácii, ktorý ale nesprevádzajú iné nebezpečné okolnosti. Teda... ako kde, taká tlaková vlna sklami v oknách pohýbe aj viac, než vydržia.      Výbuch v slovnafte  Tento zvukovo silný efekt, vzniká vo výrobniach polyetylénu, kde polymerizácia etylénu sa deje v reaktoroch s katalyzátorom pri tlaku 2600 až 2800 atmosfér a pri teplote cca 400 stupňov celzia. Pri normálnej prevádzke, raz za čas nastane z príčin náhodného radikálneho zvýšenia tlaku v reaktore, zvukový a ohnivý efekt intenzity dela bojovej lode. Tento efekt je tým že v tejto situácii pretlaku v reaktore praskne bezpečnostná membrána a do priestoru vyfúkne všetok obsah reaktoru. tieto efekty sa v Bratislavskom Slovnafte objavujú asi od roku 1969 keď bola spustená prvá prvádzka polyetylénu s anglickou technológiou. Z týchto zvukových efektov nehrozí nijaké nebezpečie pre obyvateľstvo.  Howgh.  trnavsky  
 "praskne bezpečnostná membrána a do priestoru vyfúkne všetok obsah reaktoru.....nehrozí nijaké nebezpečie pre obyvateľstvo."  .  .  dik sef, znie to maximalne neskodne, som radze si to vyjasnil, idem spat.  .  btw co mam robit keby mi malo pocas noci zacat opadavat maso z tela? indulonu alebo septonex?  quicksand  
 V prvom rade keď Ti začne opadávať mäso. Vyžeň z bytu na dvor psa. Zavolaj na ministerstvo obrany či na Dunaji nenacvičujú naše bojové lode, vedené znämym admirálom, strelbu na Budapešť.  Brnkni trnavskému. Su aj iné mastičky. Možno Ti poradí kostihoj.  invar  
    
Nedostal vodičák, lebo šiel podľa dopravných predpisov a diskusia
 
  Klasika - ťažké odbočovanie doľava na plnú zelenú. Čaká sa na protiidúcich, na chodcov - ale čaká sa v križovatke. To si však nemyslel na skúške jeden policajt a vyhodil z nej nádejného šoféra.      no doma mám inštruktora v autoškole, takže vám viem povedať, že čo sa týka toho že by mu malo niečo z toho kvapnúť tak ste vedľa - pokiaľ to nie je majiteľ autoškoly...takmer väčšina inštruktorov sú živnostníci a skúšky alebo opravné jazdy sú platené najslabšie... viem že môj starý sa bije u policajtov väčšinou za žiakov ktorí nemajú "punc" debila a teda nerobia sa už pred samotným kurzom že sú majstri, ale pokiaľ je to pako ktorý ho celý čas ignoruje , lebo on to vie predsa lepšie ako inštruktor...a tiež sa mi rátal žiak ktorý keď mu policajt povedal aby odbočil do ľava opravil policajta, že sa nehovorí do ľava ale vľavo !!! samozrejme že na najbližšej križovatke mu dal policajt takú inštrukciu že dotyčný vyletel...takže nielen policajt, alebo inštruktor sú na vine ale aj premúdrelí žiaci...  tataa74  
       Pochybenie na druhej strane?  Nechcem v ziadnom pripade zastavat policajtov, lebo kazdy vie, ze si vela dovoluju. Opisem vsak moju skusenost so "spoluziakom":  Isli sme v rovnaky den na skusku, vtedy este na spojenu skupinu A,B,C. Ako kazdy, aj my sme zacali slalomom - nakladnym autom. Chalan zvalil hned 2. alebo 3. kuzel este smerom dopredu, potom este niekolko pri cuvani, az nakoniec zastal na jednom kuzeli. Bolo jednoznacne, ze to auto nie je pre neho stvorene. Samozrejme, policajt povedal instruktorovi, ze nech sa ani netrapi, ze "dnes to uz nespravi", aby ho vybrali z auta - myslim si, ze pravom.  Ostatni sme urobili slalom, isli sme na jazdu do premavky. V poslednych cca. 200 metroch mi policajt vynadal, ze som ospriechal chodca (podla mna nie, lebo som isiel na tom mieste fakt velmi opatrne - skor to bolo take podpichovanie, avsak, urcite to zabralo, lebo na to si davam dodnes sakra pozor). Samozrejme som sa bal, ze ma za to vyhodi, ze budem opakovat. Povedal som to aj tomu, ktory nespravil ten slalom. Nakoniec som predsa len urobil.  Pointa:  Na druhy den som sa v skole dopocul, ze chalana vyhodili, podla jeho slov preto, "lebo pri jazde ospriechal chodca"...  Odvtedy sa pozeram na tie historky z autoskol s nadhladom. Netvrdim, ze policajti sa nesnazia vyhodit kazdeho, ale urcite to nebola jazda "na jednicku", ked niekoho vyhodia...  libra  
    
Nedajte policajtom šancu obviniť vás z niečoho, čo ste nespravili a diskusia
 
  Niektorým sa stále viac a viac zdá, že hlavnou úlohou (dopravnej) polície nie je slúžiť a chrániť, ale ryžovať pre štátny rozpočet. Posúďte sami (samozrejme jednostranne vyrozprávané) príbehy v článku a potom aj v diskusii.      Mne sa policajti vyhrazali odobratim dok  Odobratim dokladov tiez. Zistili, ze vo vodicskom preukaze som vedeny ako Lubor .... a v obcianskom preukaze som Lubomir. Tak mi vraj odoberu vodicak. Esteze mi nechceli odobrat aj obciansky preukaz. Nakoniec od odobratia upustili, ked som im zaplatil pokutu za daco uplne ine, vraj som sa otacal cez dve plne ciary, co vsak nemali zdokumentovane a ak by som nahodou aj ten priestupok spachal, tak to som musel ist cez dve ciary maximalne mozno jednym kolesom, lebo som sa pripajal z vedlajsej cesty cez prerusovanu ciaru, ktora bola prave koli tomu pripojeniu z vedlajsej cesty tam nakreslena.  luborko  
 luborko  A ešte keby vedeli, že na SME si vedený ako "luborko", tak by ti odobrali internet:)  Figaro  
       To uz zacina hranicit s policajnym  terorom. Policajty zneuzivaju svoju uniformu nie na sluzbu obcanom, ale na ich zastrasovanie. Este si v tejto krajine uzijeme, a uz to nebude zamatove.  sevenseas  
 To Y zvyraznuje ich tvrdost.  :-)  sevenseas  
    
Brusel dovolí ľuďom páliť eurá. Ale iba malé množstvo a diskusia
 
  Európska komisia (EK) vydala niekoľko odporúčaní pokiaľ ide o použitie eur. Podľa názoru komisie by nemal byť nik stíhaný za ničenie bankoviek alebo mincí v malej hodnote. To znamená, že napríklad pálenie bankoviek by malo byť povolené a nesmie byť ani pokutované, pretože občan musí mať zaručené narábanie s vlastným majetkom podľa svojej vôle, až pokiaľ to neovplyvňuje tretiu stranu.      idem chytro  popalit nejake tie 100 eurovky, ked uz mozem :)  Jozef Martaus  
 fíha, presne toto mi napadlo  zorganizujme nejaké verejné stretnutie, kde oslávime toto nariadenie tak, že každý spáli nejaké tie bankovečky, väčší frajeri si ich môžu rolovať a fajčiť z nich tabak alebo iné substancie  doteraz som toto robil iba doma potajomky, keď som 50-eurovky používal na podpálenie v kachľovej peci, a vždy som tŕpol, či po mne nejde polícia  The Čučo  
 podtrhlí na hlavu sú tí eurouradníci  ešte môžu "povoliť" aj odovzdanie nového auta do šrotoviska bez poplatku, takisto vyhodenie nového počítača, telivízora a videokamery do recyklačného fondu bez sankcií a húfne ľudia túto beztrestnú možnosť využijú  Mrmr.  
 Mozem si doniest  nejaku slaninku na palicke, nech sa neplytva energiou:-)  estika  
       a nad tymto si lamalo hlavu 300 uradnikov cely mesiac  Milan miklos  
 Tak vidieť, že ich neplatíme zbytočne. Mňa by to teda za taký krátky čas nenapadlo :)  nybell1  
 ale to je len nezavazny zaciatok,lebo teraz budu tri roky sledovat implementaciu a az potom rozhodnu co dalej :)  Milan miklos  
    
Jazdíte predpisovo? Ušetríte na pokutách, ale ste pomalí a diskusia
 
  Čitateľka Jana sa opýtala natankujákov na šóferov, ktorí sa na ňu na diaľnici lepia, vyblikujú, či vytrubujú, a to i v prípade, že nemá kam uhnúť. Prosto maximálnou povolenou rýchlosťou predbieha kolónu kamiónov a treba vyčkať. V diskusii sa premleli snáď všetky staré známe argumenty pre aj proti pomalíkom.      "130km/hod., v zimnom počasí, suchá vozovka, čo si myslím, že je ... maximálna možná bezpečná rýchlosť"  tak dufam ze Janu nebudem casto stretavat ked bude povolena 160ka!    "Zozadu sa raketovo priblíži auto idúce rýchlosťou asi 150"  no to je teda raketovo! nech by to bolo 150 tachometrovych, cize necelych 140 realnych. to by mozno ten "grazel" ani nedostal pokutu keby ho nameraju. neznasam ludi co su tak precitliveny na dodrziavanie MPR. a fakt idealne je ked chce niekto dodrzat v obci 50ku tak, ze pre istotu ide podla tachometra este menej ako 50. aby sa ostatni kvoli takym slimakom plazili 30  staf  
 ked budes mat zenu  budes zhovievavejsi k vodicom ktori dodrzuju MPR podla tachometra... (ja to tiez davam na +10 na tachometri, ak nie je dopravnou znackou ustanovene inak)  fernetik  
 nastastie su aj take co maju rady rychlost :)  staf  
 :)  Vytusil som v tej vete spravne aj druhy zmysel?  login  
 nie, si len nadrzany :-))  _xedos  
    
Pod Ženevou odpálili nový veľký tresk a diskusia
 
  Bombastický titulok, ktorý výrazne zveličuje dosť prozaickú skutočnosť. LHC začal fungovať tak, že sa podarilo vykonať zrážku zväzkov častíc s najvyššou dosiahnutou energiou. Ale 40 zrážok za sekundu, to sa od starého dobrého veľkého tresku trošku odlišuje. Trošku dosť. Čo potom tie nezmysly o čiernych dierach, ktoré by vraj mohli zničiť Zem? Každopádne experimentov bude fúra, jedným z veľkých cieľov celej srandy je snaha o nájdenie Higgsovho bozónu, častice, ktorú predpovedá teória, ale nikto ju nikdy nevidel.      Cierna diera  No mna dnes rano vcucla cierna diera, celkom fajn pocit, horsie je ze som sa dnes dostal do casopriestorovej tiesni, priestoru malo a casu este menej...  sporino  
 nejaka  arana?  123dobryden  
 coby arana  Ale kdeze, vo vnutri (samozrejme ze myslim, za horizontom udalosti :) ) je kazda cierna, ale nie kazda je tak silne pritazliva ako ta moja;)  sporino  
 Môžem  potvrdiť!  Trautiq  
 Ty lotor!!! :))))) Parohy mi nasadzujes?  sporino  
       Europa leje prachy do hladania bozonov a USA do termojadrovej fuzie. EU najde bozon a USA patent na fuzny reaktor. Nehovorim, ze zakladny vyskum je zly, ale EU by sa mala prebrat.  montanius  
 amerika ma bizona, europa bude mat bozona  pipipipipionier  
 Až na to, že bozón platí v celom vesmíre  a nie iba v Európe, vážený pane!!!  Vlastik  
       jasne ze existuje higgsov bozon  v Lidli ho mali v akcii, zobral som hned dve kila, aj ked este neboli uplne zrele.  la_guardia  
 Cha, ja som zohnal akurat zrele 3 kusy v Kauflande v Seredi. Dokonca v akcii bola gravitacna hmota v kelimkoch po 200 g.  ezzre  
 Tak to ťa teda pekne podviedli!  Veď to mali mať v termoske. Určite sa ti už pokazila!  GrdB  
       Preboha !  Kedy uz konecne vyhodite tych, co titulky vymyslaju ?!  legionar  
 Veď práve na tom, v tom Cerne pracujú.  70 okien mala  
    
Chodci dostali pod mostom studenú sprchu a diskusia
 
  V Považskej Bystrici pod diaľničnou estakádou vo výstavbe mali chodci vychádzajúci zo zakrytej časti chodníka problémy. Prekvapila ich studená vodná sprcha z mosta, z výšky asi tridsať metrov. Zhotoviteľ stavby sa za problémy, ktoré spôsobil topiaci sa sneh a nesúvisia s výstavbou, ospravedlnil. Nemali by sa opakovať.    Klasický anti-Modrák Burratino sa prejavil - a dostal spätný úder.      keby to boal postavila  firma Modry transparentny medzinarodny tender ltd., tak by prsali na pani dolarovky  Burratino  
 Ty aj niekedy rozmýšľaš, čo píšeš? Alebo iba váľaš hlavou po klávesnici?  Tomáš Turek  
    BONUS PO ROKU A POL: Nájdi päť rozdielov: Jazyk a diskusia
 
  Ani neviem, ako som sa k tomuto článku dostal... Alica Krakovská je Slovenka v Prahe. Pokúsila sa urobiť svoje porovnanie slovenčiny a češtiny. I keď jej niektoré rozdiely mierne v diskusii zotreli, medzi reakciami sa objavili také veci, že som neodolal a vytiahol ich pre vás. (Vo výbere za august 2008 článok nebol, ako to už chodí s mnohými dobrými hláškami, prosto sa ku mne nedomotkali. "A proto volejte, mailujte, faxujte!")      a ani im o tom ze kapurkovu ti naleju len na vychode nehovor  kkpp  
 už je to viac rokov dozadu, kolegyňa zo západného Slovenska vypila asi štyri kapurkove a ešte sa aj pýtala, odkedy na Východe voláme slivovicu kapurkovou  vali-ka  
       ja by som napriklad ocenil, ak by sa uz konecne zacal pouzivat slang v slovenskom dabingu /alebo v povodnej tvorbe/  vzdy ma pobavi ked nejaky zloduch v kriminalke hovori spisovne. napriklad taka zmes zahoracko- trnavsko-petrzalskeho slangu by bol mozno vhodne.  dodnes si pamatam pre mna nesmrtelnu vetu z filmu o partizanoch. maly chlapec hovori velitelovi: promptne vam to dodam.  varel  
 ja si uz nepamatam aky to bol film, ale tiez nejaky krimi... a bol tam chlapik v centre prestrelky... a druhy na kraji na nho reval  "Jaaaaaaaaaaaaack! obohliadni sa!"  novoselan  
 aby som este dodal... najviac vyhrava vyraz v dabovanej rozpravke Hrdinovia z rise Gaia - kde jeden hrdina na druheho zreval "ty pokakanec!"  novoselan  
     k plus  a moja oblubena je hopsinkova stava, alias gumidzus po slovensky :)  Júlia Fedorová  
   ... on ešte dnes gumidžús niekoho osloví? :-)          Nenašli ste perlu podľa vás najlepšiu? Nevadí, hoďte do diskusie aspoň odkaz.    A čo môžeme očakávať v aprílovom výbere? Možno babráka alebo Medvežonka, hokej je večne živá téma - a bude okorenená finále play-off, predvolebná kampaň tiež pritvrdí, uvidíme. Teda - až uvidíte, tak pošlite. A zbierajte sily na máj - lásky čas. :-)       

                 
                                        
                        
                        Zdieľať
                    

                    
                            
                                    
                                    Zdieľať na
                            
                             
                                    
                             
                    

                                                                                                                        
                            
                            Diskusia: (12)
                        
                    
                    
                        
                        Zvýšte karmu
                    
                 
             

                             
            
                     
                         Ďalšie články blogera 
                         
                                                             
                                    
                    	                                                                                        

                                                                        
                                    
                                        Juraj Lörinc 
                                        
                                            Finále súťaže Martinus Cena Fantázie 2014 - môj pohľad
                                        
                                    
                                 
                                                             
                                    
                    	                                                                                        

                                                                        
                                    
                                        Juraj Lörinc 
                                        
                                            Mať správneho bossa
                                        
                                    
                                 
                                                             
                                    
                    	                                                                                        

                                                                        
                                    
                                        Juraj Lörinc 
                                        
                                            Úskalia hýbania pozíciou
                                        
                                    
                                 
                                                             
                                    
                    	                                                                                        

                                                                        
                                    
                                        Juraj Lörinc 
                                        
                                            ... a ešte jedno ďalšie víťazstvo zo Soči pre Slovensko
                                        
                                    
                                 
                                                             
                                    
                    	                                                                                        

                                                                        
                                    
                                        Juraj Lörinc 
                                        
                                            Ešte jedno víťazstvo zo Soči pre Slovensko
                                        
                                    
                                 
                                                     
                        
                            Ďalšie články blogera: Juraj Lörinc
                        
                     
            
                     
                         Ďalšie články z rubriky zábava 
                         
                                                             
                                    
                                                            	                                                                                        

                                                                                                
                                    
                                        Jozef Bednár 
                                        
                                            Ako Mikuláš moju dcérku o čižmičku „obral“
                                        
                                    
                                 
                                                             
                                    
                                                            	                                                                                        

                                                                                                
                                    
                                        Daniela Paculíková 
                                        
                                            Aké sú vaše topánky?
                                        
                                    
                                 
                                                             
                                    
                                                            	                                                                                        

                                                                                                
                                    
                                        Marian Letko 
                                        
                                            Maroško to má rád zozadu
                                        
                                    
                                 
                                                             
                                    
                                                            	                                                                                        

                                                                                                
                                    
                                        Fero Škoda 
                                        
                                            Nemecký vlog o horách, vode a takmer stratených nervoch
                                        
                                    
                                 
                                                             
                                    
                                                            	                                                                                        

                                                                                                
                                    
                                        Ján Vilček 
                                        
                                            Kritizovať politiku Absurdistanu inotajmi absurdít
                                        
                                    
                                 
                                                     
                        
                            Ďalšie články z rubriky zábava
                        
                     
                 
            
                    
 
     Hlavné správy 
         
        
                                

        
         
            AKTUALIZOVANÉ 16:00
             Rubeľ kolabuje, ruská vláda má mimoriadne rokovať 
             Jeden dolár stál v utorok poobede už viac ako 78 rubľov, razantné zvýšenie úrokov nepomohlo. 
         
     
         
        
                                

        
         
            ZAHRANIČIE
             Taliban zabil v škole v Pakistane vyše sto ľudí, väčšinou deti 
             Militanti vtrhli do vojenskej školy v policajných rovnošatách. 
         
     
         
        
                                

        
         
            KOMENTARE.SME.SK
             Cynická obluda: Medzičasom na opustenom ostrove 
             Stroskotanci majú veľké šťastie, že sú dvaja. Lacné vtipy na úrovni ich autora. 
         
     
     

                 
     
    
     
        
 

     
                
                            
                    



         
            
                Juraj Lörinc
            
         
        lorinc.blog.sme.sk (rss)
         
                        VIP
                             
     
         Slovák s maďarským menom narodený ešte za starých čias v Čechách. 
 
Na internete známy ako Ruziklan. 
 
Momentálne plusovo sociálny. 
 
IM FIDE v šachovej skladbe od roku 2010. 
 
 
        
     
     
                     
                             
             

     
        
            
                
                    Počet článkov
                    1140
                
                
                    Celková karma
                    
                                                0.00
                    
                
                
                    Priemerná čítanosť
                    1920
                
            
        
     

             

             Zoznam rubrík 
            
             
                                     
                        
                            Audio
                        
                     
                                     
                        
                            Cestovanie
                        
                     
                                     
                        
                            Etudy
                        
                     
                                     
                        
                            Fikcie a paródie
                        
                     
                                     
                        
                            Inšpirované Feynmanom
                        
                     
                                     
                        
                            Jozef Mak
                        
                     
                                     
                        
                            Knihy
                        
                     
                                     
                        
                            Kompozičný šach
                        
                     
                                     
                        
                            Kresby, grafika
                        
                     
                                     
                        
                            Môj život
                        
                     
                                     
                        
                            Úvahy
                        
                     
                                     
                        
                            Výbery, zoznamy
                        
                     
                                     
                        
                            Zaujímavosti
                        
                     
                             
         
    

                     
                        
                                                            
                     Obľúbené články 
                    
                     
                                                 
                                            Kompozičný šach na mojom blogu (obsah)
                                     
                                                                             
                                            Knihy na mojom blogu (usporiadaný zoznam)
                                     
                                                                             
                                            Kupónová privatizace, jak si na ni vzpomínám já
                                     
                                                                             
                                            What do you want me to do? Leave? (from xkcd)
                                     
                                                                             
                                            Statistical Mechanics of Political Change (prečo "nie" zmenám?)
                                     
                                                                             
                                            Negotiating Refinancing Fees (keď si beriete hypotéku)
                                     
                                                                             
                                            Návrat "plachetníc" (EN)
                                     
                                                                             
                                            The Gulag as a worker-discipline device
                                     
                                                                             
                                            Prostonárodnie obyčaje, zvyky a povery / IV. Život rodinný ...
                                     
                                                                             
                                            Hedonic adaptation: Does happiness last?
                                     
                                                                             
                                            The World's Hottest Chili
                                     
                                                                             
                                            Chodbová etiketa
                                     
                                                                             
                                            Kráľ je nahý! A zakrýva sa odporúčacími lístkami
                                     
                                                                             
                                            Určete počet nevěrných párů - hádanka
                                     
                                                                             
                                            Když ráno vstanete a jste opět o něco chudší
                                     
                                                                             
                                            Paradox ruskej rulety
                                     
                                                                             
                                            Nerobím literatúre láskavosti
                                     
                                                                             
                                            Ľahká, ale sympatická šachová úloha
                                     
                                                                             
                                            Kam kráča slovenský internet... nuž... ehm...
                                     
                                                                             
                                            Sport a právní odpovědnost
                                     
                                                                             
                                            Taký ... ehm ... rozhovor s My Chemical Romance
                                     
                                                                             
                                            Ako som prepadol banku (brutus)
                                     
                                                                             
                                            Ako sa dá použiť moc proti prisťahovalcom
                                     
                                                                             
                                            Blbci na pracovišti z pohledu vědy
                                     
                                                                             
                                            Moje nejkratší zaměstnání – hyperinzerce.cz
                                     
                                                                             
                                            Evidence-based scheduling - ako vylepšiť odhady času projektov
                                     
                                                                             
                                            Slovíčka z Economistu
                                     
                                                                             
                                            ICQ: Český a slovenský masochismus v IM (Instant messagingu)
                                     
                                                                             
                                            Customer service at ALL airlines is SO horrible...
                                     
                                                                             
                                            Logická hra Bloxorz
                                     
                                                                             
                                            Kuriózne fotopostrehy II
                                     
                                                                             
                                            Disciplinárne konanie v parlamente
                                     
                                                                             
                                            Slovo dne: Meníčko
                                     
                                                                             
                                            Shit happens! (pohľad rôznych svetonázorov) :-)
                                     
                                                                             
                                            Cesta výťahom s ambicióznou personalistkou - rozhovor
                                     
                                                                             
                                            O hoaxoch - čo je to?
                                     
                                                                             
                                            Slovo dne: drbna
                                     
                                                                             
                                            Cestovné kancelárie - vzor neschopnosti predať
                                     
                                                                             
                                            Anabáza zraneného na bratislavských pohotovostiach
                                     
                                                                             
                                            Užitočné odkazy, napr. pre začínajúcich na voľnej nohe
                                     
                                                                             
                                            Quito (zápisky cestovatele)
                                     
                                                                             
                                            Jaderná válka dnes? (1. díl)
                                     
                                                                             
                                            Zážitek z výplachu mozgů made in Vesmírní lidé
                                     
                                                                             
                                            Jak koupit hlasy na Diggu?
                                     
                                                                             
                                            Ako naleteli modelingovým podvodníkom
                                     
                                                                             
                                            Sumó na Slovensku
                                     
                                                                             
                                            Proč by se (některé) léky měly prodávat v běžných obchodech?
                                     
                                                                             
                                            České matfyzácke stripy :-)
                                     
                                                                             
                                            Vybíráte z bankomatu? Tak pozor na kopírky karet!
                                     
                                                                             
                                            Pomožte babce sebrat trus jejího pejska
                                     
                                                                             
                                            Hot line telekomunikačného operátora - chechtačka
                                     
                                                                             
                                            Building a Smarter To-Do List (time management ideas)
                                     
                                                                             
                                            May I take your order? (American in Chinese restaurant)
                                     
                                                                             
                                            Escher's Belvedere in LEGO
                                     
                                                                             
                                            Dobrý návrh (irónia): kolektívne zmluvy vyššieho rádu
                                     
                                                                             
                                            List susedom o vŕtaní do panelov (pozor, vulgarizmy)
                                     
                                                                             
                                            Lemuel Kolkava: Words of the year (wikiality)
                                     
                                                                             
                                            100 základních programů pro Windows
                                     
                                                                             
                                            4 roky stara predpoved vyvoja na Blizkom Vychode (EN)
                                     
                                                                             
                                            Politická haluz roka: Julia Tymošenko
                                     
                                                                             
                                            FF: Placený průzkum leteckých společností :-)
                                     
                                                                             
                                            Let smrti: AIF cestuje z Indonézie
                                     
                                                                             
                                            Ako sa vyrovnať s rozchodom?
                                     
                                                                             
                                            Strečing je pri športe dôležitý
                                     
                                                                             
                                            Dusoft vraví: Orange klame zákazníkov
                                     
                                                                             
                                            Ako hľadali Dodge v Trstenej
                                     
                                                                             
                                            Stručne o knihe Než přijde vakovlk (dialogy o současné vědě)
                                     
                                                                             
                                            Veľká Británia začína mať plné brýle prisťahovalcov z krajín EÚ
                                     
                                                                             
                                            O krádežiach automobilov
                                     
                                                                             
                                            Súkromie užívateľov vyhľadávačov ... hm
                                     
                                                                             
                                            19 (More) Strategies for Finding Readers
                                     
                                                                             
                                            Spotrebiteľská etika a fair trade (a 2 filmy)
                                     
                                                                             
                                            Čierne je biele (ako dokazovať, že niektorí politici trepú)
                                     
                                                                             
                                            Názor vikárky na realitu sveta (pozor, nevhodný slovník) :-)
                                     
                                                                             
                                            Co se děje, když schopní lidé odcházejí
                                     
                                                                             
                                            Výběr partnerky podle SpamAssassin (trocha humoru)
                                     
                                                                             
                                            Nie je steak ako steak (trocha gastronómie)
                                     
                                                                             
                                            Vraždící surikaty (trocha prírodopisu)
                                     
                                                                             
                                            Vote for the None of the Above :-)
                                     
                                                                             
                                            Veľké aerolínie zlacňujú letenky
                                     
                                                                             
                                            Pražské podzemí: tisíce kilometrů kanálů a potkanů
                                     
                                                                             
                                            Pátranie po číslach na internete
                                     
                                                                             
                                            BA: Kamzík - tip na výlet
                                     
                                                                             
                                            Výborná analýza hlások
                                     
                                                                             
                                            Čert (pataveda) :-)
                                     
                                                                             
                                            Zrušení poplatku za příchozí platby v Poštovní spořitelně
                                     
                                                                             
                                            Posielate fotky z digitálneho foťáku?
                                     
                                                                             
                                            Jak být atraktivní na internetu
                                     
                                                                             
                                            (Aj ja si dávam) Rande pri bratislavských fontánach
                                     
                                                                             
                                            Letné dopravné obmedzenia v okolí Prístavného mosta
                                     
                                                                             
                                            Kultúra na WC :-) (&amp; diskusia :-))
                                     
                                                                             
                                            Ako čítať japonské znaky - úvod
                                     
                                                                             
                                            Kompozičný šach = myšlienkové krasokorčuľovanie
                                     
                                                                             
                                            Chickenator asi čoskoro príde o vodičák
                                     
                                                                             
                                            Global warming and you :-)
                                     
                                                                             
                                            Český futbalový chorál :-)
                                     
                                                                             
                                            The disorder of  these times - neophilia
                                     
                                                                             
                                            Tvrdé opatrenia (minisnstra vnútra) :-)
                                     
                                                                             
                                            Dívka, která umí udělat dojem :-)
                                     
                                                                             
                                            Niektoré podniky 'All You Can Zjesť' v Prahe
                                     
                                                                             
                                            Dubník – Slávikova halda
                                     
                                                                             
                                            Anatomie rozchodu
                                     
                                                                             
                                            Stále menej slovenčiny v Česku
                                     
                                                                             
                                            Reakcie žien pristihnutých in flagranti :-)
                                     
                                                                             
                                            Vzťah mesta k cyklistom v BA - hodnotenie
                                     
                                                                             
                                            Space Invaders v OpenOffice 2.0
                                     
                                                                             
                                            Ako uspieť v Hviezdnej rote SuperStar :-)
                                     
                                                                             
                                            Why I Hate Weblogs (drsný slovník, via AIF)
                                     
                                                                             
                                            Cooperating and competing bloggers
                                     
                                                                             
                                            Ako vytočiť zamestnanca McDonald's
                                     
                                                                             
                                            Trocha zdvořilosti nezaškodí ani na ICQ, ani e-mailem
                                     
                                                                             
                                            Slovenskí šachoví skladatelia v Marianke 2006 - fotografie
                                     
                                                                             
                                            Ako sa zbaviť doterných predajcov (EN, via Tomáš Bella)
                                     
                                                                             
                                            KLF - to bola sila!
                                     
                                                                             
                                            Fanatik (aj u nás...) :-)))
                                     
                                                                             
                                            The myth of keeping up
                                     
                                                                             
                                            Kupujte hodinky Prim, už nie sú najrýchlejšie!
                                     
                                                                             
                                            Za volantom: Podľa pravidiel a predsa víťazne
                                     
                                                                             
                                            Z predveľkonočného nákupu
                                     
                                                                             
                                            Slabina zdravotníckeho štrajku
                                     
                                                                             
                                            Práva pacienta u lekára, lekárnika a v poisťovni
                                     
                                                                             
                                            Novinárska kačica na Nove - hacknutý Seznam
                                     
                                                                             
                                            Ako rozumieť predvolebným sloganom
                                     
                                                                             
                                            Logická hádanka o 5 zlých bratoch
                                     
                                                                             
                                            Ptačí chřipka není problém, problém jsou lidé, kteří se jí bojí
                                     
                                                                             
                                            Spíte primálo alebo priveľa? Zvyšujete si riziko cukrovky (en)
                                     
                                                                             
                                            Foul language - school problem
                                     
                                                                             
                                            Seriál o tom, ako skrotiť množstvo nevybavených e-mailov (en)
                                     
                                                                             
                                            9 tips for running more productive meetings
                                     
                                                                             
                                            Writing a book in an attractive way - how?
                                     
                                                                             
                                            Nebojte sa vyšetrenia prsníkov
                                     
                                                                             
                                            Prečo vláčime toľko vecí so sebou? (en)
                                     
                                                                             
                                            Spomeňte si na svoje 'prvé'
                                     
                                                                             
                                            Ochrana súkromia na Slovensku - smutná skutočnosť
                                     
                                                                             
                                            Dajte nám ten Flughafen v Pressburgu
                                     
                                                                             
                                            Zaujímavé chute, najmä sladká
                                     
                                                                             
                                            Ako sa Paľo novinárom nestal
                                     
                                                                             
                                            Mládež do 16 rokov by nemala hrať počítačové hry!
                                     
                                                                             
                                            Za volantom F 1
                                     
                                                                             
                                            Pocta baličom a baličkám, odbaličom a odbaličkám
                                     
                                                                             
                                            Súťaž o najhoršie PF-ko :-)
                                     
                                                                             
                                            Dobré bankové produkty nemusia byť drahé
                                     
                                                                             
                                            Evropská bolest: D jako defraudace
                                     
                                                                             
                                            Can you trust Wikipedia: experts' opinion
                                     
                                                                             
                                            Wikipedia is the Next Google or Microsoft - King Disruptor III
                                     
                                                                             
                                            Táto blogerka sa so súkromím neštiepe - ani s akné
                                     
                                                                             
                                            Osobný telefónny zoznam v mobile
                                     
                                                                             
                                            Masaker pri športe :-)
                                     
                                                                             
                                            Pravidlá firmy Google: chceli by ste tam fachčiť?
                                     
                                                                             
                                            Naši ostražití dopravní policajti - sláva im!
                                     
                                                                             
                                            U zubára v Anglicku - zážitok
                                     
                                                                             
                                            Momentky z cestovania autobusom od Bohuša
                                     
                                                                             
                                            Prečo ťažko znížiť korupciu súvisiacu s domovmi dôchodcov
                                     
                                                                             
                                            Pekne stará, ale vtipná hádanka o troch ubytovaných
                                     
                                                                             
                                            Prečo nemať doma práčku
                                     
                                                                             
                                            Prečo by mesto Bratislava malo odvolať manažment DPB?
                                     
                                                                             
                                            Vraždy podľa knižky - podľa Zemeplochy - to je sila!
                                     
                                                                             
                                            Vztah matematiky k fyzice podle Feynmana
                                     
                                                                             
                                            Ako sa dnes hrá na vojakov a banditov - a čítanie v TESCU
                                     
                                                                             
                                            Prehľad WWW o povinnom zmluvnom poistení motorových vozidiel '06
                                     
                                                                             
                                            Úžasná rádiová súťaž - žeby Fun Radio?
                                     
                                                                             
                                            Blbosti na n-tú v článku o Jarovi Filipovi
                                     
                                                                             
                                            Zistite, či čierny môže robiť rošádu - 2 šachové úlohy
                                     
                                                                             
                                            Ostravák mašíruje do knižnice
                                     
                                                                             
                                            Poetické povykování - dvě básně
                                     
                                                                             
                                            Sudoku - rozhovor o fenoméne s hádankárom - II. diel
                                     
                                                                             
                                            Sudoku - rozhovor o fenoméne s hádankárom - I. diel
                                     
                                                                             
                                            Brnkanie na národnú strunku v reklame (pozor, tvrdý slovník)
                                     
                                                                             
                                            Legendárny Doom II v terminálovej učebni - je to možné?
                                     
                                                                             
                                            Kraviny v reklamách - vtipné
                                     
                                                                             
                                            Hovor na erotickú linku v autobuse MHD - hm, hm, hm
                                     
                                                                             
                                            Informačná kampaň o EU v Česku za peniaze občanov
                                     
                                                                             
                                            Rada pre reklamu (RPR) - cap záhradníkom?
                                     
                                                                             
                                            Nový kreditný paušál 199Sk od Orange, porovnanie s iným paušálom
                                     
                                                                             
                                            Obálkový paradox - môžte sa hádať celé hodiny
                                     
                                                                             
                                            Šachová retro úloha
                                     
                                                                             
                                            Stretnúť VV (Vlada Voštinára) v posilovni...
                                     
                                                                             
                                            Pozorovanie: klasifikácia vrátnikov :-)
                                     
                                                                             
                                            Tomu sa povie kríza blogera... (radšej to nečítajte)
                                     
                                                                             
                                            Úžasní anketári a stereotypy v nás
                                     
                                                                             
                                            Velký Skopový Bratr (nebo VyDojení?) na chorvatský způsob :-)
                                     
                                                                             
                                            Reportáž z udeľovania pseudovedeckých cien Bludný balvan 2005
                                     
                                                                             
                                            Opäť: ako je to s financovaním zdravotníctva? (čítať i diskusiu)
                                     
                                                                             
                                            Katastrofa v New Orleans: dôvody
                                     
                                                                             
                                            Zdravotníctvo: porovnanie amerického románu a slovenskej praxe
                                     
                                                                             
                                            Trocha matematiky v medziľudských vzťahoch - prečo nebyť sviňa
                                     
                                                                             
                                            Česko nielen prehralo kvalifikačný futbal v Rumunsku
                                     
                                                                             
                                            Jak se nakupuje na Ebay
                                     
                                                                             
                                            Partia go hraná počas výbuchu atómovej bomby v Hirošime
                                     
                                                                             
                                            Ako sa pozná manažment o ničom
                                     
                                                                             
                                            Vynálezy, ktoré svet netrpezlivo očakáva
                                     
                                                                             
                                            Výsluch na kriminálke
                                     
                                                                             
                                            Černobyl - ako to bolo a ako to je
                                     
                                                                   
                     Obľúbené knihy 
                    
                     
                                                 
                                            Tom Hodgkinson: The Idle Parent
                                     
                                                                             
                                            Gabriel Chevallier: Zvonodrozdovo
                                     
                                                                             
                                            Josef Jedlička: České typy
                                     
                                                                             
                                            Dějiny Řecka
                                     
                                                                             
                                            Ladislav Klíma: Utrpení knížete Sternenhocha
                                     
                                                                             
                                            Eric Scheibeler: Merchants of Deception
                                     
                                                                             
                                            Stephen Law: Filozofická gymnastika
                                     
                                                                             
                                            Richard Overy: The Dictators - Hitler's Germany, Stalin's Russia
                                     
                                                                             
                                            Upton Sinclair: Boston
                                     
                                                                             
                                            John D. Barrow: Teorie ničeho
                                     
                                                                   
                     Obľúbené blogy 
                    
                     
                                                 
                                            Matematik (štatistik a pravdepodobnostník)
                                     
                                                                             
                                            Opäť Piki
                                     
                                                                             
                                            Matematik (grafik a geometer)
                                     
                                                                             
                                            Jiné právo
                                     
                                                                             
                                            Doktor, ktorý už nefachá ako doktor
                                     
                                                                             
                                            Samušo
                                     
                                                                             
                                            Nejaká Martina
                                     
                                                                   
                     Obľúbené stránky 
                    
                     
                                                 
                                            Stránky věnované problémovému šachu
                                     
                                                                             
                                            VoxEU - Research-based analysis and commentary mostly in economy
                                     
                                                                             
                                            Sumo Forum
                                     
                                                                             
                                            Magic: The Gathering (SK)
                                     
                                                                             
                                            xkcd (webcomic)
                                     
                                                                             
                                            Questionable content (webcomic)
                                     
                                                                             
                                            Wikipedia (anglická)
                                     
                                                                             
                                            Slovenské šachové rubriky
                                     
                                                                             
                                            Spevácky zbor Technik
                                     
                                                                             
                                            Mathpuzzle - hlavolamy
                                     
                            
             
         
            

           
     Pošlite odkaz blogerovi 
    
         
            
         

         
         
         
         

         
         
Odosielateľ (e-mail)
 
         
Text
 
         
             
Protispamová ochrana 
 
 Zle. Skúste znova. 
Opíšte slová z obrázku: Načítať iné slová 
 Get an image CAPTCHA 
 
 
         
                 
            
         
    
  


 

     






            
    
        
    
 

        
         
         
             Už ste čítali? 
         
         
 

 kultura.sme.sk 
 Margaréta sa spriahla s diablom, no mala Kristovu pravdu 
 
 

 www.sme.sk 
 Pútnické miesta The Beatles alebo ako ľudia kráčajú po zebre 
 
 

 cestovanie.sme.sk 
 Lovia za svitania a v hmle 
 
 

 www.sme.sk 
 Ako sa valila lavína slobody. Ako padal komunizmus 
 
 

 kultura.sme.sk 
 Žiadne retro, poriadny biznis. Takto sa lisuje platňa 
 
	   
 


        
         
            
         

     

    
     
 
 
	 

		Kontakty
		Predplatné
		Etický kódex
		Pomoc
		Mapa stránky
		
	 
 
 
	 
		 
			Widget
			RSS
			Newsletter
		 
		 
			Mobil
			Smartphone
			Kindle
			Televízor
		 
		 
			Facebook
			Twitter
			Google+
		 
	 
	 
		
	 
	 
		Ďalšie weby skupiny: Prihlásenie do Post.sk
		Új Szó Slovak Spectator
		Agentúrne správy 
		Vydavateľstvo
		Inzercia
		Osobné údaje
		Návštevnosť webu
		Predajnosť tlače
		Petit Academy
		SME v škole 		© Copyright 1997-2014 Petit Press, a.s. 
	 
 
 
 


          
        
            
            

        
    

    
    


    


    
        
        
        
        
        
        
        
            
            
        
        
        
        
         
                                
               





 

 



        

 




