
      
    
    

     
	 
	 
 SME.sk 
 Zľavy 
 Zoznámenie 
 Reality 
 Dovolenky 
 Pizza 
 Reštaurácie 
 Recenzie 
 Inzeráty 
 Naničmama 	 
Nákupy 
		 
 Filmy na DVD 
 Hodinky 
 Parfémy 
 SME knihy a DVD 
 Superhosting 
 Tlačiareň 
 Víno 
 Tvorba webov 
 Predplatné SME 
 ProSenior 		 
	 
	 
 
	 
 


    
    
        
        
         
          
         
    

    
      
         
            
             
     
        
        
     
    Blog.SME.sk
 

    

         
        
                 
     
         
            Sme.sk
         
         
            Domov
         
         
            Regióny
         
         
            Ekonomika
         
         
            Svet
         
         
            Komentáre
         
         
            Kultúra
         
         
            Šport
         
         
            TV
         
         
            Auto
         
         
            Tech
         
         
            Poradňa
         
         
            Žena
         
         
            Bývanie
         
         
            Zdravie
         
         
            Blog
         
     
 

         
            
     
                                                         Politika 
                                                                                     Spoločnosť 
                                                                                     Cestovanie 
                                                                                     Ekonomika 
                                                                                     Fotografie 
                                                                                     Jedlo 
                                                                                     Kultúra 
                                                                                             
Ďalšie
                             
                                                                                         Lifestyle 
                                                                                                                                                                             Médiá 
                                                                                                                                                                             Nezaradené 
                                                                                                                                                                             Súkromné 
                                                                                                                                                                             Šport 
                                                                                                                                                                             Veda a technika 
                                                                                                                                                                             Zábava 
                                                                                                                                                                             Poézia 
                                                                                                                                                                             Próza 
                                                                                                                                                                             Kódex blogera 
                                                                                 
                         
                                                 
            Blogeri
         
     


            

    
    Prihlásiť sa


    
    Založte si blog



    
    Odhlásiť sa


    
    




         

        
        
         
            
         
         
                
     
                 
            SME.sk &gt;
            Blog.SME.sk &gt;
                            Miroslav Lisinovič
                                        &gt;
                železnice a MHD
                     
                 Rendez 2010 

        
            
                                    22.6.2010
            o
            12:20
                        (upravené
                21.6.2010
                o
                21:08)
                        |
            Karma článku:
                8.60
            |
            Prečítané 
            2253-krát
                    
         
     
         
             

                 
                    Dvanásty ročník celoslovenského zrazu historických železničných vozidiel vo fotografiách...
                 

                    Informačná tabuľa na hlavnej stanici v Bratislave ukazovala takmer každú hodinu počas uplynulého víkendu odchody mimoriadnych vlakov do areálu akcie.      Rušňové depo Bratislava východ - staré depo zažilo v dňoch 19.-20. júna nápor návštevníkov všetkých vekových kategórií.            Malí sa vozili aj malým vláčikom      Znovuzrodený Albatros sa predstavil parádne vyleštený. Vlastne ako všetky historické rušne.      Keď štartoval naftový motor Pomaranč, dymil ako para...         Malý úsporný (akumulátorový) rušeň slúži na posun v depe      Do Rače jazdil z Rendezu historický Ikarus, odtiaľ do centra historická električka      Mazutka konečne už pred dokončením náročnej opravy do prevádzkového stavu      Legendárny Sergej robí spoločnosť zaujímavému stroju - motorovému rušňu v nevýbušnom prevedení, prevádzkovaným bratislavským Slovnaftom.         Karkulky v dvoch prevedeniach         Parné rušne z Rakúska prišli dva      Pomaranč a rýchlikový parný rušeň opúšťajú Rendez s vlakom do Rakúska      Vrútocká Kačena momentálne nejazdí - má prepadnutú kotolnú skúšku      Zelený Anton bol jedným zo šiestich prevádzkovaných parných rušňov na tohtoročnom zraze.      Historická technika s novodobou výstavbou      Zauhlovanie. Momentálne prišiel na rad Albatros.      Nasvietené skvosty v lúčoch zapadajúceho slnka                     Nočné fotografovanie - hodnotný záver soboty na Rendezi      Zatopená točňa - pripomienka uplynulých daždivých týždňov                       

                 
                                        
                        
                        Zdieľať
                    

                    
                            
                                    
                                    Zdieľať na
                            
                             
                                    
                             
                    

                                                                                                                        
                            
                            Diskusia: (7)
                        
                    
                    
                        
                        Zvýšte karmu
                    
                 
             

                             
            
                     
                         Ďalšie články blogera 
                         
                                                             
                                    
                                                                                                    

                                                                        
                                    
                                        Miroslav Lisinovič 
                                        
                                            Horná brána v Modre
                                        
                                    
                                 
                                                             
                                    
                                                                                                    

                                                                        
                                    
                                        Miroslav Lisinovič 
                                        
                                            Motorový rušeň 754.045 ČD "Brejlovec"
                                        
                                    
                                 
                                                             
                                    
                                                                                                    

                                                                        
                                    
                                        Miroslav Lisinovič 
                                        
                                            Tatra 87
                                        
                                    
                                 
                                                             
                                    
                                                                                                    

                                                                        
                                    
                                        Miroslav Lisinovič 
                                        
                                            Skutočnosť a model: Grassalkovichov palác v Bratislave
                                        
                                    
                                 
                                                             
                                    
                                                                                                    

                                                                        
                                    
                                        Miroslav Lisinovič 
                                        
                                            Putovanie po slovenských Kalváriách (194) - Klokočov
                                        
                                    
                                 
                                                     
                        
                            Ďalšie články blogera: Miroslav Lisinovič
                        
                     
            
                     
                         Ďalšie články z rubriky fotografie 
                         
                                                             
                                    
                                                                                                                    

                                                                                                
                                    
                                        Miroslav Lisinovič 
                                        
                                            Motorový rušeň 754.045 ČD "Brejlovec"
                                        
                                    
                                 
                                                             
                                    
                                                                                                                    

                                                                                                
                                    
                                        Jan Pražák 
                                        
                                            Jeníček v zemi divů - Lurdy
                                        
                                    
                                 
                                                             
                                    
                                                                                                                    

                                                                                                
                                    
                                        Anton Lisinovič 
                                        
                                            Detaily života v lese.....
                                        
                                    
                                 
                                                             
                                    
                                                                                                                    

                                                                                                
                                    
                                        Jaromír Šiša 
                                        
                                            Porazit Rusy? Šlo to jedině roku 1805 u Slavkova.
                                        
                                    
                                 
                                                             
                                    
                                                            	                                                                                        

                                                                                                
                                    
                                        Gabriela Szabová 
                                        
                                            Nezabudnuteľní
                                        
                                    
                                 
                                                     
                        
                            Ďalšie články z rubriky fotografie
                        
                     
                 
            
                    
 
     Hlavné správy 
         
        
                                

        
         
            ZAHRANIČIE
             Protestujúci v Maďarsku strácajú dych, Fidesz ich mätie novými návrhmi 
             Na demonštrácii proti Orbánovej vláde bolo v utorok už len niekoľko tisíc ľudí. 
         
     
         
        
                                

        
         
            AKTUALIZOVANÉ O 21:30
             Rubeľ pocítil pád na dno, Rusko je vo finančnej kríze 
             Dolár včera stál už takmer 80 rubľov, pod hladinu ho tlačia najmä nízke ceny ropy. 
         
     
         
        
                                

        
         
            AKTUALIZOVANÉ 21:50
             Taliban zabil v škole v Pakistane 132 detí 
             Pakistan až teraz poriadne zatlačil na islamistov. Odplatou je útok na deti vojakov. 
         
     
     

                 
     
    
     
        
 

     
                
                            
                    



         
            
                Miroslav Lisinovič
            
         
        lisinovic.blog.sme.sk (rss)
         
                        VIP
                             
     
         Študent študujúci v škole života. 
        
     
     
                     
                             
             

     
        
            
                
                    Počet článkov
                    519
                
                
                    Celková karma
                    
                                                6.41
                    
                
                
                    Priemerná čítanosť
                    2266
                
            
        
     

             

             Zoznam rubrík 
            
             
                                     
                        
                            Šaštín
                        
                     
                                     
                        
                            Slovenské Kalvárie
                        
                     
                                     
                        
                            Z mojej papierovej dielne
                        
                     
                                     
                        
                            reportáže z modelárskych akcií
                        
                     
                                     
                        
                            v prírode
                        
                     
                                     
                        
                            ulicami miest
                        
                     
                                     
                        
                            železnice a MHD
                        
                     
                                     
                        
                            motorizmus
                        
                     
                                     
                        
                            viera
                        
                     
                                     
                        
                            extra
                        
                     
                             
         
    

                     
                        
                                                            
                     Obľúbené blogy 
                    
                     
                                                 
                                            Môj brat
                                     
                                                                             
                                            Moja manželka:)
                                     
                                                                   
                     Obľúbené stránky 
                    
                     
                                                 
                                            railtrains.sk
                                     
                            
             
         
            

        

     






            
    
        
    
 

        
         
         
             Už ste čítali? 
         
         
 

 kultura.sme.sk 
 Margaréta sa spriahla s diablom, no mala Kristovu pravdu 
 
 

 www.sme.sk 
 Pútnické miesta The Beatles alebo ako ľudia kráčajú po zebre 
 
 

 cestovanie.sme.sk 
 Lovia za svitania a v hmle 
 
 

 www.sme.sk 
 Ako sa valila lavína slobody. Ako padal komunizmus 
 
 

 kultura.sme.sk 
 Žiadne retro, poriadny biznis. Takto sa lisuje platňa 
 
	   
 


        
         
            
         

     

    
     
 
 
	 

		Kontakty
		Predplatné
		Etický kódex
		Pomoc
		Mapa stránky
		
	 
 
 
	 
		 
			Widget
			RSS
			Newsletter
		 
		 
			Mobil
			Smartphone
			Kindle
			Televízor
		 
		 
			Facebook
			Twitter
			Google+
		 
	 
	 
		
	 
	 
		Ďalšie weby skupiny: Prihlásenie do Post.sk
		Új Szó Slovak Spectator
		Agentúrne správy 
		Vydavateľstvo
		Inzercia
		Osobné údaje
		Návštevnosť webu
		Predajnosť tlače
		Petit Academy
		SME v škole 		© Copyright 1997-2014 Petit Press, a.s. 
	 
 
 
 


          
        
            
            

        
    

    
    


    


    
        
        
        
        
        
        
        
            
            
        
        
        
        
         
                                
               





 

 



        

 




