
      
    
    

     
	 
	 
 SME.sk 
 Zľavy 
 Zoznámenie 
 Reality 
 Dovolenky 
 Pizza 
 Reštaurácie 
 Recenzie 
 Inzeráty 
 Naničmama 	 
Nákupy 
		 
 Filmy na DVD 
 Hodinky 
 Parfémy 
 SME knihy a DVD 
 Superhosting 
 Tlačiareň 
 Víno 
 Tvorba webov 
 Predplatné SME 
 ProSenior 		 
	 
	 
 
	 
 


    
    
        
        
         
          
         
    

    
      
         
            
             
     
        
        
     
    Blog.SME.sk
 

    

         
        
                 
     
         
            Sme.sk
         
         
            Domov
         
         
            Regióny
         
         
            Ekonomika
         
         
            Svet
         
         
            Komentáre
         
         
            Kultúra
         
         
            Šport
         
         
            TV
         
         
            Auto
         
         
            Tech
         
         
            Poradňa
         
         
            Žena
         
         
            Bývanie
         
         
            Zdravie
         
         
            Blog
         
     
 

         
            
     
                                                         Politika 
                                                                                     Spoločnosť 
                                                                                     Cestovanie 
                                                                                     Ekonomika 
                                                                                     Fotografie 
                                                                                     Jedlo 
                                                                                     Kultúra 
                                                                                             
Ďalšie
                             
                                                                                         Lifestyle 
                                                                                                                                                                             Médiá 
                                                                                                                                                                             Nezaradené 
                                                                                                                                                                             Súkromné 
                                                                                                                                                                             Šport 
                                                                                                                                                                             Veda a technika 
                                                                                                                                                                             Zábava 
                                                                                                                                                                             Poézia 
                                                                                                                                                                             Próza 
                                                                                                                                                                             Kódex blogera 
                                                                                 
                         
                                                 
            Blogeri
         
     


            

    
    Prihlásiť sa


    
    Založte si blog



    
    Odhlásiť sa


    
    




         

        
        
         
            
         
         
                
     
                 
            SME.sk &gt;
            Blog.SME.sk &gt;
                            Roman Herda
                                        &gt;
                srbsko
                     
                 Belehrad (fotografie) 

        
            
                                    2.6.2010
            o
            14:58
                        (upravené
                2.3.2013
                o
                21:45)
                        |
            Karma článku:
                10.94
            |
            Prečítané 
            3188-krát
                    
         
     
         
             

                 
                    Z autobusu vystupujeme o jednej poobede. Autobusová a vlaková stanica sú naštastie pri sebe, keďže našim záchytným bodom je informácia, že hostel sa nachádza oproti vchodu hlavnej vlakovej stanice.
                 

                 Belehrad je hlavné mesto Srbska ležiace na sútoku riek Sáva a Dunaj. Má vyše 1,6 milióna obyvateľov a v roku 1999 jeho obyvatelia zažili bombardovanie.          hlavná vlaková stanica          Savski Trg pred stanicou          pozostatok z bombardovania v roku 1999          Trg Slavija          chrám sv. Sávu          chrám sv. Sávu          park pred chrámom          vnútri chrámu                 pobrežie Sávy          450 metrový Brankov most otvorený v roku 1957                     výhľad z pevnosti Kalemegdan na ľavý breh Sávy          Kalemegdan          výhľad na mesto z pevnosti                                           fakulta matematiky Belehradskej Univerzity                     hlavná pešia ulica v centre          fontána na námesti Republiky, v pozadí budova parlamentu          námestie Republiky v noci          srbský parlament          Savska                     Yugo Florida                     v pozadí most Ada          za železničnou stanicou                  20.7. - 22.7.2009       stručný denník z cesty nájdete tu     

                 
                                        
                        
                        Zdieľať
                    

                    
                            
                                    
                                    Zdieľať na
                            
                             
                                    
                             
                    

                                                                                                                        
                            
                            Diskusia: (14)
                        
                    
                    
                        
                        Zvýšte karmu
                    
                 
             

                             
            
                     
                         Ďalšie články blogera 
                         
                                                             
                                    
                                                                                                    

                                                                        
                                    
                                        Roman Herda 
                                        
                                            Ukrajina 2013 (fotografie)
                                        
                                    
                                 
                                                             
                                    
                    	                                                                                        

                                                                        
                                    
                                        Roman Herda 
                                        
                                            Dnepropetrovsk (fotografie)
                                        
                                    
                                 
                                                             
                                    
                    	                                                                                        

                                                                        
                                    
                                        Roman Herda 
                                        
                                            Doneck (fotografie)
                                        
                                    
                                 
                                                             
                                    
                    	                                                                                        

                                                                        
                                    
                                        Roman Herda 
                                        
                                            Aerotechnické múzeum v Lugansku (fotografie)
                                        
                                    
                                 
                                                             
                                    
                    	                                                                                        

                                                                        
                                    
                                        Roman Herda 
                                        
                                            Lugansk (fotografie)
                                        
                                    
                                 
                                                     
                        
                            Ďalšie články blogera: Roman Herda
                        
                     
            
                     
                         Ďalšie články z rubriky cestovanie 
                         
                                                             
                                    
                                                                                                                    

                                                                                                
                                    
                                        Miroslav Lisinovič 
                                        
                                            Horná brána v Modre
                                        
                                    
                                 
                                                             
                                    
                                                                                                                    

                                                                                                
                                    
                                        Martina Rúčková 
                                        
                                            Z Európy na Kaukaz: Çanakkale a bájna Trója
                                        
                                    
                                 
                                                             
                                    
                                                            	                                                                                        

                                                                                                
                                    
                                        Andrea Grešová 
                                        
                                            To je moje Rumunsko
                                        
                                    
                                 
                                                             
                                    
                                                                                                                    

                                                                                                
                                    
                                        Ján Serbák 
                                        
                                            Pamätník čs. armády s vojnovým cintorínom na Dukle
                                        
                                    
                                 
                                                             
                                    
                                                            	                                                                                        

                                                                                                
                                    
                                        Peter Kover 
                                        
                                            22 krajín (miest), ktoré sa naozaj oplatí vidieť
                                        
                                    
                                 
                                                     
                        
                            Ďalšie články z rubriky cestovanie
                        
                     
                 
            
                    
 
     Hlavné správy 
         
        
                                

        
         
            AKTUALIZOVANÉ 20:22
             Slovenky v hlavnej skupine nebodovali, Švédky vyhrali o 9 gólov 
             Naše hádzanárky hrali na ME piaty zápas. V Záhrebe proti Švédkam. 
         
     
         
        
                                

        
         
            AKTUALIZOVANÉ O 20:00
             Rubeľ pocítil pád na dno, Rusko je vo finančnej kríze 
             Dolár včera stál už takmer 80 rubľov, pod hladinu ho tlačia najmä nízke ceny ropy. 
         
     
         
        
                                

        
         
            ZAHRANIČIE
             Taliban zaútočil na citlivé miesto Pakistanu. Na deti 
             Taliban zabil v škole v Pakistane najmenej 141 ľudí, väčšinou deti. 
         
     
     

                 
     
    
     
        
 

     
                
                            
                    



         
            
                Roman Herda
            
         
        herda.blog.sme.sk (rss)
         
                        VIP
                             
     
         www.romanherda.com 
        
     
     
                     
                             
             

     
        
            
                
                    Počet článkov
                    71
                
                
                    Celková karma
                    
                                                0.00
                    
                
                
                    Priemerná čítanosť
                    2248
                
            
        
     

             

             Zoznam rubrík 
            
             
                                     
                        
                            rumunsko
                        
                     
                                     
                        
                            česká republika
                        
                     
                                     
                        
                            nórsko
                        
                     
                                     
                        
                            belgicko
                        
                     
                                     
                        
                            turecko
                        
                     
                                     
                        
                            bulharsko
                        
                     
                                     
                        
                            macedónsko
                        
                     
                                     
                        
                            albánsko
                        
                     
                                     
                        
                            čierna hora
                        
                     
                                     
                        
                            bosna &amp; hercegovina
                        
                     
                                     
                        
                            srbsko
                        
                     
                                     
                        
                            taliansko
                        
                     
                                     
                        
                            moldavsko
                        
                     
                                     
                        
                            ukrajina
                        
                     
                                     
                        
                            gruzínsko
                        
                     
                                     
                        
                            arménsko
                        
                     
                                     
                        
                            irán
                        
                     
                                     
                        
                            irak
                        
                     
                                     
                        
                            maďarsko
                        
                     
                                     
                        
                            holandsko
                        
                     
                                     
                        
                            rusko
                        
                     
                                     
                        
                            chorvástko
                        
                     
                                     
                        
                            estónsko
                        
                     
                                     
                        
                            lotyšsko
                        
                     
                                     
                        
                            litva
                        
                     
                                     
                        
                            foto
                        
                     
                                     
                        
                            poľsko
                        
                     
                             
         
    

    

           
     Pošlite odkaz blogerovi 
    
         
            
         

         
         
         
         

         
         
Odosielateľ (e-mail)
 
         
Text
 
         
             
Protispamová ochrana 
 
 Zle. Skúste znova. 
Opíšte slová z obrázku: Načítať iné slová 
 Get an image CAPTCHA 
 
 
         
                 
            
         
    
  


 

     






            
    
        
    
 

        
         
         
             Už ste čítali? 
         
         
 

 kultura.sme.sk 
 Margaréta sa spriahla s diablom, no mala Kristovu pravdu 
 
 

 www.sme.sk 
 Pútnické miesta The Beatles alebo ako ľudia kráčajú po zebre 
 
 

 cestovanie.sme.sk 
 Lovia za svitania a v hmle 
 
 

 www.sme.sk 
 Ako sa valila lavína slobody. Ako padal komunizmus 
 
 

 kultura.sme.sk 
 Žiadne retro, poriadny biznis. Takto sa lisuje platňa 
 
	   
 


        
         
            
         

     

    
     
 
 
	 

		Kontakty
		Predplatné
		Etický kódex
		Pomoc
		Mapa stránky
		
	 
 
 
	 
		 
			Widget
			RSS
			Newsletter
		 
		 
			Mobil
			Smartphone
			Kindle
			Televízor
		 
		 
			Facebook
			Twitter
			Google+
		 
	 
	 
		
	 
	 
		Ďalšie weby skupiny: Prihlásenie do Post.sk
		Új Szó Slovak Spectator
		Agentúrne správy 
		Vydavateľstvo
		Inzercia
		Osobné údaje
		Návštevnosť webu
		Predajnosť tlače
		Petit Academy
		SME v škole 		© Copyright 1997-2014 Petit Press, a.s. 
	 
 
 
 


          
        
            
            

        
    

    
    


    


    
        
        
        
        
        
        
        
            
            
        
        
        
        
         
                                
               





 

 



        

 




