
      
    
    

     
	 
	 
 SME.sk 
 Zľavy 
 Zoznámenie 
 Reality 
 Dovolenky 
 Pizza 
 Reštaurácie 
 Recenzie 
 Inzeráty 
 Naničmama 	 
Nákupy 
		 
 Filmy na DVD 
 Hodinky 
 Parfémy 
 SME knihy a DVD 
 Superhosting 
 Tlačiareň 
 Víno 
 Tvorba webov 
 Predplatné SME 
 ProSenior 		 
	 
	 
 
	 
 


    
    
        
        
         
          
         
    

    
      
         
            
             
     
        
        
     
    Blog.SME.sk
 

    

         
        
                 
     
         
            Sme.sk
         
         
            Domov
         
         
            Regióny
         
         
            Ekonomika
         
         
            Svet
         
         
            Komentáre
         
         
            Kultúra
         
         
            Šport
         
         
            TV
         
         
            Auto
         
         
            Tech
         
         
            Poradňa
         
         
            Žena
         
         
            Bývanie
         
         
            Zdravie
         
         
            Blog
         
     
 

         
            
     
                                                         Politika 
                                                                                     Spoločnosť 
                                                                                     Cestovanie 
                                                                                     Ekonomika 
                                                                                     Fotografie 
                                                                                     Jedlo 
                                                                                     Kultúra 
                                                                                             
Ďalšie
                             
                                                                                         Lifestyle 
                                                                                                                                                                             Médiá 
                                                                                                                                                                             Nezaradené 
                                                                                                                                                                             Súkromné 
                                                                                                                                                                             Šport 
                                                                                                                                                                             Veda a technika 
                                                                                                                                                                             Zábava 
                                                                                                                                                                             Poézia 
                                                                                                                                                                             Próza 
                                                                                                                                                                             Kódex blogera 
                                                                                 
                         
                                                 
            Blogeri
         
     


            

    
    Prihlásiť sa


    
    Založte si blog



    
    Odhlásiť sa


    
    




         

        
        
         
            
         
         
                
     
                 
            SME.sk &gt;
            Blog.SME.sk &gt;
                            Gabo Németh
                                        &gt;
                Súkromné
                     
                 Slotov kabaret 

        
            
                                    2.5.2010
            o
            19:13
                        (upravené
                2.5.2010
                o
                20:51)
                        |
            Karma článku:
                7.37
            |
            Prečítané 
            531-krát
                    
         
     
         
             

                 
                    To, čo predviedol  Ján Slota dnes v Slovenskej televízií, v reláci O päť minút dvanásť nemá obdobu.
                 

                 Ak sa má jeden politik takto správať, ak takto sa správa predseda  z jednej zo strán koalície, je to na poľutovaniehodné. Politickú reláciu zmenil na kabaret, a k tomu ak pridáme skutočnosť, že vyzeral pod obraz boží, človek sa nestačí čudovať, že Ján Slota sa ešte pohybuje na vrchole slovenskej politiky. Čo to malo znamenať? Uvedomil si tento vraj vlastenecký politik, že týmto svojím kabaretným vystupením poškodil pred voľbami svoju stranu, poškodil dobré meno Slovenska? Vyjadrovať sa rečami štvrtej cenovej skupiny, to by dokázal každý. Ak už sa neviem ovládať, tak do relácie Slovenskej televízie O päť minút dvanásť neprídem a ospravedlním sa. Jeho pikatnérosti na politiku vládnuceho kabinetu, politiku strany Most - Híd a rozoberať plyny moderátora Slovenskej televízie, nadobudne iný smer. To určite.   Blížia sa voľby a takéto Jankovo správanie môže byť vodou na mlyn pre ostatné politické strany. Avšak, čo sa týka strany SNS,  jej počet sympatizantov určite klesne. Ján Slota nikdy nepatril do politiky, o tom sme sa mohli presvedčiť pri iných výrokoch, ktorými pobúril nielen slovenskú politickú scénu, ale i zahraničie. Tým dnešným predvolebným kabaretom jednoznačne Ján Slota ukázal, že s politikou to nemyslí vážne, skôr  politická show je jeho parketa. Sklamal tak mnohých a potvrdil jedno, on a politik je tak  neznámy pojem, ako keď eskimák sa chce učiť esperanto.   Mysliac, že Ján Slota sa zamyslí nad svojími výrokmi, som sa hlboko  zmýlil. Potvrdilo sa jedno, politikom Ján Slota nikdy nebol ani nebude. Pretože správanie Jána Slota na verejnosti a dokonca v Slovenskej televízii, je príliš ostrá káva, z ktorej si neprosím. Hladinu politickej scény by mala  upokojiť skutočnosť, keby Slota odstúpil. Dnes svojím vystúpením uškodil iba vládnúcemu Smeru.  Robert Fico by mal pouvažovať, či ďaľšia  spolupráca do budúcnosti s SNS prinesie vôbec nejaký efekt. Lebo zatiaľ  to, čo Slota vyvádza sa politikou nazvať  vôbec nedá. 

                 
                                        
                        
                        Zdieľať
                    

                    
                            
                                    
                                    Zdieľať na
                            
                             
                                    
                             
                    

                                                                                                                        
                            
                            Diskusia: (6)
                        
                    
                    
                        
                        Zvýšte karmu
                    
                 
             

                             
            
                     
                         Ďalšie články blogera 
                         
                                                             
                                    
                    	                                                                                        

                                                                        
                                    
                                        Gabo Németh 
                                        
                                            Spomienky a čas
                                        
                                    
                                 
                                                             
                                    
                    	                                                                                        

                                                                        
                                    
                                        Gabo Németh 
                                        
                                            Plač kvetov
                                        
                                    
                                 
                                                             
                                    
                    	                                                                                        

                                                                        
                                    
                                        Gabo Németh 
                                        
                                            Nočná návšteva
                                        
                                    
                                 
                                                             
                                    
                    	                                                                                        

                                                                        
                                    
                                        Gabo Németh 
                                        
                                            Spomienky
                                        
                                    
                                 
                                                             
                                    
                    	                                                                                        

                                                                        
                                    
                                        Gabo Németh 
                                        
                                            Dušičková
                                        
                                    
                                 
                                                     
                        
                            Ďalšie články blogera: Gabo Németh
                        
                     
            
                     
                         Ďalšie články z rubriky politika 
                         
                                                             
                                    
                                                            	                                                                                        

                                                                                                
                                    
                                        Tomáš Hudec 
                                        
                                            Chceme zvýšiť účasť ľudí vo voľbách? Zaveďme eVoľby!
                                        
                                    
                                 
                                                             
                                    
                                                            	                                                                                        

                                                                                                
                                    
                                        Robert Bestro 
                                        
                                            Výmena vedenia parlamentu zjavne prospela
                                        
                                    
                                 
                                                             
                                    
                                                            	                                                                                        

                                                                                                
                                    
                                        Júlia Piraňa Mikolášiková 
                                        
                                            Obvinia ďalšiu novinárku z údajného ohovárania policajného šéfa Ševčíka?
                                        
                                    
                                 
                                                             
                                    
                                                            	                                                                                        

                                                                                                
                                    
                                        Stanislav Martinčko 
                                        
                                            Stužka z kvetinárstva za 16 centov a rozkradnuté milióny!!
                                        
                                    
                                 
                                                             
                                    
                                                            	                                                                                        

                                                                                                
                                    
                                        Veronika Remisova 
                                        
                                            Elektronické mýto podľa Ficovej vlády – prehľadnejšie sa to skrátka nedá
                                        
                                    
                                 
                                                     
                        
                            Ďalšie články z rubriky politika
                        
                     
                 
            
                    
 
     Hlavné správy 
         
        
                                

        
         
            AKTUALIZOVANÉ O 20:00
             Rubeľ pocítil pád na dno, Rusko je vo finančnej kríze 
             Dolár včera stál už takmer 80 rubľov, pod hladinu ho tlačia najmä nízke ceny ropy. 
         
     
         
        
                                

        
         
            ZAHRANIČIE
             Taliban zaútočil na citlivé miesto Pakistanu. Na deti 
             Taliban zabil v škole v Pakistane najmenej 141 ľudí, väčšinou deti. 
         
     
         
        
                                

        
         
            KOMENTARE.SME.SK
             Cynická obluda: Medzičasom na opustenom ostrove 
             Stroskotanci majú veľké šťastie, že sú dvaja. Lacné vtipy na úrovni ich autora. 
         
     
     

                 
     
    
     
        
 

     
                
                            
                    



         
            
                Gabo Németh
            
         
        gabonemeth.blog.sme.sk (rss)
         
                                     
     
         profesionálny knihovník, básnik, spisovateľ, od roku 2006 člen Spolku slovenských spisovateľov. Vydal básnické zbierky: Za súmraku, Slnko nad básňou, Rodinný album. Venuje sa duchovnej poézii. Chce byť pokračovateľom katolíckej moderny. 
        
     
     
                     
                             
             

     
        
            
                
                    Počet článkov
                    917
                
                
                    Celková karma
                    
                                                2.75
                    
                
                
                    Priemerná čítanosť
                    335
                
            
        
     

             

             Zoznam rubrík 
            
             
                                     
                        
                            denná čítannosť
                        
                     
                                     
                        
                            -
                        
                     
                                     
                        
                            -
                        
                     
                                     
                        
                            -
                        
                     
                                     
                        
                            -
                        
                     
                                     
                        
                            Súkromné
                        
                     
                                     
                        
                            A300
                        
                     
                             
         
    

                     
                        
                                                            
                     Obľúbené články 
                    
                     
                                                 
                                             
                                     
                                                                             
                                            len a len dobré knihy
                                     
                                                                             
                                             
                                     
                                                                             
                                             
                                     
                                                                             
                                             
                                     
                                                                             
                                             
                                     
                                                                             
                                             
                                     
                                                                             
                                            o politike  vôbec
                                     
                                                                             
                                            o politike  vôbec
                                     
                                                                             
                                             
                                     
                                                                             
                                            denník Sme všetky články
                                     
                                                                             
                                             
                                     
                                                                   
                     Obľúbené knihy 
                    
                     
                                                 
                                            Skôr než zaspím od S.J. Watson
                                     
                                                                   
                     Čo práve počúvam 
                    
                     
                                                 
                                            Queen
                                     
                                                                   
                     Obľúbené stránky 
                    
                     
                                                 
                                            blog spisovateľky Miroslavy Varáčkovej
                                     
                                                                             
                                             
                                     
                                                                             
                                             
                                     
                                                                             
                                            všetky dobré a kvalitné blogy na Sme.sk
                                     
                                                                             
                                            facebook
                                     
                            
             
         
            

             
             Čo ma zaujalo 
            Týmto článkom bloger klikol/klikla na karmu.
             
                                                         
                       Muž z kríža
                     
                                                         
                       Spomienky a čas
                     
                                                         
                       Jesenné dotyky
                     
                                                         
                       Plač kvetov
                     
                                                         
                       Nočná návšteva
                     
                                                         
                       Spomienky
                     
                                                         
                       Na prechádzke
                     
                                                         
                       Dušičková
                     
                                                         
                       Ranný obraz
                     
                                                         
                       Po stopách vlastného príbehu
                     
                             
         
           
     Pošlite odkaz blogerovi 
    
         
            
         

         
         
         
         

         
         
Odosielateľ (e-mail)
 
         
Text
 
         
             
Protispamová ochrana 
 
 Zle. Skúste znova. 
Opíšte slová z obrázku: Načítať iné slová 
 Get an image CAPTCHA 
 
 
         
                 
            
         
    
  


 

     






            
    
        
    
 

        
         
         
             Už ste čítali? 
         
         
 

 kultura.sme.sk 
 Margaréta sa spriahla s diablom, no mala Kristovu pravdu 
 
 

 www.sme.sk 
 Pútnické miesta The Beatles alebo ako ľudia kráčajú po zebre 
 
 

 cestovanie.sme.sk 
 Lovia za svitania a v hmle 
 
 

 www.sme.sk 
 Ako sa valila lavína slobody. Ako padal komunizmus 
 
 

 kultura.sme.sk 
 Žiadne retro, poriadny biznis. Takto sa lisuje platňa 
 
	   
 


        
         
            
         

     

    
     
 
 
	 

		Kontakty
		Predplatné
		Etický kódex
		Pomoc
		Mapa stránky
		
	 
 
 
	 
		 
			Widget
			RSS
			Newsletter
		 
		 
			Mobil
			Smartphone
			Kindle
			Televízor
		 
		 
			Facebook
			Twitter
			Google+
		 
	 
	 
		
	 
	 
		Ďalšie weby skupiny: Prihlásenie do Post.sk
		Új Szó Slovak Spectator
		Agentúrne správy 
		Vydavateľstvo
		Inzercia
		Osobné údaje
		Návštevnosť webu
		Predajnosť tlače
		Petit Academy
		SME v škole 		© Copyright 1997-2014 Petit Press, a.s. 
	 
 
 
 


          
        
            
            

        
    

    
    


    


    
        
        
        
        
        
        
        
            
            
        
        
        
        
         
                                
               





 

 



        

 




