
      
    
    

     
	 
	 
 SME.sk 
 Zľavy 
 Zoznámenie 
 Reality 
 Dovolenky 
 Pizza 
 Reštaurácie 
 Recenzie 
 Inzeráty 
 Naničmama 	 
Nákupy 
		 
 Filmy na DVD 
 Hodinky 
 Parfémy 
 SME knihy a DVD 
 Superhosting 
 Tlačiareň 
 Víno 
 Tvorba webov 
 Predplatné SME 
 ProSenior 		 
	 
	 
 
	 
 


    
    
        
        
         
          
         
    

    
      
         
            
             
     
        
        
     
    Blog.SME.sk
 

    

         
        
                 
     
         
            Sme.sk
         
         
            Domov
         
         
            Regióny
         
         
            Ekonomika
         
         
            Svet
         
         
            Komentáre
         
         
            Kultúra
         
         
            Šport
         
         
            TV
         
         
            Auto
         
         
            Tech
         
         
            Poradňa
         
         
            Žena
         
         
            Bývanie
         
         
            Zdravie
         
         
            Blog
         
     
 

         
            
     
                                                         Politika 
                                                                                     Spoločnosť 
                                                                                     Cestovanie 
                                                                                     Ekonomika 
                                                                                     Fotografie 
                                                                                     Jedlo 
                                                                                     Kultúra 
                                                                                             
Ďalšie
                             
                                                                                         Lifestyle 
                                                                                                                                                                             Médiá 
                                                                                                                                                                             Nezaradené 
                                                                                                                                                                             Súkromné 
                                                                                                                                                                             Šport 
                                                                                                                                                                             Veda a technika 
                                                                                                                                                                             Zábava 
                                                                                                                                                                             Poézia 
                                                                                                                                                                             Próza 
                                                                                                                                                                             Kódex blogera 
                                                                                 
                         
                                                 
            Blogeri
         
     


            

    
    Prihlásiť sa


    
    Založte si blog



    
    Odhlásiť sa


    
    




         

        
        
         
            
         
         
                
     
                 
            SME.sk &gt;
            Blog.SME.sk &gt;
                            Slavomír Repka
                                        &gt;
                Z pohľadu obchodníka
                     
                 Z pohľadu obchodníka 

        
            
                                    6.5.2010
            o
            14:17
                        |
            Karma článku:
                5.69
            |
            Prečítané 
            1327-krát
                    
         
     
         
             

                 
                    Na všetkom okolo sa prejavuje dnešná finančná kríza. Ale môžme niečo na zlepšenie urobiť aj sami, pričom nás to nebude nič stáť?  Ja si myslím, že môžme urobiť veľa, akurát to nebude mať okamžitý výsledok, ale čo je podstatné, udrží nás to na trhu a pomôže nám to prežiť ...
                 

                 Všade okolo počujeme, že je to zlé, horšie ako v minulom roku a možno to bude ešte horšie...   Ale opýtajte sa tých, od ktorých počujete práve tieto slová, čo robia preto, aby to zmenili a dostanete odpovede, znižujem náklady, znížil som platy, veľmi zvažujem, čo nové kúpim, musel som prepustiť ľudí, alebo budem musieť prepustiť ľudí, ....   Ale nikoho som nepočul povedať, že investoval, alebo chce investovať do svojich ľudí. Investovať do tých, ktorí "vytváraju" svojou prácou so zákazníkom hlavný príjem a tvoria dobré meno, ktoré je potrebné k prežitiu. Nikto (alebo iba málo) podnikateľov práve teraz zabúda na to podstatné, na ľudí, ktorí sú v priamom kontakte so zákazníkom a tvoria to podstatné, dobré meno spoločnosti.   Sú to ľudia, ktorí sú v prvej línii, ktorá rozhoduje o spokojnosti zákazníka s ich službou a tým pádom rozhodujú o tom, či sa zákazník k nim opätovne a rád vráti.   Kde sa ja opätovne a rád vraciam? Tam, kde dostanem to čo chcem kúpiť za reálnu cenu a k tomu niečo naviac. Príjemnú a slušnú obsluhu (úsmev nikdy nevadí), čisté prostredie, ochotu poradiť (nutnosť znalosti sortimentu),...   Pokračovanie na budúce   Foto: google 

                 
                                        
                        
                        Zdieľať
                    

                    
                            
                                    
                                    Zdieľať na
                            
                             
                                    
                             
                    

                                                                                                                        
                            
                            Diskusia: (5)
                        
                    
                    
                        
                        Zvýšte karmu
                    
                 
             

                             
            
                     
                         Ďalšie články blogera 
                         
                                                             
                                    
                    	                                                                                        

                                                                        
                                    
                                        Slavomír Repka 
                                        
                                            Ficova kvázi demisia je bohapustá vyhrážka
                                        
                                    
                                 
                                                             
                                    
                                                                                                    

                                                                        
                                    
                                        Slavomír Repka 
                                        
                                            Kam smeruje slovensko s vládou SMER-u
                                        
                                    
                                 
                                                             
                                    
                                                                                                    

                                                                        
                                    
                                        Slavomír Repka 
                                        
                                            Vrana k vrane sadá, alebo voľby sa blížia
                                        
                                    
                                 
                                                             
                                    
                                                                                                    

                                                                        
                                    
                                        Slavomír Repka 
                                        
                                            Stanislav Šváby - môj starosta
                                        
                                    
                                 
                                                             
                                    
                    	                                                                                        

                                                                        
                                    
                                        Slavomír Repka 
                                        
                                            S Radom prichádza do éteru nová telenovela
                                        
                                    
                                 
                                                     
                        
                            Ďalšie články blogera: Slavomír Repka
                        
                     
            
                     
                         Ďalšie články z rubriky ekonomika 
                         
                                                             
                                    
                                                                                                                    

                                                                                                
                                    
                                        Michal Spišák 
                                        
                                            Podnikanie vysokých škôl a zamestnávanie študentov
                                        
                                    
                                 
                                                             
                                    
                                                            	                                                                                        

                                                                                                
                                    
                                        Marián Pilat 
                                        
                                            Komunálne voľby sa skončili, ale pre mňa sa všetko len začína
                                        
                                    
                                 
                                                             
                                    
                                                            	                                                                                        

                                                                                                
                                    
                                        Juraj Miškov 
                                        
                                            Gabžigovo?
                                        
                                    
                                 
                                                             
                                    
                                                            	                                                                                        

                                                                                                
                                    
                                        Alexander Ač 
                                        
                                            Nečakaný ropný šok
                                        
                                    
                                 
                                                             
                                    
                                                            	                                                                                        

                                                                                                
                                    
                                        Michal Spišák 
                                        
                                            Sociálne istoty pre mladých.
                                        
                                    
                                 
                                                     
                        
                            Ďalšie články z rubriky ekonomika
                        
                     
                 
            
                    
 
     Hlavné správy 
         
        
                                

        
         
            AKTUALIZOVANÉ O 20:00
             Rubeľ pocítil pád na dno, Rusko je vo finančnej kríze 
             Dolár včera stál už takmer 80 rubľov, pod hladinu ho tlačia najmä nízke ceny ropy. 
         
     
         
        
                                

        
         
            ZAHRANIČIE
             Taliban zaútočil na citlivé miesto Pakistanu. Na deti 
             Taliban zabil v škole v Pakistane najmenej 141 ľudí, väčšinou deti. 
         
     
         
        
                                

        
         
            KOMENTARE.SME.SK
             Cynická obluda: Medzičasom na opustenom ostrove 
             Stroskotanci majú veľké šťastie, že sú dvaja. Lacné vtipy na úrovni ich autora. 
         
     
     

                 
     
    
     
        
 

     
                
                            
                    



         
            
                Slavomír Repka
            
         
        repka.blog.sme.sk (rss)
         
                                     
     
         Nezaujíma ma, koľko stojí liter benzínu. 
Zaujíma ma, koľko zarábam ja. 
(kurňa, ten benzín je ale drahý) 

 V roku 2005 (február) som na blogu SME začínal článkom PAŠTEKÁRI 

 Viac o mne a mojej práci nájdete na týchto stránkach 

 Pozrite si aj ODPORÚČAME.EÚ prípadne poďte sem publikovať. 

 Obývam krásnu časť zeme, nazývanú Slovensko. Bývam v dosahu hlavného mesta, ale aj hory a vodu mám blízko.  
Mimo rečou som východniar ;-), paštekár.... 

 Résumé môjho "NAJ" na blogu SME nájtete TU 
        
     
     
                     
                                                        
                        
                    
                                                        
                        
                    
                                                        
                        
                    
                                                        
                        
                    
                             
             

     
        
            
                
                    Počet článkov
                    533
                
                
                    Celková karma
                    
                                                14.56
                    
                
                
                    Priemerná čítanosť
                    2579
                
            
        
     

             

             Zoznam rubrík 
            
             
                                     
                        
                            Z pohľadu obchodníka
                        
                     
                                     
                        
                            PRE Consulting
                        
                     
                                     
                        
                            CESTOVNÝ RUCH
                        
                     
                                     
                        
                            postrehy z ciest
                        
                     
                                     
                        
                            osobný názor
                        
                     
                                     
                        
                            pohľady
                        
                     
                                     
                        
                            Analýzy
                        
                     
                                     
                        
                            AUTO - test
                        
                     
                                     
                        
                            Súkromné
                        
                     
                                     
                        
                            Nezaradené
                        
                     
                             
         
    

                     
                        
                                                            
                     Obľúbené články 
                    
                     
                                                 
                                            Súťaž
                                     
                                                                             
                                            ODPORÚČAME.EÚ
                                     
                                                                             
                                            Paštekári
                                     
                                                                             
                                            Jahodná
                                     
                                                                   
                     Obľúbené stránky 
                    
                     
                                                 
                                            Aplikácia
                                     
                                                                             
                                            Rezervy vo firmách
                                     
                                                                             
                                            Najlepší obchodník
                                     
                                                                             
                                            Mystery shopping
                                     
                                                                             
                                            Dobré čítanie
                                     
                            
             
         
            

             
             Čo ma zaujalo 
            Týmto článkom bloger klikol/klikla na karmu.
             
                                                         
                       Špina, bezpečnosť a tichá(?) koalícia SMER - SDKÚ v Starom meste
                     
                                                         
                       Osudové okamžiky
                     
                                                         
                       Zamyslenie nad jedným Rozsudkom v mene Slovenskej republiky
                     
                                                         
                       Stanislav Šváby - môj starosta
                     
                                                         
                       Slovakia Ring 24hod: Aké to je atakovať takmer 800 kilometrov na bicykli za jediný deň?
                     
                                                         
                       Pinocchio, čo sa už nezmestí do parlamentu
                     
                                                         
                       Bratislava chce opäť zlegalizovať 400 billbordov
                     
                                                         
                       S Radom prichádza do éteru nová telenovela
                     
                                                         
                       Keď plynár má lepšiu províziu za predaj elektriny
                     
                                                         
                       Zpráva ze života malých šestiletých hominidů
                     
                             
         
           
     Pošlite odkaz blogerovi 
    
         
            
         

         
         
         
         

         
         
Odosielateľ (e-mail)
 
         
Text
 
         
             
Protispamová ochrana 
 
 Zle. Skúste znova. 
Opíšte slová z obrázku: Načítať iné slová 
 Get an image CAPTCHA 
 
 
         
                 
            
         
    
  


 

     






            
    
        
    
 

        
         
         
             Už ste čítali? 
         
         
 

 kultura.sme.sk 
 Margaréta sa spriahla s diablom, no mala Kristovu pravdu 
 
 

 www.sme.sk 
 Pútnické miesta The Beatles alebo ako ľudia kráčajú po zebre 
 
 

 cestovanie.sme.sk 
 Lovia za svitania a v hmle 
 
 

 www.sme.sk 
 Ako sa valila lavína slobody. Ako padal komunizmus 
 
 

 kultura.sme.sk 
 Žiadne retro, poriadny biznis. Takto sa lisuje platňa 
 
	   
 


        
         
            
         

     

    
     
 
 
	 

		Kontakty
		Predplatné
		Etický kódex
		Pomoc
		Mapa stránky
		
	 
 
 
	 
		 
			Widget
			RSS
			Newsletter
		 
		 
			Mobil
			Smartphone
			Kindle
			Televízor
		 
		 
			Facebook
			Twitter
			Google+
		 
	 
	 
		
	 
	 
		Ďalšie weby skupiny: Prihlásenie do Post.sk
		Új Szó Slovak Spectator
		Agentúrne správy 
		Vydavateľstvo
		Inzercia
		Osobné údaje
		Návštevnosť webu
		Predajnosť tlače
		Petit Academy
		SME v škole 		© Copyright 1997-2014 Petit Press, a.s. 
	 
 
 
 


          
        
            
            

        
    

    
    


    


    
        
        
        
        
        
        
        
            
            
        
        
        
        
         
                                
               





 

 



        

 




