
      
    
    

     
	 
	 
 SME.sk 
 Zľavy 
 Zoznámenie 
 Reality 
 Dovolenky 
 Pizza 
 Reštaurácie 
 Recenzie 
 Inzeráty 
 Naničmama 	 
Nákupy 
		 
 Filmy na DVD 
 Hodinky 
 Parfémy 
 SME knihy a DVD 
 Superhosting 
 Tlačiareň 
 Víno 
 Tvorba webov 
 Predplatné SME 
 ProSenior 		 
	 
	 
 
	 
 


    
    
        
        
         
          
         
    

    
      
         
            
             
     
        
        
     
    Blog.SME.sk
 

    

         
        
                 
     
         
            Sme.sk
         
         
            Domov
         
         
            Regióny
         
         
            Ekonomika
         
         
            Svet
         
         
            Komentáre
         
         
            Kultúra
         
         
            Šport
         
         
            TV
         
         
            Auto
         
         
            Tech
         
         
            Poradňa
         
         
            Žena
         
         
            Bývanie
         
         
            Zdravie
         
         
            Blog
         
     
 

         
            
     
                                                         Politika 
                                                                                     Spoločnosť 
                                                                                     Cestovanie 
                                                                                     Ekonomika 
                                                                                     Fotografie 
                                                                                     Jedlo 
                                                                                     Kultúra 
                                                                                             
Ďalšie
                             
                                                                                         Lifestyle 
                                                                                                                                                                             Médiá 
                                                                                                                                                                             Nezaradené 
                                                                                                                                                                             Súkromné 
                                                                                                                                                                             Šport 
                                                                                                                                                                             Veda a technika 
                                                                                                                                                                             Zábava 
                                                                                                                                                                             Poézia 
                                                                                                                                                                             Próza 
                                                                                                                                                                             Kódex blogera 
                                                                                 
                         
                                                 
            Blogeri
         
     


            

    
    Prihlásiť sa


    
    Založte si blog



    
    Odhlásiť sa


    
    




         

        
        
         
            
         
         
                
     
                 
            SME.sk &gt;
            Blog.SME.sk &gt;
                            Jozef Červeň
                                        &gt;
                Spoločnosť
                     
                 Viem, prečo padol Orange :-) 

        
            
                                    4.2.2010
            o
            11:06
                        (upravené
                4.2.2010
                o
                11:22)
                        |
            Karma článku:
                13.68
            |
            Prečítané 
            7453-krát
                    
         
     
         
             

                 
                    Medzi najbližšími spolupracovníkmi vo farnosti som spomenul, že prechádzam do O2, aby vedeli, že ak mi budú volať ohľadom nejakých plánovaných podujatí vo farnosti, že mi už teraz volajú cez iného operátora. Včera po svätej omši ma zastavili a povedali mi: "Ta, pan farar, nerobce take veci! Skoro caly dzeň sme še nemohli nikdze dovolac! Sme neznali, že jeden farar može take sposobic." Samozrejme to mysleli žartom a dobre sme sa na tom nasmiali. Ja som na to len poznamenal, že si budem dobre pamätať na deň, kedy som odišiel z Orange, bolo to vtedy, kedy im na celom Slovensku padol systém. Skutočný dôvod padnutia systému som pochopil až dnes po otvorení mailov. Stalo sa niečo neslýchané. Prišla mi faktúra z Orange. Zaujímavá...
                 

                 
  
  Bol to dobropis. Posielajú mi späť časť zálohy na ďalší mesiac. Po mnohých rokoch verného zákazníčenia v Orange sa mi stalo po prvý krát, že by mi poslali peniaze. Veď to je na šľaktrafenie. Ľudia to ešte zvládnu, čo však systém zvyknutý na jednosmerný tok peňazí. Veď to muselo byť niečo podobné ako pokus obrátiť v urýchľovači tok častíc na opačnú stranu. To supravodivé magnety nemôžu ustáť. Chcem sa ospravedlniť všetkým verným zákazníkom Orange za spôsobenú ujmu ak som na nej mal podiel. Dúfam, že technikom sa celý systém podarilo dať opäť do poriadku, a že opravili aj chybné nastavenie systému. V nastavení systému by sa nemalo zabúdať na zákazníka. :-)

                 
                                        
                        
                        Zdieľať
                    

                    
                            
                                    
                                    Zdieľať na
                            
                             
                                    
                             
                    

                                                                                                                        
                            
                            Diskusia: (24)
                        
                    
                    
                        
                        Zvýšte karmu
                    
                 
             

                             
            
                     
                         Ďalšie články blogera 
                         
                                                             
                                    
                    	                                                                                        

                                                                        
                                    
                                        Jozef Červeň 
                                        
                                            Fico vymetá všetky kúty aj v osadách...
                                        
                                    
                                 
                                                             
                                    
                    	                                                                                        

                                                                        
                                    
                                        Jozef Červeň 
                                        
                                            Budú Fica oblizovať aj zozadu?
                                        
                                    
                                 
                                                             
                                    
                    	                                                                                        

                                                                        
                                    
                                        Jozef Červeň 
                                        
                                            Napíš europoslancovi, nech neblbne...
                                        
                                    
                                 
                                                             
                                    
                    	                                                                                        

                                                                        
                                    
                                        Jozef Červeň 
                                        
                                            Ukrajina potrebuje EÚ ale aj EÚ potrebuje Ukrajinu...
                                        
                                    
                                 
                                                             
                                    
                    	                                                                                        

                                                                        
                                    
                                        Jozef Červeň 
                                        
                                            Skončí postávanie pred kostolom?
                                        
                                    
                                 
                                                     
                        
                            Ďalšie články blogera: Jozef Červeň
                        
                     
            
                     
                         Ďalšie články z rubriky spoločnosť 
                         
                                                             
                                    
                                                            	                                                                                        

                                                                                                
                                    
                                        Kristián Straka 
                                        
                                            Nebite ma, doktor Plzák... alebo POZVANIE NA VEČERU
                                        
                                    
                                 
                                                             
                                    
                                                            	                                                                                        

                                                                                                
                                    
                                        Kristián Straka 
                                        
                                            Oklamaní Ježiškom ?
                                        
                                    
                                 
                                                             
                                    
                                                            	                                                                                        

                                                                                                
                                    
                                        Milan Buno 
                                        
                                            Šup, šup, najesť sa. A utekať!
                                        
                                    
                                 
                                                             
                                    
                                                            	                                                                                        

                                                                                                
                                    
                                        Katarína Lorenčíková 
                                        
                                            Par uprimnych oslobodzujucich riadkov...
                                        
                                    
                                 
                                                             
                                    
                                                            	                                                                                        

                                                                                                
                                    
                                        Alžbeta Slováková Spáčilová 
                                        
                                            Selfie s nádychom hyenizmu a krutosti
                                        
                                    
                                 
                                                     
                        
                            Ďalšie články z rubriky spoločnosť
                        
                     
                 
            
                    
 
     Hlavné správy 
         
        
                                

        
         
            AKTUALIZOVANÉ 16:00
             Rubeľ kolabuje, ruská vláda má mimoriadne rokovať 
             Jeden dolár stál v utorok poobede už viac ako 78 rubľov, razantné zvýšenie úrokov nepomohlo. 
         
     
         
        
                                

        
         
            ZAHRANIČIE
             Taliban zabil v škole v Pakistane vyše sto ľudí, väčšinou deti 
             Militanti vtrhli do vojenskej školy v policajných rovnošatách. 
         
     
         
        
                                

        
         
            KOMENTARE.SME.SK
             Cynická obluda: Medzičasom na opustenom ostrove 
             Stroskotanci majú veľké šťastie, že sú dvaja. Lacné vtipy na úrovni ich autora. 
         
     
     

                 
     
    
     
        
 

     
                
                            
                    



         
            
                Jozef Červeň
            
         
        cerven.blog.sme.sk (rss)
         
                        VIP
                             
     
        Mám rád život s Bohom a 7777 ľudí. S obľubou lietam v dobrej letke, no nerád lietam v kŕdli. Som katolícky kňaz, pochádzam z dediny Klin na Orave. Farár vo farnosti Rakúsy. (pri Kežmarku)
...........................................


        
     
     
                     
                             
             

     
        
            
                
                    Počet článkov
                    1475
                
                
                    Celková karma
                    
                                                0.00
                    
                
                
                    Priemerná čítanosť
                    3094
                
            
        
     

             

             Zoznam rubrík 
            
             
                                     
                        
                            BIRMOVANCI
                        
                     
                                     
                        
                            ŠTIPENDISTI
                        
                     
                                     
                        
                            7777 MYŠLIENOK PRE NÁROČNÝCH
                        
                     
                                     
                        
                            Aké mám povolanie?
                        
                     
                                     
                        
                            Akú mám povahu?
                        
                     
                                     
                        
                            Cesta viery
                        
                     
                                     
                        
                            Duchovné témy
                        
                     
                                     
                        
                            Fejtóny
                        
                     
                                     
                        
                            Fotografie prírody
                        
                     
                                     
                        
                            Fotografie Rómov
                        
                     
                                     
                        
                            História mojej rodnej obce
                        
                     
                                     
                        
                            Kniha o Rómoch
                        
                     
                                     
                        
                            Lunikovo
                        
                     
                                     
                        
                            Mladí vo firme
                        
                     
                                     
                        
                            Náčrt histórie slov. Saleziáno
                        
                     
                                     
                        
                            Nezaradené
                        
                     
                                     
                        
                            Pastorácia Rómov
                        
                     
                                     
                        
                            Poézia
                        
                     
                                     
                        
                            Pokec s Bohom
                        
                     
                                     
                        
                            Rómovia
                        
                     
                                     
                        
                            Sociálna práca
                        
                     
                                     
                        
                            Sociálna náuka Katolíckej cirk
                        
                     
                                     
                        
                            Spoločnosť
                        
                     
                                     
                        
                            Súkromné
                        
                     
                                     
                        
                            Vedeli sa obetovať
                        
                     
                                     
                        
                            Vzťah je cesta cez púšť
                        
                     
                                     
                        
                            Zábava
                        
                     
                             
         
    

                     
                        
                                                            
                     Obľúbené články 
                    
                     
                                                 
                                            Štipendium pre chudobné zodpovedné dieťa
                                     
                                                                             
                                            Prečo si firmy neudržia mladých ľudí?
                                     
                                                                             
                                            Dejiny mojej dediny
                                     
                                                                             
                                            Vzťah je cesta cez púšť
                                     
                                                                             
                                            Akú mám povahu?
                                     
                                                                             
                                            7777 MYŠLIENOK PRE NÁROČNÝCH
                                     
                                                                   
                     Obľúbené knihy 
                    
                     
                                                 
                                            Sociálny kódex Cirkvi - Raimondo Spiazzi
                                     
                                                                             
                                            Sociálna práca - Anna Tokárová a kolektív
                                     
                                                                   
                     Čo práve počúvam 
                    
                     
                                                 
                                            Free Download MP3 ruzenec
                                     
                                                                             
                                            MP3 ruženec
                                     
                                                                   
                     Obľúbené blogy 
                    
                     
                                                 
                                            Tomáš Krištofóry - katolícky liberál
                                     
                                                                             
                                            Peter Herman - realistický idealista
                                     
                                                                             
                                            Michal Hudec sa nebojí písať otvorene
                                     
                                                                             
                                            Mária Kohutiarová - žena, matka, človek
                                     
                                                                             
                                            Branislav Sepeši - lekár o etike
                                     
                                                                             
                                            Katrína Janíková - neobyčajne obyčajná baba
                                     
                                                                             
                                            Martin Šabo - šikovný redemptorista
                                     
                                                                             
                                            Juraj Drobny - veci medzi nebom a zemou
                                     
                                                                             
                                            Peter Pecuš a jeho postrehy zo života
                                     
                                                                             
                                            Miroslav Lettrich - svet, spoločnosť, hodnoty
                                     
                                                                             
                                            Karol Hradský - témy dnešných dní
                                     
                                                                             
                                            Salezián Robo Flamík hľadá viac
                                     
                                                                             
                                            Salezián Maroš Peciar - fajn chlap
                                     
                                                                             
                                            Motorka a cesty: Martin Dinuš
                                     
                                                                             
                                            Pavel Škoda chodí s otvorenými očami
                                     
                                                                             
                                            Ďuro Čižmárik a jeho mozaika maličkostí
                                     
                                                                             
                                            Paľo Medár a scientológovia
                                     
                                                                   
                     Obľúbené stránky 
                    
                     
                                                 
                                            Modlitba breviára
                                     
                                                                             
                                            Nezabíjajte deti!
                                     
                                                                             
                                            Občiansky denník
                                     
                                                                             
                                            Dunčo hľadaj
                                     
                                                                             
                                            Správy z Cirkvi
                                     
                                                                             
                                            Prvý kresťanský portál
                                     
                                                                             
                                            Lentus
                                     
                            
             
         
            

             
             Čo ma zaujalo 
            Týmto článkom bloger klikol/klikla na karmu.
             
                                                         
                       Voľby nemožno vyhrať kúpenými hlasmi najbiednejších Rómov!
                     
                                                         
                       Jednoduchý rozdiel medzi kandidátmi na prezidenta.
                     
                                                         
                       Doprajme Ficovi pokoru!
                     
                                                         
                       Fico vymetá všetky kúty aj v osadách...
                     
                                                         
                       tam kam Fico nemôže, TA3 mu pomôže
                     
                                                         
                       Vďakyvzdanie
                     
                                                         
                       Treba homofóbiu liečiť?
                     
                                                         
                       Procházka, Kňažko, Kiska... a jediný hlas
                     
                                                         
                       Napíš europoslancovi, nech neblbne...
                     
                                                         
                       Prezidentské voľby: Prečo budem voliť Procházku
                     
                             
         
           
     Pošlite odkaz blogerovi 
    
         
            
         

         
         
         
         

         
         
Odosielateľ (e-mail)
 
         
Text
 
         
             
Protispamová ochrana 
 
 Zle. Skúste znova. 
Opíšte slová z obrázku: Načítať iné slová 
 Get an image CAPTCHA 
 
 
         
                 
            
         
    
  


 

     






            
    
        
    
 

        
         
         
             Už ste čítali? 
         
         
 

 kultura.sme.sk 
 Margaréta sa spriahla s diablom, no mala Kristovu pravdu 
 
 

 www.sme.sk 
 Pútnické miesta The Beatles alebo ako ľudia kráčajú po zebre 
 
 

 cestovanie.sme.sk 
 Lovia za svitania a v hmle 
 
 

 www.sme.sk 
 Ako sa valila lavína slobody. Ako padal komunizmus 
 
 

 kultura.sme.sk 
 Žiadne retro, poriadny biznis. Takto sa lisuje platňa 
 
	   
 


        
         
            
         

     

    
     
 
 
	 

		Kontakty
		Predplatné
		Etický kódex
		Pomoc
		Mapa stránky
		
	 
 
 
	 
		 
			Widget
			RSS
			Newsletter
		 
		 
			Mobil
			Smartphone
			Kindle
			Televízor
		 
		 
			Facebook
			Twitter
			Google+
		 
	 
	 
		
	 
	 
		Ďalšie weby skupiny: Prihlásenie do Post.sk
		Új Szó Slovak Spectator
		Agentúrne správy 
		Vydavateľstvo
		Inzercia
		Osobné údaje
		Návštevnosť webu
		Predajnosť tlače
		Petit Academy
		SME v škole 		© Copyright 1997-2014 Petit Press, a.s. 
	 
 
 
 


          
        
            
            

        
    

    
    


    


    
        
        
        
        
        
        
        
            
            
        
        
        
        
         
                                
               





 

 



        

 




