
      
    
    

     
	 
	 
 SME.sk 
 Zľavy 
 Zoznámenie 
 Reality 
 Dovolenky 
 Pizza 
 Reštaurácie 
 Recenzie 
 Inzeráty 
 Naničmama 	 
Nákupy 
		 
 Filmy na DVD 
 Hodinky 
 Parfémy 
 SME knihy a DVD 
 Superhosting 
 Tlačiareň 
 Víno 
 Tvorba webov 
 Predplatné SME 
 ProSenior 		 
	 
	 
 
	 
 


    
    
        
        
         
          
         
    

    
      
         
            
             
     
        
        
     
    Blog.SME.sk
 

    

         
        
                 
     
         
            Sme.sk
         
         
            Domov
         
         
            Regióny
         
         
            Ekonomika
         
         
            Svet
         
         
            Komentáre
         
         
            Kultúra
         
         
            Šport
         
         
            TV
         
         
            Auto
         
         
            Tech
         
         
            Poradňa
         
         
            Žena
         
         
            Bývanie
         
         
            Zdravie
         
         
            Blog
         
     
 

         
            
     
                                                         Politika 
                                                                                     Spoločnosť 
                                                                                     Cestovanie 
                                                                                     Ekonomika 
                                                                                     Fotografie 
                                                                                     Jedlo 
                                                                                     Kultúra 
                                                                                             
Ďalšie
                             
                                                                                         Lifestyle 
                                                                                                                                                                             Médiá 
                                                                                                                                                                             Nezaradené 
                                                                                                                                                                             Súkromné 
                                                                                                                                                                             Šport 
                                                                                                                                                                             Veda a technika 
                                                                                                                                                                             Zábava 
                                                                                                                                                                             Poézia 
                                                                                                                                                                             Próza 
                                                                                                                                                                             Kódex blogera 
                                                                                 
                         
                                                 
            Blogeri
         
     


            

    
    Prihlásiť sa


    
    Založte si blog



    
    Odhlásiť sa


    
    




         

        
        
         
            
         
         
                
     
                 
            SME.sk &gt;
            Blog.SME.sk &gt;
                            Eduard Kladiva
                                        &gt;
                Mikrokozmos
                     
                 Koniec sveta tak skoro nebude 

        
            
                                    9.7.2008
            o
            19:30
                        |
            Karma článku:
                13.64
            |
            Prečítané 
            6425-krát
                    
         
     
         
             

                 
                     
  Okolo najväčšieho vedeckého experimentu sveta - projektu LHC (Large Hadron Collider) v CERN pri Ženeve – sa naďalej šíria fámy a bulvárne informácie. Podľa serveru lhcountdown.com, ktorý ale nemá žiadny vzťah k projektu LHC ani k CERN, mal byť urýchľovač LHC spustený práve včera, 8. júla. Táto dezinformácia pomýlila aj viaceré média, predovšetkým v Rusku, ktoré ohlásili spustenie urýchľovača a niektoré aj koniec sveta.  
                

                  Popularitu dňu spustenia LHC zabezpečili viacerí tvorcovia senzácií, ktorí rozšírili vo verejnosti fámu, že pri zrážkach častíc v urýchľovači LHC dôjde k vzniku miniatúrnych čiernych dier, ktoré sa môžu rozrásť a pohltiť celú Zem, ba dokonca celý vesmír. Súd v americkom Honolulu dokonca prijal ich žalobu proti CERN a americkým vedeckým organizáciám, v ktorej požadujú predbežné zastavenie projektu LHC. Vďaka bulvárnym informáciám sa o projekte LHC diskutuje nielen na najrôznejších internetových blogoch, ale aj v kuchyniach, či u kaderníka. Katastrofisti opäť raz strhli pozornosť na svoju stranu.        Serióznej informácii sa venuje menšia pozornosť, lebo zväčša postráda nádych senzácie. Vedci už pred mesiacom reagovali na katastrofické predpovede vypracovaním podrobnej vedeckej správy, podľa ktorej preskúmali proces vzniku miniatúrnych čiernych dier a ukázali, že nepredstavujú pre Zem žiadne nebezpečenstvo. Podobné čierne diery mohli vznikať na Zemi aj minulosti – zemský povrch je totiž miliardy rokov bombardovaný kozmickými časticami, ktoré majú mnohonásobne väčšiu energiu, akú dosiahnu častice na urýchľovači LHC a naša planéta stále existuje.         Miniatúrne čierne diery, ktoré môžu s istou pravdepodobnosťou vzniknúť v zrážkach protónov, sú totiž odlišné od makroskopických čiernych dier známych z vesmíru. Podľa vedcov z CERN sa miniatúrne čierne diery vo veľmi krátkej dobe vyparia a premenia na častice, ktoré sa rozprsknú do priestoru. Zrážky častíc na urýchľovači LHC budú podobné stavu nášho vesmíru krátko po jeho vzniku - keby v týchto zrážkach vznikali stabilné čierne diery schopné zožrať náš vesmír, spravili by to už počas vzniku vesmíru a náš vesmír v súčasnej podobe by nikdy nevznikol.         Supravodivé magnety čakajú na inštaláciu (Foto E.Kladiva)      Výskumný projekt LHC obsahuje kruhový urýchľovač nabitých častíc (protónov, prípadne ťažkých iónov) a experimentálne zariadenia, ktoré budú analyzovať reakcie v miestach zrážok urýchlených častíc. Na dvoch z nich, ATLAS a ALICE, sa priamo podieľajú slovenské vedecké inštitúcie. Cieľom projektu je preveriť základné modely vesmíru, skúmať stav hmoty krátko po vzniku nášho vesmíru a objaviť nové neznáme častice.         Renilde Vanden Broecková z Tlačového oddelenia CERN poskytla včera vysvetlenie ruskej agentúre MK.RU, v ktorom vyjadrila údiv nad správami médií o spustení urýchľovača LHC 8. júla 2008. Potvrdila, že dátum technického uvedenia urýchľovača do prevádzky (má sa na mysli prebehnutie prvého zväzku častíc celým urýchľovačom) zatiaľ nebol definitívne stanovený. Vedci a technici v CERN pokračujú v odlaďovaní jednotlivých uzlov a riešia menšie technické problémy, ktoré sa zákonite objavujú počas priebežných testov. Predbežne plánujú stanoviť dátum technického uvedenia do prevádzky až koncom augusta alebo začiatkom septembra tohto roku.         Pohľad do tunela urýchľovača (Foto CERN)      Oficiálna procedúra uvedenia LHC do prevádzky je stanovená na 21. októbra 2008 na slávnostnej ceremónii za účasti vrcholných  predstaviteľov členských štátov CERN a účastníkov experimentálneho programu LHC. Technické uvedenie do prevádzky je ale dlhodobý postupný proces s množstvom testov jednotlivých uzlov aparatúry. Sledovať ho možno priebežne na serveri http://lhc.web.cern.ch/      Súčasťou urýchľovača LHC je séria supravodivých magnetov, celkovo 1800, účelom ktorých je viesť letiace častice po veľmi presnej dráhe blízkej kruhovej. Tieto magnety pracujú pri teplote blízkej teplote absolútnej nuly, pri -271 °C. Ochladenie magnetov na prevádzkovú teplotu trvá minimálne 4 týždne. V súčasnosti je urýchľovač LHC práve vo fáze ochladzovania magnetov na prevádzkovú teplotu. O aktuálnom postupe ochladzovania informuje stránka http://lhc.web.cern.ch/lhc/Cooldown_status.htm      Postup ochladzovania magnetov LHC po sektoroch (svetlomodrá na teplote 1.9 K, modrá na teplote 20-4.5 K, tmavomodrá na teplote  80-20 K)      Až keď budú magnety na prevádzkovej teplote (posledné sektory magnetov budú ochladené až koncom júla), môže začať testovanie napájania magnetov a následne odlaďovanie zväzku častíc. Odlaďovanie zväzku bude prebiehať postupne, po jednotlivých sektoroch magnetov. V súčasnosti sa diskutuje niekoľko variant odlaďovania, napríklad či štartovať od uzla Point 8 k detektoru LHCb, alebo v sektore 6-7. Vlastné odlaďovanie bude zahájené začiatkom augusta. V procese odlaďovania budú do línie magnetov vstrelené protóny a magnety budú nastavené na prevádzkové hodnoty tak, aby zväzok častíc viedli celým sektorom podľa vyprojektovanej dráhy. Po odladení jedného sektora môže začať odlaďovanie následného sektora. V ďalšej etape prebehne odlaďovanie zväzku letiaceho opačným smerom.         Prvé zrážky protónov s energiou 10 TeV možno očakávať najskôr za 2 mesiace od začiatku odlaďovania zväzku. Zrážok častíc s projektovanou hodnotou energie 14 TeV sa dočkáme až v priebehu roku 2009.   Medzitým pokračuje príprava a testovanie hlavných detektorov ATLAS a CMS. Konkrétne na experimente ATLAS, na ktorom sa podieľa aj Slovensko, sa v najbližších dňoch uskutoční tzv. M8 week, v priebehu ktorého sa bude testovať súčinnosť jednotlivých detektorov častíc a ich čítacej elektroniky pomocou častíc z kozmu. Detektor ALICE, ďalší z detektorov so slovenskou účasťou, tiež úspešne zahájil testovanie jednotlivých uzlov aparatúry.        Deň, kedy bude najväčší urýchľovač sveta uvedený do prevádzky, sa blíži, ale koniec sveta predpovedaný niektorými „vedcami“ a novinármi pri jeho uvedení do prevádzky nebude.             Publikované v rámci projektu LPP-0181-07 Agentúry na podporu výskumu a vývoja SR   

                 
                                        
                        
                        Zdieľať
                    

                    
                            
                                    
                                    Zdieľať na
                            
                             
                                    
                             
                    

                                                                                                                        
                            
                            Diskusia: (54)
                        
                    
                    
                        
                        Zvýšte karmu
                    
                 
             

                             
            
                     
                         Ďalšie články blogera 
                         
                                                             
                                    
                    	                                                                                        

                                                                        
                                    
                                        Eduard Kladiva 
                                        
                                            Slovenský prezident v špičkovom výskumnom centre
                                        
                                    
                                 
                                                             
                                    
                    	                                                                                        

                                                                        
                                    
                                        Eduard Kladiva 
                                        
                                            Objavili v CERNe Higgsov bozón alebo neobjavili?
                                        
                                    
                                 
                                                             
                                    
                    	                                                                                        

                                                                        
                                    
                                        Eduard Kladiva 
                                        
                                            Zopár výročí na 1. decembra 2011
                                        
                                    
                                 
                                                             
                                    
                    	                                                                                        

                                                                        
                                    
                                        Eduard Kladiva 
                                        
                                            Pred polstoročím sme videli koniec sveta
                                        
                                    
                                 
                                                             
                                    
                    	                                                                                        

                                                                        
                                    
                                        Eduard Kladiva 
                                        
                                            Fridtjof Nansen – univerzálna osobnosť
                                        
                                    
                                 
                                                     
                        
                            Ďalšie články blogera: Eduard Kladiva
                        
                     
            
                     
                         Ďalšie články z rubriky veda a technika 
                         
                                                             
                                    
                                                            	                                                                                        

                                                                                                
                                    
                                        Mária Džunková 
                                        
                                            Prečo vôbec nevadí, ak nemáte DNA sekvenátor
                                        
                                    
                                 
                                                             
                                    
                                                            	                                                                                        

                                                                                                
                                    
                                        Jana K. Jones 
                                        
                                            Filozofia vedy - Čo, podľa Poppera, veda dokazuje?
                                        
                                    
                                 
                                                             
                                    
                                                            	                                                                                        

                                                                                                
                                    
                                        MUDr. Peter Žiak, PhD. 
                                        
                                            Prečo si niekedy nevšimneme červenú?
                                        
                                    
                                 
                                                             
                                    
                                                            	                                                                                        

                                                                                                
                                    
                                        Jana K. Jones 
                                        
                                            Filozofia vedy - kritérium falzifikovateľnosti podľa Karla Poppera
                                        
                                    
                                 
                                                             
                                    
                                                                                                                    

                                                                                                
                                    
                                        Miroslav Lisinovič 
                                        
                                            Tatra 87
                                        
                                    
                                 
                                                     
                        
                            Ďalšie články z rubriky veda a technika
                        
                     
                 
            
                    
 
     Hlavné správy 
         
        
                                

        
         
            AKTUALIZOVANÉ 16:00
             Rubeľ kolabuje, ruská vláda má mimoriadne rokovať 
             Jeden dolár stál v utorok poobede už viac ako 78 rubľov, razantné zvýšenie úrokov nepomohlo. 
         
     
         
        
                                

        
         
            ZAHRANIČIE
             Taliban zabil v škole v Pakistane vyše sto ľudí, väčšinou deti 
             Militanti vtrhli do vojenskej školy v policajných rovnošatách. 
         
     
         
        
                                

        
         
            KOMENTARE.SME.SK
             Cynická obluda: Medzičasom na opustenom ostrove 
             Stroskotanci majú veľké šťastie, že sú dvaja. Lacné vtipy na úrovni ich autora. 
         
     
     

                 
     
    
     
        
 

     
                
                            
                    



         
            
                Eduard Kladiva
            
         
        kladiva.blog.sme.sk (rss)
         
                        VIP
                             
     
        robotník vo vede, dobrodruh na dôchodku, insitný fotograf, papučový jaskyniar, teoretický romantik.
 
 
 Jednou vetou na Twitteri 
 
 
 


        
     
     
                     
                                                        
                        
                    
                                                        
                        
                    
                                                        
                        
                    
                             
             

     
        
            
                
                    Počet článkov
                    52
                
                
                    Celková karma
                    
                                                0.00
                    
                
                
                    Priemerná čítanosť
                    3878
                
            
        
     

             

             Zoznam rubrík 
            
             
                                     
                        
                            Mikrokozmos
                        
                     
                                     
                        
                            LHC a CERN
                        
                     
                                     
                        
                            Udalosti vo vede
                        
                     
                                     
                        
                            Svet vzdelávania
                        
                     
                                     
                        
                            Podzemný svet
                        
                     
                                     
                        
                            Košické zaujímavosti
                        
                     
                                     
                        
                            Dotyky s umením
                        
                     
                                     
                        
                            Výlety do minulosti
                        
                     
                                     
                        
                            Svet úvah
                        
                     
                                     
                        
                            Súkromné
                        
                     
                                     
                        
                            Nezaradené
                        
                     
                             
         
    

                     
                        
                                                            
                     Obľúbené články 
                    
                     
                                                 
                                            Superpočítač předpovídá „kosmické počasí“
                                     
                                                                             
                                            Vedecké umenie - umelecká veda
                                     
                                                                             
                                            Jaderná energetika v roce 2011
                                     
                                                                             
                                            Termojaderná fúze má patřit k prioritám vědeckého výzkumu
                                     
                                                                             
                                            3D tvary skládané světlem
                                     
                                                                             
                                            Slovenská veda môže prísť o stovky miliónov eu
                                     
                                                                             
                                            Poslední minuty Tevatronu
                                     
                                                                             
                                            Noc výskumníkov v Košiciach
                                     
                                                                             
                                            Pocta košickému vedcovi- keramikovi
                                     
                                                                             
                                            Je temná hmota pouhou iluzí z kvantového vakua?
                                     
                                                                             
                                            Krteček a temná hmota
                                     
                                                                             
                                            Erwin Schrödinger
                                     
                                                                             
                                            99,97% koncentrát temné hmoty
                                     
                                                                             
                                            Další přímý důkaz existence temné hmoty
                                     
                                                                             
                                            Jak polapit pozitronium
                                     
                                                                             
                                            EDU | One, nový informační systém pro VŠ zdarma
                                     
                                                                             
                                            Jaderná elektrárna Dukovany prošla bezpečnostní prověrkou
                                     
                                                                             
                                            WiggleZ podpořil koncept temné energie
                                     
                                                                             
                                            Schváleno: V Brně bude evropské vědecké centrum CEITEC
                                     
                                                                             
                                            Nové nejtěžší prvky v periodické tabulce
                                     
                                                                             
                                            Američané se Fukušimy nebojí, jaderná energie v USA jede dál
                                     
                                                                             
                                            Varování všem popularizátorům vědy
                                     
                                                                             
                                            Velká veda - Česko, Maďarsko, Rumunsko
                                     
                                                                             
                                            Německé odstoupení od jádra už je jasné
                                     
                                                                             
                                            Nečekaný zvrat. Kvůli EU jsou ohroženy Temelín a Dukovany
                                     
                                                                             
                                            Za klimatickými změnami může být pohyb Slunce
                                     
                                                                             
                                            Nový rekord v rychlosti přenesených dat
                                     
                                                                             
                                            Prírodná ochrana pred rádioaktivitou
                                     
                                                                             
                                            Kozmické žiarenie pomáha tvoriť oblaky
                                     
                                                                             
                                            Kam s tím krtkem?
                                     
                                                                             
                                            Čeští učitelé opět v laboratoři CERN
                                     
                                                                             
                                            Soutěž o nejzajímavější fotografii lednového zatmění Slunce 2011
                                     
                                                                             
                                            Z Hawkingovy Stručné historie času bude opera
                                     
                                                                             
                                            Pavol Kočiš: Zanikne aj Dobšinská ľadová jaskyňa
                                     
                                                                             
                                            95. vyročie obecnej teórie relativity
                                     
                                                                             
                                            Ig Nobelovy ceny 2010
                                     
                                                                             
                                            Budeme opravdu přepisovat učebnice?
                                     
                                                                             
                                            Učená spoločnosť SAV k situácii s rozpočtom Akadémie
                                     
                                                                             
                                            Přesný pohled do nitra molekul
                                     
                                                                             
                                            Ve věku 71 let zemřel Jiří Niederle
                                     
                                                                             
                                            Atóm prichádza opäť do módy
                                     
                                                                             
                                            Lovci kosmického záření (z Fyzikálu v Praze)
                                     
                                                                             
                                            Jaromír Pastorek: Do vedy na Slovensku treba investovať
                                     
                                                                             
                                            Globální renesance jaderné energie na obzoru
                                     
                                                                             
                                            Článok o podvodoch vo vede
                                     
                                                                             
                                            Verím, že nie sme vo vesmíre sami
                                     
                                                                             
                                            Cesta k vědě
                                     
                                                                             
                                            Chceme nájsť niečo, o čom nič nevieme
                                     
                                                                             
                                            Zdroj synchrotrónového žiarenia postavia v Poľsku
                                     
                                                                             
                                            Podivnosti kvantového světa
                                     
                                                                             
                                            Přijde vesmír o temné tajemství?
                                     
                                                                             
                                            Asymetrie mezi hmotou a antihmotou
                                     
                                                                             
                                            První přímé pozorování oscilace mionového neutrina na tauonové
                                     
                                                                             
                                            Experiment Atlas v Třetí dimenzi
                                     
                                                                             
                                            Konto Míša, Gama nůž a Perfexion: karty na stůl
                                     
                                                                             
                                            Oscilace neutrin – cesta k nové fyzice
                                     
                                                                             
                                            Temný proud opět na scéně ...
                                     
                                                                             
                                            Objev prvku 117 oficiálně potvrzen
                                     
                                                                             
                                            Protónový urýchľovač vo vojenskej nemocnici v Ružomberku
                                     
                                                                             
                                            O Velkém třesku, černých dírách, temné hmotě a jiné zvířeně
                                     
                                                                             
                                            Povinná maturita z matematiky !? (6 článkov))
                                     
                                                                             
                                            Dlouhá evropská cesta k jaderné syntéze
                                     
                                                                             
                                            Kvark-gluonové plazma - nejžhavější známá forma hmoty
                                     
                                                                             
                                            Jadrový fyzik o politike
                                     
                                                                             
                                            VĚDA: Veřejnost by se měla bránit
                                     
                                                                             
                                            Další velmi exotický obyvatel antihmotné ZOO
                                     
                                                                             
                                            Proč jsou (mladí) intelektuálové většinou příznivci „pravice“?
                                     
                                                                             
                                            Seriál Ekonomická situace SSSR v průběhu 1941-42
                                     
                                                                             
                                            Phil Jones přiznává: od roku 1995 globální oteplování neexistuje
                                     
                                                                             
                                            Měření teploty ozonové vrstvy pomocí detektoru neutrin
                                     
                                                                             
                                            Jak neutrina lovit – detektory neutrin
                                     
                                                                             
                                            Climategate: pohľad do zákulisia vedeckého konsenzu
                                     
                                                                             
                                            Kde všude vznikají neutrina?
                                     
                                                                             
                                            CERN hostil slovenských študentov
                                     
                                                                             
                                            Čeští vědci připravují obří laser
                                     
                                                                             
                                            Hokejkový graf čelí novému skandálu
                                     
                                                                             
                                            Mikolajov model financovania vedy zabudol na základný výskum
                                     
                                                                             
                                            Dopis kancléřce Merkelové
                                     
                                                                             
                                            Co ti vědci vlastně chtějí?
                                     
                                                                             
                                            International Young Physicist Tournament
                                     
                                                                             
                                            Opět LHC a Tevatron
                                     
                                                                             
                                            Prioritou je stabilita celého vedeckého systému
                                     
                                                                             
                                            SAV: Z okraja priepasti do centra výskumu
                                     
                                                                             
                                            Slovensko by malo vstúpiť do ILL
                                     
                                                                             
                                            Termojaderná fúze netradičně
                                     
                                                                             
                                            Životopis vesmíru
                                     
                                                                             
                                            Využití Trojského koně v jaderné astrofyzice
                                     
                                                                             
                                            Opravdu pochybná věda?
                                     
                                                                             
                                            Najväčším nepriateľom slovenskej vedy sú slovenskí vedci
                                     
                                                                             
                                            Chemický prvek pojmenovaný dle Koperníka
                                     
                                                                             
                                            Výkonný galaktický urychlovač částic
                                     
                                                                             
                                            VĚDA: Už je to i v Nature!
                                     
                                                                             
                                            S Wittenem o LHC: Supersymetrie, higgsy a černé díry požírající
                                     
                                                                             
                                            Dušan Bruncko: Najkrajšia je fyzika nepoznaného
                                     
                                                                             
                                            Profesor Šáro: Žijeme vôbec v atómovom veku?
                                     
                                                                             
                                            Bez zlých rozhodnutí Greenpeace by bol vzduch čistejší
                                     
                                                                             
                                            Spustenie najväčšieho urýchľovača častíc odložili na október
                                     
                                                                             
                                            Vědecké časopisy přijmou i nesmysl generovaný počítačem
                                     
                                                                             
                                            Vesmír jako podvrh. Vesmír jako simulace.
                                     
                                                                             
                                            Teoretický fyzik Lee Smolin: Ani neviem, prečo som sa nezbláznil
                                     
                                                                             
                                            Krásna a potrebná veda v štýle 21. storočia
                                     
                                                                             
                                            Nositel Nobelovy ceny v Praze obhajoval základní výzkum
                                     
                                                                             
                                            Zničení Akademie věd na pořadu dne?
                                     
                                                                             
                                            Zdá se, že bylo rozhodnuto o postupné likvidaci Akademie věd ČR
                                     
                                                                             
                                            Rakúsko vystúpi z Európskej organizácie pre jadrový výskum
                                     
                                                                             
                                            Medzinárodný rok astronómie 2009 - Kalendár udalostí
                                     
                                                                             
                                            Predstavujú slovenskú cestu do mikrokozmu
                                     
                                                                             
                                            Zakladatel českého jaderného výzkumu slaví devadesátiny
                                     
                                                                             
                                            Andělé a démoni aneb jak se v laboratoři CERN vyrábí antihmota
                                     
                                                                             
                                            Nová mapa vesmíru odhalila obrovité struktury
                                     
                                                                             
                                            České firmy láká vesmír
                                     
                                                                             
                                            Nová kometa C/2009 F6 (Yi-SWAN)
                                     
                                                                             
                                            Aktuálne vydanie: Technika, č. 4, r. 2009
                                     
                                                                             
                                            Začal sa Európsky rok tvorivosti a inovácie na Slovensku
                                     
                                                                             
                                            Astronóm Vojtech Rušin: Zo Slnka raz bude len železný šrot
                                     
                                                                             
                                            Dejiny etického myslenia
                                     
                                                                             
                                            Príliš veľa pozitrónov – odkaz od tmavej hmoty?
                                     
                                                                             
                                            Kosmické záření a klimatické změny
                                     
                                                                             
                                            Konference CHEP 2009 (anglicky)
                                     
                                                                   
                     Obľúbené blogy 
                    
                     
                                                 
                                            Teoretický fyzik
                                     
                                                                             
                                            Colník o kozmonautike
                                     
                                                                             
                                            ... malé dievčatko z lúky plnej kvetov ...
                                     
                                                                             
                                            Menšinové názory na vačšinu
                                     
                                                                             
                                            Profesionálny jaskyniar
                                     
                                                                             
                                            uletená výtvarníčka
                                     
                                                                             
                                            Úžasné rozprávania
                                     
                                                                             
                                            Taký malý marketing
                                     
                                                                             
                                            Vedecký konsenzus revisited
                                     
                                                                             
                                            Za kandíkom a odpadom
                                     
                                                                             
                                            The God Delusion
                                     
                                                                             
                                            Vyradení z výberu
                                     
                            
             
         
            

             
             Čo ma zaujalo 
            Týmto článkom bloger klikol/klikla na karmu.
             
                                                         
                       Mladí vedci: Robili sme na vesmírnom reaktore v Kórei
                     
                                                         
                       Strácame dôvody behať pod magnóliovými kvetmi
                     
                                                         
                       Môj pes Vás ľúbi
                     
                                                         
                       Keď vtáčiky veselo štebocú, stromy začínajú farbisto oživovať svet
                     
                                                         
                       Najstarší príbeh stavby mosta
                     
                                                         
                       Uväznená mitochondria a zrod komplexného života
                     
                                                         
                       5 otázok a odpovedí súčasnej vedy na prekyslenie organizmu
                     
                                                         
                       Kristínka, ahóóój
                     
                                                         
                       Keď človek nevládze
                     
                                                         
                       Dieťa sa  k  horolezcom vždy rado pridá ;)
                     
                             
         
           
     Pošlite odkaz blogerovi 
    
         
            
         

         
         
         
         

         
         
Odosielateľ (e-mail)
 
         
Text
 
         
             
Protispamová ochrana 
 
 Zle. Skúste znova. 
Opíšte slová z obrázku: Načítať iné slová 
 Get an image CAPTCHA 
 
 
         
                 
            
         
    
  


 

     






            
    
        
    
 

        
         
         
             Už ste čítali? 
         
         
 

 kultura.sme.sk 
 Margaréta sa spriahla s diablom, no mala Kristovu pravdu 
 
 

 www.sme.sk 
 Pútnické miesta The Beatles alebo ako ľudia kráčajú po zebre 
 
 

 cestovanie.sme.sk 
 Lovia za svitania a v hmle 
 
 

 www.sme.sk 
 Ako sa valila lavína slobody. Ako padal komunizmus 
 
 

 kultura.sme.sk 
 Žiadne retro, poriadny biznis. Takto sa lisuje platňa 
 
	   
 


        
         
            
         

     

    
     
 
 
	 

		Kontakty
		Predplatné
		Etický kódex
		Pomoc
		Mapa stránky
		
	 
 
 
	 
		 
			Widget
			RSS
			Newsletter
		 
		 
			Mobil
			Smartphone
			Kindle
			Televízor
		 
		 
			Facebook
			Twitter
			Google+
		 
	 
	 
		
	 
	 
		Ďalšie weby skupiny: Prihlásenie do Post.sk
		Új Szó Slovak Spectator
		Agentúrne správy 
		Vydavateľstvo
		Inzercia
		Osobné údaje
		Návštevnosť webu
		Predajnosť tlače
		Petit Academy
		SME v škole 		© Copyright 1997-2014 Petit Press, a.s. 
	 
 
 
 


          
        
            
            

        
    

    
    


    


    
        
        
        
        
        
        
        
            
            
        
        
        
        
         
                                
               





 

 



        

 




