
      
    
    

     
	 
	 
 SME.sk 
 Zľavy 
 Zoznámenie 
 Reality 
 Dovolenky 
 Pizza 
 Reštaurácie 
 Recenzie 
 Inzeráty 
 Naničmama 	 
Nákupy 
		 
 Filmy na DVD 
 Hodinky 
 Parfémy 
 SME knihy a DVD 
 Superhosting 
 Tlačiareň 
 Víno 
 Tvorba webov 
 Predplatné SME 
 ProSenior 		 
	 
	 
 
	 
 


    
    
        
        
         
          
         
    

    
      
         
            
             
     
        
        
     
    Blog.SME.sk
 

    

         
        
                 
     
         
            Sme.sk
         
         
            Domov
         
         
            Regióny
         
         
            Ekonomika
         
         
            Svet
         
         
            Komentáre
         
         
            Kultúra
         
         
            Šport
         
         
            TV
         
         
            Auto
         
         
            Tech
         
         
            Poradňa
         
         
            Žena
         
         
            Bývanie
         
         
            Zdravie
         
         
            Blog
         
     
 

         
            
     
                                                         Politika 
                                                                                     Spoločnosť 
                                                                                     Cestovanie 
                                                                                     Ekonomika 
                                                                                     Fotografie 
                                                                                     Jedlo 
                                                                                     Kultúra 
                                                                                             
Ďalšie
                             
                                                                                         Lifestyle 
                                                                                                                                                                             Médiá 
                                                                                                                                                                             Nezaradené 
                                                                                                                                                                             Súkromné 
                                                                                                                                                                             Šport 
                                                                                                                                                                             Veda a technika 
                                                                                                                                                                             Zábava 
                                                                                                                                                                             Poézia 
                                                                                                                                                                             Próza 
                                                                                                                                                                             Kódex blogera 
                                                                                 
                         
                                                 
            Blogeri
         
     


            

    
    Prihlásiť sa


    
    Založte si blog



    
    Odhlásiť sa


    
    




         

        
        
         
            
         
         
                
     
                 
            SME.sk &gt;
            Blog.SME.sk &gt;
                            Matej Lorko
                                        &gt;
                Nezaradené
                     
                 Šarkan 

        
            
                                    6.5.2010
            o
            23:39
                        |
            Karma článku:
                4.42
            |
            Prečítané 
            383-krát
                    
         
     
         
             

                 
                    Vždy som bol veľkým fanúšikom slovenskej hudby a mojim snom bolo počuť raz v rádiu pieseň a v nej môj text. Ktovie, možno sa to raz podarí. Zatiaľ znesie niečo málo mojej poézie aspoň internet :)
                 

                 Po nebi sa túla bezstarostným letom, nad stromami krúži, letí šírym svetom. Vietor sa s ním nežne, opatrne hrajká, teší sa vždy z letu papierový šarkan.   Nevídanú voľnosť jeho kroky majú, vtáky sa s ním zavše v pretek vydávajú. Radosť má z tej milej, vtáčej spoločnosti, však dnes záujem nemá o oblačný dostih.   Dnes sa nechce nikam nervózne ponáhľať, miesto toho s vetrom na nebi vystrájať. Nechať sa unášať jeho dychom bystrým, kristiánku kresliť medzi padajúcim lístím.   Vychutnávať si chce túto voľnosť sladkú, vie že taká chvíľa máva nohu vratkú.  Užíva si teda vzácnu vetra priazeň, pokiaľ príbeh skončí a pristane na zem.   Ani zem však jeho pokoj nezahasí, ostane v ňom navždy spomienka na let krásny. Zvláštny pocit blaha do okolia rozdáva, nech sa celý náš svet radostnejším stáva.     

                 
                                        
                        
                        Zdieľať
                    

                    
                            
                                    
                                    Zdieľať na
                            
                             
                                    
                             
                    

                                                                                                                        
                            
                            Diskusia: (0)
                        
                    
                    
                        
                        Zvýšte karmu
                    
                 
             

                             
            
                     
                         Ďalšie články blogera 
                         
                                                             
                                    
                    	                                                                                        

                                                                        
                                    
                                        Matej Lorko 
                                        
                                            Peter Sagan - na ceste k dúhe
                                        
                                    
                                 
                                                             
                                    
                    	                                                                                        

                                                                        
                                    
                                        Matej Lorko 
                                        
                                            Roháče - zelenomodrá romantika
                                        
                                    
                                 
                                                             
                                    
                    	                                                                                        

                                                                        
                                    
                                        Matej Lorko 
                                        
                                            Kráľovská etapa Tour de Pologne... na Slovensku!
                                        
                                    
                                 
                                                             
                                    
                    	                                                                                        

                                                                        
                                    
                                        Matej Lorko 
                                        
                                            Výlet na Morské oko a Sninský kameň
                                        
                                    
                                 
                                                             
                                    
                    	                                                                                        

                                                                        
                                    
                                        Matej Lorko 
                                        
                                            To najlepšie zo Slovenska
                                        
                                    
                                 
                                                     
                        
                            Ďalšie články blogera: Matej Lorko
                        
                     
            
                     
                         Ďalšie články z rubriky poézia 
                         
                                                             
                                    
                                                            	                                                                                        

                                                                                                
                                    
                                        Maťo Chudík 
                                        
                                            Niečo sa stalo
                                        
                                    
                                 
                                                             
                                    
                                                            	                                                                                        

                                                                                                
                                    
                                        Tomáš Fuček 
                                        
                                            Posúvam sa dozadu
                                        
                                    
                                 
                                                             
                                    
                                                            	                                                                                        

                                                                                                
                                    
                                        Filip Glejdura 
                                        
                                            . . .  a bolo mu to aj tak jedno
                                        
                                    
                                 
                                                             
                                    
                                                            	                                                                                        

                                                                                                
                                    
                                        Drahoslav Mika 
                                        
                                            Chmúrava
                                        
                                    
                                 
                                                             
                                    
                                                            	                                                                                        

                                                                                                
                                    
                                        Janka Bernáthová 
                                        
                                            Iba dozrievam
                                        
                                    
                                 
                                                     
                        
                            Ďalšie články z rubriky poézia
                        
                     
                 
            
                    
 
     Hlavné správy 
         
        
                                

        
         
            AKTUALIZOVANÉ O 20:00
             Rubeľ pocítil pád na dno, Rusko je vo finančnej kríze 
             Dolár včera stál už takmer 80 rubľov, pod hladinu ho tlačia najmä nízke ceny ropy. 
         
     
         
        
                                

        
         
            ZAHRANIČIE
             Taliban zaútočil na citlivé miesto Pakistanu. Na deti 
             Taliban zabil v škole v Pakistane najmenej 141 ľudí, väčšinou deti. 
         
     
         
        
                                

        
         
            KOMENTARE.SME.SK
             Cynická obluda: Medzičasom na opustenom ostrove 
             Stroskotanci majú veľké šťastie, že sú dvaja. Lacné vtipy na úrovni ich autora. 
         
     
     

                 
     
    
     
        
 

     
                
                            
                    



         
            
                Matej Lorko
            
         
        lorko.blog.sme.sk (rss)
         
                                     
     
         Mám rád Slovensko. 

 www.kiero.sk 

 www.facebook.com/kiero.sk 
        
     
     
                     
                             
             

     
        
            
                
                    Počet článkov
                    17
                
                
                    Celková karma
                    
                                                0.00
                    
                
                
                    Priemerná čítanosť
                    1538
                
            
        
     

             

             Zoznam rubrík 
            
             
                                     
                        
                            Súkromné
                        
                     
                                     
                        
                            Nezaradené
                        
                     
                             
         
    

    

           
     Pošlite odkaz blogerovi 
    
         
            
         

         
         
         
         

         
         
Odosielateľ (e-mail)
 
         
Text
 
         
             
Protispamová ochrana 
 
 Zle. Skúste znova. 
Opíšte slová z obrázku: Načítať iné slová 
 Get an image CAPTCHA 
 
 
         
                 
            
         
    
  


 

     






            
    
        
    
 

        
         
         
             Už ste čítali? 
         
         
 

 kultura.sme.sk 
 Margaréta sa spriahla s diablom, no mala Kristovu pravdu 
 
 

 www.sme.sk 
 Pútnické miesta The Beatles alebo ako ľudia kráčajú po zebre 
 
 

 cestovanie.sme.sk 
 Lovia za svitania a v hmle 
 
 

 www.sme.sk 
 Ako sa valila lavína slobody. Ako padal komunizmus 
 
 

 kultura.sme.sk 
 Žiadne retro, poriadny biznis. Takto sa lisuje platňa 
 
	   
 


        
         
            
         

     

    
     
 
 
	 

		Kontakty
		Predplatné
		Etický kódex
		Pomoc
		Mapa stránky
		
	 
 
 
	 
		 
			Widget
			RSS
			Newsletter
		 
		 
			Mobil
			Smartphone
			Kindle
			Televízor
		 
		 
			Facebook
			Twitter
			Google+
		 
	 
	 
		
	 
	 
		Ďalšie weby skupiny: Prihlásenie do Post.sk
		Új Szó Slovak Spectator
		Agentúrne správy 
		Vydavateľstvo
		Inzercia
		Osobné údaje
		Návštevnosť webu
		Predajnosť tlače
		Petit Academy
		SME v škole 		© Copyright 1997-2014 Petit Press, a.s. 
	 
 
 
 


          
        
            
            

        
    

    
    


    


    
        
        
        
        
        
        
        
            
            
        
        
        
        
         
                                
               





 

 



        

 




