
      
    
    

     
	 
	 
 SME.sk 
 Zľavy 
 Zoznámenie 
 Reality 
 Dovolenky 
 Pizza 
 Reštaurácie 
 Recenzie 
 Inzeráty 
 Naničmama 	 
Nákupy 
		 
 Filmy na DVD 
 Hodinky 
 Parfémy 
 SME knihy a DVD 
 Superhosting 
 Tlačiareň 
 Víno 
 Tvorba webov 
 Predplatné SME 
 ProSenior 		 
	 
	 
 
	 
 


    
    
        
        
         
          
         
    

    
      
         
            
             
     
        
        
     
    Blog.SME.sk
 

    

         
        
                 
     
         
            Sme.sk
         
         
            Domov
         
         
            Regióny
         
         
            Ekonomika
         
         
            Svet
         
         
            Komentáre
         
         
            Kultúra
         
         
            Šport
         
         
            TV
         
         
            Auto
         
         
            Tech
         
         
            Poradňa
         
         
            Žena
         
         
            Bývanie
         
         
            Zdravie
         
         
            Blog
         
     
 

         
            
     
                                                         Politika 
                                                                                     Spoločnosť 
                                                                                     Cestovanie 
                                                                                     Ekonomika 
                                                                                     Fotografie 
                                                                                     Jedlo 
                                                                                     Kultúra 
                                                                                             
Ďalšie
                             
                                                                                         Lifestyle 
                                                                                                                                                                             Médiá 
                                                                                                                                                                             Nezaradené 
                                                                                                                                                                             Súkromné 
                                                                                                                                                                             Šport 
                                                                                                                                                                             Veda a technika 
                                                                                                                                                                             Zábava 
                                                                                                                                                                             Poézia 
                                                                                                                                                                             Próza 
                                                                                                                                                                             Kódex blogera 
                                                                                 
                         
                                                 
            Blogeri
         
     


            

    
    Prihlásiť sa


    
    Založte si blog



    
    Odhlásiť sa


    
    




         

        
        
         
            
         
         
                
     
                 
            SME.sk &gt;
            Blog.SME.sk &gt;
                            gladys tapia
                                        &gt;
                spanielcina
                     
                 Španielske okienko 3 

        
            
                                    2.3.2010
            o
            19:58
                        (upravené
                4.3.2010
                o
                18:59)
                        |
            Karma článku:
                3.82
            |
            Prečítané 
            2474-krát
                    
         
     
         
             

                 
                    V španielčine sa slovo "peniaze" môže povedať rôznymi slovami. Povedala by som že juhoameričania k tomu veľmi dopomohli.
                 

                         Ako som už spomínala na tom našom medzinárodnom projekte pracuje veľa národností, a medzi tými španielsky hovoriacimi je nás viacero. Minule sme sa bavili o tom ako naša firma dospela k tomu že kôli kríze nám nezvýšia platy po 2 roky. A tak medzi rečou padlo slovo peniaze, tým pádom sme sa začali hrať so slovami a s ich významom.   A prišli sme na nasledovné:      
v Španielsku sa možu použiť slová    "pasta"   "calderilla" (číta sa ako "kalderija")    "molla" (číta sa ako "moja")    "blanca" (číta sa ako "blanka") (napríklad, keď je človek bez peňazí tak potom sa hovori že "Una persona esta sin blanca")       
v Mexiku sa peniaze nazývajú    "lana" čo znamená "vlna"       
v Argentíne a v Chile používajú slovo     "plata" (to je v preklade striebro)       
v Chile tiež používajú názvy ako    "cullin" (číta sa ako "kujin")    "moneas"   "lechugas" (číta sa ako "lečugas")    "chauchas"  (číta sa ako "čaučas")    
Čo je zaujímave je to, že chilania davajú pomenovanie peniazom, rozlišujúc o akú sumu ide:    "sota" je 10 pesos   "gamba" je 100 pesos   "quina" je 500 pesos (číta sa ako "kina")    "luca" je 1000 pesos (číta sa ako "luka")    "gabriela" 5000 (to preto, že na 5000 je namaľovaná Gabriela Mistral :-)             Tak napríklad ak sa v Chile spýtate:   "Cuánto cuesta el helado?" (Koľko stoji zmrzlina?)     &gt;&gt; a niekto vám odpovie "Sólo dos gambas.", to znamená že to stoji iba 200 pesos. :-)))       Dúfam že ste sa pobalvili!!!   Chaolin y hasta la proxima... 

                 
                                        
                        
                        Zdieľať
                    

                    
                            
                                    
                                    Zdieľať na
                            
                             
                                    
                             
                    

                                                                                                                        
                            
                            Diskusia: (13)
                        
                    
                    
                        
                        Zvýšte karmu
                    
                 
             

                             
            
                     
                         Ďalšie články blogera 
                         
                                                             
                                    
                    	                                                                                        

                                                                        
                                    
                                        gladys tapia 
                                        
                                            S vareškou - Kukuričný kolač - na slano
                                        
                                    
                                 
                                                             
                                    
                    	                                                                                        

                                                                        
                                    
                                        gladys tapia 
                                        
                                            Španielske okienko : ako prejaviť nezájem
                                        
                                    
                                 
                                                             
                                    
                    	                                                                                        

                                                                        
                                    
                                        gladys tapia 
                                        
                                            Španielske okienko xyz - pan pan pan
                                        
                                    
                                 
                                                             
                                    
                    	                                                                                        

                                                                        
                                    
                                        gladys tapia 
                                        
                                            Nemam slov
                                        
                                    
                                 
                                                             
                                    
                    	                                                                                        

                                                                        
                                    
                                        gladys tapia 
                                        
                                            Kvetmi proti obuskom
                                        
                                    
                                 
                                                     
                        
                            Ďalšie články blogera: gladys tapia
                        
                     
            
                     
                         Ďalšie články z rubriky cestovanie 
                         
                                                             
                                    
                                                                                                                    

                                                                                                
                                    
                                        Miroslav Lisinovič 
                                        
                                            Horná brána v Modre
                                        
                                    
                                 
                                                             
                                    
                                                                                                                    

                                                                                                
                                    
                                        Martina Rúčková 
                                        
                                            Z Európy na Kaukaz: Çanakkale a bájna Trója
                                        
                                    
                                 
                                                             
                                    
                                                            	                                                                                        

                                                                                                
                                    
                                        Andrea Grešová 
                                        
                                            To je moje Rumunsko
                                        
                                    
                                 
                                                             
                                    
                                                                                                                    

                                                                                                
                                    
                                        Ján Serbák 
                                        
                                            Pamätník čs. armády s vojnovým cintorínom na Dukle
                                        
                                    
                                 
                                                             
                                    
                                                            	                                                                                        

                                                                                                
                                    
                                        Peter Kover 
                                        
                                            22 krajín (miest), ktoré sa naozaj oplatí vidieť
                                        
                                    
                                 
                                                     
                        
                            Ďalšie články z rubriky cestovanie
                        
                     
                 
            
                    
 
     Hlavné správy 
         
        
                                

        
         
            AKTUALIZOVANÉ O 20:00
             Rubeľ pocítil pád na dno, Rusko je vo finančnej kríze 
             Dolár včera stál už takmer 80 rubľov, pod hladinu ho tlačia najmä nízke ceny ropy. 
         
     
         
        
                                

        
         
            ZAHRANIČIE
             Taliban zaútočil na citlivé miesto Pakistanu. Na deti 
             Taliban zabil v škole v Pakistane najmenej 141 ľudí, väčšinou deti. 
         
     
         
        
                                

        
         
            KOMENTARE.SME.SK
             Cynická obluda: Medzičasom na opustenom ostrove 
             Stroskotanci majú veľké šťastie, že sú dvaja. Lacné vtipy na úrovni ich autora. 
         
     
     

                 
     
    
     
        
 

     
                
                            
                    



         
            
                gladys tapia
            
         
        tapia.blog.sme.sk (rss)
         
                                     
     
        


Momentalne zijem mimo slovenska.

http://www.pospanielsky.com/
        
     
     
                     
                             
             

     
        
            
                
                    Počet článkov
                    85
                
                
                    Celková karma
                    
                                                0.00
                    
                
                
                    Priemerná čítanosť
                    892
                
            
        
     

             

             Zoznam rubrík 
            
             
                                     
                        
                            E&amp;#241;o
                        
                     
                                     
                        
                            spanielcina
                        
                     
                                     
                        
                            Chile
                        
                     
                                     
                        
                            ine
                        
                     
                                     
                        
                            recepty
                        
                     
                             
         
    

    

             
             Čo ma zaujalo 
            Týmto článkom bloger klikol/klikla na karmu.
             
                                                         
                       S vareškou - Kukuričný kolač - na slano
                     
                                                         
                       Urazte ma, prosím!
                     
                             
         
        

     






            
    
        
    
 

        
         
         
             Už ste čítali? 
         
         
 

 kultura.sme.sk 
 Margaréta sa spriahla s diablom, no mala Kristovu pravdu 
 
 

 www.sme.sk 
 Pútnické miesta The Beatles alebo ako ľudia kráčajú po zebre 
 
 

 cestovanie.sme.sk 
 Lovia za svitania a v hmle 
 
 

 www.sme.sk 
 Ako sa valila lavína slobody. Ako padal komunizmus 
 
 

 kultura.sme.sk 
 Žiadne retro, poriadny biznis. Takto sa lisuje platňa 
 
	   
 


        
         
            
         

     

    
     
 
 
	 

		Kontakty
		Predplatné
		Etický kódex
		Pomoc
		Mapa stránky
		
	 
 
 
	 
		 
			Widget
			RSS
			Newsletter
		 
		 
			Mobil
			Smartphone
			Kindle
			Televízor
		 
		 
			Facebook
			Twitter
			Google+
		 
	 
	 
		
	 
	 
		Ďalšie weby skupiny: Prihlásenie do Post.sk
		Új Szó Slovak Spectator
		Agentúrne správy 
		Vydavateľstvo
		Inzercia
		Osobné údaje
		Návštevnosť webu
		Predajnosť tlače
		Petit Academy
		SME v škole 		© Copyright 1997-2014 Petit Press, a.s. 
	 
 
 
 


          
        
            
            

        
    

    
    


    


    
        
        
        
        
        
        
        
            
            
        
        
        
        
         
                                
               





 

 



        

 




