
      
    
    

     
	 
	 
 SME.sk 
 Zľavy 
 Zoznámenie 
 Reality 
 Dovolenky 
 Pizza 
 Reštaurácie 
 Recenzie 
 Inzeráty 
 Naničmama 	 
Nákupy 
		 
 Filmy na DVD 
 Hodinky 
 Parfémy 
 SME knihy a DVD 
 Superhosting 
 Tlačiareň 
 Víno 
 Tvorba webov 
 Predplatné SME 
 ProSenior 		 
	 
	 
 
	 
 


    
    
        
        
         
          
         
    

    
      
         
            
             
     
        
        
     
    Blog.SME.sk
 

    

         
        
                 
     
         
            Sme.sk
         
         
            Domov
         
         
            Regióny
         
         
            Ekonomika
         
         
            Svet
         
         
            Komentáre
         
         
            Kultúra
         
         
            Šport
         
         
            TV
         
         
            Auto
         
         
            Tech
         
         
            Poradňa
         
         
            Žena
         
         
            Bývanie
         
         
            Zdravie
         
         
            Blog
         
     
 

         
            
     
                                                         Politika 
                                                                                     Spoločnosť 
                                                                                     Cestovanie 
                                                                                     Ekonomika 
                                                                                     Fotografie 
                                                                                     Jedlo 
                                                                                     Kultúra 
                                                                                             
Ďalšie
                             
                                                                                         Lifestyle 
                                                                                                                                                                             Médiá 
                                                                                                                                                                             Nezaradené 
                                                                                                                                                                             Súkromné 
                                                                                                                                                                             Šport 
                                                                                                                                                                             Veda a technika 
                                                                                                                                                                             Zábava 
                                                                                                                                                                             Poézia 
                                                                                                                                                                             Próza 
                                                                                                                                                                             Kódex blogera 
                                                                                 
                         
                                                 
            Blogeri
         
     


            

    
    Prihlásiť sa


    
    Založte si blog



    
    Odhlásiť sa


    
    




         

        
        
         
            
         
         
                
     
                 
            SME.sk &gt;
            Blog.SME.sk &gt;
                            Veronika Bauchová
                                        &gt;
                Nezaradené
                     
                 novembrové revolučné poďakovanie 

        
            
                                    7.11.2007
            o
            10:21
                        |
            Karma článku:
                4.80
            |
            Prečítané 
            995-krát
                    
         
     
         
             

                 
                    týmto sa chcem poďakovať všetkým ženám, ktoré v novembri riskovali zápal vaječníkov a mužom, ktorí aj napriek strachu, či to vyjde a či ich pozajtra neprejdú tanky, štrngali kľúčami na preplnených studených námestiach.....
                 

                 
máme hole v ruce.... slobodné dolby... na áljašce? 
    keď bola revolúcia mala som dva roky. fakt si nič nepamätám a ani neviem, kde boli vtedy moji rodičia. ale aj ja z nej silne ťažím...           týmto sa chcem poďakovať všetkým ženám, ktoré v novembri riskovali zápal vaječníkov a mužom, ktorí aj napriek strachu, či to vyjde a či ich pozajtra neprejdú tanky, štrngali kľúčami na preplnených studených námestiach.....           ďakujem za nasledovné:     - ďakujem za to, že môžem o hociktorom politikovi povedať, že si myslím, že je dilino           - ďakujem za to, že si môžem vybrať, o ktorom politikovi to poviem           - ďakujem za to, že si môžem písať čo chcem           - ďakujem za to, že mám neskreslené správy o slovenských poľnohospodároch           - ďakujem za to, že aj napriek možnému zlému kádrovému posudku mojich rodičov  JA nemusím byť poľnohospodárka           - ďakujem za to, že mojimi bratmi sú moji bratia pokrvní a nie politickí           - ďakujem za to, že sa nemusím učiť ruštinu           - ďakujem za to, že môžem veriť v boha ( teda mohla by som )           - ďakujem za to, že si môžem vybrať v ktorého boha chcem veriť           - ďakujem za to, že môžem cestovať           - ďakujem za to, že môžem cestovať nielen kam môžem, ale kam CHCEM           - ďakujem za to, že môžem pozerať zahraničné tv stanice           - ďakujem za to, že keby som mala sesternicu v USA, tak to môžem všetkým povedať           - ďakujem za to, že keby som ju tam mala, tak za ňou môžem ísť a nerobia mi problém slováci....           - ďakujem za to, že môžem študovať čo chcem, kde chcem, ako chcem a keď nechcem, tak nemusím....           - ďakujem za to, že nemusím pozerať programy ako lastovička, matelko a iné pridementnené haluze           - ďakujem za to, že nemusím cvičiť na spartakiáde           - ďakujem za to, môžem pracovať kde chcem           - ďakujem za to, že nemusím nosiť kamašle a tesilové umelohmotné oblečenie           - ďakujem za to, že keď vyzerám ako punkáč, tak moju mamu nevyhodia z roboty           - ďakujem za to, že keby som vyzerala ako punkáč, tak ma mlátia skinheadi a nie policajti           - ďakujem za to, že už presne viem, kto bol eštebák           - ďakujem za to, že keby som sa rozhodla odísť, tak môžem           za toto všetko ďakujem. je toho určite oveľa viac... ale spomenula som si iba na toto... revolúcia bola asi fajn. ľudia verili, že bude lepšie...           myslenie, že keď mlieko stálo korunu, tak nám všetkým bolo lepšie je asi trošku zvrátené. keby nám bolo tak fajn, tak sa v živote nikdy žiadna revolúcia neodohrá. vďaka bohu za ňu...           ale to rozdelenie československa vám neodpustím....                    

                 
                                        
                        
                        Zdieľať
                    

                    
                            
                                    
                                    Zdieľať na
                            
                             
                                    
                             
                    

                                                                                                                        
                            
                            Diskusia: (3)
                        
                    
                    
                        
                        Zvýšte karmu
                    
                 
             

                             
            
                     
                         Ďalšie články blogera 
                         
                                                             
                                    
                    	                                                                                        

                                                                        
                                    
                                        Veronika Bauchová 
                                        
                                            Pozrela som si Legendy Popu
                                        
                                    
                                 
                                                             
                                    
                    	                                                                                        

                                                                        
                                    
                                        Veronika Bauchová 
                                        
                                            Čo nás už nena*erie
                                        
                                    
                                 
                                                     
                        
                            Ďalšie články blogera: Veronika Bauchová
                        
                     
            
                     
                         Ďalšie články z rubriky spoločnosť 
                         
                                                             
                                    
                                                            	                                                                                        

                                                                                                
                                    
                                        Mária Levočská 
                                        
                                            Ďalšia obeť pomsty monsignora Jaraba
                                        
                                    
                                 
                                                             
                                    
                                                            	                                                                                        

                                                                                                
                                    
                                        Kristián Straka 
                                        
                                            Nebite ma, doktor Plzák... alebo POZVANIE NA VEČERU
                                        
                                    
                                 
                                                             
                                    
                                                            	                                                                                        

                                                                                                
                                    
                                        Kristián Straka 
                                        
                                            Oklamaní Ježiškom ?
                                        
                                    
                                 
                                                             
                                    
                                                            	                                                                                        

                                                                                                
                                    
                                        Milan Buno 
                                        
                                            Šup, šup, najesť sa. A utekať!
                                        
                                    
                                 
                                                             
                                    
                                                            	                                                                                        

                                                                                                
                                    
                                        Katarína Lorenčíková 
                                        
                                            Par uprimnych oslobodzujucich riadkov...
                                        
                                    
                                 
                                                     
                        
                            Ďalšie články z rubriky spoločnosť
                        
                     
                 
            
                    
 
     Hlavné správy 
         
        
                                

        
         
            AKTUALIZOVANÉ 20:22
             Slovenky v hlavnej skupine nebodovali, Švédky vyhrali o 9 gólov 
             Naše hádzanárky hrali na ME piaty zápas. V Záhrebe proti Švédkam. 
         
     
         
        
                                

        
         
            AKTUALIZOVANÉ O 20:00
             Rubeľ pocítil pád na dno, Rusko je vo finančnej kríze 
             Dolár včera stál už takmer 80 rubľov, pod hladinu ho tlačia najmä nízke ceny ropy. 
         
     
         
        
                                

        
         
            ZAHRANIČIE
             Taliban zaútočil na citlivé miesto Pakistanu. Na deti 
             Taliban zabil v škole v Pakistane najmenej 141 ľudí, väčšinou deti. 
         
     
     

                 
     
    
     
        
 

     
                
                            
                    



         
            
                Veronika Bauchová
            
         
        bauchova.blog.sme.sk (rss)
         
                                     
     
        "ve vlastních názorech se shodnu s každým." ivan kraus       

        
     
     
                     
                             
             

     
        
            
                
                    Počet článkov
                    3
                
                
                    Celková karma
                    
                                                0.00
                    
                
                
                    Priemerná čítanosť
                    1519
                
            
        
     

             

             Zoznam rubrík 
            
             
                                     
                        
                            top ten
                        
                     
                                     
                        
                            nikine triky
                        
                     
                                     
                        
                            Súkromné
                        
                     
                                     
                        
                            Nezaradené
                        
                     
                             
         
    

    

           
     Pošlite odkaz blogerovi 
    
         
            
         

         
         
         
         

         
         
Odosielateľ (e-mail)
 
         
Text
 
         
             
Protispamová ochrana 
 
 Zle. Skúste znova. 
Opíšte slová z obrázku: Načítať iné slová 
 Get an image CAPTCHA 
 
 
         
                 
            
         
    
  


 

     






            
    
        
    
 

        
         
         
             Už ste čítali? 
         
         
 

 kultura.sme.sk 
 Margaréta sa spriahla s diablom, no mala Kristovu pravdu 
 
 

 www.sme.sk 
 Pútnické miesta The Beatles alebo ako ľudia kráčajú po zebre 
 
 

 cestovanie.sme.sk 
 Lovia za svitania a v hmle 
 
 

 www.sme.sk 
 Ako sa valila lavína slobody. Ako padal komunizmus 
 
 

 kultura.sme.sk 
 Žiadne retro, poriadny biznis. Takto sa lisuje platňa 
 
	   
 


        
         
            
         

     

    
     
 
 
	 

		Kontakty
		Predplatné
		Etický kódex
		Pomoc
		Mapa stránky
		
	 
 
 
	 
		 
			Widget
			RSS
			Newsletter
		 
		 
			Mobil
			Smartphone
			Kindle
			Televízor
		 
		 
			Facebook
			Twitter
			Google+
		 
	 
	 
		
	 
	 
		Ďalšie weby skupiny: Prihlásenie do Post.sk
		Új Szó Slovak Spectator
		Agentúrne správy 
		Vydavateľstvo
		Inzercia
		Osobné údaje
		Návštevnosť webu
		Predajnosť tlače
		Petit Academy
		SME v škole 		© Copyright 1997-2014 Petit Press, a.s. 
	 
 
 
 


          
        
            
            

        
    

    
    


    


    
        
        
        
        
        
        
        
            
            
        
        
        
        
         
                                
               





 

 



        

 




