
      
    
    

     
	 
	 
 SME.sk 
 Zľavy 
 Zoznámenie 
 Reality 
 Dovolenky 
 Pizza 
 Reštaurácie 
 Recenzie 
 Inzeráty 
 Naničmama 	 
Nákupy 
		 
 Filmy na DVD 
 Hodinky 
 Parfémy 
 SME knihy a DVD 
 Superhosting 
 Tlačiareň 
 Víno 
 Tvorba webov 
 Predplatné SME 
 ProSenior 		 
	 
	 
 
	 
 


    
    
        
        
         
          
         
    

    
      
         
            
             
     
        
        
     
    Blog.SME.sk
 

    

         
        
                 
     
         
            Sme.sk
         
         
            Domov
         
         
            Regióny
         
         
            Ekonomika
         
         
            Svet
         
         
            Komentáre
         
         
            Kultúra
         
         
            Šport
         
         
            TV
         
         
            Auto
         
         
            Tech
         
         
            Poradňa
         
         
            Žena
         
         
            Bývanie
         
         
            Zdravie
         
         
            Blog
         
     
 

         
            
     
                                                         Politika 
                                                                                     Spoločnosť 
                                                                                     Cestovanie 
                                                                                     Ekonomika 
                                                                                     Fotografie 
                                                                                     Jedlo 
                                                                                     Kultúra 
                                                                                             
Ďalšie
                             
                                                                                         Lifestyle 
                                                                                                                                                                             Médiá 
                                                                                                                                                                             Nezaradené 
                                                                                                                                                                             Súkromné 
                                                                                                                                                                             Šport 
                                                                                                                                                                             Veda a technika 
                                                                                                                                                                             Zábava 
                                                                                                                                                                             Poézia 
                                                                                                                                                                             Próza 
                                                                                                                                                                             Kódex blogera 
                                                                                 
                         
                                                 
            Blogeri
         
     


            

    
    Prihlásiť sa


    
    Založte si blog



    
    Odhlásiť sa


    
    




         

        
        
         
            
         
         
                
     
                 
            SME.sk &gt;
            Blog.SME.sk &gt;
                            Anna Zboraiová
                                        &gt;
                Annikine fejtóny
                     
                 Čas 

        
            
                                    25.6.2010
            o
            11:36
                        |
            Karma článku:
                5.01
            |
            Prečítané 
            450-krát
                    
         
     
         
             

                 
                    Úzkoprofilový výrobok, áno či nie?!
                 

                 Čas v dnešnej dobe berieme pomaly ako tovar. Exkluzívny. Niekto si ho môže dovoliť, niekto nie. Presne rozdeľujeme deň na úlomky času podľa dôležitosti rebríčka hodnôt , ktoré sú nám dôležité.   Stala sa mi príhoda. Zarozprávala sa so mnou mamička s malým chlapcom, ktorý pobehoval okolo nás. Vážne mi vysvetľovala, že ona má deň rozdelený tak, že všetko stíha, prácu, domácnosť, svoje koníčky, syna odprevádza na hudobnú a tenis. Usporadúva mu narodeninové detské párty. Zrazu som zbadala ako ju rozrušený chlapček ťahá za rukáv.   "Mamíí"                                                                                                                                                               Mami mi práve vysvetľovala ako je dôležité mať čas na svoje deti. Zasekla sa v pol vete a dôrazne ho napomenula:                                                                                                                                                      "Teraz nie Peťko, mamka sa rozpráva s tetou, počkaj chvíľku a neplaš sa"                                                      "Ale mami, vieš čo sa stalo?"                                                                                                                              "Teraz nie, povieč potom!"   Mali by sme sa niekedy pozrieť na čas a hodnoty detskými očami. A zistili by sme že čas pre deti neznamená len hudobná, tenis či narodeninová párty ale aj náhodná pozornosť. Peťko sa chcel s mamou podeliť o zázrak že sa mu podarilo chytiť lienku a tá ho na rúčke šteklí... 

                 
                                        
                        
                        Zdieľať
                    

                    
                            
                                    
                                    Zdieľať na
                            
                             
                                    
                             
                    

                                                                                                                        
                            
                            Diskusia: (8)
                        
                    
                    
                        
                        Zvýšte karmu
                    
                 
             

                             
            
                     
                         Ďalšie články blogera 
                         
                                                             
                                    
                    	                                                                                        

                                                                        
                                    
                                        Anna Zboraiová 
                                        
                                            By si sa čudovala...
                                        
                                    
                                 
                                                             
                                    
                    	                                                                                        

                                                                        
                                    
                                        Anna Zboraiová 
                                        
                                            Prudká úvaha o vlastnej dôležitosti
                                        
                                    
                                 
                                                             
                                    
                    	                                                                                        

                                                                        
                                    
                                        Anna Zboraiová 
                                        
                                            Homo periculum sapiens
                                        
                                    
                                 
                                                             
                                    
                    	                                                                                        

                                                                        
                                    
                                        Anna Zboraiová 
                                        
                                            Asi som z Centauri, lebo z Venuše určite nie
                                        
                                    
                                 
                                                             
                                    
                    	                                                                                        

                                                                        
                                    
                                        Anna Zboraiová 
                                        
                                            Teta, vychovali ste hovädo!
                                        
                                    
                                 
                                                     
                        
                            Ďalšie články blogera: Anna Zboraiová
                        
                     
            
                     
                         Ďalšie články z rubriky nezaradené 
                         
                                                             
                                    
                                                            	                                                                                        

                                                                                                
                                    
                                        Pavel Ondrejmiška 
                                        
                                            Dnes farnosť Žitavany, pred tisíc rokmi kráľovská fara v Kňažiciach
                                        
                                    
                                 
                                                             
                                    
                                                            	                                                                                        

                                                                                                
                                    
                                        Milan Removčík 
                                        
                                            Zimný Šíp.
                                        
                                    
                                 
                                                             
                                    
                                                            	                                                                                        

                                                                                                
                                    
                                          esc-sr 
                                        
                                            Čas (ne)vhodných darčekov
                                        
                                    
                                 
                                                             
                                    
                                                            	                                                                                        

                                                                                                
                                    
                                        Michal Filek 
                                        
                                            Ako je ťažké darovať bezdomovcom polievku?
                                        
                                    
                                 
                                                             
                                    
                                                                                                                    

                                                                                                
                                    
                                        Anna Kováčová 
                                        
                                            Na sexi postavu, zdravie, energiu a šťastný život nepotrebujete tabletky!
                                        
                                    
                                 
                                                     
                        
                            Ďalšie články z rubriky nezaradené
                        
                     
                 
            
                    
 
     Hlavné správy 
         
        
                                

        
         
            ZAHRANIČIE
             Protestujúci v Maďarsku strácajú dych, Fidesz ich mätie novými návrhmi 
             Na demonštrácii proti Orbánovej vláde bolo v utorok už len niekoľko tisíc ľudí. 
         
     
         
        
                                

        
         
            AKTUALIZOVANÉ O 21:30
             Rubeľ pocítil pád na dno, Rusko je vo finančnej kríze 
             Dolár v utorok stál už takmer 80 rubľov, pod hladinu ho tlačia najmä nízke ceny ropy. 
         
     
         
        
                                

        
         
            AKTUALIZOVANÉ 21:50
             Taliban zabil v škole v Pakistane 132 detí 
             Pakistan až teraz poriadne zatlačil na islamistov. Odplatou je útok na deti vojakov. 
         
     
     

                 
     
    
     
        
 

     
                
                            
                    



         
            
                Anna Zboraiová
            
         
        zboraiova.blog.sme.sk (rss)
         
                                     
     
        Fascinujú ma matky, ktoré napomínajú svoje deti potichu a oni ich poslúchajú.Mám svoje názory na veci okolo seba ale ak sa zmýlim uznám svoj omyl a nežijem v ilúzii o svojej pravde.
        
     
     
                     
                             
             

     
        
            
                
                    Počet článkov
                    111
                
                
                    Celková karma
                    
                                                0.00
                    
                
                
                    Priemerná čítanosť
                    489
                
            
        
     

             

             Zoznam rubrík 
            
             
                                     
                        
                            Ómamine recepty
                        
                     
                                     
                        
                            -
                        
                     
                                     
                        
                            Náhle traumy vedomia
                        
                     
                                     
                        
                            Annikine fejtóny
                        
                     
                                     
                        
                            Súkromné
                        
                     
                                     
                        
                            Nezaradené
                        
                     
                             
         
    

                     
                        
                                                            
                     Obľúbené knihy 
                    
                     
                                                 
                                            Stieg Larsson-Dievča, ktoré sa hralo zo zápalkami
                                     
                                                                             
                                            Stieg Larsson-Vzdušný zámok, ktorý vybuchol
                                     
                                                                             
                                            Stieg Larsson-Muži, ktorí nenávidia ženy
                                     
                                                                   
                     Čo práve počúvam 
                    
                     
                                                 
                                            Evanescence-Best Hard Rock Performance
                                     
                                                                             
                                            Evanescence-The Open Door
                                     
                                                                   
                     Obľúbené blogy 
                    
                     
                                                 
                                            lesná víla-žaneta Daroková
                                     
                                                                             
                                            Ziff-Ivana Odeen
                                     
                                                                             
                                            Spriaznená duša- Janka Dratvová
                                     
                            
             
         
            

           
     Pošlite odkaz blogerovi 
    
         
            
         

         
         
         
         

         
         
Odosielateľ (e-mail)
 
         
Text
 
         
             
Protispamová ochrana 
 
 Zle. Skúste znova. 
Opíšte slová z obrázku: Načítať iné slová 
 Get an image CAPTCHA 
 
 
         
                 
            
         
    
  


 

     






            
    
        
    
 

        
         
         
             Už ste čítali? 
         
         
 

 kultura.sme.sk 
 Margaréta sa spriahla s diablom, no mala Kristovu pravdu 
 
 

 www.sme.sk 
 Pútnické miesta The Beatles alebo ako ľudia kráčajú po zebre 
 
 

 cestovanie.sme.sk 
 Lovia za svitania a v hmle 
 
 

 www.sme.sk 
 Ako sa valila lavína slobody. Ako padal komunizmus 
 
 

 kultura.sme.sk 
 Žiadne retro, poriadny biznis. Takto sa lisuje platňa 
 
	   
 


        
         
            
         

     

    
     
 
 
	 

		Kontakty
		Predplatné
		Etický kódex
		Pomoc
		Mapa stránky
		
	 
 
 
	 
		 
			Widget
			RSS
			Newsletter
		 
		 
			Mobil
			Smartphone
			Kindle
			Televízor
		 
		 
			Facebook
			Twitter
			Google+
		 
	 
	 
		
	 
	 
		Ďalšie weby skupiny: Prihlásenie do Post.sk
		Új Szó Slovak Spectator
		Agentúrne správy 
		Vydavateľstvo
		Inzercia
		Osobné údaje
		Návštevnosť webu
		Predajnosť tlače
		Petit Academy
		SME v škole 		© Copyright 1997-2014 Petit Press, a.s. 
	 
 
 
 


          
        
            
            

        
    

    
    


    


    
        
        
        
        
        
        
        
            
            
        
        
        
        
         
                                
               





 

 



        

 




