
      
    
    

     
	 
	 
 SME.sk 
 Zľavy 
 Zoznámenie 
 Reality 
 Dovolenky 
 Pizza 
 Reštaurácie 
 Recenzie 
 Inzeráty 
 Naničmama 	 
Nákupy 
		 
 Filmy na DVD 
 Hodinky 
 Parfémy 
 SME knihy a DVD 
 Superhosting 
 Tlačiareň 
 Víno 
 Tvorba webov 
 Predplatné SME 
 ProSenior 		 
	 
	 
 
	 
 


    
    
        
        
         
          
         
    

    
      
         
            
             
     
        
        
     
    Blog.SME.sk
 

    

         
        
                 
     
         
            Sme.sk
         
         
            Domov
         
         
            Regióny
         
         
            Ekonomika
         
         
            Svet
         
         
            Komentáre
         
         
            Kultúra
         
         
            Šport
         
         
            TV
         
         
            Auto
         
         
            Tech
         
         
            Poradňa
         
         
            Žena
         
         
            Bývanie
         
         
            Zdravie
         
         
            Blog
         
     
 

         
            
     
                                                         Politika 
                                                                                     Spoločnosť 
                                                                                     Cestovanie 
                                                                                     Ekonomika 
                                                                                     Fotografie 
                                                                                     Jedlo 
                                                                                     Kultúra 
                                                                                             
Ďalšie
                             
                                                                                         Lifestyle 
                                                                                                                                                                             Médiá 
                                                                                                                                                                             Nezaradené 
                                                                                                                                                                             Súkromné 
                                                                                                                                                                             Šport 
                                                                                                                                                                             Veda a technika 
                                                                                                                                                                             Zábava 
                                                                                                                                                                             Poézia 
                                                                                                                                                                             Próza 
                                                                                                                                                                             Kódex blogera 
                                                                                 
                         
                                                 
            Blogeri
         
     


            

    
    Prihlásiť sa


    
    Založte si blog



    
    Odhlásiť sa


    
    




         

        
        
         
            
         
         
                
     
                 
            SME.sk &gt;
            Blog.SME.sk &gt;
                            Maria Pokrivcakova
                                        &gt;
                Cestovanie
                     
                 Moje Filipíny II. 

        
            
                                    1.4.2010
            o
            0:00
                        (upravené
                1.4.2010
                o
                14:46)
                        |
            Karma článku:
                4.14
            |
            Prečítané 
            816-krát
                    
         
     
         
             

                 
                    Aby ste si vedeli vytvoriť predstavu, čo je to ziplining, ako vyzerá sopka uprostred jazera a ako nádherne je v El Nido a okolí, pripájam pár fotografií.
                 

                    Moja filipínska kamoška Thea by sa na také čosi ako ziplining sama neodvážila, ale  toľko som jej dovrávala, až sa nakoniec dala prehovoriť a musím  potvrdiť, že neľutovala.       Sopka Taal sa nachádza na ostove Luzon medzi mestami Talisay, San Nicolas a Batangas. Je zaujímavá tým, že je to vlastne samotný ostrov v strede rovnomenného jazea Taal. Je ešte stále aktívna a na vlastné oči sme videli síru a dym sa z nej valiace.  Posledná erupcia si vyžiadala až do 6 000 životov.      El Nido je raj na zemi, pokojné miesto, ešte naplno neobjavené turistami, bez elektickej energie medzi 5.25 am a 2.00 pm s krásnym azúrovo-tyrkysovým morom a jemným bielym pieskom.      Toto je pohľad z pláže Seven Commandos      Takto pokojne to vyzerá na ostrove Zimizu, kam sa dostanete len malou lodičkou z El Nida. 

                 
                                        
                        
                        Zdieľať
                    

                    
                            
                                    
                                    Zdieľať na
                            
                             
                                    
                             
                    

                                                                                                                        
                            
                            Diskusia: (2)
                        
                    
                    
                        
                        Zvýšte karmu
                    
                 
             

                             
            
                     
                         Ďalšie články blogera 
                         
                                                             
                                    
                    	                                                                                        

                                                                        
                                    
                                        Maria Pokrivcakova 
                                        
                                            Moje Filipíny V.
                                        
                                    
                                 
                                                             
                                    
                    	                                                                                        

                                                                        
                                    
                                        Maria Pokrivcakova 
                                        
                                            Moje Filipíny IV.
                                        
                                    
                                 
                                                             
                                    
                    	                                                                                        

                                                                        
                                    
                                        Maria Pokrivcakova 
                                        
                                            Moje Filipíny III.
                                        
                                    
                                 
                                                             
                                    
                    	                                                                                        

                                                                        
                                    
                                        Maria Pokrivcakova 
                                        
                                            Moje Filipíny I.
                                        
                                    
                                 
                                                     
                        
                            Ďalšie články blogera: Maria Pokrivcakova
                        
                     
            
                     
                         Ďalšie články z rubriky cestovanie 
                         
                                                             
                                    
                                                                                                                    

                                                                                                
                                    
                                        Miroslav Lisinovič 
                                        
                                            Horná brána v Modre
                                        
                                    
                                 
                                                             
                                    
                                                                                                                    

                                                                                                
                                    
                                        Martina Rúčková 
                                        
                                            Z Európy na Kaukaz: Çanakkale a bájna Trója
                                        
                                    
                                 
                                                             
                                    
                                                            	                                                                                        

                                                                                                
                                    
                                        Andrea Grešová 
                                        
                                            To je moje Rumunsko
                                        
                                    
                                 
                                                             
                                    
                                                                                                                    

                                                                                                
                                    
                                        Ján Serbák 
                                        
                                            Pamätník čs. armády s vojnovým cintorínom na Dukle
                                        
                                    
                                 
                                                             
                                    
                                                            	                                                                                        

                                                                                                
                                    
                                        Peter Kover 
                                        
                                            22 krajín (miest), ktoré sa naozaj oplatí vidieť
                                        
                                    
                                 
                                                     
                        
                            Ďalšie články z rubriky cestovanie
                        
                     
                 
            
                    
 
     Hlavné správy 
         
        
                                

        
         
            AKTUALIZOVANÉ 16:00
             Rubeľ kolabuje, ruská vláda má mimoriadne rokovať 
             Jeden dolár stál v utorok poobede už viac ako 78 rubľov, razantné zvýšenie úrokov nepomohlo. 
         
     
         
        
                                

        
         
            ZAHRANIČIE
             Taliban zabil v škole v Pakistane vyše sto ľudí, väčšinou deti 
             Militanti vtrhli do vojenskej školy v policajných rovnošatách. 
         
     
         
        
                                

        
         
            KOMENTARE.SME.SK
             Cynická obluda: Medzičasom na opustenom ostrove 
             Stroskotanci majú veľké šťastie, že sú dvaja. Lacné vtipy na úrovni ich autora. 
         
     
     

                 
     
    
     
        
 

     
                
                            
                    



         
            
                Maria Pokrivcakova
            
         
        mariapokrivcakova.blog.sme.sk (rss)
         
                                     
     
        nič nie je lepšie ako čítanie kníh a cestovanie, možno deti, do toho sa oplatí investovať ;-)



        
     
     
                     
                             
             

     
        
            
                
                    Počet článkov
                    5
                
                
                    Celková karma
                    
                                                0.00
                    
                
                
                    Priemerná čítanosť
                    1421
                
            
        
     

             

             Zoznam rubrík 
            
             
                                     
                        
                            Cestovanie
                        
                     
                                     
                        
                            Nezaradené
                        
                     
                             
         
    

    

           
     Pošlite odkaz blogerovi 
    
         
            
         

         
         
         
         

         
         
Odosielateľ (e-mail)
 
         
Text
 
         
             
Protispamová ochrana 
 
 Zle. Skúste znova. 
Opíšte slová z obrázku: Načítať iné slová 
 Get an image CAPTCHA 
 
 
         
                 
            
         
    
  


 

     






            
    
        
    
 

        
         
         
             Už ste čítali? 
         
         
 

 kultura.sme.sk 
 Margaréta sa spriahla s diablom, no mala Kristovu pravdu 
 
 

 www.sme.sk 
 Pútnické miesta The Beatles alebo ako ľudia kráčajú po zebre 
 
 

 cestovanie.sme.sk 
 Lovia za svitania a v hmle 
 
 

 www.sme.sk 
 Ako sa valila lavína slobody. Ako padal komunizmus 
 
 

 kultura.sme.sk 
 Žiadne retro, poriadny biznis. Takto sa lisuje platňa 
 
	   
 


        
         
            
         

     

    
     
 
 
	 

		Kontakty
		Predplatné
		Etický kódex
		Pomoc
		Mapa stránky
		
	 
 
 
	 
		 
			Widget
			RSS
			Newsletter
		 
		 
			Mobil
			Smartphone
			Kindle
			Televízor
		 
		 
			Facebook
			Twitter
			Google+
		 
	 
	 
		
	 
	 
		Ďalšie weby skupiny: Prihlásenie do Post.sk
		Új Szó Slovak Spectator
		Agentúrne správy 
		Vydavateľstvo
		Inzercia
		Osobné údaje
		Návštevnosť webu
		Predajnosť tlače
		Petit Academy
		SME v škole 		© Copyright 1997-2014 Petit Press, a.s. 
	 
 
 
 


          
        
            
            

        
    

    
    


    


    
        
        
        
        
        
        
        
            
            
        
        
        
        
         
                                
               





 

 



        

 




