
      
    
    

     
	 
	 
 SME.sk 
 Zľavy 
 Zoznámenie 
 Reality 
 Dovolenky 
 Pizza 
 Reštaurácie 
 Recenzie 
 Inzeráty 
 Naničmama 	 
Nákupy 
		 
 Filmy na DVD 
 Hodinky 
 Parfémy 
 SME knihy a DVD 
 Superhosting 
 Tlačiareň 
 Víno 
 Tvorba webov 
 Predplatné SME 
 ProSenior 		 
	 
	 
 
	 
 


    
    
        
        
         
          
         
    

    
      
         
            
             
     
        
        
     
    Blog.SME.sk
 

    

         
        
                 
     
         
            Sme.sk
         
         
            Domov
         
         
            Regióny
         
         
            Ekonomika
         
         
            Svet
         
         
            Komentáre
         
         
            Kultúra
         
         
            Šport
         
         
            TV
         
         
            Auto
         
         
            Tech
         
         
            Poradňa
         
         
            Žena
         
         
            Bývanie
         
         
            Zdravie
         
         
            Blog
         
     
 

         
            
     
                                                         Politika 
                                                                                     Spoločnosť 
                                                                                     Cestovanie 
                                                                                     Ekonomika 
                                                                                     Fotografie 
                                                                                     Jedlo 
                                                                                     Kultúra 
                                                                                             
Ďalšie
                             
                                                                                         Lifestyle 
                                                                                                                                                                             Médiá 
                                                                                                                                                                             Nezaradené 
                                                                                                                                                                             Súkromné 
                                                                                                                                                                             Šport 
                                                                                                                                                                             Veda a technika 
                                                                                                                                                                             Zábava 
                                                                                                                                                                             Poézia 
                                                                                                                                                                             Próza 
                                                                                                                                                                             Kódex blogera 
                                                                                 
                         
                                                 
            Blogeri
         
     


            

    
    Prihlásiť sa


    
    Založte si blog



    
    Odhlásiť sa


    
    




         

        
        
         
            
         
         
                
     
                 
            SME.sk &gt;
            Blog.SME.sk &gt;
                            Pavel Baričák
                                        &gt;
                Tak plače a smeje sa život
                     
                 Mrak sa nepýta kam zaprší 

        
            
                                    28.5.2010
            o
            9:02
                        (upravené
                28.5.2010
                o
                10:26)
                        |
            Karma článku:
                9.76
            |
            Prečítané 
            2200-krát
                    
         
     
         
             

                 
                    Je zvláštne ako sa všetci tvárime, že sa ničí životne prostredie, ale v osobnom živote pre to málokto z nás niečo skutočne robí. Dali sme sa oklamať, že množstvo tých štátnych inštitúcii, dobrovoľných organizácii, záchranných projektov, akcií a grantov majúcich vo svojich názvoch slová ako „ochrana, životné prostredie, obnova, ekológia atď" robia za nás všetko. A my už nemusíme nič. Hlúposť. Najviac by pomohlo, keby každý z nás mal úctu k našej prekrásnej planéte aspoň na rovnakej úrovni ako k vlastným hodinkám na ruke.
                 

                 Minulý týždeň som si cez mail písal s kamarátom, ktorý žije v Bratislave. Tu je časť jeho slov:   Teším sa zo života. Úplne vážne! Pohladkám auto keď prídem zo Slavošoviec do Bratislavy, pijem vodu a myslím na to, že netrpím smädom. Mohol by som si na večeru objednať pizzu, ale radšej dojem tri krajce chleba so syrom a cibuľou, aby som nič nevyhodil. Nie ako pred piatimi rokmi, keď som aj ja plytval potravinami a inými vecami.   Dnes v robote (nielen doma) všade vypínam svetlo, vodu púšťam veľmi opatrne a ruky si utriem jednou papierovou utierkou (nie ako kolegovci desiatimi). Napríklad u nás v robote máme kuchynky na každom rohu. Sú v nich umývačky riadu. Ľudia si v tých kuchynkách ale neumývajú hrnčeky ručne, ale bez problémov pustia umývačku riadu s dvomi hrnčekmi a jednou lyžičkou... Počítače a svetlá v kanceláriách takmer nik nevypína. Papierom sa nešetrí, tlačiarne chrlia jeden nepotrebný list za druhým. A v ústach majú len Ameriku a ich spôsob života... Na mňa nadávajú keď im do faktúr píšem poznámky a opravy ceruzou. Vraj aby som to písal na samolepiace bločky ako každý.   Nič proti nikomu kto si zvyká na pohodlný život. Nech sa má dobre, mne to neprekáža. Ja sa nerozčuľujem, ale vždy sa dá robiť aj viac, aby sme obmedzili spotrebu. Nehovorím, že musíme zgrliť, ale rozhadzovať nemusíme. Každý deň v robote počúvam čo všetko týmto ľuďom chýba a čo všetko potrebujú... Hodnoty života majú úplne zmenené, stále si neuvedomujú čo majú. Dobre sa na Slovensku veru máme, len nech nám slúži zdravie a všetko bude v poriadku. Možno by nám neuškodil ešte väčší hospodársky krach aspoň na pár rokov. Ver mi, ja budem v pohode...   Verím ti, Zolo. A napadlo ma, že by tvoje riadky mali čítať viacerí ľudia a tak som ich použil. Po tvojich mailoch mi prišla na um už len jediná myšlienka: Plakal som, že nemám topánky. A potom som stretol muža, ktorý nemal nohy.   Buďte šťastní, Hirax           Blog v skratke:    Povolaný nehromadí majetok.   Keď sa zakáže alkohol, ešte viac ľudí sa stane alkoholikmi a k dostaniu bude nebezpečný alkohol.   Čím viac konáte pre druhých, tým viac vlastníte.   Raz za čas by sme si mali ľahnúť do trávy, dotknúť sa dlaňami Matky Zeme a zašepkať jej, že ju milujeme a ďakujeme za všetko. Ak to nedokážeme ani k pokrvným mamám, pôjde to ťažko. Ale pôjde.   Chcelo by to menej slov a viac činov.   Obrovskú zmenu sveta vykonáte maličkou zmenou seba.               Aktivity Hiraxa:   Streda, 16. 6. 2010, Bratislava, Kníhkupectvo MODUL- Svet knihy (v centre mesta, Obchodná), Od 16:04 Hiraxova čítačka k vydanému panamsko-kostarického cestopisu Úcta k prírode a úsmev ako zmysel života a básniam Nech je nebo všade, od 17:06 krst spomínaných dvoch kníh + románu od slovenskej autorky Olivie Olivieri a jej debutu Cicuškine zápisky. Víno, chlebíčky a pozitívna nálada zabezpečené. Vstup jeden úsmev :-).   Utorok, 1. 6. 2010, Čechy, Oficiálne vydanie českej verzie románu  Vteřina před zbláznením (Všechno je, jak je).    Utorok, 22. 6. 2010, Zlaté Moravce, súkromná čítačka v reedukačnom zariadení pre mladistvých.    Utorok, 22. 6. 2010 o 16:02, Piešťany, Kníhkupectvo MODUL (Vinterova), Hiraxova čítačka, vstup jeden úsmev.    Pondelok, 28. 6. 2010, Topoľčany, 17.00 hod Galéria (program pre mladých), 18.00 reštaurácia Kaiserhof Nám.M. R. Štefánika (čítačka Hirax).   Máj-jún 2010: Výstava Hiraxových fotografií z Thajska v martinskej kaviarničke Kamala. Pozor, nejedná sa o žiadnu "galériu". Bude sa jednať o 12-14 záberov, ktorými som sa snažil vystihnúť túto krajinu. Vstup jeden úsmev.     

                 
                                        
                        
                        Zdieľať
                    

                    
                            
                                    
                                    Zdieľať na
                            
                             
                                    
                             
                    

                                                                                                                        
                            
                            Diskusia: (34)
                        
                    
                    
                        
                        Zvýšte karmu
                    
                 
             

                             
            
                     
                         Ďalšie články blogera 
                         
                                                             
                                    
                                                                                                    

                                                                        
                                    
                                        Pavel Baričák 
                                        
                                            Ako urýchliť zámer? Obetou a pokorou
                                        
                                    
                                 
                                                             
                                    
                                                                                                    

                                                                        
                                    
                                        Pavel Baričák 
                                        
                                            Od zámeru k myšlienke: „Na čo myslíte, to násobíte“ (2.časť)
                                        
                                    
                                 
                                                             
                                    
                                                                                                    

                                                                        
                                    
                                        Pavel Baričák 
                                        
                                            Od zámeru k myšlienke: „Na čo myslíte, to násobíte“ (1.časť)
                                        
                                    
                                 
                                                             
                                    
                                                                                                    

                                                                        
                                    
                                        Pavel Baričák 
                                        
                                            Všetci sme mágovia
                                        
                                    
                                 
                                                             
                                    
                                                                                                    

                                                                        
                                    
                                        Pavel Baričák 
                                        
                                            Vnútorným dialógom k osobnému šťastiu
                                        
                                    
                                 
                                                     
                        
                            Ďalšie články blogera: Pavel Baričák
                        
                     
            
                     
                         Ďalšie články z rubriky spoločnosť 
                         
                                                             
                                    
                                                            	                                                                                        

                                                                                                
                                    
                                        Mária Levočská 
                                        
                                            Ďalšia obeť pomsty monsignora Jaraba
                                        
                                    
                                 
                                                             
                                    
                                                            	                                                                                        

                                                                                                
                                    
                                        Kristián Straka 
                                        
                                            Nebite ma, doktor Plzák... alebo POZVANIE NA VEČERU
                                        
                                    
                                 
                                                             
                                    
                                                            	                                                                                        

                                                                                                
                                    
                                        Kristián Straka 
                                        
                                            Oklamaní Ježiškom ?
                                        
                                    
                                 
                                                             
                                    
                                                            	                                                                                        

                                                                                                
                                    
                                        Milan Buno 
                                        
                                            Šup, šup, najesť sa. A utekať!
                                        
                                    
                                 
                                                             
                                    
                                                            	                                                                                        

                                                                                                
                                    
                                        Katarína Lorenčíková 
                                        
                                            Par uprimnych oslobodzujucich riadkov...
                                        
                                    
                                 
                                                     
                        
                            Ďalšie články z rubriky spoločnosť
                        
                     
                 
            
                    
 
     Hlavné správy 
         
        
                                

        
         
            AKTUALIZOVANÉ 20:22
             Slovenky v hlavnej skupine nebodovali, Švédky vyhrali o 9 gólov 
             Naše hádzanárky hrali na ME piaty zápas. V Záhrebe proti Švédkam. 
         
     
         
        
                                

        
         
            AKTUALIZOVANÉ O 20:00
             Rubeľ pocítil pád na dno, Rusko je vo finančnej kríze 
             Dolár včera stál už takmer 80 rubľov, pod hladinu ho tlačia najmä nízke ceny ropy. 
         
     
         
        
                                

        
         
            ZAHRANIČIE
             Taliban zaútočil na citlivé miesto Pakistanu. Na deti 
             Taliban zabil v škole v Pakistane najmenej 141 ľudí, väčšinou deti. 
         
     
     

                 
     
    
     
        
 

     
                
                            
                    



         
            
                Pavel Baričák
            
         
        baricak.blog.sme.sk (rss)
         
                        VIP
                             
     
         Ľudia majú neuveriteľnú schopnosť pripísať všetko, čo bolo napísané autorovi, že to na vlastnej koži aj sám prežil. Prehliadajú schopnosť vnímania, pozorovania sveta a pretransformovania ho do viet s úmyslom pomôcť druhým. Ale na druhej strane sa mi dobre zaspáva s pomyslením, že ostatok sveta na mňa myslí. Cudzí ľudia o mne vedia všetko, teda aj to, čo neviem ani ja sám. Ďakujem im teda za ich všemocnú starostlivosť! Buďte všetci šťastní, prajem Vám to z celého môjho srdca. Hirax &amp;amp;lt;a data-cke-saved-href="http://blueboard.cz/anketa_0.php?id=754643" href="http://blueboard.cz/anketa_0.php?id=754643"&amp;amp;gt;Anketa&amp;amp;lt;/a&amp;amp;gt; od &amp;amp;lt;a data-cke-saved-href="http://blueboard.cz/" href="http://blueboard.cz/"&amp;amp;gt;BlueBoard.cz&amp;amp;lt;/a&amp;amp;gt; 
        
     
     
                     
                             
             

     
        
            
                
                    Počet článkov
                    558
                
                
                    Celková karma
                    
                                                7.11
                    
                
                
                    Priemerná čítanosť
                    3664
                
            
        
     

             

             Zoznam rubrík 
            
             
                                     
                        
                            Šlabikár šťastia 1.
                        
                     
                                     
                        
                            Šlabikár šťastia 2.
                        
                     
                                     
                        
                            Vzťahy (Úvahy)
                        
                     
                                     
                        
                            Tak plače a smeje sa život
                        
                     
                                     
                        
                            Zachráňte malého Paľka!
                        
                     
                                     
                        
                            Po stopách komedianta
                        
                     
                                     
                        
                            Sárka Ráchel Baričáková
                        
                     
                                     
                        
                            Sex (Úvahy)
                        
                     
                                     
                        
                            NEVERŠOVAČKY (Básne)
                        
                     
                                     
                        
                            PRÍBEH MUŽA (Básne a piesne)
                        
                     
                                     
                        
                            SEKUNDU PRED ZBLÁZNENÍM (Román
                        
                     
                                     
                        
                            KÝM NÁS LÁSKA NEROZDELÍ (Román
                        
                     
                                     
                        
                            RAZ AJ V PEKLE VYJDE SLNKO/Rom
                        
                     
                                     
                        
                            ČESKÁ REPUBLIKA (CESTOPIS)
                        
                     
                                     
                        
                            EGYPT (Cestopis)
                        
                     
                                     
                        
                            Ekvádor (Cestopis)
                        
                     
                                     
                        
                            ETIÓPIA (Cestopis)
                        
                     
                                     
                        
                            FRANCÚZSKO (Cestopis)
                        
                     
                                     
                        
                            INDIA (Cestopis)
                        
                     
                                     
                        
                            JORDÁNSKO (CESTOPIS)
                        
                     
                                     
                        
                            KOSTARIKA (Cestopis)
                        
                     
                                     
                        
                            Mexiko (Cestopis)
                        
                     
                                     
                        
                            Nový Zéland (Cestopis)
                        
                     
                                     
                        
                            PANAMA (Cestopis)
                        
                     
                                     
                        
                            POĽSKO (Cestopis)
                        
                     
                                     
                        
                            SLOVENSKO (Cestopis)
                        
                     
                                     
                        
                            THAJSKO (Cestopis)
                        
                     
                                     
                        
                            USA (Cestopis)
                        
                     
                                     
                        
                            VIETNAM (CESTOPIS)
                        
                     
                             
         
    

                     
                        
                                                            
                     Obľúbené články 
                    
                     
                                                 
                                            Niečo o zrkadlení a učiteľoch
                                     
                                                                             
                                            Vlastné šťastie ide cez prítomnosť
                                     
                                                                             
                                            Áno, dá sa naraz milovať dvoch ľudí
                                     
                                                                             
                                            Chcete zmeniť vzťah? Zmeňte najprv seba.
                                     
                                                                             
                                            Chcete byť šťastnými? Prijmite sa.
                                     
                                                                             
                                            Ohovárajú vás? Zraňujú vás klebety? Staňte sa silnými!
                                     
                                                                   
                     Obľúbené knihy 
                    
                     
                                                 
                                            Liedloffová Jean - Koncept kontinua
                                     
                                                                             
                                            Alessandro Baricco - Barbari
                                     
                                                                             
                                            Christopher McDougall - Zrození k běhu (Born to run)
                                     
                                                                             
                                            Ingrid Bauerová - Bez plenky
                                     
                                                                   
                     Čo práve počúvam 
                    
                     
                                                 
                                            The Killers
                                     
                                                                             
                                            Brandom Flowers
                                     
                                                                             
                                            Sunrise Avenue
                                     
                                                                             
                                            Nothing
                                     
                                                                   
                     Obľúbené blogy 
                    
                     
                                                 
                                            Ľubomíra Romanová
                                     
                                                                             
                                            Martin Basila
                                     
                                                                             
                                            Spomíname:
                                     
                                                                             
                                            Moskaľ  Peter
                                     
                                                                             
                                            Miška Oli Procklová Olivieri
                                     
                                                                   
                     Obľúbené stránky 
                    
                     
                                                 
                                            HIRAX Shop
                                     
                            
             
         
            

             
             Čo ma zaujalo 
            Týmto článkom bloger klikol/klikla na karmu.
             
                                                         
                       Skutočná Anna Kareninová bola Puškinovou dcérou
                     
                                                         
                       Máte pocit, že komunisti zničili Bratislavu? Choďte do Bukurešti
                     
                                                         
                       Surinam - zabudnutá juhoamerická exotika
                     
                                                         
                       Hodvábna cesta - 56 dní z Pekingu do Teheránu 2.časť ( Uzbekistan, Turkménsko, Irán)
                     
                                                         
                       Detskí doktori, buďte detskí
                     
                                                         
                       Nemohli nič viac
                     
                                                         
                       Metalový Blog - Folk metal crusade
                     
                                                         
                       Veľká noc vzišla z pohanských sviatkov
                     
                                                         
                       Stačilo p. premiér, oblečte sa prosím
                     
                                                         
                       Jiřina Prekopová: Podmienečná láska je bezcenná
                     
                             
         
           
     Pošlite odkaz blogerovi 
    
         
            
         

         
         
         
         

         
         
Odosielateľ (e-mail)
 
         
Text
 
         
             
Protispamová ochrana 
 
 Zle. Skúste znova. 
Opíšte slová z obrázku: Načítať iné slová 
 Get an image CAPTCHA 
 
 
         
                 
            
         
    
  


 

     






            
    
        
    
 

        
         
         
             Už ste čítali? 
         
         
 

 kultura.sme.sk 
 Margaréta sa spriahla s diablom, no mala Kristovu pravdu 
 
 

 www.sme.sk 
 Pútnické miesta The Beatles alebo ako ľudia kráčajú po zebre 
 
 

 cestovanie.sme.sk 
 Lovia za svitania a v hmle 
 
 

 www.sme.sk 
 Ako sa valila lavína slobody. Ako padal komunizmus 
 
 

 kultura.sme.sk 
 Žiadne retro, poriadny biznis. Takto sa lisuje platňa 
 
	   
 


        
         
            
         

     

    
     
 
 
	 

		Kontakty
		Predplatné
		Etický kódex
		Pomoc
		Mapa stránky
		
	 
 
 
	 
		 
			Widget
			RSS
			Newsletter
		 
		 
			Mobil
			Smartphone
			Kindle
			Televízor
		 
		 
			Facebook
			Twitter
			Google+
		 
	 
	 
		
	 
	 
		Ďalšie weby skupiny: Prihlásenie do Post.sk
		Új Szó Slovak Spectator
		Agentúrne správy 
		Vydavateľstvo
		Inzercia
		Osobné údaje
		Návštevnosť webu
		Predajnosť tlače
		Petit Academy
		SME v škole 		© Copyright 1997-2014 Petit Press, a.s. 
	 
 
 
 


          
        
            
            

        
    

    
    


    


    
        
        
        
        
        
        
        
            
            
        
        
        
        
         
                                
               





 

 



        

 




