
      
    
    

     
	 
	 
 SME.sk 
 Zľavy 
 Zoznámenie 
 Reality 
 Dovolenky 
 Pizza 
 Reštaurácie 
 Recenzie 
 Inzeráty 
 Naničmama 	 
Nákupy 
		 
 Filmy na DVD 
 Hodinky 
 Parfémy 
 SME knihy a DVD 
 Superhosting 
 Tlačiareň 
 Víno 
 Tvorba webov 
 Predplatné SME 
 ProSenior 		 
	 
	 
 
	 
 


    
    
        
        
         
          
         
    

    
      
         
            
             
     
        
        
     
    Blog.SME.sk
 

    

         
        
                 
     
         
            Sme.sk
         
         
            Domov
         
         
            Regióny
         
         
            Ekonomika
         
         
            Svet
         
         
            Komentáre
         
         
            Kultúra
         
         
            Šport
         
         
            TV
         
         
            Auto
         
         
            Tech
         
         
            Poradňa
         
         
            Žena
         
         
            Bývanie
         
         
            Zdravie
         
         
            Blog
         
     
 

         
            
     
                                                         Politika 
                                                                                     Spoločnosť 
                                                                                     Cestovanie 
                                                                                     Ekonomika 
                                                                                     Fotografie 
                                                                                     Jedlo 
                                                                                     Kultúra 
                                                                                             
Ďalšie
                             
                                                                                         Lifestyle 
                                                                                                                                                                             Médiá 
                                                                                                                                                                             Nezaradené 
                                                                                                                                                                             Súkromné 
                                                                                                                                                                             Šport 
                                                                                                                                                                             Veda a technika 
                                                                                                                                                                             Zábava 
                                                                                                                                                                             Poézia 
                                                                                                                                                                             Próza 
                                                                                                                                                                             Kódex blogera 
                                                                                 
                         
                                                 
            Blogeri
         
     


            

    
    Prihlásiť sa


    
    Založte si blog



    
    Odhlásiť sa


    
    




         

        
        
         
            
         
         
                
     
                 
            SME.sk &gt;
            Blog.SME.sk &gt;
                            Ivana Spálová
                                        &gt;
                texty piesní
                     
                 Svet sa zbláznil 

        
            
                                    13.6.2010
            o
            15:52
                        (upravené
                13.6.2010
                o
                17:14)
                        |
            Karma článku:
                4.48
            |
            Prečítané 
            1358-krát
                    
         
     
         
             

                 
                    Keď muži plačú, spievam si túto pieseň našu. Keď muži plačú bolesť sa vznáša vzduchom. Ľudia nesmiernym prúdom nakúkajú do okien. Túžia spoznať tú bolesť ukrytú v srdci boľavom. Čo sú to za ženy, nesmierne chudery, že toto robia chlapom.
                 

                      Svet sa zblááááááznil.    Myšlienky lásky upadli.   Zase sme na zem dopadli.   A táto pesnička dokola vyhráva,    každý deň láska vyhráva a prehráva.               Keď ženy plačú, spievam si túto pieseň našu.   keď ženy plačú bolesť sa vznáša vzduchom.   Ľudia nesmiernym prúdom nakúkajú do okien.   Túžia spoznať tú bolesť ukrytú v srdci boľavom.   Čo sú to za chlapov nesmiernych chudákov, keď nechajú ženy s plačom.               Svet sa zblááááááznil.       Myšlienky lásky upadli.   Zase sme na zem dopadli.   A táto pesnička dokola vyhráva,    každý deň láska vyhráva a prehráva.           Svet sa zbláááznil.   Svet sa zbláááznil.   Svet sa zblááááznil.           Zachráňme srdcia od sklamania.   Nezvládnu už cestu umierania.   Vážme si toho človeka, čo svoju dušu pre nás zapredá.   Važme si skutky lásky,   aby sa svet ODBLÁZNIL.              

                 
                                        
                        
                        Zdieľať
                    

                    
                            
                                    
                                    Zdieľať na
                            
                             
                                    
                             
                    

                                                                                                                        
                            
                            Diskusia: (0)
                        
                    
                    
                        
                        Zvýšte karmu
                    
                 
             

                             
            
                     
                         Ďalšie články blogera 
                         
                                                             
                                    
                    	                                                                                        

                                                                        
                                    
                                        Ivana Spálová 
                                        
                                            Prax verzus teória študentov masmediálnych štúdií
                                        
                                    
                                 
                                                             
                                    
                    	                                                                                        

                                                                        
                                    
                                        Ivana Spálová 
                                        
                                            Veríme médiám, ktoré sú skôr biznisová záležitosť ako informačná?
                                        
                                    
                                 
                                                             
                                    
                    	                                                                                        

                                                                        
                                    
                                        Ivana Spálová 
                                        
                                            Fejtón- Povolanie dcéra
                                        
                                    
                                 
                                                             
                                    
                    	                                                                                        

                                                                        
                                    
                                        Ivana Spálová 
                                        
                                            Iné kafé- Košice 24.1.2011
                                        
                                    
                                 
                                                             
                                    
                    	                                                                                        

                                                                        
                                    
                                        Ivana Spálová 
                                        
                                            7. september
                                        
                                    
                                 
                                                     
                        
                            Ďalšie články blogera: Ivana Spálová
                        
                     
            
                     
                         Ďalšie články z rubriky lifestyle 
                         
                                                             
                                    
                                                                                                                    

                                                                                                
                                    
                                        Xenie Suhayla Komers 
                                        
                                            Vydat, či nevydat se ve stopách svého osudu?
                                        
                                    
                                 
                                                             
                                    
                                                            	                                                                                        

                                                                                                
                                    
                                        Ivana Lešičková 
                                        
                                            Nenávidím Vianoce! Zn: tie v októbri
                                        
                                    
                                 
                                                             
                                    
                                                            	                                                                                        

                                                                                                
                                    
                                        Jana Ambrošová 
                                        
                                            Filipínsky občasník: 4. Peklo v raji
                                        
                                    
                                 
                                                             
                                    
                                                            	                                                                                        

                                                                                                
                                    
                                        Daniela Pikulova 
                                        
                                            Za oponou.
                                        
                                    
                                 
                                                             
                                    
                                                            	                                                                                        

                                                                                                
                                    
                                        Teodor Komenda 
                                        
                                            Škola života
                                        
                                    
                                 
                                                     
                        
                            Ďalšie články z rubriky lifestyle
                        
                     
                 
            
                    
 
     Hlavné správy 
         
        
                                

        
         
            ZAHRANIČIE
             Protestujúci v Maďarsku strácajú dych, Fidesz ich mätie novými návrhmi 
             Na demonštrácii proti Orbánovej vláde bolo v utorok už len niekoľko tisíc ľudí. 
         
     
         
        
                                

        
         
            AKTUALIZOVANÉ O 21:30
             Rubeľ pocítil pád na dno, Rusko je vo finančnej kríze 
             Dolár včera stál už takmer 80 rubľov, pod hladinu ho tlačia najmä nízke ceny ropy. 
         
     
         
        
                                

        
         
            AKTUALIZOVANÉ 21:50
             Taliban zabil v škole v Pakistane 132 detí 
             Pakistan až teraz poriadne zatlačil na islamistov. Odplatou je útok na deti vojakov. 
         
     
     

                 
     
    
     
        
 

     
                
                            
                    



         
            
                Ivana Spálová
            
         
        spalova.blog.sme.sk (rss)
         
                                     
     
        Každý by mal denne počúvať trochu hudby, prečítať nejakú báseň, pozrieť si pekný obraz a pokiaľ možno povedať niekoľko rozumných slov.
(Johann Wolfgang Goethe)
        
     
     
                     
                             
             

     
        
            
                
                    Počet článkov
                    17
                
                
                    Celková karma
                    
                                                0.00
                    
                
                
                    Priemerná čítanosť
                    943
                
            
        
     

             

             Zoznam rubrík 
            
             
                                     
                        
                            texty piesní
                        
                     
                                     
                        
                            To, čo si každý deň neuvedomíš
                        
                     
                                     
                        
                            Súkromné
                        
                     
                                     
                        
                            -Ulica-
                        
                     
                             
         
    

                     
                        
                                                            
                     Obľúbené články 
                    
                     
                                                 
                                            bernátová erika
                                     
                                                                             
                                            Karol Gajdoš
                                     
                                                                             
                                            Lucy Ludvíková
                                     
                                                                   
                     Obľúbené knihy 
                    
                     
                                                 
                                            Anjeli a démoni-Dan Brown
                                     
                                                                             
                                            Drogy v ulicích-Andrew Tyler
                                     
                                                                   
                     Obľúbené blogy 
                    
                     
                                                 
                                            Viktória Morihlátková
                                     
                            
             
         
            

             
             Čo ma zaujalo 
            Týmto článkom bloger klikol/klikla na karmu.
             
                                                         
                       Satelity na satelitoch
                     
                                                         
                       Nájdi mi bývanie v Košiciach a ja ti kúpim poldeci
                     
                                                         
                       Stále len pôda
                     
                                                         
                       Prax verzus teória študentov masmediálnych štúdií
                     
                                                         
                       Pomohol by nám švajčiarsky systém?
                     
                                                         
                       Veríme médiám, ktoré sú skôr biznisová záležitosť ako informačná?
                     
                                                         
                       Fejtón- Povolanie dcéra
                     
                             
         
           
     Pošlite odkaz blogerovi 
    
         
            
         

         
         
         
         

         
         
Odosielateľ (e-mail)
 
         
Text
 
         
             
Protispamová ochrana 
 
 Zle. Skúste znova. 
Opíšte slová z obrázku: Načítať iné slová 
 Get an image CAPTCHA 
 
 
         
                 
            
         
    
  


 

     






            
    
        
    
 

        
         
         
             Už ste čítali? 
         
         
 

 kultura.sme.sk 
 Margaréta sa spriahla s diablom, no mala Kristovu pravdu 
 
 

 www.sme.sk 
 Pútnické miesta The Beatles alebo ako ľudia kráčajú po zebre 
 
 

 cestovanie.sme.sk 
 Lovia za svitania a v hmle 
 
 

 www.sme.sk 
 Ako sa valila lavína slobody. Ako padal komunizmus 
 
 

 kultura.sme.sk 
 Žiadne retro, poriadny biznis. Takto sa lisuje platňa 
 
	   
 


        
         
            
         

     

    
     
 
 
	 

		Kontakty
		Predplatné
		Etický kódex
		Pomoc
		Mapa stránky
		
	 
 
 
	 
		 
			Widget
			RSS
			Newsletter
		 
		 
			Mobil
			Smartphone
			Kindle
			Televízor
		 
		 
			Facebook
			Twitter
			Google+
		 
	 
	 
		
	 
	 
		Ďalšie weby skupiny: Prihlásenie do Post.sk
		Új Szó Slovak Spectator
		Agentúrne správy 
		Vydavateľstvo
		Inzercia
		Osobné údaje
		Návštevnosť webu
		Predajnosť tlače
		Petit Academy
		SME v škole 		© Copyright 1997-2014 Petit Press, a.s. 
	 
 
 
 


          
        
            
            

        
    

    
    


    


    
        
        
        
        
        
        
        
            
            
        
        
        
        
         
                                
               





 

 



        

 




