
      
    
    

     
	 
	 
 SME.sk 
 Zľavy 
 Zoznámenie 
 Reality 
 Dovolenky 
 Pizza 
 Reštaurácie 
 Recenzie 
 Inzeráty 
 Naničmama 	 
Nákupy 
		 
 Filmy na DVD 
 Hodinky 
 Parfémy 
 SME knihy a DVD 
 Superhosting 
 Tlačiareň 
 Víno 
 Tvorba webov 
 Predplatné SME 
 ProSenior 		 
	 
	 
 
	 
 


    
    
        
        
         
          
         
    

    
      
         
            
             
     
        
        
     
    Blog.SME.sk
 

    

         
        
                 
     
         
            Sme.sk
         
         
            Domov
         
         
            Regióny
         
         
            Ekonomika
         
         
            Svet
         
         
            Komentáre
         
         
            Kultúra
         
         
            Šport
         
         
            TV
         
         
            Auto
         
         
            Tech
         
         
            Poradňa
         
         
            Žena
         
         
            Bývanie
         
         
            Zdravie
         
         
            Blog
         
     
 

         
            
     
                                                         Politika 
                                                                                     Spoločnosť 
                                                                                     Cestovanie 
                                                                                     Ekonomika 
                                                                                     Fotografie 
                                                                                     Jedlo 
                                                                                     Kultúra 
                                                                                             
Ďalšie
                             
                                                                                         Lifestyle 
                                                                                                                                                                             Médiá 
                                                                                                                                                                             Nezaradené 
                                                                                                                                                                             Súkromné 
                                                                                                                                                                             Šport 
                                                                                                                                                                             Veda a technika 
                                                                                                                                                                             Zábava 
                                                                                                                                                                             Poézia 
                                                                                                                                                                             Próza 
                                                                                                                                                                             Kódex blogera 
                                                                                 
                         
                                                 
            Blogeri
         
     


            

    
    Prihlásiť sa


    
    Založte si blog



    
    Odhlásiť sa


    
    




         

        
        
         
            
         
         
                
     
                 
            SME.sk &gt;
            Blog.SME.sk &gt;
                            Gabo Németh
                                        &gt;
                Súkromné
                     
                 Čo sme to za ľudia 

        
            
                                    7.2.2010
            o
            9:16
                        (upravené
                7.2.2010
                o
                10:00)
                        |
            Karma článku:
                4.98
            |
            Prečítané 
            584-krát
                    
         
     
         
             

                 
                    Správa o dôchodcovi v Česku, ktorý znásilnil svoju nevlastnú vnučku ma doslova šokovala. Je nutné podotknúť, že vnučka bola pripútaná na invalidný vozík.
                 

                 To sme, až tak hlboko klesli na dno, že je potrebné takto ubližovať bezbranným? Sedemnásťročné dievča, s podlomeným zdravým ostala tehotná. Vôbec, zamyslel sa nad dôsledkami jej nevlastný starý otec, čo môže, respektíve, čo spôsobil? Patrí ten človek k ľudom, so zdravým rozumom? Silno pochybujem  a mám z celého toho zvláštne pocity, až nenachádza slová. Znásilniť bezbranné dievča, a čo jej budúcnosť? Sama to má v živote ťažké a ktosi jej priloží na kríž viac.  Čosi neskutočné, čo trhá srdce.  Fakt, ktorý mnohými otriasol. Ako sa jej  pozrie do očí? Ako prekročí prah domu a bude s rodinou nažívať? Tie rodinné putá sa tým pretrhli a on bude odsúdenia hodný.   Čo však svedomie? Bude ho mať čisté? Bude s tým vôbec vedieť žiť? Svet je akosi obrátený na ruby. Je skazený aj takýmito nemravnými činmi. V dnešnej dobe pojem láska a spolupatričnosť, porozumenie, ktoré je tak dôležité, stráca na význame. A  existuje vôbec čistá, úprimná láska, ktorá by bolo oporou jeden druhému? Stále verím, že áno. Pokiaľ sú ľudia / nie však takí ako dotyčný pán /, verím, že láska víťazí a existuje. V dnešnom svete ľudské hodnoty sa z našich sŕdc akosi vytrácajú. Sex zamieňame za lásku, za akýsi proces vyvrcholenia, ktorý nás uspokojí. Ale čo ďalej ? Veď svet bez lásky, tej naozaj pravej, skutočnej, je malý a bezvýznamný.   Michael Quoist vyslovil krásnu  myšlienku - Láska necháva trpieť, pretože po hriechu milovať, znamená ukrižovať sa pre druhého -. Citát ozaj na zamyslenie. Pre  nášho hrdinu  to ukrižovanie platí dvojnásob, pretože čin, ktorý spáchal určite neostane bez odozvy a bude mať za mrežami dosť času premýšľať, čo naozaj vykonal. 

                 
                                        
                        
                        Zdieľať
                    

                    
                            
                                    
                                    Zdieľať na
                            
                             
                                    
                             
                    

                                                                                                                        
                            
                            Diskusia: (10)
                        
                    
                    
                        
                        Zvýšte karmu
                    
                 
             

                             
            
                     
                         Ďalšie články blogera 
                         
                                                             
                                    
                    	                                                                                        

                                                                        
                                    
                                        Gabo Németh 
                                        
                                            Spomienky a čas
                                        
                                    
                                 
                                                             
                                    
                    	                                                                                        

                                                                        
                                    
                                        Gabo Németh 
                                        
                                            Plač kvetov
                                        
                                    
                                 
                                                             
                                    
                    	                                                                                        

                                                                        
                                    
                                        Gabo Németh 
                                        
                                            Nočná návšteva
                                        
                                    
                                 
                                                             
                                    
                    	                                                                                        

                                                                        
                                    
                                        Gabo Németh 
                                        
                                            Spomienky
                                        
                                    
                                 
                                                             
                                    
                    	                                                                                        

                                                                        
                                    
                                        Gabo Németh 
                                        
                                            Dušičková
                                        
                                    
                                 
                                                     
                        
                            Ďalšie články blogera: Gabo Németh
                        
                     
            
                     
                         Ďalšie články z rubriky spoločnosť 
                         
                                                             
                                    
                                                            	                                                                                        

                                                                                                
                                    
                                        Kristián Straka 
                                        
                                            Nebite ma, doktor Plzák... alebo POZVANIE NA VEČERU
                                        
                                    
                                 
                                                             
                                    
                                                            	                                                                                        

                                                                                                
                                    
                                        Kristián Straka 
                                        
                                            Oklamaní Ježiškom ?
                                        
                                    
                                 
                                                             
                                    
                                                            	                                                                                        

                                                                                                
                                    
                                        Milan Buno 
                                        
                                            Šup, šup, najesť sa. A utekať!
                                        
                                    
                                 
                                                             
                                    
                                                            	                                                                                        

                                                                                                
                                    
                                        Katarína Lorenčíková 
                                        
                                            Par uprimnych oslobodzujucich riadkov...
                                        
                                    
                                 
                                                             
                                    
                                                            	                                                                                        

                                                                                                
                                    
                                        Alžbeta Slováková Spáčilová 
                                        
                                            Selfie s nádychom hyenizmu a krutosti
                                        
                                    
                                 
                                                     
                        
                            Ďalšie články z rubriky spoločnosť
                        
                     
                 
            
                    
 
     Hlavné správy 
         
        
                                

        
         
            AKTUALIZOVANÉ 16:00
             Rubeľ kolabuje, ruská vláda má mimoriadne rokovať 
             Jeden dolár stál v utorok poobede už viac ako 78 rubľov, razantné zvýšenie úrokov nepomohlo. 
         
     
         
        
                                

        
         
            ZAHRANIČIE
             Taliban zabil v škole v Pakistane vyše sto ľudí, väčšinou deti 
             Militanti vtrhli do vojenskej školy v policajných rovnošatách. 
         
     
         
        
                                

        
         
            KOMENTARE.SME.SK
             Cynická obluda: Medzičasom na opustenom ostrove 
             Stroskotanci majú veľké šťastie, že sú dvaja. Lacné vtipy na úrovni ich autora. 
         
     
     

                 
     
    
     
        
 

     
                
                            
                    



         
            
                Gabo Németh
            
         
        gabonemeth.blog.sme.sk (rss)
         
                                     
     
         profesionálny knihovník, básnik, spisovateľ, od roku 2006 člen Spolku slovenských spisovateľov. Vydal básnické zbierky: Za súmraku, Slnko nad básňou, Rodinný album. Venuje sa duchovnej poézii. Chce byť pokračovateľom katolíckej moderny. 
        
     
     
                     
                             
             

     
        
            
                
                    Počet článkov
                    917
                
                
                    Celková karma
                    
                                                2.76
                    
                
                
                    Priemerná čítanosť
                    335
                
            
        
     

             

             Zoznam rubrík 
            
             
                                     
                        
                            denná čítannosť
                        
                     
                                     
                        
                            -
                        
                     
                                     
                        
                            -
                        
                     
                                     
                        
                            -
                        
                     
                                     
                        
                            -
                        
                     
                                     
                        
                            Súkromné
                        
                     
                                     
                        
                            A300
                        
                     
                             
         
    

                     
                        
                                                            
                     Obľúbené články 
                    
                     
                                                 
                                             
                                     
                                                                             
                                            len a len dobré knihy
                                     
                                                                             
                                             
                                     
                                                                             
                                             
                                     
                                                                             
                                             
                                     
                                                                             
                                             
                                     
                                                                             
                                             
                                     
                                                                             
                                            o politike  vôbec
                                     
                                                                             
                                            o politike  vôbec
                                     
                                                                             
                                             
                                     
                                                                             
                                            denník Sme všetky články
                                     
                                                                             
                                             
                                     
                                                                   
                     Obľúbené knihy 
                    
                     
                                                 
                                            Skôr než zaspím od S.J. Watson
                                     
                                                                   
                     Čo práve počúvam 
                    
                     
                                                 
                                            Queen
                                     
                                                                   
                     Obľúbené stránky 
                    
                     
                                                 
                                            blog spisovateľky Miroslavy Varáčkovej
                                     
                                                                             
                                             
                                     
                                                                             
                                             
                                     
                                                                             
                                            všetky dobré a kvalitné blogy na Sme.sk
                                     
                                                                             
                                            facebook
                                     
                            
             
         
            

             
             Čo ma zaujalo 
            Týmto článkom bloger klikol/klikla na karmu.
             
                                                         
                       Muž z kríža
                     
                                                         
                       Spomienky a čas
                     
                                                         
                       Jesenné dotyky
                     
                                                         
                       Plač kvetov
                     
                                                         
                       Nočná návšteva
                     
                                                         
                       Spomienky
                     
                                                         
                       Na prechádzke
                     
                                                         
                       Dušičková
                     
                                                         
                       Ranný obraz
                     
                                                         
                       Po stopách vlastného príbehu
                     
                             
         
           
     Pošlite odkaz blogerovi 
    
         
            
         

         
         
         
         

         
         
Odosielateľ (e-mail)
 
         
Text
 
         
             
Protispamová ochrana 
 
 Zle. Skúste znova. 
Opíšte slová z obrázku: Načítať iné slová 
 Get an image CAPTCHA 
 
 
         
                 
            
         
    
  


 

     






            
    
        
    
 

        
         
         
             Už ste čítali? 
         
         
 

 kultura.sme.sk 
 Margaréta sa spriahla s diablom, no mala Kristovu pravdu 
 
 

 www.sme.sk 
 Pútnické miesta The Beatles alebo ako ľudia kráčajú po zebre 
 
 

 cestovanie.sme.sk 
 Lovia za svitania a v hmle 
 
 

 www.sme.sk 
 Ako sa valila lavína slobody. Ako padal komunizmus 
 
 

 kultura.sme.sk 
 Žiadne retro, poriadny biznis. Takto sa lisuje platňa 
 
	   
 


        
         
            
         

     

    
     
 
 
	 

		Kontakty
		Predplatné
		Etický kódex
		Pomoc
		Mapa stránky
		
	 
 
 
	 
		 
			Widget
			RSS
			Newsletter
		 
		 
			Mobil
			Smartphone
			Kindle
			Televízor
		 
		 
			Facebook
			Twitter
			Google+
		 
	 
	 
		
	 
	 
		Ďalšie weby skupiny: Prihlásenie do Post.sk
		Új Szó Slovak Spectator
		Agentúrne správy 
		Vydavateľstvo
		Inzercia
		Osobné údaje
		Návštevnosť webu
		Predajnosť tlače
		Petit Academy
		SME v škole 		© Copyright 1997-2014 Petit Press, a.s. 
	 
 
 
 


          
        
            
            

        
    

    
    


    


    
        
        
        
        
        
        
        
            
            
        
        
        
        
         
                                
               





 

 



        

 




