
      
    
    

     
	 
	 
 SME.sk 
 Zľavy 
 Zoznámenie 
 Reality 
 Dovolenky 
 Pizza 
 Reštaurácie 
 Recenzie 
 Inzeráty 
 Naničmama 	 
Nákupy 
		 
 Filmy na DVD 
 Hodinky 
 Parfémy 
 SME knihy a DVD 
 Superhosting 
 Tlačiareň 
 Víno 
 Tvorba webov 
 Predplatné SME 
 ProSenior 		 
	 
	 
 
	 
 


    
    
        
        
         
          
         
    

    
      
         
            
             
     
        
        
     
    Blog.SME.sk
 

    

         
        
                 
     
         
            Sme.sk
         
         
            Domov
         
         
            Regióny
         
         
            Ekonomika
         
         
            Svet
         
         
            Komentáre
         
         
            Kultúra
         
         
            Šport
         
         
            TV
         
         
            Auto
         
         
            Tech
         
         
            Poradňa
         
         
            Žena
         
         
            Bývanie
         
         
            Zdravie
         
         
            Blog
         
     
 

         
            
     
                                                         Politika 
                                                                                     Spoločnosť 
                                                                                     Cestovanie 
                                                                                     Ekonomika 
                                                                                     Fotografie 
                                                                                     Jedlo 
                                                                                     Kultúra 
                                                                                             
Ďalšie
                             
                                                                                         Lifestyle 
                                                                                                                                                                             Médiá 
                                                                                                                                                                             Nezaradené 
                                                                                                                                                                             Súkromné 
                                                                                                                                                                             Šport 
                                                                                                                                                                             Veda a technika 
                                                                                                                                                                             Zábava 
                                                                                                                                                                             Poézia 
                                                                                                                                                                             Próza 
                                                                                                                                                                             Kódex blogera 
                                                                                 
                         
                                                 
            Blogeri
         
     


            

    
    Prihlásiť sa


    
    Založte si blog



    
    Odhlásiť sa


    
    




         

        
        
         
            
         
         
                
     
                 
            SME.sk &gt;
            Blog.SME.sk &gt;
                            Peter Molnár
                                        &gt;
                Len(ivý a)tak
                     
                 Sviatky (?) 

        
            
                                    2.4.2010
            o
            0:45
                        (upravené
                3.4.2010
                o
                23:55)
                        |
            Karma článku:
                2.91
            |
            Prečítané 
            765-krát
                    
         
     
         
             

                 
                    Nepoéma.
                 

                     Že si nám vraj priniesol meč.   Konštatuješ.   Okrem iného.   Počuli sme, vybrali sme   si.   Chvíľu sme hútali   a podaktorí vyhútali   že najlepšie bude naďalej robiť blížnemu   zo života kríž.   Kríž, kríž, kríž, Deus vult !       A s nadšením v očiach   a bezstarostným smiechom na perách   sme ťa šľahli   pľuvancom do tváre...       Hosana, hosana !   Amen(abolatridni)cma.   ...   ...   ...   ...a či trvá...   ...   ...   ...   ...doteraz ?     

                 
                                        
                        
                        Zdieľať
                    

                    
                            
                                    
                                    Zdieľať na
                            
                             
                                    
                             
                    

                                                                                                                        
                            
                            Diskusia: (5)
                        
                    
                    
                        
                        Zvýšte karmu
                    
                 
             

                             
            
                     
                         Ďalšie články blogera 
                         
                                                             
                                    
                    	                                                                                        

                                                                        
                                    
                                        Peter Molnár 
                                        
                                            "This isn't a ghost story, it's a love story..." :-)
                                        
                                    
                                 
                                                             
                                    
                    	                                                                                        

                                                                        
                                    
                                        Peter Molnár 
                                        
                                            Sakrálne pamiatky Zemplína - Kostol v Oboríne
                                        
                                    
                                 
                                                             
                                    
                    	                                                                                        

                                                                        
                                    
                                        Peter Molnár 
                                        
                                            Sila / Slabosť (?)
                                        
                                    
                                 
                                                             
                                    
                    	                                                                                        

                                                                        
                                    
                                        Peter Molnár 
                                        
                                            Vianočný koncert dobovej sviatočnej hudby a kolied 2013
                                        
                                    
                                 
                                                             
                                    
                    	                                                                                        

                                                                        
                                    
                                        Peter Molnár 
                                        
                                            Káry-veteráni : Zemplín Veterán Rally 2012
                                        
                                    
                                 
                                                     
                        
                            Ďalšie články blogera: Peter Molnár
                        
                     
            
                     
                         Ďalšie články z rubriky poézia 
                         
                                                             
                                    
                                                            	                                                                                        

                                                                                                
                                    
                                        Tomáš Fuček 
                                        
                                            Posúvam sa dozadu
                                        
                                    
                                 
                                                             
                                    
                                                            	                                                                                        

                                                                                                
                                    
                                        Filip Glejdura 
                                        
                                            . . .  a bolo mu to aj tak jedno
                                        
                                    
                                 
                                                             
                                    
                                                            	                                                                                        

                                                                                                
                                    
                                        Drahoslav Mika 
                                        
                                            Chmúrava
                                        
                                    
                                 
                                                             
                                    
                                                            	                                                                                        

                                                                                                
                                    
                                        Janka Bernáthová 
                                        
                                            Iba dozrievam
                                        
                                    
                                 
                                                             
                                    
                                                            	                                                                                        

                                                                                                
                                    
                                        Filip Glejdura 
                                        
                                            Milujú sa
                                        
                                    
                                 
                                                     
                        
                            Ďalšie články z rubriky poézia
                        
                     
                 
            
                    
 
     Hlavné správy 
         
        
                                

        
         
            AKTUALIZOVANÉ 16:00
             Rubeľ kolabuje, ruská vláda má mimoriadne rokovať 
             Jeden dolár stál v utorok poobede už viac ako 78 rubľov, razantné zvýšenie úrokov nepomohlo. 
         
     
         
        
                                

        
         
            ZAHRANIČIE
             Taliban zabil v škole v Pakistane vyše sto ľudí, väčšinou deti 
             Militanti vtrhli do vojenskej školy v policajných rovnošatách. 
         
     
         
        
                                

        
         
            KOMENTARE.SME.SK
             Cynická obluda: Medzičasom na opustenom ostrove 
             Stroskotanci majú veľké šťastie, že sú dvaja. Lacné vtipy na úrovni ich autora. 
         
     
     

                 
     
    
     
        
 

     
                
                            
                    



         
            
                Peter Molnár
            
         
        petermolnar.blog.sme.sk (rss)
         
                        VIP
                             
     
        Peter Molnár sa menujem, občas niečo dokafrem... :-)
Povolanie : Steampunkový medievalista a pilot Krvavého jastraba... ;-)







"Naučiť sa lietať je jednoduché - hodiť sa o zem a netrafiť sa." (Douglas Adams)

        
     
     
                     
                             
             

     
        
            
                
                    Počet článkov
                    146
                
                
                    Celková karma
                    
                                                0.00
                    
                
                
                    Priemerná čítanosť
                    3475
                
            
        
     

             

             Zoznam rubrík 
            
             
                                     
                        
                            Len(ivý a)tak
                        
                     
                                     
                        
                            Mojimi očami
                        
                     
                                     
                        
                            Duma Molnárova :-)
                        
                     
                                     
                        
                            Výstrelky literárne
                        
                     
                                     
                        
                            Subjektívne objektívom
                        
                     
                                     
                        
                            Filmárina - tvrdá drina
                        
                     
                                     
                        
                            Zápisky letcove
                        
                     
                                     
                        
                            Na vandrovke
                        
                     
                                     
                        
                            Történelem
                        
                     
                                     
                        
                            Pamiatky
                        
                     
                                     
                        
                            Recenzie
                        
                     
                                     
                        
                            Muzička
                        
                     
                                     
                        
                            Haluzenie
                        
                     
                                     
                        
                            Súkromné
                        
                     
                             
         
    

                     
                        
                                                            
                     Obľúbené články 
                    
                     
                                                 
                                            Petícia proti okliešťovaniu slovenského infozákona
                                     
                                                                             
                                            Zase zavádzanie o veľkých šelmách v NP
                                     
                                                                             
                                            STOP úplatkom na Slovensku !
                                     
                                                                             
                                            Šarišský hrad je už uprataný...
                                     
                                                                             
                                            11. 11. 1918
                                     
                                                                             
                                            Interview Karčiho Sudora s Nikou od Hrdzinov ! :-D
                                     
                                                                             
                                            Quo vadis, Podhradie ?
                                     
                                                                             
                                            Sv. František má dôvod byť nasratý...
                                     
                                                                             
                                            Danka o križiakoch... ;-)
                                     
                                                                             
                                            Super tvorivý nápad...
                                     
                                                                             
                                            Kwásne wewevičky... :-D
                                     
                                                                             
                                            Hrady v SR - obete nezáujmu (+ pútavá diskusia)...
                                     
                                                                             
                                            Niečo pre nás fantastov... :-)
                                     
                                                                             
                                            Prídeme o lokalitu najstaršieho mestského parku v Európe ?
                                     
                                                                             
                                            Tak tento chalan mi hovorí z duše...
                                     
                                                                             
                                            PICKACHU LANGUAGE VERSION OF MY BLOG :-)
                                     
                                                                             
                                            Hviezdoslav by nariekal...
                                     
                                                                             
                                            Báseň môjho obľúbeného svätca...
                                     
                                                                             
                                            Majstrovská mini-analýza našej momentálnej súčasnosti
                                     
                                                                             
                                            Občianska spoločnosť na Slovensku = zakázané tabu ?
                                     
                                                                             
                                            Pre Slovensko potrebná sebakatarzia...
                                     
                                                                   
                     Obľúbené knihy 
                    
                     
                                                 
                                            Všetko možné...
                                     
                                                                   
                     Čo práve počúvam 
                    
                     
                                                 
                                            Všetko možné okrem dychovky, duc-duc a sladkastého popu...
                                     
                                                                             
                                            Vox Vulgaris - The Shape of Medieval Music To Come
                                     
                                                                             
                                            Hrdza - Muzička a Pod Božími oknami
                                     
                                                                             
                                            Peha - Niečo sa chystá, Krajinou a Experiment
                                     
                                                                             
                                            Rôzne soundtracky... a také oné... :-P Ta ne ? :-)
                                     
                                                                   
                     Obľúbené blogy 
                    
                     
                                                 
                                            Vlaky, vystrihovačky, kalvárie...
                                     
                                                                             
                                            Ocieľka
                                     
                                                                             
                                            Kočka (Miau_84)
                                     
                                                                             
                                            Hraničiarka
                                     
                                                                             
                                            Jašter Karol
                                     
                                                                             
                                            Katalánska kečupiarka
                                     
                                                                             
                                            Slovak Press Watch
                                     
                                                                             
                                            Malý dejepisný blog
                                     
                                                                             
                                            Vlčica - impresionistka
                                     
                                                                             
                                            Mademoiselle Saša
                                     
                                                                             
                                            Priateľská pani z Kežmarku
                                     
                                                                             
                                            Parížan z Bratislavy
                                     
                                                                             
                                            Griša
                                     
                                                                             
                                            Srandista
                                     
                                                                             
                                            Malká Katka
                                     
                                                                             
                                            Sarkastický space cowboy
                                     
                                                                             
                                            Bledá Bia - The One and Only... ;-)
                                     
                                                                             
                                            Religionistka romantická
                                     
                                                                             
                                            Historička s hokejkou
                                     
                                                                             
                                            Zasnená cykloturistka
                                     
                                                                             
                                            Anjel strážny všetkých potvoriek
                                     
                                                                             
                                            New-wierďáčka Riddick (starý aj nový blog)
                                     
                                                                             
                                            Múdra pani od Blát
                                     
                                                                             
                                            Slamená elfka
                                     
                                                                             
                                            Znalec heraldiky a literatúry
                                     
                                                                             
                                            Ďuri and Skúki
                                     
                                                                             
                                            Hrúza
                                     
                                                                             
                                            Kohútik jarabý
                                     
                                                                             
                                            Poetka - optimistka
                                     
                                                                             
                                            Young professor Soták
                                     
                                                                   
                     Obľúbené stránky 
                    
                     
                                                 
                                            Moje srdcovky :
                                     
                                                                             
                                            Turistika a všeličo okolo nej...
                                     
                                                                             
                                            Slovenské hrady
                                     
                                                                             
                                            Všetko o slovenských pamiatkach...
                                     
                                                                             
                                            ...plus niečo o ich obnove...
                                     
                                                                             
                                            Vesmír : Posledná hranica :-)
                                     
                                                                             
                                            Prvorepublikové lietadlá ;-)
                                     
                                                                             
                                            Bojovníci na pláteno-preglejkových tátošoch...
                                     
                                                                             
                                            ...a ich príbehy vyrozprávané starými fotkami...
                                     
                                                                             
                                            Klub vojenskej histórie Beskydy
                                     
                                                                             
                                            Vojenská technika prvej svetovej
                                     
                                                                             
                                            Najlepší motoršport na svete...
                                     
                                                                             
                                            Literárne oné :
                                     
                                                                             
                                            Sci-fi a fantasy
                                     
                                                                             
                                            Sci-fi a fantasy
                                     
                                                                             
                                            Najväčšie AH fórum na internete (plné AH próz a scenárov)
                                     
                                                                             
                                            Užitočné stránočky :
                                     
                                                                             
                                            Cestovné poriadky
                                     
                                                                             
                                            Filmy
                                     
                                                                             
                                            Filmy
                                     
                                                                             
                                            Vždy čerstvé info o dianí v médiách...
                                     
                                                                             
                                            Chmáru jasnú ! Nezabudnúť na počasie...
                                     
                                                                             
                                            Iné záležitosti :
                                     
                                                                             
                                            Sekundárny online domicil
                                     
                                                                             
                                            Ešte sa uvidí...
                                     
                            
             
         
            

             
             Čo ma zaujalo 
            Týmto článkom bloger klikol/klikla na karmu.
             
                                                         
                       Naozaj žijeme v 21. storočí?
                     
                                                         
                       TA3 robí Ficovi reklamu
                     
                                                         
                       Dubrovnik bez duše
                     
                                                         
                       Pivonky, poctivá slanina a trochu normálny život
                     
                                                         
                       Ako som pozval svoju mamu na Slovensko
                     
                                                         
                       Riskantný krok ministerstva školstva
                     
                                                         
                       "Sociálny" SMER
                     
                                                         
                       Empatia. To je čo?
                     
                                                         
                       Internetové diskusie zaplavili proruskí trollovia, píše Guardian
                     
                                                         
                       Nie je láska ako láska
                     
                             
         
           
     Pošlite odkaz blogerovi 
    
         
            
         

         
         
         
         

         
         
Odosielateľ (e-mail)
 
         
Text
 
         
             
Protispamová ochrana 
 
 Zle. Skúste znova. 
Opíšte slová z obrázku: Načítať iné slová 
 Get an image CAPTCHA 
 
 
         
                 
            
         
    
  


 

     






            
    
        
    
 

        
         
         
             Už ste čítali? 
         
         
 

 kultura.sme.sk 
 Margaréta sa spriahla s diablom, no mala Kristovu pravdu 
 
 

 www.sme.sk 
 Pútnické miesta The Beatles alebo ako ľudia kráčajú po zebre 
 
 

 cestovanie.sme.sk 
 Lovia za svitania a v hmle 
 
 

 www.sme.sk 
 Ako sa valila lavína slobody. Ako padal komunizmus 
 
 

 kultura.sme.sk 
 Žiadne retro, poriadny biznis. Takto sa lisuje platňa 
 
	   
 


        
         
            
         

     

    
     
 
 
	 

		Kontakty
		Predplatné
		Etický kódex
		Pomoc
		Mapa stránky
		
	 
 
 
	 
		 
			Widget
			RSS
			Newsletter
		 
		 
			Mobil
			Smartphone
			Kindle
			Televízor
		 
		 
			Facebook
			Twitter
			Google+
		 
	 
	 
		
	 
	 
		Ďalšie weby skupiny: Prihlásenie do Post.sk
		Új Szó Slovak Spectator
		Agentúrne správy 
		Vydavateľstvo
		Inzercia
		Osobné údaje
		Návštevnosť webu
		Predajnosť tlače
		Petit Academy
		SME v škole 		© Copyright 1997-2014 Petit Press, a.s. 
	 
 
 
 


          
        
            
            

        
    

    
    


    


    
        
        
        
        
        
        
        
            
            
        
        
        
        
         
                                
               





 

 



        

 




