
      
    
    

     
	 
	 
 SME.sk 
 Zľavy 
 Zoznámenie 
 Reality 
 Dovolenky 
 Pizza 
 Reštaurácie 
 Recenzie 
 Inzeráty 
 Naničmama 	 
Nákupy 
		 
 Filmy na DVD 
 Hodinky 
 Parfémy 
 SME knihy a DVD 
 Superhosting 
 Tlačiareň 
 Víno 
 Tvorba webov 
 Predplatné SME 
 ProSenior 		 
	 
	 
 
	 
 


    
    
        
        
         
          
         
    

    
      
         
            
             
     
        
        
     
    Blog.SME.sk
 

    

         
        
                 
     
         
            Sme.sk
         
         
            Domov
         
         
            Regióny
         
         
            Ekonomika
         
         
            Svet
         
         
            Komentáre
         
         
            Kultúra
         
         
            Šport
         
         
            TV
         
         
            Auto
         
         
            Tech
         
         
            Poradňa
         
         
            Žena
         
         
            Bývanie
         
         
            Zdravie
         
         
            Blog
         
     
 

         
            
     
                                                         Politika 
                                                                                     Spoločnosť 
                                                                                     Cestovanie 
                                                                                     Ekonomika 
                                                                                     Fotografie 
                                                                                     Jedlo 
                                                                                     Kultúra 
                                                                                             
Ďalšie
                             
                                                                                         Lifestyle 
                                                                                                                                                                             Médiá 
                                                                                                                                                                             Nezaradené 
                                                                                                                                                                             Súkromné 
                                                                                                                                                                             Šport 
                                                                                                                                                                             Veda a technika 
                                                                                                                                                                             Zábava 
                                                                                                                                                                             Poézia 
                                                                                                                                                                             Próza 
                                                                                                                                                                             Kódex blogera 
                                                                                 
                         
                                                 
            Blogeri
         
     


            

    
    Prihlásiť sa


    
    Založte si blog



    
    Odhlásiť sa


    
    




         

        
        
         
            
         
         
                
     
                 
            SME.sk &gt;
            Blog.SME.sk &gt;
                            Iveta Bošiaková
                                        &gt;
                Súkromné
                     
                 Gróf Monte Christo 

        
            
                                    19.5.2010
            o
            20:42
                        (upravené
                19.5.2010
                o
                20:57)
                        |
            Karma článku:
                4.07
            |
            Prečítané 
            223-krát
                    
         
     
         
             

                 
                    
                 

                 A tak sa zakrádam ticho a pomaly   Ako keď smrť sa plíži po krajine   Keby ste ma blázni naozaj poznali   Nesprávali by ste sa naivne       Voláte ma vaším priateľom i radcom   Tá pretvárka ma verte mi, že bolí   Dnes dostane sa pocty všetkým zradcom   Skončia nabodnutí na drevené koly       Nemám silu preto nehrám čisto   Nehrám, ani nebudem hrať fér   Oproti mne Gróf Monte Christo   Vyzerať bude ako amatér       Moju ruku vedie  moja pomsta   A nech prekliaty na večné časy   Je rod váš, čo i do potomstva   Ja dýkou dnes vašu dušu spasím       Počul som, že pomsta býva sladká   No ja v ústach cítim horkú chuť   Keď nový život mi ani nová matka   Nemôže viacej ponúknuť       A tak sa zakrádam pomaly po krajine   Tak ako smrtka v čiernom kabáte   Už je mi jedno kto vlastne bol na vine   Nehrajte s pomstou, aj tak prehráte         

                 
                                        
                        
                        Zdieľať
                    

                    
                            
                                    
                                    Zdieľať na
                            
                             
                                    
                             
                    

                                                                                                                        
                            
                            Diskusia: (0)
                        
                    
                    
                        
                        Zvýšte karmu
                    
                 
             

                             
            
                     
                         Ďalšie články blogera 
                         
                                                             
                                    
                    	                                                                                        

                                                                        
                                    
                                        Iveta Bošiaková 
                                        
                                            hodiny
                                        
                                    
                                 
                                                             
                                    
                    	                                                                                        

                                                                        
                                    
                                        Iveta Bošiaková 
                                        
                                            uroboros
                                        
                                    
                                 
                                                             
                                    
                    	                                                                                        

                                                                        
                                    
                                        Iveta Bošiaková 
                                        
                                            ja nič, ja muzikant
                                        
                                    
                                 
                                                             
                                    
                    	                                                                                        

                                                                        
                                    
                                        Iveta Bošiaková 
                                        
                                            the smiths
                                        
                                    
                                 
                                                             
                                    
                    	                                                                                        

                                                                        
                                    
                                        Iveta Bošiaková 
                                        
                                            ráno
                                        
                                    
                                 
                                                     
                        
                            Ďalšie články blogera: Iveta Bošiaková
                        
                     
            
                     
                         Ďalšie články z rubriky poézia 
                         
                                                             
                                    
                                                            	                                                                                        

                                                                                                
                                    
                                        Maťo Chudík 
                                        
                                            Niečo sa stalo
                                        
                                    
                                 
                                                             
                                    
                                                            	                                                                                        

                                                                                                
                                    
                                        Tomáš Fuček 
                                        
                                            Posúvam sa dozadu
                                        
                                    
                                 
                                                             
                                    
                                                            	                                                                                        

                                                                                                
                                    
                                        Filip Glejdura 
                                        
                                            . . .  a bolo mu to aj tak jedno
                                        
                                    
                                 
                                                             
                                    
                                                            	                                                                                        

                                                                                                
                                    
                                        Drahoslav Mika 
                                        
                                            Chmúrava
                                        
                                    
                                 
                                                             
                                    
                                                            	                                                                                        

                                                                                                
                                    
                                        Janka Bernáthová 
                                        
                                            Iba dozrievam
                                        
                                    
                                 
                                                     
                        
                            Ďalšie články z rubriky poézia
                        
                     
                 
            
                    
 
     Hlavné správy 
         
        
                                

        
         
            AKTUALIZOVANÉ 20:22
             Slovenky v hlavnej skupine nebodovali, Švédky vyhrali o 9 gólov 
             Naše hádzanárky hrali na ME piaty zápas. V Záhrebe proti Švédkam. 
         
     
         
        
                                

        
         
            AKTUALIZOVANÉ O 20:00
             Rubeľ pocítil pád na dno, Rusko je vo finančnej kríze 
             Dolár včera stál už takmer 80 rubľov, pod hladinu ho tlačia najmä nízke ceny ropy. 
         
     
         
        
                                

        
         
            ZAHRANIČIE
             Taliban zaútočil na citlivé miesto Pakistanu. Na deti 
             Taliban zabil v škole v Pakistane najmenej 141 ľudí, väčšinou deti. 
         
     
     

                 
     
    
     
        
 

     
                
                            
                    



         
            
                Iveta Bošiaková
            
         
        bosiakova.blog.sme.sk (rss)
         
                                     
     
        Som žena, ktorá miluje hudbu, poéziu a sviečkovú omáčku :)
        
     
     
                     
                             
             

     
        
            
                
                    Počet článkov
                    35
                
                
                    Celková karma
                    
                                                0.00
                    
                
                
                    Priemerná čítanosť
                    246
                
            
        
     

             

             Zoznam rubrík 
            
             
                                     
                        
                            just 4 fun :)
                        
                     
                                     
                        
                            ... vampires ...
                        
                     
                                     
                        
                            short drinks
                        
                     
                                     
                        
                            z fachu
                        
                     
                                     
                        
                            Súkromné
                        
                     
                                     
                        
                            Nezaradené
                        
                     
                             
         
    

                     
                        
                                                            
                     Obľúbené knihy 
                    
                     
                                                 
                                            Terry Pratchett: Pyramidy
                                     
                                                                   
                     Čo práve počúvam 
                    
                     
                                                 
                                            Metallica
                                     
                                                                             
                                            Anna Tsuchiya
                                     
                                                                   
                     Obľúbené blogy 
                    
                     
                                                 
                                            Zuzana Ďurecová
                                     
                            
             
         
            

           
     Pošlite odkaz blogerovi 
    
         
            
         

         
         
         
         

         
         
Odosielateľ (e-mail)
 
         
Text
 
         
             
Protispamová ochrana 
 
 Zle. Skúste znova. 
Opíšte slová z obrázku: Načítať iné slová 
 Get an image CAPTCHA 
 
 
         
                 
            
         
    
  


 

     






            
    
        
    
 

        
         
         
             Už ste čítali? 
         
         
 

 kultura.sme.sk 
 Margaréta sa spriahla s diablom, no mala Kristovu pravdu 
 
 

 www.sme.sk 
 Pútnické miesta The Beatles alebo ako ľudia kráčajú po zebre 
 
 

 cestovanie.sme.sk 
 Lovia za svitania a v hmle 
 
 

 www.sme.sk 
 Ako sa valila lavína slobody. Ako padal komunizmus 
 
 

 kultura.sme.sk 
 Žiadne retro, poriadny biznis. Takto sa lisuje platňa 
 
	   
 


        
         
            
         

     

    
     
 
 
	 

		Kontakty
		Predplatné
		Etický kódex
		Pomoc
		Mapa stránky
		
	 
 
 
	 
		 
			Widget
			RSS
			Newsletter
		 
		 
			Mobil
			Smartphone
			Kindle
			Televízor
		 
		 
			Facebook
			Twitter
			Google+
		 
	 
	 
		
	 
	 
		Ďalšie weby skupiny: Prihlásenie do Post.sk
		Új Szó Slovak Spectator
		Agentúrne správy 
		Vydavateľstvo
		Inzercia
		Osobné údaje
		Návštevnosť webu
		Predajnosť tlače
		Petit Academy
		SME v škole 		© Copyright 1997-2014 Petit Press, a.s. 
	 
 
 
 


          
        
            
            

        
    

    
    


    


    
        
        
        
        
        
        
        
            
            
        
        
        
        
         
                                
               





 

 



        

 




