
      
    
    

     
	 
	 
 SME.sk 
 Zľavy 
 Zoznámenie 
 Reality 
 Dovolenky 
 Pizza 
 Reštaurácie 
 Recenzie 
 Inzeráty 
 Naničmama 	 
Nákupy 
		 
 Filmy na DVD 
 Hodinky 
 Parfémy 
 SME knihy a DVD 
 Superhosting 
 Tlačiareň 
 Víno 
 Tvorba webov 
 Predplatné SME 
 ProSenior 		 
	 
	 
 
	 
 


    
    
        
        
         
          
         
    

    
      
         
            
             
     
        
        
     
    Blog.SME.sk
 

    

         
        
                 
     
         
            Sme.sk
         
         
            Domov
         
         
            Regióny
         
         
            Ekonomika
         
         
            Svet
         
         
            Komentáre
         
         
            Kultúra
         
         
            Šport
         
         
            TV
         
         
            Auto
         
         
            Tech
         
         
            Poradňa
         
         
            Žena
         
         
            Bývanie
         
         
            Zdravie
         
         
            Blog
         
     
 

         
            
     
                                                         Politika 
                                                                                     Spoločnosť 
                                                                                     Cestovanie 
                                                                                     Ekonomika 
                                                                                     Fotografie 
                                                                                     Jedlo 
                                                                                     Kultúra 
                                                                                             
Ďalšie
                             
                                                                                         Lifestyle 
                                                                                                                                                                             Médiá 
                                                                                                                                                                             Nezaradené 
                                                                                                                                                                             Súkromné 
                                                                                                                                                                             Šport 
                                                                                                                                                                             Veda a technika 
                                                                                                                                                                             Zábava 
                                                                                                                                                                             Poézia 
                                                                                                                                                                             Próza 
                                                                                                                                                                             Kódex blogera 
                                                                                 
                         
                                                 
            Blogeri
         
     


            

    
    Prihlásiť sa


    
    Založte si blog



    
    Odhlásiť sa


    
    




         

        
        
         
            
         
         
                
     
                 
            SME.sk &gt;
            Blog.SME.sk &gt;
                            Martin Foto Potočný
                                        &gt;
                Mýty bez legendy
                     
                 Dnes všetko po starom 

        
            
                                    24.3.2010
            o
            15:45
                        (upravené
                20.4.2010
                o
                10:26)
                        |
            Karma článku:
                6.74
            |
            Prečítané 
            2120-krát
                    
         
     
         
             

                 
                    Ak by SME si dnes otvorili nemenované elektronické noviny, reku narýchlo čo nového, mali by sme obrovské šťastie. Dnešok bol na Slovensku jedným z tých "mála" dní kedy sa človek dozvie "všetko podstatné" bez otvorenia jediného článku. Postačí prebehnúť očami titulky najčítanejších: 1. Skúšali sme zabrzdiť Toyotu s plynom na podlahe (45 210) 2. Slota znova uráža a straší... (45 103) 3. Slovenské emisie: Švajčiari v nich vidia práčku (32 188) 4. Stranám vylosovali čísla... (32 060) 5. Komentár Ešte horúcejší vzduch od Rada Baťa (31 740) 6. Fico obvinil Radičovú z vykrádania komunistov (27 431) 7. Naše mestá môžu ovešať káblami ako v Rumunsku (23 289) 8. Majiteľom Pravdy je podnikateľ známy z... J&amp;T (21 664) 9. Fico opäť hovorí o dani pre bohatých (21 098) 10. Google skončil s cenzúrou. Trikom (16 418) Imho: voľby sa blížia, obrovské vládne kauzy vrcholia, psi sa bránia útokom, mentalitou patríme na Balkán, vo svete sa s cenzúrou bojuje, u nás P.R.iatelí. A predovšetkým: stále jazdíme ako idioti! Dnes skrátka žiadne novin(k)y, dnes je zase raz všetko po starom.
                 

                 
 shooty.sk
     
Slota  znova uráža a straší. Naša armáda je vraj neschopná 46 672   
Skúšali  sme zabrzdiť Toyotu s plynom na podlahe 43 847   
Stranám  vylosovali čísla. Jednotku si vytiahol outsider 37 961   
Slovenské  emisie: Švajčiari v nich vidia práčku 31 011   
Ešte  horúcejší vzduch 29 002   
Fico  obvinil Radičovú z vykrádania komunistov 26 557   
Naše  mestá môžu ovešať káblami ako v Rumunsku 21 865   
Majiteľom  Pravdy je podnikateľ známy z návštevy monackej jachty J&amp;T 21 419   
Fico  opäť hovorí o dani pre bohatých 20 436   
 Čítajte viac:  http://www.sme.sk/#ixzz0j69aanqG 
   

                 
                                        
                        
                        Zdieľať
                    

                    
                            
                                    
                                    Zdieľať na
                            
                             
                                    
                             
                    

                                                                                                                        
                            
                            Diskusia: (1)
                        
                    
                    
                        
                        Zvýšte karmu
                    
                 
             

                             
            
                     
                         Ďalšie články blogera 
                         
                                                             
                                    
                    	                                                                                        

                                                                        
                                    
                                        Martin Foto Potočný 
                                        
                                            Keď slovák Človeku je vlkom
                                        
                                    
                                 
                                                             
                                    
                    	                                                                                        

                                                                        
                                    
                                        Martin Foto Potočný 
                                        
                                            HC Slovan - skrátená Bratislava
                                        
                                    
                                 
                                                             
                                    
                    	                                                                                        

                                                                        
                                    
                                        Martin Foto Potočný 
                                        
                                            Ako si politici z novinárov vlastných kot-kódov spravili
                                        
                                    
                                 
                                                             
                                    
                    	                                                                                        

                                                                        
                                    
                                        Martin Foto Potočný 
                                        
                                            Zlodejova Republika
                                        
                                    
                                 
                                                             
                                    
                    	                                                                                        

                                                                        
                                    
                                        Martin Foto Potočný 
                                        
                                            Kauza hala nezaháľa, a výsledky?
                                        
                                    
                                 
                                                     
                        
                            Ďalšie články blogera: Martin Foto Potočný
                        
                     
            
                     
                         Ďalšie články z rubriky politika 
                         
                                                             
                                    
                                                            	                                                                                        

                                                                                                
                                    
                                        Tomáš Hudec 
                                        
                                            Chceme zvýšiť účasť ľudí vo voľbách? Zaveďme eVoľby!
                                        
                                    
                                 
                                                             
                                    
                                                            	                                                                                        

                                                                                                
                                    
                                        Robert Bestro 
                                        
                                            Výmena vedenia parlamentu zjavne prospela
                                        
                                    
                                 
                                                             
                                    
                                                            	                                                                                        

                                                                                                
                                    
                                        Júlia Piraňa Mikolášiková 
                                        
                                            Obvinia ďalšiu novinárku z údajného ohovárania policajného šéfa Ševčíka?
                                        
                                    
                                 
                                                             
                                    
                                                            	                                                                                        

                                                                                                
                                    
                                        Stanislav Martinčko 
                                        
                                            Stužka z kvetinárstva za 16 centov a rozkradnuté milióny!!
                                        
                                    
                                 
                                                             
                                    
                                                            	                                                                                        

                                                                                                
                                    
                                        Veronika Remisova 
                                        
                                            Elektronické mýto podľa Ficovej vlády – prehľadnejšie sa to skrátka nedá
                                        
                                    
                                 
                                                     
                        
                            Ďalšie články z rubriky politika
                        
                     
                 
            
                    
 
     Hlavné správy 
         
        
                                

        
         
            AKTUALIZOVANÉ 16:00
             Rubeľ kolabuje, ruská vláda má mimoriadne rokovať 
             Jeden dolár stál v utorok poobede už viac ako 78 rubľov, razantné zvýšenie úrokov nepomohlo. 
         
     
         
        
                                

        
         
            ZAHRANIČIE
             Taliban zabil v škole v Pakistane vyše sto ľudí, väčšinou deti 
             Militanti vtrhli do vojenskej školy v policajných rovnošatách. 
         
     
         
        
                                

        
         
            KOMENTARE.SME.SK
             Cynická obluda: Medzičasom na opustenom ostrove 
             Stroskotanci majú veľké šťastie, že sú dvaja. Lacné vtipy na úrovni ich autora. 
         
     
     

                 
     
    
     
        
 

     
                
                            
                    



         
            
                Martin Foto Potočný
            
         
        martinpotocny.blog.sme.sk (rss)
         
                                     
     
        Šport môžem vo všetkých jeho prevedeniach a vo všetkých jeho podobách, aj literatúru a dobrú hudbu. Rád diskutujem pri dobrom pive o komplexnosti histórie, o zakrivení priestoru a o tom, že jazyky a dialekty tvoria spojité zobrazenie definované na povrchu geoidu.
        
     
     
                     
                             
             

     
        
            
                
                    Počet článkov
                    57
                
                
                    Celková karma
                    
                                                0.00
                    
                
                
                    Priemerná čítanosť
                    3019
                
            
        
     

             

             Zoznam rubrík 
            
             
                                     
                        
                            Šport
                        
                     
                                     
                        
                            Črevo slepô zapálenô
                        
                     
                                     
                        
                            Cestovanie
                        
                     
                                     
                        
                            Kultúra
                        
                     
                                     
                        
                            Mýty bez legendy
                        
                     
                                     
                        
                            I taká je politika
                        
                     
                                     
                        
                            Sever proti Juhu
                        
                     
                                     
                        
                            Zleužitá štatistika
                        
                     
                             
         
    

                     
                        
                                                            
                     Obľúbené články 
                    
                     
                                                 
                                            Problém hokeja je naozaj široký... (.týždeň - máj 2008)
                                     
                                                                   
                     Obľúbené blogy 
                    
                     
                                                 
                                            Jana Kamencayová (žvásty plné geniá..)
                                     
                                                                             
                                            Jozef Kuric (ruka čo nezoslabne)
                                     
                                                                             
                                            Mika Polohová (o nenápadných ľuďoch)
                                     
                                                                             
                                            Helena Sedlárová (myšlienkou fascino..)
                                     
                                                                             
                                            Michal Kravčík (lúska kvapky vody)
                                     
                                                                             
                                            Samuel Marec (o ničom a predsa niečom)
                                     
                                                                             
                                            Petra Jamrichová (tuctový človek)
                                     
                                                                             
                                            Viera Mikulská (prevažne nevážne)
                                     
                                                                             
                                            Andrea Fecková (usporiadaná pestrosť)
                                     
                                                                             
                                            Ján Babarík (aj s Berkym Jariabkom)
                                     
                                                                             
                                            Dominika Handzušová (hokejoumelec)
                                     
                                                                             
                                            Ľubo Randjak (nebojí sa pravdy)
                                     
                                                                             
                                            Lukáš Cabala (vnímavý týpek z Bošáce)
                                     
                                                                             
                                            Ivana Pajanková (hospic - z prvej ruky)
                                     
                                                                             
                                            Drogy (Vlado Schwandtner)
                                     
                                                                             
                                            Melisa (začína žiť odznova)
                                     
                                                                             
                                            Boris Kačáni (boľševikom na večné časy)
                                     
                                                                             
                                            Janette csC. (celkom slušná Cigánka)
                                     
                                                                             
                                            Martin Vlachynský (tuzemský filozofix)
                                     
                                                                             
                                            Jan K. Myšľanov (Zlé správy počkali...)
                                     
                                                                             
                                            Viliam Búr (Programátor, aktivista)
                                     
                                                                             
                                            Chen Lidka Liang (Čínske dievča)
                                     
                                                                             
                                            lenka jíleková (veci, ktoré žije)
                                     
                                                                             
                                            Richard Sulík (Fachman, Občan)
                                     
                            
             
         
            

           
     Pošlite odkaz blogerovi 
    
         
            
         

         
         
         
         

         
         
Odosielateľ (e-mail)
 
         
Text
 
         
             
Protispamová ochrana 
 
 Zle. Skúste znova. 
Opíšte slová z obrázku: Načítať iné slová 
 Get an image CAPTCHA 
 
 
         
                 
            
         
    
  


 

     






            
    
        
    
 

        
         
         
             Už ste čítali? 
         
         
 

 kultura.sme.sk 
 Margaréta sa spriahla s diablom, no mala Kristovu pravdu 
 
 

 www.sme.sk 
 Pútnické miesta The Beatles alebo ako ľudia kráčajú po zebre 
 
 

 cestovanie.sme.sk 
 Lovia za svitania a v hmle 
 
 

 www.sme.sk 
 Ako sa valila lavína slobody. Ako padal komunizmus 
 
 

 kultura.sme.sk 
 Žiadne retro, poriadny biznis. Takto sa lisuje platňa 
 
	   
 


        
         
            
         

     

    
     
 
 
	 

		Kontakty
		Predplatné
		Etický kódex
		Pomoc
		Mapa stránky
		
	 
 
 
	 
		 
			Widget
			RSS
			Newsletter
		 
		 
			Mobil
			Smartphone
			Kindle
			Televízor
		 
		 
			Facebook
			Twitter
			Google+
		 
	 
	 
		
	 
	 
		Ďalšie weby skupiny: Prihlásenie do Post.sk
		Új Szó Slovak Spectator
		Agentúrne správy 
		Vydavateľstvo
		Inzercia
		Osobné údaje
		Návštevnosť webu
		Predajnosť tlače
		Petit Academy
		SME v škole 		© Copyright 1997-2014 Petit Press, a.s. 
	 
 
 
 


          
        
            
            

        
    

    
    


    


    
        
        
        
        
        
        
        
            
            
        
        
        
        
         
                                
               





 

 



        

 




