
      
    
    

     
	 
	 
 SME.sk 
 Zľavy 
 Zoznámenie 
 Reality 
 Dovolenky 
 Pizza 
 Reštaurácie 
 Recenzie 
 Inzeráty 
 Naničmama 	 
Nákupy 
		 
 Filmy na DVD 
 Hodinky 
 Parfémy 
 SME knihy a DVD 
 Superhosting 
 Tlačiareň 
 Víno 
 Tvorba webov 
 Predplatné SME 
 ProSenior 		 
	 
	 
 
	 
 


    
    
        
        
         
          
         
    

    
      
         
            
             
     
        
        
     
    Blog.SME.sk
 

    

         
        
                 
     
         
            Sme.sk
         
         
            Domov
         
         
            Regióny
         
         
            Ekonomika
         
         
            Svet
         
         
            Komentáre
         
         
            Kultúra
         
         
            Šport
         
         
            TV
         
         
            Auto
         
         
            Tech
         
         
            Poradňa
         
         
            Žena
         
         
            Bývanie
         
         
            Zdravie
         
         
            Blog
         
     
 

         
            
     
                                                         Politika 
                                                                                     Spoločnosť 
                                                                                     Cestovanie 
                                                                                     Ekonomika 
                                                                                     Fotografie 
                                                                                     Jedlo 
                                                                                     Kultúra 
                                                                                             
Ďalšie
                             
                                                                                         Lifestyle 
                                                                                                                                                                             Médiá 
                                                                                                                                                                             Nezaradené 
                                                                                                                                                                             Súkromné 
                                                                                                                                                                             Šport 
                                                                                                                                                                             Veda a technika 
                                                                                                                                                                             Zábava 
                                                                                                                                                                             Poézia 
                                                                                                                                                                             Próza 
                                                                                                                                                                             Kódex blogera 
                                                                                 
                         
                                                 
            Blogeri
         
     


            

    
    Prihlásiť sa


    
    Založte si blog



    
    Odhlásiť sa


    
    




         

        
        
         
            
         
         
                
     
                 
            SME.sk &gt;
            Blog.SME.sk &gt;
                            Zuzana Pokorná
                                        &gt;
                Súkromné
                     
                 Film,ktorý zaručene rozplače 

        
            
                                    4.6.2010
            o
            16:32
                        |
            Karma článku:
                6.42
            |
            Prečítané 
            1835-krát
                    
         
     
         
             

                 
                    Nedávno sa mi dostal do rúk jeden veľmi skromný film, už pred tým som o ňom niečo počula, no nevenovala mu žiadnu pozornosť. Môj otec, veľký filmový kritik, mi ho síce odporúčal, ale nebol si celkom istý,  či je to zrovna moja šálka kávy.  Najprv, som celkom nechápala prečo mi ho tak často spomína,  čím mu tak učaroval? Potom som zistila, že ho rozplakal...
                 

                 Viem,   možno pre niekoho bežná vec,pre mňa takisto.Ale pre môjho tatka veru nie, málo kedy ho dojme dobre natočený film. Môj nezáujem sa zrazu zmenil na neuhasiteľnú túžbu pozrieť si ho.  Je to film o obyčajnom mužovi s neobyčajným osudom,  ktorého na ceste stretlo šťastie „na obojku". Psík, ktorý sa stratil na vlakovej stanici,rýchlo prirástol k srdcu tomuto profesorovi hudby(Richard Gere). Trávili spolu krásne chvíľe a aj keď psík zapadol do celej rodiny, medzi ním a jeho pánom sa vytvorilo jedinečné puto, ktoré sa len tak nevidí.Nádherný a srdečný psík Hachico(rasa Akita Inu) sa stal dôležitým bodom, impulzom, zmyslom života pre profesora.Bol medzi nimi pevný priateľský vzťah,ktorý každý okoloidúci závidel.  Hachico(po japonsky: Šťastie) čakával svojho pána každý deň pri vlakovej stanici,presne o 17:00, vďaka tomu sa stal populárny po celom svete.   Jedného dňa sa však stane nešťastie, profesor na vysokej škole odchádza, ako každý bežný deň do práce.Keď chce odísť, psík ho zrazu nenasleduje, namiesto toho mu prinesie loptičku,čo nikdy pred tým nerobieval. Jeden pán, dobrý priateľ profesora, ktorý pochádzal z Japonska mu vysvetlil, že to, že Hachico neaportuje musí mať nejaký význam.Ak mu raz prinesie loptičku, bude mať na to určite vážny dôvod... Na to však profesor,v to ráno nepomyslel a aj napriek tomu do práce odišiel.  To, čo sa stane potom poznačí celú rodinu. Psík stráca pána a pán svojho verného priateľa, Hachico ho však tak veľmi miloval, že napriek všetkému ho príde čakať na stanicu opäť presne o piatej večer.Toto sa opakuje niekoľko rokov, každý deň ,presne v ten istý čas...  Je to príbeh vskutku naozaj dojemný, myslím, že je dôkazom,že psíci majú určite niečo také ako duša.Čo je však viac ako šokujúce, že celý tento príbeh bol natočený podľa skutočnej udalosti.  Odporúčam všetkým milovníkom,nemých tváričiek a ľuďom,ktorý sa pri pozeraní televízie nehambia za svoje slzy.... 

                 
                                        
                        
                        Zdieľať
                    

                    
                            
                                    
                                    Zdieľať na
                            
                             
                                    
                             
                    

                                                                                                                        
                            
                            Diskusia: (30)
                        
                    
                    
                        
                        Zvýšte karmu
                    
                 
             

                             
            
                     
                         Ďalšie články blogera 
                         
                                                             
                                    
                    	                                                                                        

                                                                        
                                    
                                        Zuzana Pokorná 
                                        
                                            Umenie v  Pisztoryho paláci
                                        
                                    
                                 
                                                             
                                    
                    	                                                                                        

                                                                        
                                    
                                        Zuzana Pokorná 
                                        
                                            Bez rúk, bez nôh, bez starostí !
                                        
                                    
                                 
                                                             
                                    
                    	                                                                                        

                                                                        
                                    
                                        Zuzana Pokorná 
                                        
                                            Ako sa dostať k bezbariérovému bytu?
                                        
                                    
                                 
                                                             
                                    
                    	                                                                                        

                                                                        
                                    
                                        Zuzana Pokorná 
                                        
                                            Verím v to, čo cítim, že je správne
                                        
                                    
                                 
                                                             
                                    
                    	                                                                                        

                                                                        
                                    
                                        Zuzana Pokorná 
                                        
                                            O výnimočnosti v každom z nás,o správnych rozhodnutiach
                                        
                                    
                                 
                                                     
                        
                            Ďalšie články blogera: Zuzana Pokorná
                        
                     
            
                     
                         Ďalšie články z rubriky médiá 
                         
                                                             
                                    
                                                                                                                    

                                                                                                
                                    
                                        Ján Dulovič 
                                        
                                            Zabi kapra, zachrániš strom
                                        
                                    
                                 
                                                             
                                    
                                                            	                                                                                        

                                                                                                
                                    
                                        Radovan Bránik 
                                        
                                            Úžasná hra pre sociálne siete: nájdi svojho tajného agenta
                                        
                                    
                                 
                                                             
                                    
                                                                                                                    

                                                                                                
                                    
                                        Filip Letovanec 
                                        
                                            O nepravdivosti titulkov a konci sveta
                                        
                                    
                                 
                                                             
                                    
                                                                                                                    

                                                                                                
                                    
                                        Linka Detskej Istoty 
                                        
                                            Známe osobnosti, punč, príbeh a pozvanie
                                        
                                    
                                 
                                                             
                                    
                                                                                                                    

                                                                                                
                                    
                                        Marek Duda 
                                        
                                            Výroky na úrovni "televíznych novín" - zabite ma pre môj názor
                                        
                                    
                                 
                                                     
                        
                            Ďalšie články z rubriky médiá
                        
                     
                 
            
                    
 
     Hlavné správy 
         
        
                                

        
         
            ZAHRANIČIE
             Protestujúci v Maďarsku strácajú dych, Fidesz ich mätie novými návrhmi 
             Na demonštrácii proti Orbánovej vláde bolo v utorok už len niekoľko tisíc ľudí. 
         
     
         
        
                                

        
         
            AKTUALIZOVANÉ 20:22
             Slovenky v hlavnej skupine nebodovali, Švédky vyhrali o 9 gólov 
             Naše hádzanárky hrali na ME piaty zápas. V Záhrebe proti Švédkam. 
         
     
         
        
                                

        
         
            AKTUALIZOVANÉ O 21:30
             Rubeľ pocítil pád na dno, Rusko je vo finančnej kríze 
             Dolár včera stál už takmer 80 rubľov, pod hladinu ho tlačia najmä nízke ceny ropy. 
         
     
     

                 
     
    
     
        
 

     
                
                            
                    



         
            
                Zuzana Pokorná
            
         
        zuzanapokorna.blog.sme.sk (rss)
         
                                     
     
        Láska je liek na všetko :)
        
     
     
                     
                             
             

     
        
            
                
                    Počet článkov
                    6
                
                
                    Celková karma
                    
                                                0.00
                    
                
                
                    Priemerná čítanosť
                    773
                
            
        
     

             

             Zoznam rubrík 
            
             
                                     
                        
                            Súkromné
                        
                     
                                     
                        
                            Nezaradené
                        
                     
                             
         
    

    

             
             Čo ma zaujalo 
            Týmto článkom bloger klikol/klikla na karmu.
             
                                                         
                       Nemám čas...
                     
                                                         
                       Umenie v  Pisztoryho paláci
                     
                                                         
                       Keď sú dobrovoľníci dobrovoľníkmi telom, aj dušou..
                     
                                                         
                       Globálne otepľovanie sa v Austrálii nekoná už 25 rokov.
                     
                                                         
                       Nezaslúžený osud bratislavskej Manon
                     
                             
         
           
     Pošlite odkaz blogerovi 
    
         
            
         

         
         
         
         

         
         
Odosielateľ (e-mail)
 
         
Text
 
         
             
Protispamová ochrana 
 
 Zle. Skúste znova. 
Opíšte slová z obrázku: Načítať iné slová 
 Get an image CAPTCHA 
 
 
         
                 
            
         
    
  


 

     






            
    
        
    
 

        
         
         
             Už ste čítali? 
         
         
 

 kultura.sme.sk 
 Margaréta sa spriahla s diablom, no mala Kristovu pravdu 
 
 

 www.sme.sk 
 Pútnické miesta The Beatles alebo ako ľudia kráčajú po zebre 
 
 

 cestovanie.sme.sk 
 Lovia za svitania a v hmle 
 
 

 www.sme.sk 
 Ako sa valila lavína slobody. Ako padal komunizmus 
 
 

 kultura.sme.sk 
 Žiadne retro, poriadny biznis. Takto sa lisuje platňa 
 
	   
 


        
         
            
         

     

    
     
 
 
	 

		Kontakty
		Predplatné
		Etický kódex
		Pomoc
		Mapa stránky
		
	 
 
 
	 
		 
			Widget
			RSS
			Newsletter
		 
		 
			Mobil
			Smartphone
			Kindle
			Televízor
		 
		 
			Facebook
			Twitter
			Google+
		 
	 
	 
		
	 
	 
		Ďalšie weby skupiny: Prihlásenie do Post.sk
		Új Szó Slovak Spectator
		Agentúrne správy 
		Vydavateľstvo
		Inzercia
		Osobné údaje
		Návštevnosť webu
		Predajnosť tlače
		Petit Academy
		SME v škole 		© Copyright 1997-2014 Petit Press, a.s. 
	 
 
 
 


          
        
            
            

        
    

    
    


    


    
        
        
        
        
        
        
        
            
            
        
        
        
        
         
                                
               





 

 



        

 




