
      
    
    

     
	 
	 
 SME.sk 
 Zľavy 
 Zoznámenie 
 Reality 
 Dovolenky 
 Pizza 
 Reštaurácie 
 Recenzie 
 Inzeráty 
 Naničmama 	 
Nákupy 
		 
 Filmy na DVD 
 Hodinky 
 Parfémy 
 SME knihy a DVD 
 Superhosting 
 Tlačiareň 
 Víno 
 Tvorba webov 
 Predplatné SME 
 ProSenior 		 
	 
	 
 
	 
 


    
    
        
        
         
          
         
    

    
      
         
            
             
     
        
        
     
    Blog.SME.sk
 

    

         
        
                 
     
         
            Sme.sk
         
         
            Domov
         
         
            Regióny
         
         
            Ekonomika
         
         
            Svet
         
         
            Komentáre
         
         
            Kultúra
         
         
            Šport
         
         
            TV
         
         
            Auto
         
         
            Tech
         
         
            Poradňa
         
         
            Žena
         
         
            Bývanie
         
         
            Zdravie
         
         
            Blog
         
     
 

         
            
     
                                                         Politika 
                                                                                     Spoločnosť 
                                                                                     Cestovanie 
                                                                                     Ekonomika 
                                                                                     Fotografie 
                                                                                     Jedlo 
                                                                                     Kultúra 
                                                                                             
Ďalšie
                             
                                                                                         Lifestyle 
                                                                                                                                                                             Médiá 
                                                                                                                                                                             Nezaradené 
                                                                                                                                                                             Súkromné 
                                                                                                                                                                             Šport 
                                                                                                                                                                             Veda a technika 
                                                                                                                                                                             Zábava 
                                                                                                                                                                             Poézia 
                                                                                                                                                                             Próza 
                                                                                                                                                                             Kódex blogera 
                                                                                 
                         
                                                 
            Blogeri
         
     


            

    
    Prihlásiť sa


    
    Založte si blog



    
    Odhlásiť sa


    
    




         

        
        
         
            
         
         
                
     
                 
            SME.sk &gt;
            Blog.SME.sk &gt;
                            Slavomír Repka
                                        &gt;
                pohľady
                     
                 Stále mi niekto chýba 

        
            
                                    11.4.2010
            o
            18:41
                        |
            Karma článku:
                0.00
            |
            Prečítané 
            1041-krát
                    
         
     
         
             

                 
                    Život. Nie je ani ľahký, ani ťažký. Nie je jednotvárny, ale ani neustále sa meniaci. Je taký, aký si zaslúžiš(m). Ozaj? Nemáš(m) veľa, ale poznám ľudí, ktorí majú menej. Mám akurát, ale stále mi niečo chýba, alebo niekto chýba?  I miss you. Dalo by sa napísať.
                 

                

                 
                                        
                        
                        Zdieľať
                    

                    
                            
                                    
                                    Zdieľať na
                            
                             
                                    
                             
                    

                                                                                                                        
                            
                            Diskusia: (10)
                        
                    
                    
                        
                        Zvýšte karmu
                    
                 
             

                             
            
                     
                         Ďalšie články blogera 
                         
                                                             
                                    
                    	                                                                                        

                                                                        
                                    
                                        Slavomír Repka 
                                        
                                            Ficova kvázi demisia je bohapustá vyhrážka
                                        
                                    
                                 
                                                             
                                    
                                                                                                    

                                                                        
                                    
                                        Slavomír Repka 
                                        
                                            Kam smeruje slovensko s vládou SMER-u
                                        
                                    
                                 
                                                             
                                    
                                                                                                    

                                                                        
                                    
                                        Slavomír Repka 
                                        
                                            Vrana k vrane sadá, alebo voľby sa blížia
                                        
                                    
                                 
                                                             
                                    
                                                                                                    

                                                                        
                                    
                                        Slavomír Repka 
                                        
                                            Stanislav Šváby - môj starosta
                                        
                                    
                                 
                                                             
                                    
                    	                                                                                        

                                                                        
                                    
                                        Slavomír Repka 
                                        
                                            S Radom prichádza do éteru nová telenovela
                                        
                                    
                                 
                                                     
                        
                            Ďalšie články blogera: Slavomír Repka
                        
                     
            
                     
                         Ďalšie články z rubriky nezaradené 
                         
                                                             
                                    
                                                            	                                                                                        

                                                                                                
                                    
                                        Pavel Ondrejmiška 
                                        
                                            Dnes farnosť Žitavany, pred tisíc rokmi kráľovská fara v Kňažiciach
                                        
                                    
                                 
                                                             
                                    
                                                            	                                                                                        

                                                                                                
                                    
                                        Michal Pazič 
                                        
                                            Prečo školské zariadenie v Pakistane?
                                        
                                    
                                 
                                                             
                                    
                                                            	                                                                                        

                                                                                                
                                    
                                        Milan Removčík 
                                        
                                            Zimný Šíp.
                                        
                                    
                                 
                                                             
                                    
                                                            	                                                                                        

                                                                                                
                                    
                                          esc-sr 
                                        
                                            Čas (ne)vhodných darčekov
                                        
                                    
                                 
                                                             
                                    
                                                            	                                                                                        

                                                                                                
                                    
                                        Michal Filek 
                                        
                                            Ako je ťažké darovať bezdomovcom polievku?
                                        
                                    
                                 
                                                     
                        
                            Ďalšie články z rubriky nezaradené
                        
                     
                 
            
                    
 
     Hlavné správy 
         
        
                                

        
         
            AKTUALIZOVANÉ 16:00
             Rubeľ kolabuje, ruská vláda má mimoriadne rokovať 
             Jeden dolár stál v utorok poobede už viac ako 78 rubľov, razantné zvýšenie úrokov nepomohlo. 
         
     
         
        
                                

        
         
            ZAHRANIČIE
             Taliban zabil v škole v Pakistane vyše sto ľudí, väčšinou deti 
             Militanti vtrhli do vojenskej školy v policajných rovnošatách. 
         
     
         
        
                                

        
         
            KOMENTARE.SME.SK
             Cynická obluda: Medzičasom na opustenom ostrove 
             Stroskotanci majú veľké šťastie, že sú dvaja. Lacné vtipy na úrovni ich autora. 
         
     
     

                 
     
    
     
        
 

     
                
                            
                    



         
            
                Slavomír Repka
            
         
        repka.blog.sme.sk (rss)
         
                                     
     
         Nezaujíma ma, koľko stojí liter benzínu. 
Zaujíma ma, koľko zarábam ja. 
(kurňa, ten benzín je ale drahý) 

 V roku 2005 (február) som na blogu SME začínal článkom PAŠTEKÁRI 

 Viac o mne a mojej práci nájdete na týchto stránkach 

 Pozrite si aj ODPORÚČAME.EÚ prípadne poďte sem publikovať. 

 Obývam krásnu časť zeme, nazývanú Slovensko. Bývam v dosahu hlavného mesta, ale aj hory a vodu mám blízko.  
Mimo rečou som východniar ;-), paštekár.... 

 Résumé môjho "NAJ" na blogu SME nájtete TU 
        
     
     
                     
                                                        
                        
                    
                                                        
                        
                    
                                                        
                        
                    
                                                        
                        
                    
                             
             

     
        
            
                
                    Počet článkov
                    533
                
                
                    Celková karma
                    
                                                14.56
                    
                
                
                    Priemerná čítanosť
                    2579
                
            
        
     

             

             Zoznam rubrík 
            
             
                                     
                        
                            Z pohľadu obchodníka
                        
                     
                                     
                        
                            PRE Consulting
                        
                     
                                     
                        
                            CESTOVNÝ RUCH
                        
                     
                                     
                        
                            postrehy z ciest
                        
                     
                                     
                        
                            osobný názor
                        
                     
                                     
                        
                            pohľady
                        
                     
                                     
                        
                            Analýzy
                        
                     
                                     
                        
                            AUTO - test
                        
                     
                                     
                        
                            Súkromné
                        
                     
                                     
                        
                            Nezaradené
                        
                     
                             
         
    

                     
                        
                                                            
                     Obľúbené články 
                    
                     
                                                 
                                            Súťaž
                                     
                                                                             
                                            ODPORÚČAME.EÚ
                                     
                                                                             
                                            Paštekári
                                     
                                                                             
                                            Jahodná
                                     
                                                                   
                     Obľúbené stránky 
                    
                     
                                                 
                                            Aplikácia
                                     
                                                                             
                                            Rezervy vo firmách
                                     
                                                                             
                                            Najlepší obchodník
                                     
                                                                             
                                            Mystery shopping
                                     
                                                                             
                                            Dobré čítanie
                                     
                            
             
         
            

             
             Čo ma zaujalo 
            Týmto článkom bloger klikol/klikla na karmu.
             
                                                         
                       Špina, bezpečnosť a tichá(?) koalícia SMER - SDKÚ v Starom meste
                     
                                                         
                       Osudové okamžiky
                     
                                                         
                       Zamyslenie nad jedným Rozsudkom v mene Slovenskej republiky
                     
                                                         
                       Stanislav Šváby - môj starosta
                     
                                                         
                       Slovakia Ring 24hod: Aké to je atakovať takmer 800 kilometrov na bicykli za jediný deň?
                     
                                                         
                       Pinocchio, čo sa už nezmestí do parlamentu
                     
                                                         
                       Bratislava chce opäť zlegalizovať 400 billbordov
                     
                                                         
                       S Radom prichádza do éteru nová telenovela
                     
                                                         
                       Keď plynár má lepšiu províziu za predaj elektriny
                     
                                                         
                       Zpráva ze života malých šestiletých hominidů
                     
                             
         
           
     Pošlite odkaz blogerovi 
    
         
            
         

         
         
         
         

         
         
Odosielateľ (e-mail)
 
         
Text
 
         
             
Protispamová ochrana 
 
 Zle. Skúste znova. 
Opíšte slová z obrázku: Načítať iné slová 
 Get an image CAPTCHA 
 
 
         
                 
            
         
    
  


 

     






            
    
        
    
 

        
         
         
             Už ste čítali? 
         
         
 

 kultura.sme.sk 
 Margaréta sa spriahla s diablom, no mala Kristovu pravdu 
 
 

 www.sme.sk 
 Pútnické miesta The Beatles alebo ako ľudia kráčajú po zebre 
 
 

 cestovanie.sme.sk 
 Lovia za svitania a v hmle 
 
 

 www.sme.sk 
 Ako sa valila lavína slobody. Ako padal komunizmus 
 
 

 kultura.sme.sk 
 Žiadne retro, poriadny biznis. Takto sa lisuje platňa 
 
	   
 


        
         
            
         

     

    
     
 
 
	 

		Kontakty
		Predplatné
		Etický kódex
		Pomoc
		Mapa stránky
		
	 
 
 
	 
		 
			Widget
			RSS
			Newsletter
		 
		 
			Mobil
			Smartphone
			Kindle
			Televízor
		 
		 
			Facebook
			Twitter
			Google+
		 
	 
	 
		
	 
	 
		Ďalšie weby skupiny: Prihlásenie do Post.sk
		Új Szó Slovak Spectator
		Agentúrne správy 
		Vydavateľstvo
		Inzercia
		Osobné údaje
		Návštevnosť webu
		Predajnosť tlače
		Petit Academy
		SME v škole 		© Copyright 1997-2014 Petit Press, a.s. 
	 
 
 
 


          
        
            
            

        
    

    
    


    


    
        
        
        
        
        
        
        
            
            
        
        
        
        
         
                                
               





 

 



        

 




