
      
    
    

     
	 
	 
 SME.sk 
 Zľavy 
 Zoznámenie 
 Reality 
 Dovolenky 
 Pizza 
 Reštaurácie 
 Recenzie 
 Inzeráty 
 Naničmama 	 
Nákupy 
		 
 Filmy na DVD 
 Hodinky 
 Parfémy 
 SME knihy a DVD 
 Superhosting 
 Tlačiareň 
 Víno 
 Tvorba webov 
 Predplatné SME 
 ProSenior 		 
	 
	 
 
	 
 


    
    
        
        
         
          
         
    

    
      
         
            
             
     
        
        
     
    Blog.SME.sk
 

    

         
        
                 
     
         
            Sme.sk
         
         
            Domov
         
         
            Regióny
         
         
            Ekonomika
         
         
            Svet
         
         
            Komentáre
         
         
            Kultúra
         
         
            Šport
         
         
            TV
         
         
            Auto
         
         
            Tech
         
         
            Poradňa
         
         
            Žena
         
         
            Bývanie
         
         
            Zdravie
         
         
            Blog
         
     
 

         
            
     
                                                         Politika 
                                                                                     Spoločnosť 
                                                                                     Cestovanie 
                                                                                     Ekonomika 
                                                                                     Fotografie 
                                                                                     Jedlo 
                                                                                     Kultúra 
                                                                                             
Ďalšie
                             
                                                                                         Lifestyle 
                                                                                                                                                                             Médiá 
                                                                                                                                                                             Nezaradené 
                                                                                                                                                                             Súkromné 
                                                                                                                                                                             Šport 
                                                                                                                                                                             Veda a technika 
                                                                                                                                                                             Zábava 
                                                                                                                                                                             Poézia 
                                                                                                                                                                             Próza 
                                                                                                                                                                             Kódex blogera 
                                                                                 
                         
                                                 
            Blogeri
         
     


            

    
    Prihlásiť sa


    
    Založte si blog



    
    Odhlásiť sa


    
    




         

        
        
         
            
         
         
                
     
                 
            SME.sk &gt;
            Blog.SME.sk &gt;
                            Peter Verešpej
                                        &gt;
                Možno aj básne
                     
                 Kvapôčky nahých myšlienok 

        
            
                                    28.3.2010
            o
            16:37
                        (upravené
                28.3.2010
                o
                16:51)
                        |
            Karma článku:
                2.84
            |
            Prečítané 
            368-krát
                    
         
     
         
             

                 
                    
                 

                 SRDCE            A čo teraz,    Opýtaj sa srdce samo seba.       Nájdi si vhodný argument,    Ako vysvetliť    Pôvod hier s ohňom,    S naivným chladným    Počasím v myšlienkach.           Tak, čo vieš už odpoveď,    Máš logiku,    Alebo zahráš citlivku,    Ako vždy, keď horia    Aj posledné stromy    V nehostinnej intimite    Lesíkov.           Nechaj ma hádať,    Opäť mozog        Zvíťazí ?!       MOŽNO UŽ NIE SI                    Si opustená,    Plačeš na vtáčom    Krídle.       Slzy máš sladké    A rany sú neživé.           Nevnímaš svet,    Ani okoloidúce    Svetlo.    Ani chladné teplo.           Si odovzdaná    Vydaná napospas    Osudu.           Možno už nie si.        LOŽ           Upadáš,    Si odhodená socha bez hlavy,    Nenamaľovali ti ani oči maliari,    Klesla si na dno.           Škoda rečí,   Sviečka ti horí, ale nemá    Knôt.           Ale čo ťa urážam,    Teba to neraní ani nezlomí,    Dávno si v mysliach    Zanikla.           Mávam Ti z diaľky,    Zo stanice pravdy právd.    Zbohom egoistka.           Rečou som odkopol        Lož.       LOTÉRIA S CHARIZMOU            Vyhral som lotériu,    Mizéria skončila,    Paráda,    Ľahnem si na chrbát,    Hlavou do trávy   A začnem počúvať,           Všetkých, čo majú    Problémy    A hádzať na nich    Pohľady    Novodobého ničomníka    S charizmou v ušiach.                                            

                 
                                        
                        
                        Zdieľať
                    

                    
                            
                                    
                                    Zdieľať na
                            
                             
                                    
                             
                    

                                                                                                                        
                            
                            Diskusia: (4)
                        
                    
                    
                        
                        Zvýšte karmu
                    
                 
             

                             
            
                     
                         Ďalšie články blogera 
                         
                                                             
                                    
                    	                                                                                        

                                                                        
                                    
                                        Peter Verešpej 
                                        
                                            Cesta do dispečerovej duše
                                        
                                    
                                 
                                                             
                                    
                    	                                                                                        

                                                                        
                                    
                                        Peter Verešpej 
                                        
                                            Bol som v Amsterdame
                                        
                                    
                                 
                                                             
                                    
                    	                                                                                        

                                                                        
                                    
                                        Peter Verešpej 
                                        
                                            Keď vlak zrazí človeka, aj vás
                                        
                                    
                                 
                                                             
                                    
                    	                                                                                        

                                                                        
                                    
                                        Peter Verešpej 
                                        
                                            Pipina vo vlaku
                                        
                                    
                                 
                                                             
                                    
                    	                                                                                        

                                                                        
                                    
                                        Peter Verešpej 
                                        
                                            Niekedy je asi lepšie o odškodnenie ZSSK nežiadať
                                        
                                    
                                 
                                                     
                        
                            Ďalšie články blogera: Peter Verešpej
                        
                     
            
                     
                         Ďalšie články z rubriky poézia 
                         
                                                             
                                    
                                                            	                                                                                        

                                                                                                
                                    
                                        Tomáš Fuček 
                                        
                                            Posúvam sa dozadu
                                        
                                    
                                 
                                                             
                                    
                                                            	                                                                                        

                                                                                                
                                    
                                        Filip Glejdura 
                                        
                                            . . .  a bolo mu to aj tak jedno
                                        
                                    
                                 
                                                             
                                    
                                                            	                                                                                        

                                                                                                
                                    
                                        Drahoslav Mika 
                                        
                                            Chmúrava
                                        
                                    
                                 
                                                             
                                    
                                                            	                                                                                        

                                                                                                
                                    
                                        Janka Bernáthová 
                                        
                                            Iba dozrievam
                                        
                                    
                                 
                                                             
                                    
                                                            	                                                                                        

                                                                                                
                                    
                                        Filip Glejdura 
                                        
                                            Milujú sa
                                        
                                    
                                 
                                                     
                        
                            Ďalšie články z rubriky poézia
                        
                     
                 
            
                    
 
     Hlavné správy 
         
        
                                

        
         
            AKTUALIZOVANÉ 16:00
             Rubeľ kolabuje, ruská vláda má mimoriadne rokovať 
             Jeden dolár stál v utorok poobede už viac ako 78 rubľov, razantné zvýšenie úrokov nepomohlo. 
         
     
         
        
                                

        
         
            ZAHRANIČIE
             Taliban zabil v škole v Pakistane vyše sto ľudí, väčšinou deti 
             Militanti vtrhli do vojenskej školy v policajných rovnošatách. 
         
     
         
        
                                

        
         
            KOMENTARE.SME.SK
             Cynická obluda: Medzičasom na opustenom ostrove 
             Stroskotanci majú veľké šťastie, že sú dvaja. Lacné vtipy na úrovni ich autora. 
         
     
     

                 
     
    
     
        
 

     
                
                            
                    



         
            
                Peter Verešpej
            
         
        verespej.blog.sme.sk (rss)
         
                                     
     
         Obloha je trochu modrá jako hotel Grand, jsem trochu obyvatel, trochu emigrant. (Vypsaná Fixa) 
        
     
     
                     
                                                        
                        
                    
                                                        
                        
                    
                                                        
                        
                    
                             
             

     
        
            
                
                    Počet článkov
                    157
                
                
                    Celková karma
                    
                                                0.00
                    
                
                
                    Priemerná čítanosť
                    797
                
            
        
     

             

             Zoznam rubrík 
            
             
                                     
                        
                            Smejem sa sám na sebe
                        
                     
                                     
                        
                            Všimol som si a naštvalo ma
                        
                     
                                     
                        
                            Dušanovi
                        
                     
                                     
                        
                            Prstom po mape, nohami po zemi
                        
                     
                                     
                        
                            Možno aj básne
                        
                     
                                     
                        
                            Tak som kedysi písal
                        
                     
                                     
                        
                            Súkromné
                        
                     
                                     
                        
                            Nezaradené
                        
                     
                             
         
    

                     
                        
                                                            
                     Čo práve počúvam 
                    
                     
                                                 
                                            Goran Bregovič
                                     
                                                                             
                                            Karnevalová vrana
                                     
                                                                             
                                            Dubioza Kolektiv
                                     
                                                                   
                     Obľúbené blogy 
                    
                     
                                                 
                                            Marián Baran
                                     
                                                                             
                                            Dominika
                                     
                                                                             
                                            Ester
                                     
                                                                             
                                            Samo Marec
                                     
                                                                             
                                            Miro Lukačovič
                                     
                                                                             
                                            MUDr. Ľuba  Romanová
                                     
                            
             
         
            

           
     Pošlite odkaz blogerovi 
    
         
            
         

         
         
         
         

         
         
Odosielateľ (e-mail)
 
         
Text
 
         
             
Protispamová ochrana 
 
 Zle. Skúste znova. 
Opíšte slová z obrázku: Načítať iné slová 
 Get an image CAPTCHA 
 
 
         
                 
            
         
    
  


 

     






            
    
        
    
 

        
         
         
             Už ste čítali? 
         
         
 

 kultura.sme.sk 
 Margaréta sa spriahla s diablom, no mala Kristovu pravdu 
 
 

 www.sme.sk 
 Pútnické miesta The Beatles alebo ako ľudia kráčajú po zebre 
 
 

 cestovanie.sme.sk 
 Lovia za svitania a v hmle 
 
 

 www.sme.sk 
 Ako sa valila lavína slobody. Ako padal komunizmus 
 
 

 kultura.sme.sk 
 Žiadne retro, poriadny biznis. Takto sa lisuje platňa 
 
	   
 


        
         
            
         

     

    
     
 
 
	 

		Kontakty
		Predplatné
		Etický kódex
		Pomoc
		Mapa stránky
		
	 
 
 
	 
		 
			Widget
			RSS
			Newsletter
		 
		 
			Mobil
			Smartphone
			Kindle
			Televízor
		 
		 
			Facebook
			Twitter
			Google+
		 
	 
	 
		
	 
	 
		Ďalšie weby skupiny: Prihlásenie do Post.sk
		Új Szó Slovak Spectator
		Agentúrne správy 
		Vydavateľstvo
		Inzercia
		Osobné údaje
		Návštevnosť webu
		Predajnosť tlače
		Petit Academy
		SME v škole 		© Copyright 1997-2014 Petit Press, a.s. 
	 
 
 
 


          
        
            
            

        
    

    
    


    


    
        
        
        
        
        
        
        
            
            
        
        
        
        
         
                                
               





 

 



        

 




