
      
    
    

     
	 
	 
 SME.sk 
 Zľavy 
 Zoznámenie 
 Reality 
 Dovolenky 
 Pizza 
 Reštaurácie 
 Recenzie 
 Inzeráty 
 Naničmama 	 
Nákupy 
		 
 Filmy na DVD 
 Hodinky 
 Parfémy 
 SME knihy a DVD 
 Superhosting 
 Tlačiareň 
 Víno 
 Tvorba webov 
 Predplatné SME 
 ProSenior 		 
	 
	 
 
	 
 


    
    
        
        
         
          
         
    

    
      
         
            
             
     
        
        
     
    Blog.SME.sk
 

    

         
        
                 
     
         
            Sme.sk
         
         
            Domov
         
         
            Regióny
         
         
            Ekonomika
         
         
            Svet
         
         
            Komentáre
         
         
            Kultúra
         
         
            Šport
         
         
            TV
         
         
            Auto
         
         
            Tech
         
         
            Poradňa
         
         
            Žena
         
         
            Bývanie
         
         
            Zdravie
         
         
            Blog
         
     
 

         
            
     
                                                         Politika 
                                                                                     Spoločnosť 
                                                                                     Cestovanie 
                                                                                     Ekonomika 
                                                                                     Fotografie 
                                                                                     Jedlo 
                                                                                     Kultúra 
                                                                                             
Ďalšie
                             
                                                                                         Lifestyle 
                                                                                                                                                                             Médiá 
                                                                                                                                                                             Nezaradené 
                                                                                                                                                                             Súkromné 
                                                                                                                                                                             Šport 
                                                                                                                                                                             Veda a technika 
                                                                                                                                                                             Zábava 
                                                                                                                                                                             Poézia 
                                                                                                                                                                             Próza 
                                                                                                                                                                             Kódex blogera 
                                                                                 
                         
                                                 
            Blogeri
         
     


            

    
    Prihlásiť sa


    
    Založte si blog



    
    Odhlásiť sa


    
    




         

        
        
         
            
         
         
                
     
                 
            SME.sk &gt;
            Blog.SME.sk &gt;
                            Rastislav Dubovský ™
                                        &gt;
                # tempo
                     
                 An toi n ett a 

        
            
                                    13.5.2010
            o
            15:55
                        |
            Karma článku:
                3.17
            |
            Prečítané 
            298-krát
                    
         
     
         
             

                 
                    pohľad prichádzajúci z neznáma   oči v ktorých chceš vidieť obraz do rána   toľko krát nepoznaná a neznáma   a toľko krát len imaginárna a šialená
                 

                 
  
   možno opäť veľa kriku a slov pre nič   a ešte viac myšlienok a predstáv   chcem vidieť slová a počuť obraz teba   občas je to hlúpo ľahké a občas krutá veda       kde je skutočný vietor a kde sa ani lístok nepohne   kedy som ťa stretol, stretám a stretnem   bola si to ty, si to ty a budeš to ty?   otázky na ktoré poznať odpovede netreba       iba jedna holá veta pravdy pre teba – chcem ťa poznať   pokúšať sa hádať tvoje pocity a myšlienky   pokúsiť sa uhádnuť teba   .             

                 
                                        
                        
                        Zdieľať
                    

                    
                            
                                    
                                    Zdieľať na
                            
                             
                                    
                             
                    

                                                                                                                        
                            
                            Diskusia: (4)
                        
                    
                    
                        
                        Zvýšte karmu
                    
                 
             

                             
            
                     
                         Ďalšie články blogera 
                         
                                                             
                                    
                                                                                                    

                                                                        
                                    
                                        Rastislav Dubovský ™ 
                                        
                                            Lenka
                                        
                                    
                                 
                                                             
                                    
                    	                                                                                        

                                                                        
                                    
                                        Rastislav Dubovský ™ 
                                        
                                            Man in red - Robert Norris.
                                        
                                    
                                 
                                                             
                                    
                    	                                                                                        

                                                                        
                                    
                                        Rastislav Dubovský ™ 
                                        
                                            Pyšná princezná a princ Kažimír Krasoň hlava maslom vytretá
                                        
                                    
                                 
                                                             
                                    
                    	                                                                                        

                                                                        
                                    
                                        Rastislav Dubovský ™ 
                                        
                                            Dobrú noc Slovensko :)
                                        
                                    
                                 
                                                             
                                    
                    	                                                                                        

                                                                        
                                    
                                        Rastislav Dubovský ™ 
                                        
                                            ...už dávno neplatí
                                        
                                    
                                 
                                                     
                        
                            Ďalšie články blogera: Rastislav Dubovský ™
                        
                     
            
                     
                         Ďalšie články z rubriky poézia 
                         
                                                             
                                    
                                                            	                                                                                        

                                                                                                
                                    
                                        Maťo Chudík 
                                        
                                            Niečo sa stalo
                                        
                                    
                                 
                                                             
                                    
                                                            	                                                                                        

                                                                                                
                                    
                                        Tomáš Fuček 
                                        
                                            Posúvam sa dozadu
                                        
                                    
                                 
                                                             
                                    
                                                            	                                                                                        

                                                                                                
                                    
                                        Filip Glejdura 
                                        
                                            . . .  a bolo mu to aj tak jedno
                                        
                                    
                                 
                                                             
                                    
                                                            	                                                                                        

                                                                                                
                                    
                                        Drahoslav Mika 
                                        
                                            Chmúrava
                                        
                                    
                                 
                                                             
                                    
                                                            	                                                                                        

                                                                                                
                                    
                                        Janka Bernáthová 
                                        
                                            Iba dozrievam
                                        
                                    
                                 
                                                     
                        
                            Ďalšie články z rubriky poézia
                        
                     
                 
            
                    
 
     Hlavné správy 
         
        
                                

        
         
            AKTUALIZOVANÉ O 20:00
             Rubeľ pocítil pád na dno, Rusko je vo finančnej kríze 
             Dolár včera stál už takmer 80 rubľov, pod hladinu ho tlačia najmä nízke ceny ropy. 
         
     
         
        
                                

        
         
            ZAHRANIČIE
             Taliban zaútočil na citlivé miesto Pakistanu. Na deti 
             Taliban zabil v škole v Pakistane najmenej 141 ľudí, väčšinou deti. 
         
     
         
        
                                

        
         
            KOMENTARE.SME.SK
             Cynická obluda: Medzičasom na opustenom ostrove 
             Stroskotanci majú veľké šťastie, že sú dvaja. Lacné vtipy na úrovni ich autora. 
         
     
     

                 
     
    
     
        
 

     
                
                            
                    



         
            
                Rastislav Dubovský ™
            
         
        dubovsky.blog.sme.sk (rss)
         
                                     
     
        

 www.myspace.com/cld69rst; 

 https://soundcloud.com/rastislav-dubovsk 
        
     
     
                     
                             
             

     
        
            
                
                    Počet článkov
                    105
                
                
                    Celková karma
                    
                                                0.00
                    
                
                
                    Priemerná čítanosť
                    879
                
            
        
     

             

             Zoznam rubrík 
            
             
                                     
                        
                            # midlife :)
                        
                     
                                     
                        
                            # cm
                        
                     
                                     
                        
                            # nezaradene
                        
                     
                                     
                        
                            # kde bolo, tam nebolo
                        
                     
                                     
                        
                            # tempo
                        
                     
                                     
                        
                            # clovek
                        
                     
                                     
                        
                            # s / mini
                        
                     
                                     
                        
                            # kratke prechadzky / photosss
                        
                     
                                     
                        
                            # kallotto
                        
                     
                             
         
    

                     
                        
                                                            
                     Obľúbené knihy 
                    
                     
                                                 
                                            ...noty - akekolvek
                                     
                                                                   
                     Čo práve počúvam 
                    
                     
                                                 
                                            e.s.t. - Seven Days Of Falling
                                     
                                                                             
                                            Herbie Hancock ...
                                     
                                                                             
                                             
                                     
                                                                   
                     Obľúbené blogy 
                    
                     
                                                 
                                            bohush
                                     
                                                                             
                                            zuzka zavadska
                                     
                                                                             
                                            KRAFTWERK
                                     
                                                                             
                                            scissor sisters
                                     
                                                                   
                     Obľúbené stránky 
                    
                     
                                                 
                                            ...
                                     
                                                                             
                                            Gibson
                                     
                                                                             
                                            Apple
                                     
                            
             
         
            

             
             Čo ma zaujalo 
            Týmto článkom bloger klikol/klikla na karmu.
             
                                                         
                       Lenka
                     
                                                         
                       Man in red - Robert Norris.
                     
                                                         
                       Pyšná princezná a princ Kažimír Krasoň hlava maslom vytretá
                     
                             
         
           
     Pošlite odkaz blogerovi 
    
         
            
         

         
         
         
         

         
         
Odosielateľ (e-mail)
 
         
Text
 
         
             
Protispamová ochrana 
 
 Zle. Skúste znova. 
Opíšte slová z obrázku: Načítať iné slová 
 Get an image CAPTCHA 
 
 
         
                 
            
         
    
  


 

     






            
    
        
    
 

        
         
         
             Už ste čítali? 
         
         
 

 kultura.sme.sk 
 Margaréta sa spriahla s diablom, no mala Kristovu pravdu 
 
 

 www.sme.sk 
 Pútnické miesta The Beatles alebo ako ľudia kráčajú po zebre 
 
 

 cestovanie.sme.sk 
 Lovia za svitania a v hmle 
 
 

 www.sme.sk 
 Ako sa valila lavína slobody. Ako padal komunizmus 
 
 

 kultura.sme.sk 
 Žiadne retro, poriadny biznis. Takto sa lisuje platňa 
 
	   
 


        
         
            
         

     

    
     
 
 
	 

		Kontakty
		Predplatné
		Etický kódex
		Pomoc
		Mapa stránky
		
	 
 
 
	 
		 
			Widget
			RSS
			Newsletter
		 
		 
			Mobil
			Smartphone
			Kindle
			Televízor
		 
		 
			Facebook
			Twitter
			Google+
		 
	 
	 
		
	 
	 
		Ďalšie weby skupiny: Prihlásenie do Post.sk
		Új Szó Slovak Spectator
		Agentúrne správy 
		Vydavateľstvo
		Inzercia
		Osobné údaje
		Návštevnosť webu
		Predajnosť tlače
		Petit Academy
		SME v škole 		© Copyright 1997-2014 Petit Press, a.s. 
	 
 
 
 


          
        
            
            

        
    

    
    


    


    
        
        
        
        
        
        
        
            
            
        
        
        
        
         
                                
               





 

 



        

 




