
      
    
    

     
	 
	 
 SME.sk 
 Zľavy 
 Zoznámenie 
 Reality 
 Dovolenky 
 Pizza 
 Reštaurácie 
 Recenzie 
 Inzeráty 
 Naničmama 	 
Nákupy 
		 
 Filmy na DVD 
 Hodinky 
 Parfémy 
 SME knihy a DVD 
 Superhosting 
 Tlačiareň 
 Víno 
 Tvorba webov 
 Predplatné SME 
 ProSenior 		 
	 
	 
 
	 
 


    
    
        
        
         
          
         
    

    
      
         
            
             
     
        
        
     
    Blog.SME.sk
 

    

         
        
                 
     
         
            Sme.sk
         
         
            Domov
         
         
            Regióny
         
         
            Ekonomika
         
         
            Svet
         
         
            Komentáre
         
         
            Kultúra
         
         
            Šport
         
         
            TV
         
         
            Auto
         
         
            Tech
         
         
            Poradňa
         
         
            Žena
         
         
            Bývanie
         
         
            Zdravie
         
         
            Blog
         
     
 

         
            
     
                                                         Politika 
                                                                                     Spoločnosť 
                                                                                     Cestovanie 
                                                                                     Ekonomika 
                                                                                     Fotografie 
                                                                                     Jedlo 
                                                                                     Kultúra 
                                                                                             
Ďalšie
                             
                                                                                         Lifestyle 
                                                                                                                                                                             Médiá 
                                                                                                                                                                             Nezaradené 
                                                                                                                                                                             Súkromné 
                                                                                                                                                                             Šport 
                                                                                                                                                                             Veda a technika 
                                                                                                                                                                             Zábava 
                                                                                                                                                                             Poézia 
                                                                                                                                                                             Próza 
                                                                                                                                                                             Kódex blogera 
                                                                                 
                         
                                                 
            Blogeri
         
     


            

    
    Prihlásiť sa


    
    Založte si blog



    
    Odhlásiť sa


    
    




         

        
        
         
            
         
         
                
     
                 
            SME.sk &gt;
            Blog.SME.sk &gt;
                            Juraj Kačo
                                        &gt;
                Kultúra
                     
                 Krst albumu bez hviezdy... 

        
            
                                    18.6.2010
            o
            7:45
                        (upravené
                18.6.2010
                o
                0:04)
                        |
            Karma článku:
                4.13
            |
            Prečítané 
            792-krát
                    
         
     
         
             

                 
                    v duchu spomienok sa niesol krst nového CD Petra Muka in memoriam.. pokrstiť alebo nepokrstiť ?... Ťažko sa píšu tieto riadky.. veľa emócií a spomienok sa vynára... Album, ktorý uzrel svetlo sveta 21 mája mal byť návratom k pôvodnej tvorbe. Peter sa tohto comebacku nedožil.. Pripravované prekvapenie v podobe krstného otca Andyho Bella z Erasure sa zmenilo na spomienky hudobných priateľov ...Tento album si však krst zaslúži.. je najlepším z Petrovej tvorby... je návratom k Oceánu a po textovej stránke je plný pravdivých výpovedí...
                 

                 Cítím (Vítr ve tváři)      Chtěl jsem být pouští písek a žár  poutníků kroky podél mořských čár  Chtěl jsem být jasným světlem, chtěl jsem být tmou   chtěl jsem být pouští po níž lidé šlapou      Zahlédnout tě v jádrech skrytých světů  s nicotou sám pak splynu v jednu větu  Doprostřed kruhů chci tvým královstvím plout  marnosti vzdávám zbavený pout      Pak cítím   jak vítr vane na mou tvář  Cítím  že se blíží dávná zář   Cítím      Chtěl jsem být studnou, co nevysychá  dešťovým proudem, kterým život dýchá  Chtěl jsem být ohněm k ránu hřejícím   pro tvoji přítomnost já chtěl jsem být vším      A cítím   jak vítr vane na mou tvář  Cítím   že se blíží dávná zář   Cítím      Snad stoupám   chci najít pravdy utajené   a vnímám   co se mi zdálo tak zamlžené     Pak cítím   jak vítr vane na mou tvář  cítím že se blíží dávna zář  Cítím   @ Photo Juraj Kačo 

                 
                                        
                        
                        Zdieľať
                    

                    
                            
                                    
                                    Zdieľať na
                            
                             
                                    
                             
                    

                                                                                                                        
                            
                            Diskusia: (4)
                        
                    
                    
                        
                        Zvýšte karmu
                    
                 
             

                             
            
                     
                         Ďalšie články blogera 
                         
                                                             
                                    
                    	                                                                                        

                                                                        
                                    
                                        Juraj Kačo 
                                        
                                            Víkendové úniky z mesta: v uličkách Českého Krumlova
                                        
                                    
                                 
                                                             
                                    
                    	                                                                                        

                                                                        
                                    
                                        Juraj Kačo 
                                        
                                            Rande so svojim mestom
                                        
                                    
                                 
                                                             
                                    
                    	                                                                                        

                                                                        
                                    
                                        Juraj Kačo 
                                        
                                            po roku opäť s objektívom na Dúhovom Pride v Bratislave
                                        
                                    
                                 
                                                             
                                    
                    	                                                                                        

                                                                        
                                    
                                        Juraj Kačo 
                                        
                                            Postrehy zo zastávok a ciest MHD
                                        
                                    
                                 
                                                             
                                    
                    	                                                                                        

                                                                        
                                    
                                        Juraj Kačo 
                                        
                                            Bez komentára z Divadla Aréna,16.09.2010
                                        
                                    
                                 
                                                     
                        
                            Ďalšie články blogera: Juraj Kačo
                        
                     
            
                     
                         Ďalšie články z rubriky kultúra 
                         
                                                             
                                    
                                                            	                                                                                        

                                                                                                
                                    
                                        Jozef Kuric 
                                        
                                            Zapletení - detektívka veľkého kalibru
                                        
                                    
                                 
                                                             
                                    
                                                            	                                                                                        

                                                                                                
                                    
                                        Stanislav Hoferek 
                                        
                                            Referendum na tému "poďme všetko zakázať, všetko bude lepšie"
                                        
                                    
                                 
                                                             
                                    
                                                            	                                                                                        

                                                                                                
                                    
                                        Elena Antalová 
                                        
                                            Nebyť Wintonovho "dieťaťa", nevznikla by Francúzova milenka (dnes ČT 2, 21,45).
                                        
                                    
                                 
                                                             
                                    
                                                                                                                    

                                                                                                
                                    
                                        Milena Veresová 
                                        
                                            Z hrnca do rozprávky
                                        
                                    
                                 
                                                             
                                    
                                                            	                                                                                        

                                                                                                
                                    
                                        Petra Jurečková 
                                        
                                            Oblečie sa za pútnika a vy mu dáte svoje peniaze
                                        
                                    
                                 
                                                     
                        
                            Ďalšie články z rubriky kultúra
                        
                     
                 
            
                    
 
     Hlavné správy 
         
        
                                

        
         
            ZAHRANIČIE
             Protestujúci v Maďarsku strácajú dych, Fidesz ich mätie novými návrhmi 
             Na demonštrácii proti Orbánovej vláde bolo v utorok už len niekoľko tisíc ľudí. 
         
     
         
        
                                

        
         
            AKTUALIZOVANÉ O 21:30
             Rubeľ pocítil pád na dno, Rusko je vo finančnej kríze 
             Dolár včera stál už takmer 80 rubľov, pod hladinu ho tlačia najmä nízke ceny ropy. 
         
     
         
        
                                

        
         
            AKTUALIZOVANÉ 21:50
             Taliban zabil v škole v Pakistane 132 detí 
             Pakistan až teraz poriadne zatlačil na islamistov. Odplatou je útok na deti vojakov. 
         
     
     

                 
     
    
     
        
 

     
                
                            
                    



         
            
                Juraj Kačo
            
         
        kaco.blog.sme.sk (rss)
         
                                     
     
        už nič...
        
     
     
                     
                             
             

     
        
            
                
                    Počet článkov
                    24
                
                
                    Celková karma
                    
                                                0.00
                    
                
                
                    Priemerná čítanosť
                    1746
                
            
        
     

             

             Zoznam rubrík 
            
             
                                     
                        
                            Zamyslenie
                        
                     
                                     
                        
                            Cestovanie
                        
                     
                                     
                        
                            Poézia,Próza
                        
                     
                                     
                        
                            Fotografovanie
                        
                     
                                     
                        
                            Kultúra
                        
                     
                                     
                        
                            Média
                        
                     
                             
         
    

                     
                        
                                                            
                     Obľúbené knihy 
                    
                     
                                                 
                                            Nepál - turistický sprievodca
                                     
                                                                             
                                            Greg Mortensen - Tri šálky čaju
                                     
                                                                   
                     Čo práve počúvam 
                    
                     
                                                 
                                            Veľa ambient-u,downtempo,IDM,nu jazz-u,jazz-u
                                     
                                                                             
                                            Maok - jeho skvele hudobné iluzie a nálady
                                     
                                                                             
                                             
                                     
                                                                             
                                             
                                     
                            
             
         
            

           
     Pošlite odkaz blogerovi 
    
         
            
         

         
         
         
         

         
         
Odosielateľ (e-mail)
 
         
Text
 
         
             
Protispamová ochrana 
 
 Zle. Skúste znova. 
Opíšte slová z obrázku: Načítať iné slová 
 Get an image CAPTCHA 
 
 
         
                 
            
         
    
  


 

     






            
    
        
    
 

        
         
         
             Už ste čítali? 
         
         
 

 kultura.sme.sk 
 Margaréta sa spriahla s diablom, no mala Kristovu pravdu 
 
 

 www.sme.sk 
 Pútnické miesta The Beatles alebo ako ľudia kráčajú po zebre 
 
 

 cestovanie.sme.sk 
 Lovia za svitania a v hmle 
 
 

 www.sme.sk 
 Ako sa valila lavína slobody. Ako padal komunizmus 
 
 

 kultura.sme.sk 
 Žiadne retro, poriadny biznis. Takto sa lisuje platňa 
 
	   
 


        
         
            
         

     

    
     
 
 
	 

		Kontakty
		Predplatné
		Etický kódex
		Pomoc
		Mapa stránky
		
	 
 
 
	 
		 
			Widget
			RSS
			Newsletter
		 
		 
			Mobil
			Smartphone
			Kindle
			Televízor
		 
		 
			Facebook
			Twitter
			Google+
		 
	 
	 
		
	 
	 
		Ďalšie weby skupiny: Prihlásenie do Post.sk
		Új Szó Slovak Spectator
		Agentúrne správy 
		Vydavateľstvo
		Inzercia
		Osobné údaje
		Návštevnosť webu
		Predajnosť tlače
		Petit Academy
		SME v škole 		© Copyright 1997-2014 Petit Press, a.s. 
	 
 
 
 


          
        
            
            

        
    

    
    


    


    
        
        
        
        
        
        
        
            
            
        
        
        
        
         
                                
               





 

 



        

 




