
      
    
    

     
	 
	 
 SME.sk 
 Zľavy 
 Zoznámenie 
 Reality 
 Dovolenky 
 Pizza 
 Reštaurácie 
 Recenzie 
 Inzeráty 
 Naničmama 	 
Nákupy 
		 
 Filmy na DVD 
 Hodinky 
 Parfémy 
 SME knihy a DVD 
 Superhosting 
 Tlačiareň 
 Víno 
 Tvorba webov 
 Predplatné SME 
 ProSenior 		 
	 
	 
 
	 
 


    
    
        
        
         
          
         
    

    
      
         
            
             
     
        
        
     
    Blog.SME.sk
 

    

         
        
                 
     
         
            Sme.sk
         
         
            Domov
         
         
            Regióny
         
         
            Ekonomika
         
         
            Svet
         
         
            Komentáre
         
         
            Kultúra
         
         
            Šport
         
         
            TV
         
         
            Auto
         
         
            Tech
         
         
            Poradňa
         
         
            Žena
         
         
            Bývanie
         
         
            Zdravie
         
         
            Blog
         
     
 

         
            
     
                                                         Politika 
                                                                                     Spoločnosť 
                                                                                     Cestovanie 
                                                                                     Ekonomika 
                                                                                     Fotografie 
                                                                                     Jedlo 
                                                                                     Kultúra 
                                                                                             
Ďalšie
                             
                                                                                         Lifestyle 
                                                                                                                                                                             Médiá 
                                                                                                                                                                             Nezaradené 
                                                                                                                                                                             Súkromné 
                                                                                                                                                                             Šport 
                                                                                                                                                                             Veda a technika 
                                                                                                                                                                             Zábava 
                                                                                                                                                                             Poézia 
                                                                                                                                                                             Próza 
                                                                                                                                                                             Kódex blogera 
                                                                                 
                         
                                                 
            Blogeri
         
     


            

    
    Prihlásiť sa


    
    Založte si blog



    
    Odhlásiť sa


    
    




         

        
        
         
            
         
         
                
     
                 
            SME.sk &gt;
            Blog.SME.sk &gt;
                            Miroslava Rogulova
                                        &gt;
                Nezaradené
                     
                 Sonita - Dievca s nekonecnymi nohami 

        
            
                                    7.5.2010
            o
            9:04
                        (upravené
                7.5.2010
                o
                9:55)
                        |
            Karma článku:
                3.64
            |
            Prečítané 
            1270-krát
                    
         
     
         
             

                 
                    Nohy gazely a tvar porcelanovej babiky zazreli svetlo sveta pred 18 rokmi v mestecku Presov, z ktoreho po 14 rokoch milovymi a velmi ladnymi krokmi odkracali do hlavneho mesta. Tam si dievca so silnymi no predsa jemnymi crtami tvare odstartovalo svoju karieru chcenej modelky.
                 

                 
  
   Sona! Muza takeho zvucneho mena ako Calvin Klein sa donedavna premavala iba po molach v Parizi, Milane a Tokyu avsak stastena sa obratila na dalsiu z mala slovenskych modeliek, ktore prerazili v New York City, co je podla mna najvacsi uspech v kariere jednej modelky. Nic nie je lepsie a ohromujucejsie ako New York's Fashion Week ci Fashion Week's night out, ah :) Tam za mlakou sa zrazu vsade hovorilo o plavovlasej elfke s nohami dlhymi ako Chrysler, ktora necakane zatvarala prehliadku uz hore spominaneho pana Kleina. A odvtedy sa to s nou taha na vyssej, ale ovela vyssej urovni, nez len modelky co predvadzaju v Europe. Predvadzala pre take znacky ako Chloe, Dolce &amp; Gabanna, Michael Angel, Jil Sander a v casopisovh AMICIA, OFFICIEL ci DOLCE VITA sa jej titulky leskly aj v slovensky novinovych stankoch, nevynimajuc, ze snad najlepsi editorial ma na svedomi ruske ELLE, kde jej telo obopina obrovsku motorku ci editorial v najnovsej greckej Marie Claire, kde jej dekolt zdobi hena v podobe sperkov a nahrdelnikov znacky Chanel. Ak by moje ruky mohli v jednom kuse tlieskat tak tlieskam doteraz aj pocas pisania tohto profilu. Co sa tyka Soninyc mier, ktore tak znacne lahodia navrharom a slavnym fotografom mozte sa prizriet blizsie:   Vyska: 180 cm   Miery: 78-58-88   Konfekcna velkost: 33   Farba vlasov: svetlo hneda   Farba oci: modra   Sonita patri pod agenturu Exit Model Management v Bratislave, no v spominanom velkom jablku sa o nu stara svetoznama a najlepsia zlata bana na modely IMG Models NYC.   Priznam sa, som Sonkin skalny fanusik a velmi jej fandim, pretoze dievca je ako z inej galaxie a malokedy sa taketo zriedkave etericke stvorenia vidia volnym okom tu na malom skorumpovanom Slovensku, ktore je stale velmi pozadu, co sa tyka stylingu a mody ako takej. Dufam, ze sa Soni bude darit len viac a viac a ten usmev na tvary, kory sa jej tam drzi v poslednu dobu castejsie a castejsie jej tam ostane tiez. Good luck Sonita.   Viac o Soni : http://www.fashionmodeldirectory.com/models/Sona_Matufkova/   ruske ELLE : http://www.fashionising.com/pictures/b--Cat-ears-nudity-in-Elle-Ru-with-Sona-Matufkova-2318.html   http://forums.thefashionspot.com/f52/sona-matufkova-46733-23.html 

                 
                                        
                        
                        Zdieľať
                    

                    
                            
                                    
                                    Zdieľať na
                            
                             
                                    
                             
                    

                                                                                                                        
                            
                            Diskusia: (4)
                        
                    
                    
                        
                        Zvýšte karmu
                    
                 
             

                             
            
                     
                         Ďalšie články blogera 
                         
                                                             
                                    
                    	                                                                                        

                                                                        
                                    
                                        Miroslava Rogulova 
                                        
                                            All American Girl
                                        
                                    
                                 
                                                             
                                    
                    	                                                                                        

                                                                        
                                    
                                        Miroslava Rogulova 
                                        
                                            Mala vrtka dobre...
                                        
                                    
                                 
                                                             
                                    
                    	                                                                                        

                                                                        
                                    
                                        Miroslava Rogulova 
                                        
                                            Na skale
                                        
                                    
                                 
                                                             
                                    
                    	                                                                                        

                                                                        
                                    
                                        Miroslava Rogulova 
                                        
                                            Pekne povedane - husi
                                        
                                    
                                 
                                                             
                                    
                    	                                                                                        

                                                                        
                                    
                                        Miroslava Rogulova 
                                        
                                            Ten...
                                        
                                    
                                 
                                                     
                        
                            Ďalšie články blogera: Miroslava Rogulova
                        
                     
            
                     
                         Ďalšie články z rubriky súkromné 
                         
                                                             
                                    
                                                            	                                                                                        

                                                                                                
                                    
                                        Marek Strapko 
                                        
                                            Najbližší mi boli tí "kakaoví"
                                        
                                    
                                 
                                                             
                                    
                                                                                                                    

                                                                                                
                                    
                                        Mária Malinová 
                                        
                                            Sexuálna výchova na Slovensku neexistuje a nikdy neexistovala
                                        
                                    
                                 
                                                             
                                    
                                                            	                                                                                        

                                                                                                
                                    
                                        Helena Smihulova Laucikova 
                                        
                                            Mágia kina
                                        
                                    
                                 
                                                             
                                    
                                                            	                                                                                        

                                                                                                
                                    
                                        Dušan Koniar 
                                        
                                            Tri esemesky z minulosti hľadajú svoju budúcnosť
                                        
                                    
                                 
                                                             
                                    
                                                            	                                                                                        

                                                                                                
                                    
                                        Zuzana Gerhátová 
                                        
                                            ako ma upratal sedemročný chlapec
                                        
                                    
                                 
                                                     
                        
                            Ďalšie články z rubriky súkromné
                        
                     
                 
            
                    
 
     Hlavné správy 
         
        
                                

        
         
            AKTUALIZOVANÉ O 20:00
             Rubeľ pocítil pád na dno, Rusko je vo finančnej kríze 
             Dolár včera stál už takmer 80 rubľov, pod hladinu ho tlačia najmä nízke ceny ropy. 
         
     
         
        
                                

        
         
            ZAHRANIČIE
             Taliban zaútočil na citlivé miesto Pakistanu. Na deti 
             Taliban zabil v škole v Pakistane najmenej 141 ľudí, väčšinou deti. 
         
     
         
        
                                

        
         
            KOMENTARE.SME.SK
             Cynická obluda: Medzičasom na opustenom ostrove 
             Stroskotanci majú veľké šťastie, že sú dvaja. Lacné vtipy na úrovni ich autora. 
         
     
     

                 
     
    
     
        
 

     
                
                            
                    



         
            
                Miroslava Rogulova
            
         
        miroslavarogulova.blog.sme.sk (rss)
         
                                     
     
        Miroslava Rogulova, the girl next door :)
        
     
     
                     
                             
             

     
        
            
                
                    Počet článkov
                    17
                
                
                    Celková karma
                    
                                                0.00
                    
                
                
                    Priemerná čítanosť
                    338
                
            
        
     

             

             Zoznam rubrík 
            
             
                                     
                        
                            Súkromné
                        
                     
                                     
                        
                            Nezaradené
                        
                     
                             
         
    

    

           
     Pošlite odkaz blogerovi 
    
         
            
         

         
         
         
         

         
         
Odosielateľ (e-mail)
 
         
Text
 
         
             
Protispamová ochrana 
 
 Zle. Skúste znova. 
Opíšte slová z obrázku: Načítať iné slová 
 Get an image CAPTCHA 
 
 
         
                 
            
         
    
  


 

     






            
    
        
    
 

        
         
         
             Už ste čítali? 
         
         
 

 kultura.sme.sk 
 Margaréta sa spriahla s diablom, no mala Kristovu pravdu 
 
 

 www.sme.sk 
 Pútnické miesta The Beatles alebo ako ľudia kráčajú po zebre 
 
 

 cestovanie.sme.sk 
 Lovia za svitania a v hmle 
 
 

 www.sme.sk 
 Ako sa valila lavína slobody. Ako padal komunizmus 
 
 

 kultura.sme.sk 
 Žiadne retro, poriadny biznis. Takto sa lisuje platňa 
 
	   
 


        
         
            
         

     

    
     
 
 
	 

		Kontakty
		Predplatné
		Etický kódex
		Pomoc
		Mapa stránky
		
	 
 
 
	 
		 
			Widget
			RSS
			Newsletter
		 
		 
			Mobil
			Smartphone
			Kindle
			Televízor
		 
		 
			Facebook
			Twitter
			Google+
		 
	 
	 
		
	 
	 
		Ďalšie weby skupiny: Prihlásenie do Post.sk
		Új Szó Slovak Spectator
		Agentúrne správy 
		Vydavateľstvo
		Inzercia
		Osobné údaje
		Návštevnosť webu
		Predajnosť tlače
		Petit Academy
		SME v škole 		© Copyright 1997-2014 Petit Press, a.s. 
	 
 
 
 


          
        
            
            

        
    

    
    


    


    
        
        
        
        
        
        
        
            
            
        
        
        
        
         
                                
               





 

 



        

 




