
      
    
    

     
	 
	 
 SME.sk 
 Zľavy 
 Zoznámenie 
 Reality 
 Dovolenky 
 Pizza 
 Reštaurácie 
 Recenzie 
 Inzeráty 
 Naničmama 	 
Nákupy 
		 
 Filmy na DVD 
 Hodinky 
 Parfémy 
 SME knihy a DVD 
 Superhosting 
 Tlačiareň 
 Víno 
 Tvorba webov 
 Predplatné SME 
 ProSenior 		 
	 
	 
 
	 
 


    
    
        
        
         
          
         
    

    
      
         
            
             
     
        
        
     
    Blog.SME.sk
 

    

         
        
                 
     
         
            Sme.sk
         
         
            Domov
         
         
            Regióny
         
         
            Ekonomika
         
         
            Svet
         
         
            Komentáre
         
         
            Kultúra
         
         
            Šport
         
         
            TV
         
         
            Auto
         
         
            Tech
         
         
            Poradňa
         
         
            Žena
         
         
            Bývanie
         
         
            Zdravie
         
         
            Blog
         
     
 

         
            
     
                                                         Politika 
                                                                                     Spoločnosť 
                                                                                     Cestovanie 
                                                                                     Ekonomika 
                                                                                     Fotografie 
                                                                                     Jedlo 
                                                                                     Kultúra 
                                                                                             
Ďalšie
                             
                                                                                         Lifestyle 
                                                                                                                                                                             Médiá 
                                                                                                                                                                             Nezaradené 
                                                                                                                                                                             Súkromné 
                                                                                                                                                                             Šport 
                                                                                                                                                                             Veda a technika 
                                                                                                                                                                             Zábava 
                                                                                                                                                                             Poézia 
                                                                                                                                                                             Próza 
                                                                                                                                                                             Kódex blogera 
                                                                                 
                         
                                                 
            Blogeri
         
     


            

    
    Prihlásiť sa


    
    Založte si blog



    
    Odhlásiť sa


    
    




         

        
        
         
            
         
         
                
     
                 
            SME.sk &gt;
            Blog.SME.sk &gt;
                            Michal Kravčík
                                        &gt;
                www.theglobalcoolingproject.co
                     
                 Korytá na ceste ku suchým zajtrajškom 

        
            
                                    24.5.2010
            o
            23:48
                        (upravené
                25.5.2010
                o
                9:36)
                        |
            Karma článku:
                11.19
            |
            Prečítané 
            3474-krát
                    
         
     
         
             

                 
                    Verejnosť nevie, že na začiatku cesty k záplavám stoja korytečka, korýtka či korytá, ktorých v Slovenských lesoch je údajne viac ako 150.000 km a minimálne toľko aj v poľnohospodárskej krajine. Tie zbierajú dažďovú vodu a odvádzajú do najbližšieho potoka či rieky. Cesty v lesopoľnohospodárskej krajine v čase dažďov sa stavajú korytami tečúcej vody. Počas posledných povodní odviedli do potokov i riek desiatky miliónov kubíkov dažďovej vody a zásadným spôsobom prispeli k povodniam. Neviem aké korytá, či korýtka či certifikáty a hodnosti sa udeľujú za takúto starostlivosť naším lesníkom a poľnohospodárom, ale prinajmenšom je to na hanbu božiu. Každý z týchto lesníkov a poľnohospodárov žije a býva v komunitách, ktoré boli vyplavené. Tak sa milí občania opýtajte svojho lesníka či poľnohospodára, prečo mu nevadí, že Vás vytápa.
                 

                 Ponúkam unikátnu paletu starostlivosti našich lesníkov a poľnohospodárov o svoje cesty v tých kútoch Slovenska, ktoré boli postihnuté povodňami i záplavami.                                                                                                                Krásne že? Vám sa to páči? Mne nie. Ak by bolo v mojej moci, poslal by som na povinné upratovanie do povodňami postihnutých oblastí všetkých lesníkov a poľnohospodárov, aby si raz a navždy zapamätali, že sa nepatrí púšťať dažďovú vodu susedom na hlavu a že sa patrí starať o dažďovú vodu vo svojom lese či chotári tak, aby sme nevytápali svojich susedov, ktorí pod nami bývajú. Nechávajte dažďovú vodu zo svojich ciest milí lesníci a poľnohospodári vo svojom lese či chotári, lebo ju budete potrebovať vtedy, keď je sucho. Myslíte na zadné dvierka, aby sme nevykapali na ďalší extrém: SUCHO!             

                 
                                        
                        
                        Zdieľať
                    

                    
                            
                                    
                                    Zdieľať na
                            
                             
                                    
                             
                    

                                                                                                                        
                            
                            Diskusia: (20)
                        
                    
                    
                        
                        Zvýšte karmu
                    
                 
             

                             
            
                     
                         Ďalšie články blogera 
                         
                                                             
                                    
                    	                                                                                        

                                                                        
                                    
                                        Michal Kravčík 
                                        
                                            Poloz na hrad!
                                        
                                    
                                 
                                                             
                                    
                    	                                                                                        

                                                                        
                                    
                                        Michal Kravčík 
                                        
                                            Zavšivavená spoločnosť trollami s podporou SME?
                                        
                                    
                                 
                                                             
                                    
                    	                                                                                        

                                                                        
                                    
                                        Michal Kravčík 
                                        
                                            Bratislava šiestym najbohatším regiónom EÚ. Západné Slovensko 239-tým…
                                        
                                    
                                 
                                                             
                                    
                    	                                                                                        

                                                                        
                                    
                                        Michal Kravčík 
                                        
                                            Nemajú Boha pri sebe!
                                        
                                    
                                 
                                                             
                                    
                    	                                                                                        

                                                                        
                                    
                                        Michal Kravčík 
                                        
                                            Ako sa zbaviť straníckej korupcie v štáte. Časť eurofondy
                                        
                                    
                                 
                                                     
                        
                            Ďalšie články blogera: Michal Kravčík
                        
                     
            
                     
                         Ďalšie články z rubriky nezaradené 
                         
                                                             
                                    
                                                            	                                                                                        

                                                                                                
                                    
                                        Pavel Ondrejmiška 
                                        
                                            Dnes farnosť Žitavany, pred tisíc rokmi kráľovská fara v Kňažiciach
                                        
                                    
                                 
                                                             
                                    
                                                            	                                                                                        

                                                                                                
                                    
                                        Milan Removčík 
                                        
                                            Zimný Šíp.
                                        
                                    
                                 
                                                             
                                    
                                                            	                                                                                        

                                                                                                
                                    
                                          esc-sr 
                                        
                                            Čas (ne)vhodných darčekov
                                        
                                    
                                 
                                                             
                                    
                                                            	                                                                                        

                                                                                                
                                    
                                        Michal Filek 
                                        
                                            Ako je ťažké darovať bezdomovcom polievku?
                                        
                                    
                                 
                                                             
                                    
                                                                                                                    

                                                                                                
                                    
                                        Anna Kováčová 
                                        
                                            Na sexi postavu, zdravie, energiu a šťastný život nepotrebujete tabletky!
                                        
                                    
                                 
                                                     
                        
                            Ďalšie články z rubriky nezaradené
                        
                     
                 
            
                    
 
     Hlavné správy 
         
        
                                

        
         
            AKTUALIZOVANÉ 20:22
             Slovenky v hlavnej skupine nebodovali, Švédky vyhrali o 9 gólov 
             Naše hádzanárky hrali na ME piaty zápas. V Záhrebe proti Švédkam. 
         
     
         
        
                                

        
         
            AKTUALIZOVANÉ O 20:00
             Rubeľ pocítil pád na dno, Rusko je vo finančnej kríze 
             Dolár včera stál už takmer 80 rubľov, pod hladinu ho tlačia najmä nízke ceny ropy. 
         
     
         
        
                                

        
         
            ZAHRANIČIE
             Taliban zaútočil na citlivé miesto Pakistanu. Na deti 
             Taliban zabil v škole v Pakistane najmenej 141 ľudí, väčšinou deti. 
         
     
     

                 
     
    
     
        
 

     
                
                            
                    



         
            
                Michal Kravčík
            
         
        kravcik.blog.sme.sk (rss)
         
                                     
     
         Presadzujem a podporujem agendu „VODA PRE OZDRAVENIE KLÍMY“. Jej cieľom je posilnenie environmentálnej bezpečnosti prostredníctvom zodpovedného prístupu v ochrane prírodného a teda i kultúrneho dedičstva. Napĺňanie agendy, založenej na prijatí novej, vyššej kultúry vo vzťahu k vode, môže na Slovensku vytvoriť viac ako 100 tisíc a v Európe vyše 5 miliónov pracovných príležitostí. 
        
     
     
                     
                             
             

     
        
            
                
                    Počet článkov
                    629
                
                
                    Celková karma
                    
                                                7.10
                    
                
                
                    Priemerná čítanosť
                    2236
                
            
        
     

             

             Zoznam rubrík 
            
             
                                     
                        
                            Povodne
                        
                     
                                     
                        
                            Hladujúci potrebujú vodu
                        
                     
                                     
                        
                            Klimatická zmena
                        
                     
                                     
                        
                            VODA zrkadlo kultúry
                        
                     
                                     
                        
                            http://s07.flagcounter.com/mor
                        
                     
                                     
                        
                            Nová vodná paradigma
                        
                     
                                     
                        
                            Košice
                        
                     
                                     
                        
                            Spoločnosť
                        
                     
                                     
                        
                            http://moje.hnonline.sk/blog/4
                        
                     
                             
         
    

                     
                        
                                                            
                     Obľúbené články 
                    
                     
                                                 
                                            Kandidáti za poslancov do EP
                                     
                                                                             
                                            Ladislav Vozárik
                                     
                                                                             
                                             
                                     
                                                                             
                                             
                                     
                                                                   
                     Obľúbené knihy 
                    
                     
                                                 
                                            http://www.clim-past.net/2/187/2006/cp-2-187-2006.pdf
                                     
                                                                   
                     Obľúbené blogy 
                    
                     
                                                 
                                            http://blog.aktualne.centrum.cz/blogy/jana-hradilkova.php
                                     
                                                                   
                     Obľúbené stránky 
                    
                     
                                                 
                                            hospodarskyklub.sk
                                     
                                                                             
                                            ashoka.org
                                     
                                                                             
                                            bluegold-worldwaterwars.com
                                     
                                                                             
                                            holisticmanagement.org
                                     
                                                                             
                                            theglobalcoolingproject.com
                                     
                                                                             
                                            ludiaavoda.sk
                                     
                                                                             
                                            watergy.de
                                     
                                                                             
                                            waterparadigm.org
                                     
                            
             
         
            

             
             Čo ma zaujalo 
            Týmto článkom bloger klikol/klikla na karmu.
             
                                                         
                       Nemajú Boha pri sebe!
                     
                                                         
                       Ako sa zbaviť straníckej korupcie v štáte. Časť eurofondy
                     
                                                         
                       Ako sa z jednej ochranárskej ikony stala obyčajná nula
                     
                                                         
                       10 rokov po víchrici v Tatrách stále v zákopoch
                     
                                                         
                       Primátor všetkých Košičanov?
                     
                                                         
                       Dnes zasadá Vláda v Ubli
                     
                                                         
                       Aspoň pokus o integráciu Rómov? Za primátora Rašiho? Zabudnite!
                     
                                                         
                       Róbert Fico je bezpečnostným rizikom pre Slovensko
                     
                                                         
                       Kto je zodpovedný za pád starenky do kanalizačnej šachty v Michalovciach
                     
                                                         
                       Zdravé Košice
                     
                             
         
           
     Pošlite odkaz blogerovi 
    
         
            
         

         
         
         
         

         
         
Odosielateľ (e-mail)
 
         
Text
 
         
             
Protispamová ochrana 
 
 Zle. Skúste znova. 
Opíšte slová z obrázku: Načítať iné slová 
 Get an image CAPTCHA 
 
 
         
                 
            
         
    
  


 

     






            
    
        
    
 

        
         
         
             Už ste čítali? 
         
         
 

 kultura.sme.sk 
 Margaréta sa spriahla s diablom, no mala Kristovu pravdu 
 
 

 www.sme.sk 
 Pútnické miesta The Beatles alebo ako ľudia kráčajú po zebre 
 
 

 cestovanie.sme.sk 
 Lovia za svitania a v hmle 
 
 

 www.sme.sk 
 Ako sa valila lavína slobody. Ako padal komunizmus 
 
 

 kultura.sme.sk 
 Žiadne retro, poriadny biznis. Takto sa lisuje platňa 
 
	   
 


        
         
            
         

     

    
     
 
 
	 

		Kontakty
		Predplatné
		Etický kódex
		Pomoc
		Mapa stránky
		
	 
 
 
	 
		 
			Widget
			RSS
			Newsletter
		 
		 
			Mobil
			Smartphone
			Kindle
			Televízor
		 
		 
			Facebook
			Twitter
			Google+
		 
	 
	 
		
	 
	 
		Ďalšie weby skupiny: Prihlásenie do Post.sk
		Új Szó Slovak Spectator
		Agentúrne správy 
		Vydavateľstvo
		Inzercia
		Osobné údaje
		Návštevnosť webu
		Predajnosť tlače
		Petit Academy
		SME v škole 		© Copyright 1997-2014 Petit Press, a.s. 
	 
 
 
 


          
        
            
            

        
    

    
    


    


    
        
        
        
        
        
        
        
            
            
        
        
        
        
         
                                
               





 

 



        

 




