
      
    
    

     
	 
	 
 SME.sk 
 Zľavy 
 Zoznámenie 
 Reality 
 Dovolenky 
 Pizza 
 Reštaurácie 
 Recenzie 
 Inzeráty 
 Naničmama 	 
Nákupy 
		 
 Filmy na DVD 
 Hodinky 
 Parfémy 
 SME knihy a DVD 
 Superhosting 
 Tlačiareň 
 Víno 
 Tvorba webov 
 Predplatné SME 
 ProSenior 		 
	 
	 
 
	 
 


    
    
        
        
         
          
         
    

    
      
         
            
             
     
        
        
     
    Blog.SME.sk
 

    

         
        
                 
     
         
            Sme.sk
         
         
            Domov
         
         
            Regióny
         
         
            Ekonomika
         
         
            Svet
         
         
            Komentáre
         
         
            Kultúra
         
         
            Šport
         
         
            TV
         
         
            Auto
         
         
            Tech
         
         
            Poradňa
         
         
            Žena
         
         
            Bývanie
         
         
            Zdravie
         
         
            Blog
         
     
 

         
            
     
                                                         Politika 
                                                                                     Spoločnosť 
                                                                                     Cestovanie 
                                                                                     Ekonomika 
                                                                                     Fotografie 
                                                                                     Jedlo 
                                                                                     Kultúra 
                                                                                             
Ďalšie
                             
                                                                                         Lifestyle 
                                                                                                                                                                             Médiá 
                                                                                                                                                                             Nezaradené 
                                                                                                                                                                             Súkromné 
                                                                                                                                                                             Šport 
                                                                                                                                                                             Veda a technika 
                                                                                                                                                                             Zábava 
                                                                                                                                                                             Poézia 
                                                                                                                                                                             Próza 
                                                                                                                                                                             Kódex blogera 
                                                                                 
                         
                                                 
            Blogeri
         
     


            

    
    Prihlásiť sa


    
    Založte si blog



    
    Odhlásiť sa


    
    




         

        
        
         
            
         
         
                
     
                 
            SME.sk &gt;
            Blog.SME.sk &gt;
                            Adam Vargic
                                        &gt;
                Nezaradené
                     
                 SNS: Máme priveľa slobody, treba ju nahradiť! 

        
            
                                    10.4.2010
            o
            15:50
                        (upravené
                10.4.2010
                o
                16:19)
                        |
            Karma článku:
                10.47
            |
            Prečítané 
            1560-krát
                    
         
     
         
             

                 
                    Keď Rafael Rafaj otvorí ústa tak to fakt stojí zato...
                 

                 "Vidíme, že sloboda bez zodpovednosti je v spoločnosti nefunkčná."  &amp;  "Ak sa presadí takáto ústavná zmena, potom môžu nasledovať aj ďalšie zmeny...."    "Je to zatiaľ idea, pretože to treba pretaviť do právnej reči a tá je dosť zložitá. Možno na takúto zásadnú zmenu treba aj celospoločenskú diskusiu,"   A kde sa nechal Rafaj inšpirovať?      Tak dúfajme že ostane len pri tých ideách!!!       Prajem Vám príjemný, ničím a hlavne nikým nerušený, víkend ! 

                 
                                        
                        
                        Zdieľať
                    

                    
                            
                                    
                                    Zdieľať na
                            
                             
                                    
                             
                    

                                                                                                                        
                            
                            Diskusia: (34)
                        
                    
                    
                        
                        Zvýšte karmu
                    
                 
             

                             
            
                     
                         Ďalšie články blogera 
                         
                                                             
                                    
                    	                                                                                        

                                                                        
                                    
                                        Adam Vargic 
                                        
                                            Stará pravda o sopkách
                                        
                                    
                                 
                                                             
                                    
                    	                                                                                        

                                                                        
                                    
                                        Adam Vargic 
                                        
                                            Belehrad si ospravedlnenie zaslúži, ale čo my ostatní pán Slota?
                                        
                                    
                                 
                                                             
                                    
                    	                                                                                        

                                                                        
                                    
                                        Adam Vargic 
                                        
                                            Zlodej kričí, pozor na Maďara
                                        
                                    
                                 
                                                             
                                    
                    	                                                                                        

                                                                        
                                    
                                        Adam Vargic 
                                        
                                            Sú ‘teroristi’ z Guantanama nebezpeční? .týždeň a jeho 'experti'
                                        
                                    
                                 
                                                             
                                    
                    	                                                                                        

                                                                        
                                    
                                        Adam Vargic 
                                        
                                            Nemusíme sa obávať, ľavicová revolúcia u nás už nehrozí
                                        
                                    
                                 
                                                     
                        
                            Ďalšie články blogera: Adam Vargic
                        
                     
            
                     
                         Ďalšie články z rubriky zábava 
                         
                                                             
                                    
                                                            	                                                                                        

                                                                                                
                                    
                                        Jozef Bednár 
                                        
                                            Ako Mikuláš moju dcérku o čižmičku „obral“
                                        
                                    
                                 
                                                             
                                    
                                                            	                                                                                        

                                                                                                
                                    
                                        Daniela Paculíková 
                                        
                                            Aké sú vaše topánky?
                                        
                                    
                                 
                                                             
                                    
                                                            	                                                                                        

                                                                                                
                                    
                                        Marian Letko 
                                        
                                            Maroško to má rád zozadu
                                        
                                    
                                 
                                                             
                                    
                                                            	                                                                                        

                                                                                                
                                    
                                        Fero Škoda 
                                        
                                            Nemecký vlog o horách, vode a takmer stratených nervoch
                                        
                                    
                                 
                                                             
                                    
                                                            	                                                                                        

                                                                                                
                                    
                                        Ján Vilček 
                                        
                                            Kritizovať politiku Absurdistanu inotajmi absurdít
                                        
                                    
                                 
                                                     
                        
                            Ďalšie články z rubriky zábava
                        
                     
                 
            
                    
 
     Hlavné správy 
         
        
                                

        
         
            AKTUALIZOVANÉ 16:00
             Rubeľ kolabuje, ruská vláda má mimoriadne rokovať 
             Jeden dolár stál v utorok poobede už viac ako 78 rubľov, razantné zvýšenie úrokov nepomohlo. 
         
     
         
        
                                

        
         
            ZAHRANIČIE
             Taliban zabil v škole v Pakistane vyše sto ľudí, väčšinou deti 
             Militanti vtrhli do vojenskej školy v policajných rovnošatách. 
         
     
         
        
                                

        
         
            KOMENTARE.SME.SK
             Cynická obluda: Medzičasom na opustenom ostrove 
             Stroskotanci majú veľké šťastie, že sú dvaja. Lacné vtipy na úrovni ich autora. 
         
     
     

                 
     
    
     
        
 

     
                
                            
                    



         
            
                Adam Vargic
            
         
        vargic.blog.sme.sk (rss)
         
                                     
     
        nie je mi všetko jedno...


        
     
     
                     
                             
             

     
        
            
                
                    Počet článkov
                    12
                
                
                    Celková karma
                    
                                                0.00
                    
                
                
                    Priemerná čítanosť
                    2663
                
            
        
     

             

             Zoznam rubrík 
            
             
                                     
                        
                            Zahraničie
                        
                     
                                     
                        
                            Univerzita
                        
                     
                                     
                        
                            Súkromné
                        
                     
                                     
                        
                            Nezaradené
                        
                     
                             
         
    

                     
                        
                                                            
                     Obľúbené články 
                    
                     
                                                 
                                            Afghanistan President Hamid Karzai uses drugs
                                     
                                                                   
                     Obľúbené knihy 
                    
                     
                                                 
                                            The Conscience of a Liberal
                                     
                                                                             
                                            Distinction
                                     
                                                                             
                                            Dissapearing Palestine
                                     
                                                                             
                                            The Marxists
                                     
                                                                   
                     Čo práve počúvam 
                    
                     
                                                 
                                            N.O.H.A
                                     
                                                                             
                                            Led Zeppelin
                                     
                                                                             
                                            Amy Winhouse
                                     
                                                                             
                                            Johny Cash - Man in Black
                                     
                                                                   
                     Obľúbené blogy 
                    
                     
                                                 
                                            Jan Babarik, Zalužanec
                                     
                                                                   
                     Obľúbené stránky 
                    
                     
                                                 
                                            Foreign Affairs
                                     
                                                                             
                                            SocBlog
                                     
                                                                             
                                            Andrej Bán
                                     
                                                                             
                                            alma mater
                                     
                                                                             
                                            Guardian
                                     
                                                                             
                                            Craig Ferguson
                                     
                            
             
         
            

           
     Pošlite odkaz blogerovi 
    
         
            
         

         
         
         
         

         
         
Odosielateľ (e-mail)
 
         
Text
 
         
             
Protispamová ochrana 
 
 Zle. Skúste znova. 
Opíšte slová z obrázku: Načítať iné slová 
 Get an image CAPTCHA 
 
 
         
                 
            
         
    
  


 

     






            
    
        
    
 

        
         
         
             Už ste čítali? 
         
         
 

 kultura.sme.sk 
 Margaréta sa spriahla s diablom, no mala Kristovu pravdu 
 
 

 www.sme.sk 
 Pútnické miesta The Beatles alebo ako ľudia kráčajú po zebre 
 
 

 cestovanie.sme.sk 
 Lovia za svitania a v hmle 
 
 

 www.sme.sk 
 Ako sa valila lavína slobody. Ako padal komunizmus 
 
 

 kultura.sme.sk 
 Žiadne retro, poriadny biznis. Takto sa lisuje platňa 
 
	   
 


        
         
            
         

     

    
     
 
 
	 

		Kontakty
		Predplatné
		Etický kódex
		Pomoc
		Mapa stránky
		
	 
 
 
	 
		 
			Widget
			RSS
			Newsletter
		 
		 
			Mobil
			Smartphone
			Kindle
			Televízor
		 
		 
			Facebook
			Twitter
			Google+
		 
	 
	 
		
	 
	 
		Ďalšie weby skupiny: Prihlásenie do Post.sk
		Új Szó Slovak Spectator
		Agentúrne správy 
		Vydavateľstvo
		Inzercia
		Osobné údaje
		Návštevnosť webu
		Predajnosť tlače
		Petit Academy
		SME v škole 		© Copyright 1997-2014 Petit Press, a.s. 
	 
 
 
 


          
        
            
            

        
    

    
    


    


    
        
        
        
        
        
        
        
            
            
        
        
        
        
         
                                
               





 

 



        

 




