
      
    
    

     
	 
	 
 SME.sk 
 Zľavy 
 Zoznámenie 
 Reality 
 Dovolenky 
 Pizza 
 Reštaurácie 
 Recenzie 
 Inzeráty 
 Naničmama 	 
Nákupy 
		 
 Filmy na DVD 
 Hodinky 
 Parfémy 
 SME knihy a DVD 
 Superhosting 
 Tlačiareň 
 Víno 
 Tvorba webov 
 Predplatné SME 
 ProSenior 		 
	 
	 
 
	 
 


    
    
        
        
         
          
         
    

    
      
         
            
             
     
        
        
     
    Blog.SME.sk
 

    

         
        
                 
     
         
            Sme.sk
         
         
            Domov
         
         
            Regióny
         
         
            Ekonomika
         
         
            Svet
         
         
            Komentáre
         
         
            Kultúra
         
         
            Šport
         
         
            TV
         
         
            Auto
         
         
            Tech
         
         
            Poradňa
         
         
            Žena
         
         
            Bývanie
         
         
            Zdravie
         
         
            Blog
         
     
 

         
            
     
                                                         Politika 
                                                                                     Spoločnosť 
                                                                                     Cestovanie 
                                                                                     Ekonomika 
                                                                                     Fotografie 
                                                                                     Jedlo 
                                                                                     Kultúra 
                                                                                             
Ďalšie
                             
                                                                                         Lifestyle 
                                                                                                                                                                             Médiá 
                                                                                                                                                                             Nezaradené 
                                                                                                                                                                             Súkromné 
                                                                                                                                                                             Šport 
                                                                                                                                                                             Veda a technika 
                                                                                                                                                                             Zábava 
                                                                                                                                                                             Poézia 
                                                                                                                                                                             Próza 
                                                                                                                                                                             Kódex blogera 
                                                                                 
                         
                                                 
            Blogeri
         
     


            

    
    Prihlásiť sa


    
    Založte si blog



    
    Odhlásiť sa


    
    




         

        
        
         
            
         
         
                
     
                 
            SME.sk &gt;
            Blog.SME.sk &gt;
                            Sergej Danilov
                                        &gt;
                Extrem
                     
                 Odporúča Kaliňák SBSku aj pochodom neonacistov? 

        
            
                                    25.5.2010
            o
            18:39
                        (upravené
                25.5.2010
                o
                18:53)
                        |
            Karma článku:
                10.11
            |
            Prečítané 
            1925-krát
                    
         
     
         
             

                 
                    Zverejnite, koľko eur na policajta vám futbalové kluby platia za organizáciu bezpečnosti pri pochodoch fanúšikov mimo štadiónov (napr. keď ich ako urodzených pánov odprevádzate zo stanice na štadión a naspäť). Alebo koľko platia neonacisti - organizovaní v strane či združení - polícii za doprovod k Tisovmu hrobu a podobné akcie?
                 

                 Každému je jasné, že je to nula (slovom aj písmom) pán minister, tak sa nestrápňujte vyhláseniami, že gayovia a lesby si "mohli najať SBS-ku." Ešte som vás totiž nepočul hovoriť niečo podobné náckom. Kedy im teda navrhnete, aby si postrážili svoje pochody sami?   Trapas je aj obviňovanie organizátorov PRIDE z toho, že zviditeľnili extrémistov. To môže povedať len niekto, kto je ľahostajný k vlastným občanom hoci neheterosexuálneho vyznania a slovo "chrániť" má na bilbordoch len na okrasu.   Lenže tu nejde len o nejaké trapasnícke vyjadrenie politika. Tu ide o to, že štát nedokáže ochrániť legálne zhromaždenie resp. predísť nelegálnym násilníckym a hrubým útokom neonacistov na takéto zhromaždenie. Na slobode je tiež Slota, ktorý si verejne povie, že by išiel zhromaždenie opľuť.   Peter Weisenbacher , jeden z hlavných organizátorov Dúhovej akcie hovorí o obave, že "nebola politická objednávka brať toto zhromaždenie vážne a ochrániť jeho účastníkov." Podľa neho bolo policajtov málo hoci vedeli o akcii niekoľko mesiacov a tak veľké námestie nemohli mať pod kontrolou. Posilnili sa až neskôr o kukláčov, keď zasiahli na moste.   Náckovia v sobotu jednoznačne zabodovali na úkor demokracie, spravili si silné P.R z demonštrácie sily. Máme ich "politický monológ" brať ako samozrejmosť, máme si nato zvykať, že fašisti sú súčasťou politickej scény, že určujú formu akou sa bude alebo nebude hovoriť o ľudských právach, teraz konkrétne o homosexuálnej menšine?   Táto optika je relevantná, keďže aj z tvrdého zákroku polície na Moste SNP vytĺkli kapitál extrémisti. Kapitál z pozície tých, čo sú v ich vlastnom absurdnom ponímaní prenasledovaní "policajným štátom" za svoje názory, hoci sami násilím bránia iným skupinám mať tie svoje.   Máme si zvykať nato, že samozrejmosť sa stáva zo spôsobu, akým si v tejto krajine náckovia aktuálne presadzujú svoje ciele a má byť samozrejmosťou aj to, že členovia strany, ktorá kandiduje do parlamentu pochodujú vedno s útočníkmi?   Zrejme áno. Veď sama od seba útoky náckov neodsúdila žiadna parlamentná strana. Možno si chcú na vlastnej koži vyskúšať aké je to cool, keď ich budú náckovia kopať do zadkov a obhadzovať slzákom priamo v parlamente.       Súhlasím s diskutérom pod videonázorom Štefana Hríba...    'predvolebna kampan strany c.14' od .matrew | 25. máj 2010 17:33   "takze, necital som vobec ziadne reakcie na toto, co chcem napisat a napriek tomu je to podla mna velmi dolezita vec. jedna sa o to, ze utocnici, ktori hadzali kamene a slzotvorny plyn a mediami su popisovani ako neonacisti alebo 'odpad spolocnosti' mali so sebou transparenty, ktore odporucali volit stranu c.14- t.j.kotlebovu stranu. a nad tymto sa nikto nepozastavil? ze kto to vlastne do parlamentu chce ist a ci mu nahodou z tohto nevyplyvaju nejake povinnosti? nebolo by vhodne sa spytat kompetentnych - ako je paska, alebo kalinak ako je mozne, ze taketo strany mozu kandidovat? tu na slovensku politika nie je ani nahodou kulturna zalezitost - prevazne sa tu chovaju politici ako najvacsi chrapuni. no co ak by sa (verim tomu, ze nie) do parlamentu dostali ozajstni chrapuni a neonacisti - kto a ako ich odtial dostane?!?!?!"           Denník SME: Organizátori pochodu sú Kaliňákovými vyjadreniami o SBS zaskočení, podujatie bolo oznámené mesiace dopredu a v predstihu o ochranu požiadali. Na margo toho, prečo neodsúdil útoky neonacistov sa liberál Sulík, ktorého strana podporuje registrované partnerstvá vyjadril, že nekomentoval ani víťazstvo ČR na MS v hokeji.    

                 
                                        
                        
                        Zdieľať
                    

                    
                            
                                    
                                    Zdieľať na
                            
                             
                                    
                             
                    

                                                                                                                        
                            
                            Diskusia: (71)
                        
                    
                    
                        
                        Zvýšte karmu
                    
                 
             

                             
            
                     
                         Ďalšie články blogera 
                         
                                                             
                                    
                    	                                                                                        

                                                                        
                                    
                                        Sergej Danilov 
                                        
                                            Maternica nie je výrobný prostriedok, ale útek z reality
                                        
                                    
                                 
                                                             
                                    
                    	                                                                                        

                                                                        
                                    
                                        Sergej Danilov 
                                        
                                            Pálffy za Slovan vo finále European Trophy v Bratislave
                                        
                                    
                                 
                                                             
                                    
                    	                                                                                        

                                                                        
                                    
                                        Sergej Danilov 
                                        
                                            Niekoľko poznámok k vyšetrovaniu SFZ v kauze Soumah
                                        
                                    
                                 
                                                             
                                    
                    	                                                                                        

                                                                        
                                    
                                        Sergej Danilov 
                                        
                                            Prípad Soumah by mala vyšetriť aj polícia
                                        
                                    
                                 
                                                             
                                    
                    	                                                                                        

                                                                        
                                    
                                        Sergej Danilov 
                                        
                                            Kauza Soumah: prvý prezident a prvý "whistleblowing"
                                        
                                    
                                 
                                                     
                        
                            Ďalšie články blogera: Sergej Danilov
                        
                     
            
                     
                         Ďalšie články z rubriky spoločnosť 
                         
                                                             
                                    
                                                            	                                                                                        

                                                                                                
                                    
                                        Mária Levočská 
                                        
                                            Ďalšia obeť pomsty monsignora Jaraba
                                        
                                    
                                 
                                                             
                                    
                                                            	                                                                                        

                                                                                                
                                    
                                        Kristián Straka 
                                        
                                            Nebite ma, doktor Plzák... alebo POZVANIE NA VEČERU
                                        
                                    
                                 
                                                             
                                    
                                                            	                                                                                        

                                                                                                
                                    
                                        Kristián Straka 
                                        
                                            Oklamaní Ježiškom ?
                                        
                                    
                                 
                                                             
                                    
                                                            	                                                                                        

                                                                                                
                                    
                                        Milan Buno 
                                        
                                            Šup, šup, najesť sa. A utekať!
                                        
                                    
                                 
                                                             
                                    
                                                            	                                                                                        

                                                                                                
                                    
                                        Katarína Lorenčíková 
                                        
                                            Par uprimnych oslobodzujucich riadkov...
                                        
                                    
                                 
                                                     
                        
                            Ďalšie články z rubriky spoločnosť
                        
                     
                 
            
                    
 
     Hlavné správy 
         
        
                                

        
         
            AKTUALIZOVANÉ 20:22
             Slovenky v hlavnej skupine nebodovali, Švédky vyhrali o 9 gólov 
             Naše hádzanárky hrali na ME piaty zápas. V Záhrebe proti Švédkam. 
         
     
         
        
                                

        
         
            AKTUALIZOVANÉ O 20:00
             Rubeľ pocítil pád na dno, Rusko je vo finančnej kríze 
             Dolár včera stál už takmer 80 rubľov, pod hladinu ho tlačia najmä nízke ceny ropy. 
         
     
         
        
                                

        
         
            ZAHRANIČIE
             Taliban zaútočil na citlivé miesto Pakistanu. Na deti 
             Taliban zabil v škole v Pakistane najmenej 141 ľudí, väčšinou deti. 
         
     
     

                 
     
    
     
        
 

     
                
                            
                    



         
            
                Sergej Danilov
            
         
        danilov.blog.sme.sk (rss)
         
                        VIP
                             
     
        Páči sa mi interakcia s vami a citát, že blogovanie je crackom novinára. Alebo novinársky crack?:-)





POPULÁRNE ČLÁNKY: 
Reporting on extremist politicians 

        
     
     
                     
                             
             

     
        
            
                
                    Počet článkov
                    183
                
                
                    Celková karma
                    
                                                0.00
                    
                
                
                    Priemerná čítanosť
                    3789
                
            
        
     

             

             Zoznam rubrík 
            
             
                                     
                        
                            Futbal
                        
                     
                                     
                        
                            Politika
                        
                     
                                     
                        
                            Extrem
                        
                     
                                     
                        
                            Internet
                        
                     
                                     
                        
                            Showbiz
                        
                     
                                     
                        
                            Súkromné
                        
                     
                                     
                        
                            Nezaradené
                        
                     
                             
         
    

                     
                        
                                                            
                     Obľúbené články 
                    
                     
                                                 
                                            Názor: Holokaust zneužívaný na propagandu
                                     
                                                                             
                                            Židovskú hrobku postriekali hákovými krížmi
                                     
                                                                             
                                            Švec z SHO chce viac sôch Tisa po Slovensku
                                     
                                                                             
                                            Dom Jozefa Tisa chcú kúpiť Pánisovci
                                     
                                                                             
                                            Maďarská karta, zolik pre podvodnikov, Solyom má pravdu
                                     
                                                                             
                                            Vlastenecký zákon, ďalšia schválnosť Maďarom
                                     
                                                                             
                                            Na stráž políciu nedráždilo, extrémistov pustila mestom
                                     
                                                                             
                                            Komentár: SNS 14. marca
                                     
                                                                             
                                            Komentár: Slovakštát
                                     
                                                                             
                                            Stalin vo verzii 3D
                                     
                                                                             
                                            II. ročník turnaja BLMF proti rasizmu a intolerancii
                                     
                                                                             
                                            Trnka podal návrh na rozpustenie SLS
                                     
                                                                             
                                            Ako sa na Slovensku bojuje proti extrémizmu
                                     
                                                                             
                                            Machala a Kučera na Mikolajovej konferencii
                                     
                                                                             
                                            Útočník na americkú basketbalistku opäť hajloval
                                     
                                                                             
                                            Koment.: Pospolitosť - Kaliňák 2:0
                                     
                                                                             
                                            Kaliňákovi chýbajú dôkazy
                                     
                                                                             
                                            Poľsko otvorilo antirasistické centrum
                                     
                                                                             
                                            O podivnej vlastivede
                                     
                                                                             
                                            Ultras DAC nechápu kráľa Štefana
                                     
                                                                             
                                            Markíza: Hedviga a Lexa
                                     
                                                                             
                                            Na neonacistu u premiéra si posvieti polícia
                                     
                                                                             
                                            K Ficovi sa dostal aj neonacista
                                     
                                                                             
                                            Premiér ďakoval neonacistovi, minister vnútra bol pritom
                                     
                                                                             
                                            Mečiar využíval materiály ŠTB, tvrdí český "UPN"
                                     
                                                                             
                                            Majiteľ kaviarne sa za diskrimináciu ospravedlnil
                                     
                                                                             
                                            SP hrozí rozpustenie
                                     
                                                                             
                                            Kotleba chce byť županom v BB kraji
                                     
                                                                             
                                            Českí robotníci a náckovia spolupracujú
                                     
                                                                             
                                            Ach, gubernia neobmedzených možností
                                     
                                                                             
                                            Maďarič: Seminár o Maďaroch bez Maďarov
                                     
                                                                             
                                            Obnova v prípade vraždy Tupého zostáva otázna
                                     
                                                                             
                                            Vyhostenie fanúšikov futbalového Hajduku Split zrušili
                                     
                                                                             
                                            Fanúšik Spartaka Moskva kopol penaltu, potom zahajloval
                                     
                                                                             
                                            Výtržníci zo štadiónov priamo do väzenia?
                                     
                                                                             
                                            Maďarka predala otca rómskej rodine
                                     
                                                                             
                                            Jobbik už má v maďarskom parlamente slovo
                                     
                                                                             
                                            Mareš: Autonómní nacionalisté-Myšlenkové zázemí žhářů z Vítkova
                                     
                                                                             
                                            Kotleba Košičanov nezaujal
                                     
                                                                             
                                            Kontexty letnej mobilizácie extrémistov
                                     
                                                                             
                                            VIDEO: Kotleba nezaujal
                                     
                                                                             
                                            Pochod nacionalistov sa zmenil na agitáciu
                                     
                                                                             
                                            Rusi nedobijú Česko tankami, ale peniazmi
                                     
                                                                             
                                            Kauza Sendrei: expolicajti za mrežami
                                     
                                                                             
                                            Chelemendik pre TASR aj o etnickom konflikte
                                     
                                                                             
                                            Bývalý nácek v čele poľskej TV
                                     
                                                                             
                                            O extremismu s Janem Charvatem
                                     
                                                                             
                                            Čo posilňuje sebavedomie českých neonacistov
                                     
                                                                             
                                            Komentár: Korupcia
                                     
                                                                             
                                            Carter obvinil Obamových kritikov z rasizmu
                                     
                                                                             
                                            BIS varuje politikov pred stykmi s Rusmi
                                     
                                                                             
                                            DAC nesúhlasí s preložením duelu so Slovanom
                                     
                                                                             
                                            Cirkus Futbal - o odložení zápasu DAC-Slovan
                                     
                                                                             
                                            Klamanie o Malinovej
                                     
                                                                             
                                            Keď tvoje židovské meno nie je ono
                                     
                                                                             
                                            Slovák, ktorý ušiel z Osvienčimu
                                     
                                                                             
                                            Maďari, prepáčte
                                     
                                                                             
                                            Čo Dante nevidel, Slováci ušli z Osvienčimu
                                     
                                                                             
                                            Dalajláma u nás: rasizmus pramení z nedostatku informácií
                                     
                                                                             
                                            Deti z fotografie v Osvienčime sa stretli v Bratislave
                                     
                                                                             
                                            Fico: Extrémizmus k nám prichádza z Maďarska
                                     
                                                                             
                                            MŠK Žilina zverejnila mená chuligánov
                                     
                                                                             
                                            Obvinili futbalového výtržníka
                                     
                                                                             
                                            Za organizovanie neonacistického koncertu dostal podmienku
                                     
                                                                             
                                            Únia Rómov: Majorita by sa mala hanbiť
                                     
                                                                             
                                            STV, reportéri, Michalany
                                     
                                                                             
                                            Kriminalita etnickej skupiny neexistuje
                                     
                                                                             
                                            Len pre Maďarov
                                     
                                                                             
                                            Kotlebu obvinili
                                     
                                                                             
                                            Adauto: Rasisti neublížia mne, ale svojmu klubu
                                     
                                                                             
                                            Maďari majú podozrivých rómskych vrážd
                                     
                                                                             
                                            Slovenská pospolitosť: Zakladajú "Naše Slovensko"
                                     
                                                                             
                                            UPN: Rómov masovo zabíjali
                                     
                                                                             
                                            Za hajlovanie dostal 1,5 roka
                                     
                                                                             
                                            Koment.:Žijeme v Starom dome
                                     
                                                                             
                                            Koment.: Ako písať o extrémizme
                                     
                                                                             
                                            Nepovolené zhromaždenie neexistuje
                                     
                                                                             
                                            Koment.:Všetci sme Cigáni
                                     
                                                                             
                                            Uraziť Róma je populárne i na webe
                                     
                                                                             
                                            Kotleba a Belousovová
                                     
                                                                             
                                            Etnické spory nemajú mediátorov
                                     
                                                                             
                                            Judr. Kaliňák, už je toho priveľa
                                     
                                                                             
                                            Hasiča bude preverovať ministerstvo
                                     
                                                                             
                                            Čaplovič aj Pospolitosť v Krompachoch
                                     
                                                                             
                                            Internátne školy pre Rómov chce aj Čaplovič
                                     
                                                                             
                                            Palko: Nepozná ústavu, navrhuje nezmysly
                                     
                                                                             
                                            Paroubek nechce dávať robotu iným kultúram
                                     
                                                                             
                                            Kaliňák: Pán Kotleba...
                                     
                                                                             
                                            Krajnú pravicu zvoláva hasič
                                     
                                                                             
                                            Rešpekt za nerešpektovanie rasizmu pre komentátora Huste.sk
                                     
                                                                             
                                            Pospolitosť nedostala čas ani dôvody
                                     
                                                                             
                                            SP funguje slobodne ďalej, vďaka chybám MV SR
                                     
                                                                             
                                            Nesnášim cikány v Brne
                                     
                                                                             
                                            Rómsky docent sa ospravedlnil Palkovi
                                     
                                                                             
                                            Nacionalisti zvolávajú do Prešova zhromaždenie
                                     
                                                                             
                                            Pospolitosť chce novú stranu aj akcie
                                     
                                                                             
                                            Mementá zo Šariša
                                     
                                                                             
                                            V Michaľanoch to po zásahu polície vrie
                                     
                                                                             
                                            Sulík: Kotleba hrdinom dňa
                                     
                                                                             
                                            Oko za oko v Šarišských Michaľanoch
                                     
                                                                             
                                            Pospolitosť chce zopakovať akciu v Šarišských Michaľanoch
                                     
                                                                             
                                            Róm zbil poslanca SNS, zhorelo mu auto
                                     
                                                                             
                                            Buďme normálni - reakcia Palka
                                     
                                                                             
                                            Svätopluk Fico
                                     
                                                                             
                                            Rómska štatistika
                                     
                                                                             
                                            Hrubý omyl, zlý návrh. Šebej o Palkovi
                                     
                                                                             
                                            Kotlebov protest 8.8. Maskovaná oslava Hitlera
                                     
                                                                             
                                            Rasistické pokriky na Adauta
                                     
                                                                             
                                            Vláda o Rómoch najmä reční
                                     
                                                                             
                                            Zásah polície v Michalanoch rozdelil aj politikov
                                     
                                                                             
                                            Kotleba na Hrad
                                     
                                                                             
                                            Neonacisti chcú pochodovať Budapešťou
                                     
                                                                             
                                            Na kamene extrémistov odpovedalo vodné delo
                                     
                                                                             
                                            Polícia rozohnala protest extrémistov, Kotlebu zadržala
                                     
                                                                             
                                            Palkovci chcú zverejňovať štatistiky kriminality Rómov
                                     
                                                                             
                                            Komentár: Návrh hodný holohlavých
                                     
                                                                             
                                            Rómovia nemajú splnomocnenca ani fondy
                                     
                                                                             
                                            Demonštrovať ide Pospolitosť aj Rómovia
                                     
                                                                             
                                            (V)zrušení zacítili šancu
                                     
                                                                             
                                            Súd potrebuje v kauze Tupého viac času
                                     
                                                                             
                                            HZDS: Kaliňák by mal odísť
                                     
                                                                             
                                            Pospolitosť volá neonacistov proti Rómom
                                     
                                                                             
                                            Spomínali na zavraždenú Rómku
                                     
                                                                             
                                            Pospolitosť ide protestovať
                                     
                                                                             
                                            Osadníci dobili muža, prišiel o oko
                                     
                                                                             
                                            DK SFZ a Slovan
                                     
                                                                             
                                            Maďarsko: Zavraždená Rómka, dcéru jej zranili
                                     
                                                                             
                                            Tváre zradcov
                                     
                                                                             
                                            Riaditeľ STV sa odvolal na článok radikálov
                                     
                                                                             
                                            Rasistom pribúdajú terče
                                     
                                                                             
                                            Packa chce, aby sa starali o chuligánov  kluby
                                     
                                                                             
                                            Obama rieši rasizmus pivom
                                     
                                                                             
                                            Komentár: Do p... a Na stráž..
                                     
                                                                             
                                            Ministerstvo vnútra odporúča pospolitosť
                                     
                                                                             
                                            Uniforma maďarskej gardy v EP
                                     
                                                                             
                                            Šéf lekárov hovorí o nátlaku v kauze Malinová
                                     
                                                                             
                                            Jobbik obnovil Maďarskú gardu
                                     
                                                                             
                                            Maďarsko: Protest  proti Jobbiku
                                     
                                                                             
                                            Komentár:Svet, čo vyzerá ako ťažký kváder
                                     
                                                                             
                                            Bulharská mafia do parlamentu
                                     
                                                                             
                                            Jobbik a Jebbíci
                                     
                                                                             
                                            Pán Bosny poskokom nacionalistov
                                     
                                                                             
                                            Filo bloguje: Kaliňák posadil neonacistov na koňa
                                     
                                                                             
                                            Maďarské gardy zakázali
                                     
                                                                             
                                            Komentár k MG a SP: Vyzliekanie
                                     
                                                                             
                                            Neonacista posprejoval tank v múzeu v Banskej Bystrici
                                     
                                                                             
                                            Komentár: Facka cez Dunaj
                                     
                                                                             
                                            Recenzia: Vlasť máme milovať menej ako človeka
                                     
                                                                             
                                            Chyba ministerstva vnútra, pospolitosť pokračuje
                                     
                                                                             
                                            OZ Slovenská pospolitosť ide ďalej, súd zrušil jej rozpustenie
                                     
                                                                             
                                            Čaplovič: nie som rasista
                                     
                                                                             
                                            Rasista sedel za basketbalistku 2 mesiace
                                     
                                                                             
                                            Bili ich a revali, čierne opice vypadnite
                                     
                                                                             
                                            VIDEO: policajti brutálne kopali mladík z DNS
                                     
                                                                             
                                            Putin a Zjuganov si prečítajú Marxa a Engelsa
                                     
                                                                             
                                            Čaplovič urazil ženy
                                     
                                                                             
                                            Kotlebu nestíhajú
                                     
                                                                             
                                            Kotleba voľný
                                     
                                                                             
                                            Leško: Vraj to musí byť muž
                                     
                                                                             
                                            Jerofejev: Tajná spomienka na sladký život
                                     
                                                                             
                                            Rozhovor s ministrom Kaliňákom, aj o kauze Tupý
                                     
                                                                             
                                            Komentár: Čoho sa bojíme
                                     
                                                                             
                                            Zákon v Devínskej bol neoprávnený, odvolali policajtov
                                     
                                                                             
                                            Správa SNSLP o ľudských právach 2008 + extremizmus
                                     
                                                                             
                                            Kaliňák: Tupý potrebuje odvahu svedkov
                                     
                                                                             
                                            V Košiciach zbili dvoch študentov z Čadu
                                     
                                                                             
                                            Rozhovor s obžalovaným z vraždy Tupého
                                     
                                                                             
                                            SME: Rómov v Sabinove segregovali
                                     
                                                                             
                                            Kto tlieska Tisovi II...
                                     
                                                                             
                                            Rasista, ktorý napadol doktora, dostal podmienku
                                     
                                                                   
                     Obľúbené knihy 
                    
                     
                                                 
                                            Bastl o Antife pre Rexter
                                     
                                                                             
                                            Sme draví, ale druholigisti
                                     
                                                                             
                                            Nebezpečné známosti - ČR-GER pravic. extrémisti
                                     
                                                                             
                                            20 rokov po: Sme slobodní, ale nie lepší
                                     
                                                                             
                                            Mareš: Autonómní nacionalisté-Myšlenkové zázemí žhářů z Vítkova
                                     
                                                                             
                                            Čo posilňuje sebavedomie českých neonacistov
                                     
                                                                             
                                            HBS Praha: Analýza spolupráce českých a nemeckých náckov
                                     
                                                                             
                                            Bratislava ako mafiánsky kotol
                                     
                                                                             
                                            Komentár: Svätopluk Fico
                                     
                                                                             
                                            Komentár: Najhoršia stránka
                                     
                                                                             
                                            Komentár: Keby bol Tupý vrah
                                     
                                                                             
                                            Komentár: Obvinenie
                                     
                                                                             
                                            1993: BNP, Combat 18, Chelsea Headhunters
                                     
                                                                             
                                            Rómske otázky bez odpovedí
                                     
                                                                             
                                            AUTONÓMNI NACIONALISTI očami politológa Nociara
                                     
                                                                             
                                            Prejudices and Extreme right in Hungary 2008
                                     
                                                                             
                                            Správa maďarského NBU o extrémizme 2008
                                     
                                                                             
                                            Stiahnite PDF: Stratégia ČR v boji proti extrémizmu 2008
                                     
                                                                             
                                            AUTONÓMNI NACIONALISTI
                                     
                                                                             
                                            Koncepcia boja proti extrémizmu sa nenapĺňa
                                     
                                                                             
                                            Večne zlostný mariáš
                                     
                                                                             
                                            Na niekoho to musíme hodiť
                                     
                                                                             
                                            Rusko: Radikálny nacionalizmus 2008 - takmer 100 zavraždených
                                     
                                                                             
                                            Zlyhanie Elít
                                     
                                                                             
                                            Akčný plán na predchádzanie rasizmu a diskriminácie 2009-2011
                                     
                                                                             
                                            Kto je za násilím na štadónoch?
                                     
                                                                             
                                            Rómovia: Etnikum neprispôsobivé
                                     
                                                                             
                                            Krivošík: Inkluzívne chápanie národa
                                     
                                                                             
                                            Krivošík: Vzrušujúci príbeh slovenských dejín
                                     
                                                                             
                                            How England tackled soccer racism
                                     
                                                                             
                                            štatistika RMTČ v 2008
                                     
                                                                             
                                            Rozbor štatistiky extrémizmu
                                     
                                                                             
                                            Existuje rasa?
                                     
                                                                             
                                            Veda o antirasizme
                                     
                                                                             
                                            veda o rasizme
                                     
                                                                             
                                            Euro neonacizmus
                                     
                                                                             
                                            Národný populizmus na Slovensku
                                     
                                                                             
                                            JK BALÁZS: SKINHEADS
                                     
                                                                             
                                            ULTRAS 2007, ENOUGH/ĽPR
                                     
                                                                             
                                            Rasistický extrémizmus
                                     
                                                                             
                                            Futbaloví chuligáni na Slovensku (2005)
                                     
                                                                             
                                            Kto sú neonacisti 1? Prvá časť psychologickej štúdie F.Šebeja
                                     
                                                                             
                                            Kto sú neonacisti 2? Nesvätá aliancia podľa F. Šebeja
                                     
                                                                   
                     Obľúbené blogy 
                    
                     
                                                 
                                            SMEblog Jozefa Kurica
                                     
                                                                             
                                            Bibliografia k štúdiu fašizmu
                                     
                                                                             
                                            SMEblog Števa Šantu
                                     
                                                                             
                                            SMEblog Hany Klamkovej
                                     
                                                                             
                                            Nepriatelia Demokracie
                                     
                                                                             
                                            SMEblog dizajnéra Viktora Klima
                                     
                                                                             
                                            SMEblog o softvéri Petra Mikšíka
                                     
                                                                             
                                            blog o mobile
                                     
                                                                             
                                            profiblog Jara Spišáka
                                     
                                                                             
                                            Dusoftov Ambience blog
                                     
                                                                             
                                            ako sa zaľúbiť napísala
                                     
                                                                   
                     Obľúbené stránky 
                    
                     
                                                 
                                            9 statočných z Little Rock
                                     
                                                                             
                                            Holokaust História
                                     
                                                                             
                                            Sviečka o Holokauste
                                     
                                                                             
                                            Oficiálna stránka fanúšikov EURO 2008
                                     
                                                                             
                                            portál o dávaní DAKUJEME.SK
                                     
                                                                             
                                            Futbal proti rasizmu (SVK)
                                     
                                                                             
                                            Odkopni rasizmus (Projekt Premier league)
                                     
                                                                             
                                            Veľa farieb, jedna hra
                                     
                                                                             
                                            Futbal proti rasizmu (FARE)
                                     
                                                                             
                                            ShOOty
                                     
                                                                             
                                            Security-Society (bezpečnosť spoločnosti)
                                     
                                                                             
                                            Ľudia proti rasizmu
                                     
                            
             
         
            

             
             Čo ma zaujalo 
            Týmto článkom bloger klikol/klikla na karmu.
             
                                                         
                       Čitateľský denník: 11 mojich najlepších non-fiction kníh roka
                     
                                                         
                       Podliehame ilúziám
                     
                                                         
                       Paškova "fabrika"
                     
                                                         
                       Páni, správcovia, lokaji a nuly
                     
                                                         
                       Muž vo výťahu
                     
                                                         
                       Národ piťovcov
                     
                                                         
                       Manuál mladého konšpirátora
                     
                                                         
                       List Karolovi: Minule, keď som šiel okolo policajnej stanice
                     
                                                         
                       Ako Mesežnikov antisemitov hľadal (a našiel)
                     
                                                         
                       Prečo gayovia zvyšujú nájomné a istoty sú drahé
                     
                             
         
           
     Pošlite odkaz blogerovi 
    
         
            
         

         
         
         
         

         
         
Odosielateľ (e-mail)
 
         
Text
 
         
             
Protispamová ochrana 
 
 Zle. Skúste znova. 
Opíšte slová z obrázku: Načítať iné slová 
 Get an image CAPTCHA 
 
 
         
                 
            
         
    
  


 

     






            
    
        
    
 

        
         
         
             Už ste čítali? 
         
         
 

 kultura.sme.sk 
 Margaréta sa spriahla s diablom, no mala Kristovu pravdu 
 
 

 www.sme.sk 
 Pútnické miesta The Beatles alebo ako ľudia kráčajú po zebre 
 
 

 cestovanie.sme.sk 
 Lovia za svitania a v hmle 
 
 

 www.sme.sk 
 Ako sa valila lavína slobody. Ako padal komunizmus 
 
 

 kultura.sme.sk 
 Žiadne retro, poriadny biznis. Takto sa lisuje platňa 
 
	   
 


        
         
            
         

     

    
     
 
 
	 

		Kontakty
		Predplatné
		Etický kódex
		Pomoc
		Mapa stránky
		
	 
 
 
	 
		 
			Widget
			RSS
			Newsletter
		 
		 
			Mobil
			Smartphone
			Kindle
			Televízor
		 
		 
			Facebook
			Twitter
			Google+
		 
	 
	 
		
	 
	 
		Ďalšie weby skupiny: Prihlásenie do Post.sk
		Új Szó Slovak Spectator
		Agentúrne správy 
		Vydavateľstvo
		Inzercia
		Osobné údaje
		Návštevnosť webu
		Predajnosť tlače
		Petit Academy
		SME v škole 		© Copyright 1997-2014 Petit Press, a.s. 
	 
 
 
 


          
        
            
            

        
    

    
    


    


    
        
        
        
        
        
        
        
            
            
        
        
        
        
         
                                
               





 

 



        

 




