
      
    
    

     
	 
	 
 SME.sk 
 Zľavy 
 Zoznámenie 
 Reality 
 Dovolenky 
 Pizza 
 Reštaurácie 
 Recenzie 
 Inzeráty 
 Naničmama 	 
Nákupy 
		 
 Filmy na DVD 
 Hodinky 
 Parfémy 
 SME knihy a DVD 
 Superhosting 
 Tlačiareň 
 Víno 
 Tvorba webov 
 Predplatné SME 
 ProSenior 		 
	 
	 
 
	 
 


    
    
        
        
         
          
         
    

    
      
         
            
             
     
        
        
     
    Blog.SME.sk
 

    

         
        
                 
     
         
            Sme.sk
         
         
            Domov
         
         
            Regióny
         
         
            Ekonomika
         
         
            Svet
         
         
            Komentáre
         
         
            Kultúra
         
         
            Šport
         
         
            TV
         
         
            Auto
         
         
            Tech
         
         
            Poradňa
         
         
            Žena
         
         
            Bývanie
         
         
            Zdravie
         
         
            Blog
         
     
 

         
            
     
                                                         Politika 
                                                                                     Spoločnosť 
                                                                                     Cestovanie 
                                                                                     Ekonomika 
                                                                                     Fotografie 
                                                                                     Jedlo 
                                                                                     Kultúra 
                                                                                             
Ďalšie
                             
                                                                                         Lifestyle 
                                                                                                                                                                             Médiá 
                                                                                                                                                                             Nezaradené 
                                                                                                                                                                             Súkromné 
                                                                                                                                                                             Šport 
                                                                                                                                                                             Veda a technika 
                                                                                                                                                                             Zábava 
                                                                                                                                                                             Poézia 
                                                                                                                                                                             Próza 
                                                                                                                                                                             Kódex blogera 
                                                                                 
                         
                                                 
            Blogeri
         
     


            

    
    Prihlásiť sa


    
    Založte si blog



    
    Odhlásiť sa


    
    




         

        
        
         
            
         
         
                
     
                 
            SME.sk &gt;
            Blog.SME.sk &gt;
                            Helena Fábryová
                                        &gt;
                Slnečnicové denníky
                     
                 Fresh green 

        
            
                                    7.5.2010
            o
            20:12
                        |
            Karma článku:
                4.90
            |
            Prečítané 
            1106-krát
                    
         
     
         
             

                 
                    Je to tak ako to má byť. Keď majú alergici a ľudia s nízkym tlakom biostupeň 3 a v skleníkoch je šalát. Vtedy idem za pánom B. do záhrady a on mi ten šalát odreže a naloží mi tri hlavy do náruče. Veď on zje na večeru jeden, tak čo sa okúňam.  
                 

                     Tak potom nesiem tie šalátové hlavy cez ulicu. Pán B. sa vracia do záhrady a za ním idú mačky. Všetky ktoré boli nablízku. Pripletie sa k nim aj naša, potom sa mi obtiera o nohy a vysvetľuje mi tak, že ma má stále rada aj keď ju pán B. kŕmi. Pánovi B. potom nesiem roládu s banánom a kakaovým krémom a on potom nechce kávu, lebo nepije. Lebo kávu nepije, nefajčí, nepije alkohol, lebo len pracuje. A keď dopracuje zoberie bicykel a my sa pozeráme ako pán B. odchádza. Ako odchádza a za ním idú tie mačky. Ďalší deň prichádza aj keď nemusí v záhradke nič robiť, lebo mačkám treba naliať mlieko. A potom znova odchádza a tie mačky za ním. Mačky pijúce vodu z vaničky ktorú vymaľoval na bledomodro, vaničky v ktorej sa pred 40 rokmi kúpali jeho synovia. A pán B. šliape na pedále svojej skladačky a keď ma vidí kričí cez pol ulice. Kričí ahoj a teší sa a tie mačky bežia za ním. A potom idem okolo jeho záhrady a on sa znova smeje a kričí: „Helenko, nechceš šalát?" Mačky sa mu obtierajú o nohy a ležia pri jeho skleníku. A on nosí bledú šiltovku a hrubé okuliare a úsmev. Úsmev z duše, taký úprimný, nie úsmev ako zo žltého ksichtíku. Pán B. je symbolom posledných dní.   Posledné dni to bola ekológia a boli to vzťahy a jedince a populácie. Skúška na ktorú som šla prezlečená za dámu a otázka o tolerancii. A vypreparované vtáky v miestnosti v ktorej ma Doc. s malým copíkom skúšal a potom povedal, že nebyť toho zaváhania mohlo byť aj A. Tak som odišla. Odišla som na vysokých topánkach, aby som zistila, že to je na šmykľavých kachličkách skoro životu nebezpečné.   Tak isto môže byť nebezpečné nájsť ako spieva ktorý vták a potom si to púšťať. Do izby mi potom nejaký vletí a ja sa ho snažím dostať von.    Pri všetkých bufetoch ste mohli za posledné dni nájsť toto: „Traja zúfali, ale zato nie najškaredší FEIkári hľadajú pekné, podľa možností aj inteligentné dievča na zoznámenie. Ozvite sa na velki.milovnici@gmail.com"  Tak sa kamarátkina mama ozvala...   A kvitnú irisy a orgován a Botanická záhrada má krásnu atmosféru. Keď sa tam vozia záhradníci na traktore spolu s lopatami a kosia.   Teraz je treba dýchať. Dýchať zhlboka a precízne.     

                 
                                        
                        
                        Zdieľať
                    

                    
                            
                                    
                                    Zdieľať na
                            
                             
                                    
                             
                    

                                                                                                                        
                            
                            Diskusia: (7)
                        
                    
                    
                        
                        Zvýšte karmu
                    
                 
             

                             
            
                     
                         Ďalšie články blogera 
                         
                                                             
                                    
                    	                                                                                        

                                                                        
                                    
                                        Helena Fábryová 
                                        
                                            Základy moderného hejtu
                                        
                                    
                                 
                                                             
                                    
                    	                                                                                        

                                                                        
                                    
                                        Helena Fábryová 
                                        
                                            Konce
                                        
                                    
                                 
                                                             
                                    
                    	                                                                                        

                                                                        
                                    
                                        Helena Fábryová 
                                        
                                            Toto mesto
                                        
                                    
                                 
                                                             
                                    
                    	                                                                                        

                                                                        
                                    
                                        Helena Fábryová 
                                        
                                            O tej prašivej vede
                                        
                                    
                                 
                                                             
                                    
                    	                                                                                        

                                                                        
                                    
                                        Helena Fábryová 
                                        
                                            Okná dokorán
                                        
                                    
                                 
                                                     
                        
                            Ďalšie články blogera: Helena Fábryová
                        
                     
            
                     
                         Ďalšie články z rubriky nezaradené 
                         
                                                             
                                    
                                                            	                                                                                        

                                                                                                
                                    
                                        Pavel Ondrejmiška 
                                        
                                            Dnes farnosť Žitavany, pred tisíc rokmi kráľovská fara v Kňažiciach
                                        
                                    
                                 
                                                             
                                    
                                                            	                                                                                        

                                                                                                
                                    
                                        Milan Removčík 
                                        
                                            Zimný Šíp.
                                        
                                    
                                 
                                                             
                                    
                                                            	                                                                                        

                                                                                                
                                    
                                          esc-sr 
                                        
                                            Čas (ne)vhodných darčekov
                                        
                                    
                                 
                                                             
                                    
                                                            	                                                                                        

                                                                                                
                                    
                                        Michal Filek 
                                        
                                            Ako je ťažké darovať bezdomovcom polievku?
                                        
                                    
                                 
                                                             
                                    
                                                                                                                    

                                                                                                
                                    
                                        Anna Kováčová 
                                        
                                            Na sexi postavu, zdravie, energiu a šťastný život nepotrebujete tabletky!
                                        
                                    
                                 
                                                     
                        
                            Ďalšie články z rubriky nezaradené
                        
                     
                 
            
                    
 
     Hlavné správy 
         
        
                                

        
         
            AKTUALIZOVANÉ O 20:00
             Rubeľ pocítil pád na dno, Rusko je vo finančnej kríze 
             Dolár včera stál už takmer 80 rubľov, pod hladinu ho tlačia najmä nízke ceny ropy. 
         
     
         
        
                                

        
         
            ZAHRANIČIE
             Taliban zaútočil na citlivé miesto Pakistanu. Na deti 
             Taliban zabil v škole v Pakistane najmenej 141 ľudí, väčšinou deti. 
         
     
         
        
                                

        
         
            KOMENTARE.SME.SK
             Cynická obluda: Medzičasom na opustenom ostrove 
             Stroskotanci majú veľké šťastie, že sú dvaja. Lacné vtipy na úrovni ich autora. 
         
     
     

                 
     
    
     
        
 

     
                
                            
                    



         
            
                Helena Fábryová
            
         
        fabryova.blog.sme.sk (rss)
         
                        VIP
                             
     
        Už a ešte študentkou. Človek. Snáď.
°°°°°°°°°°°°°°°°°°°°°°°°°°°°°°°°°°
"Sušienka polomáčaná v skepse, ktorá to nedáva najavo."/Lydka/
°°°°°°°°°°°°°°°°°°°°°°°°°°°°°°°°°°
"Všetci sú ufóni, ale len ty budeš ovečkus."/BD/
°°°°°°°°°°°°°°°°°°°°°°°°°°°°°°°°°°
"Môj" vesmír je
fraktálový, donekonečna sa v ňom opakujú tie isté
vzory. /Micro/
        
     
     
                     
                             
             

     
        
            
                
                    Počet článkov
                    243
                
                
                    Celková karma
                    
                                                0.00
                    
                
                
                    Priemerná čítanosť
                    1445
                
            
        
     

             

             Zoznam rubrík 
            
             
                                     
                        
                            NaturAll
                        
                     
                                     
                        
                            Slnečnicové denníky
                        
                     
                                     
                        
                            Medové letá
                        
                     
                                     
                        
                            Ecce, homo !
                        
                     
                                     
                        
                            Literárne
                        
                     
                                     
                        
                            Pár strelených úvah
                        
                     
                                     
                        
                            My homework
                        
                     
                                     
                        
                            Výčiny mojej rodiny
                        
                     
                                     
                        
                            Súkromnôstky poézne
                        
                     
                             
         
    

                     
                        
                                                            
                     Obľúbené články 
                    
                     
                                                 
                                            Tento ľud
                                     
                                                                             
                                            Robert Frost: The Road Not Taken
                                     
                                                                             
                                            Znamenie blížencov
                                     
                                                                             
                                            Horčica na chodníku
                                     
                                                                             
                                            Ako som sa zaľúbil do matematiky
                                     
                                                                   
                     Obľúbené knihy 
                    
                     
                                                 
                                            To čo mám na nočnom stolíku
                                     
                                                                   
                     Obľúbené blogy 
                    
                     
                                                 
                                            Nobelovci
                                     
                                                                             
                                            °°°°random°°°°
                                     
                                                                             
                                            Alenka Sabuchová
                                     
                                                                             
                                            Saša Grodecká
                                     
                                                                             
                                            Lucka Kramaričová
                                     
                                                                             
                                            moja žienka Lydulienka
                                     
                                                                             
                                            Anna Strachan
                                     
                                                                             
                                            Veronika Vlčková
                                     
                                                                             
                                            Feeling by Mitosinkovie
                                     
                                                                             
                                            Alison
                                     
                                                                             
                                            Aubrey
                                     
                                                                             
                                            Allan Stevo
                                     
                                                                             
                                            °°°°p&amp;#229; svenska°°°°
                                     
                                                                             
                                            The hymn for the cigarettes
                                     
                                                                             
                                            Anna &amp;#229;den
                                     
                                                                             
                                            °°°°ChemABioAMedAVšetko°°°°
                                     
                                                                             
                                            Lenka Abelovská
                                     
                                                                             
                                            Veľmi múdry človek-Jaroslav Flegr
                                     
                                                                   
                     Obľúbené stránky 
                    
                     
                                                 
                                            °°°°common life°°°°
                                     
                                                                             
                                            Alma mater secunda
                                     
                                                                             
                                            Alma mater
                                     
                                                                             
                                            Alma mater mini
                                     
                                                                             
                                            Alma mater micro
                                     
                                                                             
                                            A o všetkom vyššie uvedenom na sieťovke
                                     
                                                                             
                                            °°°°literárne°°°°
                                     
                                                                             
                                            Múza
                                     
                                                                             
                                            Literární Doupě
                                     
                                                                             
                                            V iných vodách
                                     
                            
             
         
            

           
     Pošlite odkaz blogerovi 
    
         
            
         

         
         
         
         

         
         
Odosielateľ (e-mail)
 
         
Text
 
         
             
Protispamová ochrana 
 
 Zle. Skúste znova. 
Opíšte slová z obrázku: Načítať iné slová 
 Get an image CAPTCHA 
 
 
         
                 
            
         
    
  


 

     






            
    
        
    
 

        
         
         
             Už ste čítali? 
         
         
 

 kultura.sme.sk 
 Margaréta sa spriahla s diablom, no mala Kristovu pravdu 
 
 

 www.sme.sk 
 Pútnické miesta The Beatles alebo ako ľudia kráčajú po zebre 
 
 

 cestovanie.sme.sk 
 Lovia za svitania a v hmle 
 
 

 www.sme.sk 
 Ako sa valila lavína slobody. Ako padal komunizmus 
 
 

 kultura.sme.sk 
 Žiadne retro, poriadny biznis. Takto sa lisuje platňa 
 
	   
 


        
         
            
         

     

    
     
 
 
	 

		Kontakty
		Predplatné
		Etický kódex
		Pomoc
		Mapa stránky
		
	 
 
 
	 
		 
			Widget
			RSS
			Newsletter
		 
		 
			Mobil
			Smartphone
			Kindle
			Televízor
		 
		 
			Facebook
			Twitter
			Google+
		 
	 
	 
		
	 
	 
		Ďalšie weby skupiny: Prihlásenie do Post.sk
		Új Szó Slovak Spectator
		Agentúrne správy 
		Vydavateľstvo
		Inzercia
		Osobné údaje
		Návštevnosť webu
		Predajnosť tlače
		Petit Academy
		SME v škole 		© Copyright 1997-2014 Petit Press, a.s. 
	 
 
 
 


          
        
            
            

        
    

    
    


    


    
        
        
        
        
        
        
        
            
            
        
        
        
        
         
                                
               





 

 



        

 




