




 
	 
	 
 SME.sk 
 Z?avy 
 Zozn?menie 
 Reality 
 Dovolenky 
 Pizza 
 Re?taur?cie 
 Recenzie 
 Inzer?ty 
 Nani?mama 	 
N?kupy 
		 
 Filmy na DVD 
 Hodinky 
 Parf?my 
 Poistenie 
 SME knihy a DVD 
 Superhosting 
 Tla?iare? 
 V?no 
 Tvorba webov 
 Predplatn? SME 		 
	 
	 
 
	 
 
 
 
  
 
 
 
 

 
	 
		
	 
	 
  	 
 







 
 
   
 

 
 
  SME.sk 
  DOMOV 
  
REGI?NY
 	
		Vybra? svoj regi?n

Tip: Spr?vy z v?ho regi?nu si teraz m??ete nastavi? priamo na titulke 
Chcem vysk??a?

 	Z?padBratislavaLeviceNov? Z?mkyNitraPezinokSenecTopo??anyTren??nTrnavaZ?horie
		V?chodKorz?rHumenn?Ko?iceMichalovcePopradPre?ovStar? ?ubov?aSpi?
		StredBansk? BystricaKysuceLiptovNovohradOravaPova?sk? BystricaPrievidzaTuriecZvolen?iar?ilina
 	
  
  EKONOMIKA 
  SVET 
  KOMENT?RE 
  KULT?RA 
  ?PORT 
  TV 
  AUTO 
  TECH 
  PORAD?A 
  ?ENA 
  B?VANIE 
  ZDRAVIE 
  BLOG 
 
 
 
 
 Koment?re: 
 Redak?n? 
 Hostia 
 F?rum 
 Karikat?ra 
 
Komentatori 

 
 Peter Breiner 
 Tom? G?lis 
 Juraj Hrabko 
 Ingrid Hrubani?ov? 
 Milan Lasica 
 Mari?n Le?ko 
 Peter Morvay 
 Franti?ek M??ka 
 Roman Pataj 
 Peter Schutz 
 J?n ?trasser 
 Miro ?ifra 
 Tom? Ulej 
 Miriam Zsilleov? 
 
 
 
 
 
 Pohodln? pr?stup k Va?im ob??ben?m novin?m - Piano len za 3,90 EUR na mesiac
 
  
   
    
     
      
       



 
 Trestn? ozn?menie - vzor *DOKUMENTy 
 
 Vydan? 29. 5. 1997 o 0:00 
 
 
 
 
	
		Zdie?a?
		
			Zdie?a? na
			 

Tweet


      	
			 
		
	
	
		Diskusia (0)
		Nahl?si? chybu
		Tla?
	
 
 
 
 
 
 Predseda KDH J. ?arnogursk? na v?zvu SME pripravil v s?vislosti so zmaren?m referendom vzor trestn?ho podania i podania na ?stavn? s?d SR. Po?iadavka SME vyplynula z telefon?tov ?itate?ov, po?as referenda. 
 Cel? ?l?nok si m??u pre??ta? predplatitelia pr?miov?ho obsahu SME.sk. Pozrite si ponuku bal??kov pr?stupu na SME.sk, teraz u? od 1 centu na mesiac. 
 ? ? 
 
 
 Vysk??ajte pln? pr?stup k SME.sk cez Piano teraz za 1 cent. Ak v?s nezaujmeme, predplatn? zru??te troma klikmi. 
 
 Radi a ?asto pou??vate SME.sk? S predplatn?m z?skate neobmedzen? pr?stup k naj??tanej?iemu spravodajsk?mu webu. V?etky exkluz?vne p?vodn? materi?ly SME.sk, cel? sekcia koment?re, hodnotn? ??tanie a rozhovory z pr?loh TV OKO, V?kend a F?rum, neobmedzen? diskusie. Ka?d? ve?er zajtraj?ie noviny. Pln? pr?stup k vide?m a slovensk?m filmom na SME.sk. Denn?k SME na Kindle, pln? pr?stup k aplik?cii pre Android a onedlho aj iPhone. Zak?pen?m predplatn?ho z?rove? prispejete k udr?aniu kvality ?urnalistiky na Slovensku. 
 E?te ste predplatn? nesk?sili? Je to len p?r klikov a prv? mesiac stoj? len 1 cent. 
 Piano v?m prin?a pr?stup ku kvalitn?m ?l?nkom, vide?m a filmom na 9 slovensk?ch weboch. Pre??tajte si viac 
 
 

 
 


 
 
 
	
		Zdie?a?
		
			Zdie?a? na
			 

Tweet


      	
			 
		
	
	
		Diskusia (0)
		Nahl?si? chybu
		Tla?
	
 
 
 
 
 
 
  
 
 
 
 Hlavn? spr?vy 
 


 
 

 
AKTUALIZOVAN? O 20:00  Rube? poc?til p?d na dno, Rusko je vo finan?nej kr?ze 
 Dol?r v?era st?l u? takmer 80 rub?ov, pod hladinu ho tla?ia najm? n?zke ceny ropy. 
 
 
 
 
 




 
 

 
AKTUALIZOVAN? 20:22  Slovenky v hlavnej skupine nebodovali, ?v?dky vyhrali o 9 g?lov 
 Na?e h?dzan?rky hrali na ME piaty z?pas. V Z?hrebe proti ?v?dkam. 
 
 
 
 
 




 
 

 
AKTUALIZOVAN? 18:45  
Taliban za?to?il na citliv? miesto Pakistanu. Na deti
 
 Taliban zabil v ?kole v Pakistane najmenej 141 ?ud?, v??inou deti. 
 
 
 
 
 




 
 

 
KOMENTARE.SME.SK  Cynick? obluda: Medzi?asom na opustenom ostrove 
 Stroskotanci maj? ve?k? ??astie, ?e s? dvaja. Lacn? vtipy na ?rovni ich autora. 
 
 
 
 
 


 
 
 
 

				 
        
         
 
 
  
 
 
          

           
     
       
 
 4 hodiny 
 24h 
 3dni 
 7dn? 
 
       
 
	 
 
?esko a Slovensko si vymenili ?lohy 9?628 
 
Zav?dzaj?ca produktivita pr?ce 1?762 
 
Mu?enie CIA, Gorila a re?lna kontrola spravodajsk?ch slu?ieb 1?191 
 
V?platy a pochybnosti 1?041 
 
Ak zmena bol?, mus?me by? masochisti 752 
 
Putinov ropn? ?ok 565 
 
?elezni?n? tajomstvo 474 
 
Sydney pom??e aj nemeck?m radik?lom 395 
 
Pre?o sme tak? bohat? na ?kand?ly 364 
 
Ficova alternat?va nen?visti 342 
	 
 
 
 
 
?esko a Slovensko si vymenili ?lohy 43?210 
 
Pre?o sme tak? bohat? na ?kand?ly 23?379 
 
Sydney pom??e aj nemeck?m radik?lom 10?322 
 
Putinov ropn? ?ok 5?311 
 
Ak zmena bol?, mus?me by? masochisti 4?773 
 
V?platy a pochybnosti 3?694 
 
Plati? za rukojemn?kov v ruk?ch teroristov? Len ak chceme ?al??ch 3?203 
 
?elezni?n? tajomstvo 2?565 
 
Zav?dzaj?ca produktivita pr?ce 1?855 
 
Mu?enie CIA, Gorila a re?lna kontrola spravodajsk?ch slu?ieb 1?658 
 
 
 
 
 
Putinov ropn? ?ok 99?081 
 
?esko a Slovensko si vymenili ?lohy 43?368 
 
St?p?ek Petra Schutza: Zr?ka socializmu s kapitalizmom 39?815 
 
Pre?o sme tak? bohat? na ?kand?ly 27?806 
 
Ak zmena bol?, mus?me by? masochisti 21?728 
 
Po?iatek je ministrom kontinuity 19?093 
 
Jasne definovan? vz?ahy 18?688 
 
Premi?rova re? 18?043 
 
Dvojtv?rnos?, ak? uk?zalo Rusko, sa len tak nevid? 16?734 
 
Sydney pom??e aj nemeck?m radik?lom 10?408 
 
 
 
 
 
Putinov ropn? ?ok 99?081 
 
?elezni?n? tajomstvo 68?158 
 
Ak zmena bol?, mus?me by? masochisti 59?810 
 
Novorusku zdar! 54?117 
 
Po?iatek je ministrom kontinuity 48?050 
 
?esko a Slovensko si vymenili ?lohy 43?368 
 
St?p?ek Petra Schutza: Zr?ka socializmu s kapitalizmom 39?815 
 
N?rodn? tragikom?dia z parlamentu 32?657 
 
Dvojtv?rnos?, ak? uk?zalo Rusko, sa len tak nevid? 29?735 
 
T??de? vo svete v karikat?rach 28?420 
 
 
     

           

          
 
 
  
 
 
  
 


  
  
 


  
         
        
        



       
      
     
    
   
   
  

 
 
 
 U? ste ??tali? 
 
 

 kultura.sme.sk 
 Margar?ta sa spriahla s diablom, no mala Kristovu pravdu 
 
 

 www.sme.sk 
 P?tnick? miesta The Beatles alebo ako ?udia kr??aj? po zebre 
 
 

 cestovanie.sme.sk 
 Lovia za svitania a v hmle 
 
 

 www.sme.sk 
 Ako sa valila lav?na slobody. Ako padal komunizmus 
 
 

 kultura.sme.sk 
 ?iadne retro, poriadny biznis. Takto sa lisuje plat?a 
 
	 
 
 



 
 
 
	 

		Kontakty
		Predplatn?
		Etick? k?dex
		Pomoc
		Mapa str?nky
		
	 
 
 
	 
		 
			Widget
			RSS
			Newsletter
		 
		 
			Mobil
			Smartphone
			Kindle
			Telev?zor
		 
		 
			Facebook
			Twitter
			Google+
		 
	 
	 
		
	 
	 
		?al?ie weby skupiny: Prihl?senie do Post.sk
		?j Sz? Slovak Spectator
		Agent?rne spr?vy 
		Vydavate?stvo
		Inzercia
		Osobn? ?daje
		N?v?tevnos? webu
		Predajnos? tla?e
		Petit Academy
		SME v ?kole 		? Copyright 1997-2014 Petit Press, a.s. 
	 
 
 
 
 ?al?ie weby skupiny: Prihl?senie do Post.sk ?j Sz? Slovak Spectator 
	Vydavate?stvo Inzercia N?v?tevnos? webu Predajnos? tla?e Petit Academy © Copyright 1997-2014 Petit Press, a.s. 
	 
	
 

 
 



  


 



 

 

 


 











 
 
 
 






