
      
    
    

     
	 
	 
 SME.sk 
 Zľavy 
 Zoznámenie 
 Reality 
 Dovolenky 
 Pizza 
 Reštaurácie 
 Recenzie 
 Inzeráty 
 Naničmama 	 
Nákupy 
		 
 Filmy na DVD 
 Hodinky 
 Parfémy 
 SME knihy a DVD 
 Superhosting 
 Tlačiareň 
 Víno 
 Tvorba webov 
 Predplatné SME 
 ProSenior 		 
	 
	 
 
	 
 


    
    
        
        
         
          
         
    

    
      
         
            
             
     
        
        
     
    Blog.SME.sk
 

    

         
        
                 
     
         
            Sme.sk
         
         
            Domov
         
         
            Regióny
         
         
            Ekonomika
         
         
            Svet
         
         
            Komentáre
         
         
            Kultúra
         
         
            Šport
         
         
            TV
         
         
            Auto
         
         
            Tech
         
         
            Poradňa
         
         
            Žena
         
         
            Bývanie
         
         
            Zdravie
         
         
            Blog
         
     
 

         
            
     
                                                         Politika 
                                                                                     Spoločnosť 
                                                                                     Cestovanie 
                                                                                     Ekonomika 
                                                                                     Fotografie 
                                                                                     Jedlo 
                                                                                     Kultúra 
                                                                                             
Ďalšie
                             
                                                                                         Lifestyle 
                                                                                                                                                                             Médiá 
                                                                                                                                                                             Nezaradené 
                                                                                                                                                                             Súkromné 
                                                                                                                                                                             Šport 
                                                                                                                                                                             Veda a technika 
                                                                                                                                                                             Zábava 
                                                                                                                                                                             Poézia 
                                                                                                                                                                             Próza 
                                                                                                                                                                             Kódex blogera 
                                                                                 
                         
                                                 
            Blogeri
         
     


            

    
    Prihlásiť sa


    
    Založte si blog



    
    Odhlásiť sa


    
    




         

        
        
         
            
         
         
                
     
                 
            SME.sk &gt;
            Blog.SME.sk &gt;
                            Marek Šefčík
                                        &gt;
                Nezaradené
                     
                 30+4=30 

        
            
                                    7.6.2010
            o
            7:56
                        (upravené
                6.6.2010
                o
                22:48)
                        |
            Karma článku:
                13.35
            |
            Prečítané 
            2324-krát
                    
         
     
         
             

                 
                    Matematika je síce kráľovnou všetkých vied, miluje presnosť a pravdu, ale ani taká jednoduchá operácia, akou je sčítanie, nemusí byť striktne danou. Je relatívne. Niekedy skutočne platí 30+4=30.
                 

                 
Tak to sú tie, furt nenažraté, prasce...www.trnava-live.sk
   Nie som politológ, ani sociológ. Priznávam bez mučenia, že k matematike mám bližší vzťah. A budúcnosť našej krajiny bude závisieť od matematiky. Takej troška zvláštnej matematiky...   Najskôr, aby bolo jasné, v týchto voľbách fandím opozícii. Koaličné zoskupenie Robo, Vlado, Jano vyciciava Slovensko ako sa dá. Dokonca aj keď sa zdá, že sa nedá, oni nájdu spôsob, ako to predsa len pôjde. Súdruh priemer (mimochodom, tu sú zhudobnené jeho sny :)) má talent a ťaží, jemne povedané, zo slepoty tohto národa, z necitlivosti k pravde, z neúcty k slobode. Vlado verí, že jeho prestárnutá, stále sa zmenšujúca, verná armáda voličov, príde opäť k volebným urnám, podporiť svojho niekdajšieho vodcu. A Jano? Ten verí, že na voliča zaberie znova hrubý a vulgárny nacionalizmus, že znova vzbudí v ľuďoch nenávisť voči inakosti.   Ja úprimne verím, že toto trio dostane od voličov ráznu stopku a už nebude gniaviť ekonomiku, slušnosť a morálku národa.   Koho budem voliť? Potreboval by som tri hlasy, no mám len jeden. Ani jedna zo strán nie je dokonalá. Odmietam ale tvrdenie, že všetci sú rovnakí. Oženil som sa. Vybral som si jedinú. Nie je dokonalá. Má svoje chyby. Pre mňa je však tá najlepšia. Keby som hľadal dokonalosť, ostal by som do smrti sám, možno sklamaný, nešťastný. Nechcem tvrdiť, že to je to isté, ale nejaká podobnosť v tom je. Musím si vybrať jednu stranu. Iba jedinú. A mne v tomto rozhodovaní prišla na pomoc matematika.   Časopis .týždeň vyšiel s iniciatívou a škrtá Fica. Osobnosti i bežní ľudia škrtajú. I ja som škrtol. Ale ja by som túto iniciatívu ešte doplnil o veľmi podstatnú vec. A tou je matematika...   Vo vláde sa najviac ľúbia Robo s Vladom. Nech získa ten prvý vo voľbách povedzme 30 % hlasov a ten druhý 6 %. Spoločne budu mať 36 %. Možno budú mať aj o nejaké to percento viac, vezmú k sebe ešte niekoho (napríklad osvedčeného zbojníka Jana) a možno ani to nebude treba a budú mať možnosť prerozdeľovať naše peniaze svojim sponzorom i sebe, počas ďalšej štvorročnice. Ak ale Robov kamarát Vlado nazbiera len 4%nú úrodu, skutočne bude platiť rovnosť 30+4=30. A Robčo bude mať problém vôbec vládu vytvoriť. Škrtanie Fica je OK. Ale následný prechod voličstva k Vladovi alebo Janovi by bol skôr na škodu. Ja preto škrtám všetky tri prasiatka.   Na druhej strane platí tiež podobná rovnica. Keď sa Bélovci neprešvihnú cez 5 %, tak môže Slovensko zas nadlho prešvihnúť možnosť na zmenu.   Je pravdou, že je ťažké vybrať si jedinú stranu. Fandím KDH aj SDKÚ. Ale to sú strany s väčšou voličskou základňou a nemám obavy, že by sa do parlamentu nedostali. Každý, kto chce voliť tieto strany, volí aj proti politike Smeru, a to je mi sympatické. Sám som v minulosti volil aj jednu aj druhú stranu. Fandím aj Mostu. A práve jemu som sa, kvôli tej zvláštnej matematike, rozhodol dať hlas. Uvedomil som si, že aj môj hlas môže byť päťpercentným prínosom pre súčasnú opozíciu. x+6 je až o 6 väčšie ako x+4. Je to zvláštne, ale je to tak.   Trom prasiatkam prajem, nech sa utopia v tej zvláštnej matematike...  A naopak, tej lepšej alternatíve pre Slovensko, nech jej pomôže vlna pravej matematiky s takou operáciou sčítania, ako ju všetci poznáme zo školy.     

                 
                                        
                        
                        Zdieľať
                    

                    
                            
                                    
                                    Zdieľať na
                            
                             
                                    
                             
                    

                                                                                                                        
                            
                            Diskusia: (33)
                        
                    
                    
                        
                        Zvýšte karmu
                    
                 
             

                             
            
                     
                         Ďalšie články blogera 
                         
                                                             
                                    
                    	                                                                                        

                                                                        
                                    
                                        Marek Šefčík 
                                        
                                            Posledný článok
                                        
                                    
                                 
                                                             
                                    
                    	                                                                                        

                                                                        
                                    
                                        Marek Šefčík 
                                        
                                            Nebuďme naivní
                                        
                                    
                                 
                                                             
                                    
                    	                                                                                        

                                                                        
                                    
                                        Marek Šefčík 
                                        
                                            Nový čas vyhorel
                                        
                                    
                                 
                                                             
                                    
                    	                                                                                        

                                                                        
                                    
                                        Marek Šefčík 
                                        
                                            Tomu hovorím výchova
                                        
                                    
                                 
                                                             
                                    
                    	                                                                                        

                                                                        
                                    
                                        Marek Šefčík 
                                        
                                            Prišiel na psa Hanzel
                                        
                                    
                                 
                                                     
                        
                            Ďalšie články blogera: Marek Šefčík
                        
                     
            
                     
                         Ďalšie články z rubriky politika 
                         
                                                             
                                    
                                                            	                                                                                        

                                                                                                
                                    
                                        Tomáš Hudec 
                                        
                                            Chceme zvýšiť účasť ľudí vo voľbách? Zaveďme eVoľby!
                                        
                                    
                                 
                                                             
                                    
                                                            	                                                                                        

                                                                                                
                                    
                                        Robert Bestro 
                                        
                                            Výmena vedenia parlamentu zjavne prospela
                                        
                                    
                                 
                                                             
                                    
                                                            	                                                                                        

                                                                                                
                                    
                                        Júlia Piraňa Mikolášiková 
                                        
                                            Obvinia ďalšiu novinárku z údajného ohovárania policajného šéfa Ševčíka?
                                        
                                    
                                 
                                                             
                                    
                                                            	                                                                                        

                                                                                                
                                    
                                        Stanislav Martinčko 
                                        
                                            Stužka z kvetinárstva za 16 centov a rozkradnuté milióny!!
                                        
                                    
                                 
                                                             
                                    
                                                            	                                                                                        

                                                                                                
                                    
                                        Veronika Remisova 
                                        
                                            Elektronické mýto podľa Ficovej vlády – prehľadnejšie sa to skrátka nedá
                                        
                                    
                                 
                                                     
                        
                            Ďalšie články z rubriky politika
                        
                     
                 
            
                    
 
     Hlavné správy 
         
        
                                

        
         
            ZAHRANIČIE
             Protestujúci v Maďarsku strácajú dych, Fidesz ich mätie novými návrhmi 
             Na demonštrácii proti Orbánovej vláde bolo v utorok už len niekoľko tisíc ľudí. 
         
     
         
        
                                

        
         
            AKTUALIZOVANÉ 20:22
             Slovenky v hlavnej skupine nebodovali, Švédky vyhrali o 9 gólov 
             Naše hádzanárky hrali na ME piaty zápas. V Záhrebe proti Švédkam. 
         
     
         
        
                                

        
         
            AKTUALIZOVANÉ O 21:30
             Rubeľ pocítil pád na dno, Rusko je vo finančnej kríze 
             Dolár včera stál už takmer 80 rubľov, pod hladinu ho tlačia najmä nízke ceny ropy. 
         
     
     

                 
     
    
     
        
 

     
                
                            
                    



         
            
                Marek Šefčík
            
         
        sefcik.blog.sme.sk (rss)
         
                                     
     
        Stredoškolský učiteľ, otec troch detí a manžel jednej manželky :)
 Marek Šefčík nový blog  



        
     
     
                     
                             
             

     
        
            
                
                    Počet článkov
                    135
                
                
                    Celková karma
                    
                                                0.00
                    
                
                
                    Priemerná čítanosť
                    2433
                
            
        
     

             

             Zoznam rubrík 
            
             
                                     
                        
                            Súkromné
                        
                     
                                     
                        
                            Nezaradené
                        
                     
                             
         
    

                     
                        
                                                            
                     Obľúbené články 
                    
                     
                                                 
                                            výber sme
                                     
                                                                   
                     Obľúbené blogy 
                    
                     
                                                 
                                            Slavomír Repka
                                     
                                                                             
                                            Zuzana Roy
                                     
                                                                             
                                            Emília Katriňáková
                                     
                                                                             
                                            Ondrej Močkor
                                     
                                                                             
                                            Júlia Hubeňáková - Bianka
                                     
                                                                             
                                            Martin Ližičiar
                                     
                                                                             
                                            Jakub Betinský
                                     
                                                                             
                                            Juraj Šeliga
                                     
                                                                             
                                            Róbert Flamík
                                     
                                                                             
                                            Ivka Vrablanská *IV*
                                     
                                                                             
                                            Róbert Kekiš
                                     
                                                                             
                                            Andrej Zeman
                                     
                                                                   
                     Obľúbené stránky 
                    
                     
                                                 
                                            linux config
                                     
                            
             
         
            

           
     Pošlite odkaz blogerovi 
    
         
            
         

         
         
         
         

         
         
Odosielateľ (e-mail)
 
         
Text
 
         
             
Protispamová ochrana 
 
 Zle. Skúste znova. 
Opíšte slová z obrázku: Načítať iné slová 
 Get an image CAPTCHA 
 
 
         
                 
            
         
    
  


 

     






            
    
        
    
 

        
         
         
             Už ste čítali? 
         
         
 

 kultura.sme.sk 
 Margaréta sa spriahla s diablom, no mala Kristovu pravdu 
 
 

 www.sme.sk 
 Pútnické miesta The Beatles alebo ako ľudia kráčajú po zebre 
 
 

 cestovanie.sme.sk 
 Lovia za svitania a v hmle 
 
 

 www.sme.sk 
 Ako sa valila lavína slobody. Ako padal komunizmus 
 
 

 kultura.sme.sk 
 Žiadne retro, poriadny biznis. Takto sa lisuje platňa 
 
	   
 


        
         
            
         

     

    
     
 
 
	 

		Kontakty
		Predplatné
		Etický kódex
		Pomoc
		Mapa stránky
		
	 
 
 
	 
		 
			Widget
			RSS
			Newsletter
		 
		 
			Mobil
			Smartphone
			Kindle
			Televízor
		 
		 
			Facebook
			Twitter
			Google+
		 
	 
	 
		
	 
	 
		Ďalšie weby skupiny: Prihlásenie do Post.sk
		Új Szó Slovak Spectator
		Agentúrne správy 
		Vydavateľstvo
		Inzercia
		Osobné údaje
		Návštevnosť webu
		Predajnosť tlače
		Petit Academy
		SME v škole 		© Copyright 1997-2014 Petit Press, a.s. 
	 
 
 
 


          
        
            
            

        
    

    
    


    


    
        
        
        
        
        
        
        
            
            
        
        
        
        
         
                                
               





 

 



        

 




