
      
    
    

     
	 
	 
 SME.sk 
 Zľavy 
 Zoznámenie 
 Reality 
 Dovolenky 
 Pizza 
 Reštaurácie 
 Recenzie 
 Inzeráty 
 Naničmama 	 
Nákupy 
		 
 Filmy na DVD 
 Hodinky 
 Parfémy 
 SME knihy a DVD 
 Superhosting 
 Tlačiareň 
 Víno 
 Tvorba webov 
 Predplatné SME 
 ProSenior 		 
	 
	 
 
	 
 


    
    
        
        
         
          
         
    

    
      
         
            
             
     
        
        
     
    Blog.SME.sk
 

    

         
        
                 
     
         
            Sme.sk
         
         
            Domov
         
         
            Regióny
         
         
            Ekonomika
         
         
            Svet
         
         
            Komentáre
         
         
            Kultúra
         
         
            Šport
         
         
            TV
         
         
            Auto
         
         
            Tech
         
         
            Poradňa
         
         
            Žena
         
         
            Bývanie
         
         
            Zdravie
         
         
            Blog
         
     
 

         
            
     
                                                         Politika 
                                                                                     Spoločnosť 
                                                                                     Cestovanie 
                                                                                     Ekonomika 
                                                                                     Fotografie 
                                                                                     Jedlo 
                                                                                     Kultúra 
                                                                                             
Ďalšie
                             
                                                                                         Lifestyle 
                                                                                                                                                                             Médiá 
                                                                                                                                                                             Nezaradené 
                                                                                                                                                                             Súkromné 
                                                                                                                                                                             Šport 
                                                                                                                                                                             Veda a technika 
                                                                                                                                                                             Zábava 
                                                                                                                                                                             Poézia 
                                                                                                                                                                             Próza 
                                                                                                                                                                             Kódex blogera 
                                                                                 
                         
                                                 
            Blogeri
         
     


            

    
    Prihlásiť sa


    
    Založte si blog



    
    Odhlásiť sa


    
    




         

        
        
         
            
         
         
                
     
                 
            SME.sk &gt;
            Blog.SME.sk &gt;
                            andrej smolka
                                        &gt;
                Nezaradené
                     
                 OB: zastavte tú zbytočnú hystériu. 

        
            
                                    24.3.2010
            o
            22:42
                        (upravené
                24.3.2010
                o
                22:51)
                        |
            Karma článku:
                11.13
            |
            Prečítané 
            2080-krát
                    
         
     
         
             

                 
                    Milí kritici. Včera Vám  jasne a stručne vysvetlila rómska manželka jediného zamestnaného róma z 1.500 člennej osady Žehra, že prečo je dnešný systém sociálnych dávok zlý a prečo potrebujeme niečo na spôsob OB. „Ta ja by chcela žeby ho už vyrúcili z totej roboty, bo ja dostavam menej peneži od štátu ako ostatne ženy čo im muži nepracuju." Tak, a ani prednášku nepotrebujete.
                 

                       Dnešný systém motivuje byť nezamestnaným. OB motivuje zamestnať sa.   Dnešný systém je administratívne náročný, neprehľadný a umožňuje špekulácie. OB je jednoduchý, neutrálny a špekulácie strácajú zmysel. Ušetrí sa aj na administrácii a odpadne veľa byrokracie.   Zavedenie individuálnych účtov bude znamenať sprehľadnenie finančného vzťahu každého občana voči štátu.   Prvý pilier a jeho princíp zásluhovosti je tak či tak neudržateľný, vzhľadom na demografický vývoj.     OB podporuje budovanie rodiny a zvyšuje mieru zodpovednosti občana za svoj život.      Preto ho podporujem aj ja, hoci osobne mi na začiatku nič neprinesie, pretože ako zamestnávateľovi mi nijako nezníži moje doterajšie odvody.   A všetky tieto plamenné hysterické reakcie a emócie nemajú zmysel. Ak raz príde na pretras v parlamente, nechajte to na ľudí, ktorí sú za to platení a najmä to nechajte na fundovaných ekonómov.    Z dôvodu doterajšieho budovania sociálneho štátu na slovenský spôsob odporúčam  ako užitočnú literátúru pre budúcnosť rozprávku o troch grošoch. 

                 
                                        
                        
                        Zdieľať
                    

                    
                            
                                    
                                    Zdieľať na
                            
                             
                                    
                             
                    

                                                                                                                        
                            
                            Diskusia: (147)
                        
                    
                    
                        
                        Zvýšte karmu
                    
                 
             

                             
            
                     
                         Ďalšie články blogera 
                         
                                                             
                                    
                    	                                                                                        

                                                                        
                                    
                                        andrej smolka 
                                        
                                            Anglický cintorín
                                        
                                    
                                 
                                                             
                                    
                    	                                                                                        

                                                                        
                                    
                                        andrej smolka 
                                        
                                            Dráma s čivavou : 25 hodín.
                                        
                                    
                                 
                                                             
                                    
                    	                                                                                        

                                                                        
                                    
                                        andrej smolka 
                                        
                                            Čaro nechceného
                                        
                                    
                                 
                                                             
                                    
                    	                                                                                        

                                                                        
                                    
                                        andrej smolka 
                                        
                                            Alegória štátu na Zochovej chate
                                        
                                    
                                 
                                                             
                                    
                    	                                                                                        

                                                                        
                                    
                                        andrej smolka 
                                        
                                            Relatívnosť veľkosti
                                        
                                    
                                 
                                                     
                        
                            Ďalšie články blogera: andrej smolka
                        
                     
            
                     
                         Ďalšie články z rubriky nezaradené 
                         
                                                             
                                    
                                                            	                                                                                        

                                                                                                
                                    
                                        Pavel Ondrejmiška 
                                        
                                            Dnes farnosť Žitavany, pred tisíc rokmi kráľovská fara v Kňažiciach
                                        
                                    
                                 
                                                             
                                    
                                                            	                                                                                        

                                                                                                
                                    
                                        Michal Pazič 
                                        
                                            Prečo školské zariadenie v Pakistane?
                                        
                                    
                                 
                                                             
                                    
                                                            	                                                                                        

                                                                                                
                                    
                                        Milan Removčík 
                                        
                                            Zimný Šíp.
                                        
                                    
                                 
                                                             
                                    
                                                            	                                                                                        

                                                                                                
                                    
                                          esc-sr 
                                        
                                            Čas (ne)vhodných darčekov
                                        
                                    
                                 
                                                             
                                    
                                                            	                                                                                        

                                                                                                
                                    
                                        Michal Filek 
                                        
                                            Ako je ťažké darovať bezdomovcom polievku?
                                        
                                    
                                 
                                                     
                        
                            Ďalšie články z rubriky nezaradené
                        
                     
                 
            
                    
 
     Hlavné správy 
         
        
                                

        
         
            AKTUALIZOVANÉ 16:00
             Rubeľ kolabuje, ruská vláda má mimoriadne rokovať 
             Jeden dolár stál v utorok poobede už viac ako 78 rubľov, razantné zvýšenie úrokov nepomohlo. 
         
     
         
        
                                

        
         
            ZAHRANIČIE
             Taliban zabil v škole v Pakistane vyše sto ľudí, väčšinou deti 
             Militanti vtrhli do vojenskej školy v policajných rovnošatách. 
         
     
         
        
                                

        
         
            KOMENTARE.SME.SK
             Cynická obluda: Medzičasom na opustenom ostrove 
             Stroskotanci majú veľké šťastie, že sú dvaja. Lacné vtipy na úrovni ich autora. 
         
     
     

                 
     
    
     
        
 

     
                
                            
                    



         
            
                andrej smolka
            
         
        smolka.blog.sme.sk (rss)
         
                                     
     
          ... verím v premenu 
        
     
     
                     
                             
             

     
        
            
                
                    Počet článkov
                    22
                
                
                    Celková karma
                    
                                                0.00
                    
                
                
                    Priemerná čítanosť
                    3559
                
            
        
     

             

             Zoznam rubrík 
            
             
                                     
                        
                            Súkromné
                        
                     
                                     
                        
                            Nezaradené
                        
                     
                             
         
    

    

             
             Čo ma zaujalo 
            Týmto článkom bloger klikol/klikla na karmu.
             
                                                         
                       Nie sme Američania. Škoda
                     
                                                         
                       Rasizmus po slovensky
                     
                                                         
                       Prečo Košice často navštevujú veterné smršte
                     
                                                         
                       Zatrpknutosť starého uja
                     
                                                         
                       Viete, čo majú spoločné Igor Rattaj (J&amp;T) a Miroslav Trnka (Eset)?
                     
                                                         
                       ,,Sexappel", alebo Ako zviesť muža
                     
                                                         
                       Ako spochybniť nespochybniteľné – recept sudkyne Loduhovej
                     
                                                         
                       Nabudúce si do Ameriky prinesiem vlastný hrnček
                     
                                                         
                       Keby bolo keby...
                     
                                                         
                       Argumenty proti povinnému očkovaniu
                     
                             
         
        

     






            
    
        
    
 

        
         
         
             Už ste čítali? 
         
         
 

 kultura.sme.sk 
 Margaréta sa spriahla s diablom, no mala Kristovu pravdu 
 
 

 www.sme.sk 
 Pútnické miesta The Beatles alebo ako ľudia kráčajú po zebre 
 
 

 cestovanie.sme.sk 
 Lovia za svitania a v hmle 
 
 

 www.sme.sk 
 Ako sa valila lavína slobody. Ako padal komunizmus 
 
 

 kultura.sme.sk 
 Žiadne retro, poriadny biznis. Takto sa lisuje platňa 
 
	   
 


        
         
            
         

     

    
     
 
 
	 

		Kontakty
		Predplatné
		Etický kódex
		Pomoc
		Mapa stránky
		
	 
 
 
	 
		 
			Widget
			RSS
			Newsletter
		 
		 
			Mobil
			Smartphone
			Kindle
			Televízor
		 
		 
			Facebook
			Twitter
			Google+
		 
	 
	 
		
	 
	 
		Ďalšie weby skupiny: Prihlásenie do Post.sk
		Új Szó Slovak Spectator
		Agentúrne správy 
		Vydavateľstvo
		Inzercia
		Osobné údaje
		Návštevnosť webu
		Predajnosť tlače
		Petit Academy
		SME v škole 		© Copyright 1997-2014 Petit Press, a.s. 
	 
 
 
 


          
        
            
            

        
    

    
    


    


    
        
        
        
        
        
        
        
            
            
        
        
        
        
         
                                
               





 

 



        

 




