
      
    
    

     
	 
	 
 SME.sk 
 Zľavy 
 Zoznámenie 
 Reality 
 Dovolenky 
 Pizza 
 Reštaurácie 
 Recenzie 
 Inzeráty 
 Naničmama 	 
Nákupy 
		 
 Filmy na DVD 
 Hodinky 
 Parfémy 
 SME knihy a DVD 
 Superhosting 
 Tlačiareň 
 Víno 
 Tvorba webov 
 Predplatné SME 
 ProSenior 		 
	 
	 
 
	 
 


    
    
        
        
         
          
         
    

    
      
         
            
             
     
        
        
     
    Blog.SME.sk
 

    

         
        
                 
     
         
            Sme.sk
         
         
            Domov
         
         
            Regióny
         
         
            Ekonomika
         
         
            Svet
         
         
            Komentáre
         
         
            Kultúra
         
         
            Šport
         
         
            TV
         
         
            Auto
         
         
            Tech
         
         
            Poradňa
         
         
            Žena
         
         
            Bývanie
         
         
            Zdravie
         
         
            Blog
         
     
 

         
            
     
                                                         Politika 
                                                                                     Spoločnosť 
                                                                                     Cestovanie 
                                                                                     Ekonomika 
                                                                                     Fotografie 
                                                                                     Jedlo 
                                                                                     Kultúra 
                                                                                             
Ďalšie
                             
                                                                                         Lifestyle 
                                                                                                                                                                             Médiá 
                                                                                                                                                                             Nezaradené 
                                                                                                                                                                             Súkromné 
                                                                                                                                                                             Šport 
                                                                                                                                                                             Veda a technika 
                                                                                                                                                                             Zábava 
                                                                                                                                                                             Poézia 
                                                                                                                                                                             Próza 
                                                                                                                                                                             Kódex blogera 
                                                                                 
                         
                                                 
            Blogeri
         
     


            

    
    Prihlásiť sa


    
    Založte si blog



    
    Odhlásiť sa


    
    




         

        
        
         
            
         
         
                
     
                 
            SME.sk &gt;
            Blog.SME.sk &gt;
                            radovan franec
                                        &gt;
                Nezaradené
                     
                 Dane nastroj NHZ 

        
            
                                    1.6.2010
            o
            15:27
                        (upravené
                1.6.2010
                o
                15:50)
                        |
            Karma článku:
                1.41
            |
            Prečítané 
            417-krát
                    
         
     
         
             

                 
                    Dane sú nástrojom, ktorý môže a má rozvíjať NHZ národno hospodársky záujem. A to je podpora domacej produkcie, vzniku pracovných miest, spotreby domáceho tovaru. Menej je niekedy viac. To podporí domácu ekonomiku priamo aj nepriemo napr. cez cestovný ruch.
                 

                 Preto som za zníženie dane z príjmu na 10% s následným zrušením byrokraticky a pre špekulovanie priaznivým nástrojom nezdaneného minima. A súčasne zo zavedením dane z obratu, ktorá by bola alternatívou dani z príjmu. A to predovšetkým ako nástroj zabráneniu prípadov, keď pri obrate niekoľko miliónov Eur spoločnosť vykazuje stratu.   DPH navrhujem znížiť na 10%, a na slovenské výrobky DPH na 5%. Samozrejme zároveň zružiť vracanie DPH.   Daň z alkoholu na 1Euro / za 1 liter 100% alkoholu. Podporí to využívanie pestovateľských páleníc a tým aj úniku daní pri čiernom alkohole.   Daň z uhlovodíkových palív znížiť na 10 Centov/1 liter.       Viac pozri       http://members.marticonet.sk/radovan2010                     

                 
                                        
                        
                        Zdieľať
                    

                    
                            
                                    
                                    Zdieľať na
                            
                             
                                    
                             
                    

                                                                                                                        
                            
                            Diskusia: (5)
                        
                    
                    
                        
                        Zvýšte karmu
                    
                 
             

                             
            
                     
                         Ďalšie články blogera 
                         
                                                             
                                    
                    	                                                                                        

                                                                        
                                    
                                        radovan franec 
                                        
                                            Diskriminácia a rómsky problém.
                                        
                                    
                                 
                                                             
                                    
                    	                                                                                        

                                                                        
                                    
                                        radovan franec 
                                        
                                            Doprava a cestovný ruch
                                        
                                    
                                 
                                                             
                                    
                    	                                                                                        

                                                                        
                                    
                                        radovan franec 
                                        
                                            bezpečnosť občanov na slovensku
                                        
                                    
                                 
                                                             
                                    
                    	                                                                                        

                                                                        
                                    
                                        radovan franec 
                                        
                                            Naturizmus a podpora zdravého životného štýlu
                                        
                                    
                                 
                                                             
                                    
                    	                                                                                        

                                                                        
                                    
                                        radovan franec 
                                        
                                            Nový článok chovanie psov a verejný záujem
                                        
                                    
                                 
                                                     
                        
                            Ďalšie články blogera: radovan franec
                        
                     
            
                     
                         Ďalšie články z rubriky ekonomika 
                         
                                                             
                                    
                                                                                                                    

                                                                                                
                                    
                                        Michal Spišák 
                                        
                                            Podnikanie vysokých škôl a zamestnávanie študentov
                                        
                                    
                                 
                                                             
                                    
                                                            	                                                                                        

                                                                                                
                                    
                                        Marián Pilat 
                                        
                                            Komunálne voľby sa skončili, ale pre mňa sa všetko len začína
                                        
                                    
                                 
                                                             
                                    
                                                            	                                                                                        

                                                                                                
                                    
                                        Juraj Miškov 
                                        
                                            Gabžigovo?
                                        
                                    
                                 
                                                             
                                    
                                                            	                                                                                        

                                                                                                
                                    
                                        Alexander Ač 
                                        
                                            Nečakaný ropný šok
                                        
                                    
                                 
                                                             
                                    
                                                            	                                                                                        

                                                                                                
                                    
                                        Michal Spišák 
                                        
                                            Sociálne istoty pre mladých.
                                        
                                    
                                 
                                                     
                        
                            Ďalšie články z rubriky ekonomika
                        
                     
                 
            
                    
 
     Hlavné správy 
         
        
                                

        
         
            AKTUALIZOVANÉ 20:22
             Slovenky v hlavnej skupine nebodovali, Švédky vyhrali o 9 gólov 
             Naše hádzanárky hrali na ME piaty zápas. V Záhrebe proti Švédkam. 
         
     
         
        
                                

        
         
            AKTUALIZOVANÉ O 20:00
             Rubeľ pocítil pád na dno, Rusko je vo finančnej kríze 
             Dolár včera stál už takmer 80 rubľov, pod hladinu ho tlačia najmä nízke ceny ropy. 
         
     
         
        
                                

        
         
            ZAHRANIČIE
             Taliban zaútočil na citlivé miesto Pakistanu. Na deti 
             Taliban zabil v škole v Pakistane najmenej 141 ľudí, väčšinou deti. 
         
     
     

                 
     
    
     
        
 

     
                
                            
                    



         
            
                radovan franec
            
         
        franec.blog.sme.sk (rss)
         
                                     
     
         
        
     
     
                     
                             
             

     
        
            
                
                    Počet článkov
                    6
                
                
                    Celková karma
                    
                                                0.00
                    
                
                
                    Priemerná čítanosť
                    644
                
            
        
     

             

             Zoznam rubrík 
            
             
                                     
                        
                            Súkromné
                        
                     
                                     
                        
                            Nezaradené
                        
                     
                             
         
    

    

        

     






            
    
        
    
 

        
         
         
             Už ste čítali? 
         
         
 

 kultura.sme.sk 
 Margaréta sa spriahla s diablom, no mala Kristovu pravdu 
 
 

 www.sme.sk 
 Pútnické miesta The Beatles alebo ako ľudia kráčajú po zebre 
 
 

 cestovanie.sme.sk 
 Lovia za svitania a v hmle 
 
 

 www.sme.sk 
 Ako sa valila lavína slobody. Ako padal komunizmus 
 
 

 kultura.sme.sk 
 Žiadne retro, poriadny biznis. Takto sa lisuje platňa 
 
	   
 


        
         
            
         

     

    
     
 
 
	 

		Kontakty
		Predplatné
		Etický kódex
		Pomoc
		Mapa stránky
		
	 
 
 
	 
		 
			Widget
			RSS
			Newsletter
		 
		 
			Mobil
			Smartphone
			Kindle
			Televízor
		 
		 
			Facebook
			Twitter
			Google+
		 
	 
	 
		
	 
	 
		Ďalšie weby skupiny: Prihlásenie do Post.sk
		Új Szó Slovak Spectator
		Agentúrne správy 
		Vydavateľstvo
		Inzercia
		Osobné údaje
		Návštevnosť webu
		Predajnosť tlače
		Petit Academy
		SME v škole 		© Copyright 1997-2014 Petit Press, a.s. 
	 
 
 
 


          
        
            
            

        
    

    
    


    


    
        
        
        
        
        
        
        
            
            
        
        
        
        
         
                                
               





 

 



        

 




