
      
    
    

     
	 
	 
 SME.sk 
 Zľavy 
 Zoznámenie 
 Reality 
 Dovolenky 
 Pizza 
 Reštaurácie 
 Recenzie 
 Inzeráty 
 Naničmama 	 
Nákupy 
		 
 Filmy na DVD 
 Hodinky 
 Parfémy 
 SME knihy a DVD 
 Superhosting 
 Tlačiareň 
 Víno 
 Tvorba webov 
 Predplatné SME 
 ProSenior 		 
	 
	 
 
	 
 


    
    
        
        
         
          
         
    

    
      
         
            
             
     
        
        
     
    Blog.SME.sk
 

    

         
        
                 
     
         
            Sme.sk
         
         
            Domov
         
         
            Regióny
         
         
            Ekonomika
         
         
            Svet
         
         
            Komentáre
         
         
            Kultúra
         
         
            Šport
         
         
            TV
         
         
            Auto
         
         
            Tech
         
         
            Poradňa
         
         
            Žena
         
         
            Bývanie
         
         
            Zdravie
         
         
            Blog
         
     
 

         
            
     
                                                         Politika 
                                                                                     Spoločnosť 
                                                                                     Cestovanie 
                                                                                     Ekonomika 
                                                                                     Fotografie 
                                                                                     Jedlo 
                                                                                     Kultúra 
                                                                                             
Ďalšie
                             
                                                                                         Lifestyle 
                                                                                                                                                                             Médiá 
                                                                                                                                                                             Nezaradené 
                                                                                                                                                                             Súkromné 
                                                                                                                                                                             Šport 
                                                                                                                                                                             Veda a technika 
                                                                                                                                                                             Zábava 
                                                                                                                                                                             Poézia 
                                                                                                                                                                             Próza 
                                                                                                                                                                             Kódex blogera 
                                                                                 
                         
                                                 
            Blogeri
         
     


            

    
    Prihlásiť sa


    
    Založte si blog



    
    Odhlásiť sa


    
    




         

        
        
         
            
         
         
                
     
                 
            SME.sk &gt;
            Blog.SME.sk &gt;
                            Martin Rusina
                                        &gt;
                Camino Santiago de Compostela
                     
                 5. etapa do Compostely alebo dom s modrou bránkou 

        
            
                                    10.4.2010
            o
            23:33
                        (upravené
                11.4.2010
                o
                1:07)
                        |
            Karma článku:
                9.73
            |
            Prečítané 
            2163-krát
                    
         
     
         
             

                 
                    Budím sa o 4:30 môjho času, teda o 5:30 portugalského času (neposunul  som si čas pri prechodu na letný čas). Ďalší pútnici ranostaji mi  ponúkajú kávu. Dávam si aj druhú. Dosť dlho mi trvá, kým si pozbieram po  budove veci z rôznych sušiacich miest a zbalím do batohu. Dokonca ani  pár ponožiek nemám na jednom mieste. Raňajky: posledné zvyšky nutely a  super pao. Pravidlo v albergue je, že môžte zostať len jednu noc a ráno  ho musíte opustiť. Do knihy návštev kreslím výjav, ako som včera šliapal  v ďaždi a samoobslužne si pečiatkujem zápisník. Ako som sa dozvedel od  ostatných pútnikov, mal by som mať nejaký oficiálny preukaz, kde by som  mal zbierať pečiatky z ubytovní, kostolov a podobných miest, aby mi púť v  Compostele uznali, a to tiež len ak prejdem 100 kilometrov peši, alebo  200 kilometrov bicyklom. Preukaz nemám, tak aspoň do zápisníka. 100  kilometrov mám už určite v nohách. Do kasičky vhadzujem 50 centov. Viem,  nič moc, možnosti erazmus študenta. Toľko som mohol minúť vody na  základnú hygienu a elektriny nabitím bateriek. Vyrážam medzi prvými z  alberguev Rubiaes.
                 

                    Opakuje sa situácia zo včerajšieho rána. Údere palicou do píšťal, akurát  už viem, že sa to dá rozchodiť. Cesta je po včerajších lejakoch  blatistá (dnes ráno len občasné prehánky). Boľavé šľachy mi nedovoľujú  veľmi preskakovať, som strašne nemotorný, a  rozblatené úseky veľmi  pomaly a útrapne prechádzam. Pár krát sa mi aj zadarí zaboriť po členky  do blata. Je tu celkom úrodná pôda. Dvojfarebná, môžte si vybrať medzi  hnedou a čiernou.       Skladám batoh pri míľniku Camina do Compostely. To ma už predbehli  piati cyklopútnici a štyria peší pútnici, medzi nimi aj včerajšia Nemka,  čo ma prehovárala a ktorej meno som zabudol. Zdravíme sa medzi sebou:  "Bom Camino". Camino vlastne znamená cesta.      Bolesť nie je síce už neznesiteľná, ale je to horšie ako tomu bolo  včera o tomto čase. Hlavne rozchádzanie nie je liek na zápal šliach.  Chcelo by to na to dáku masť, ale ako ju zoženiem, keď ovládam v jazyku  len základné zdvorilostné frázy a číslovky. Vtom dostávam skvelý nápad.  Vytáčam číslo na spolubývajúceho z intráku, Karola. Je erazmus študent  medicíny. Popisujem mu moju situáciu. V smske mi posiela diagnózu v  latine: ligamento no pe. Za pár kilometrov bude mesto Valença a cez  rieku je už španielske Tui. Vyhľadám tam nejakú lekáreň. Zaslúžim si  zaucho za tento nápad, ako pokutu za dobrý nápad, ktorý prišiel neskoro.  Keby mi to napadlo v Ponte de Lima, už som mohol byť po prvej liečebnej  kúre v albergue.   Pokračujem ďalej v ceste, občas sa na pár sekúnd zastavujem a o čosi  opieram. Ťažko sa mi postupuje. Ako vstupujem do mesta Valença,  predbieha ma skupina pútnikov, ktorý si včera v albergue pripravovali  spoločnú večeru a dnes ráno prvý ranostaji z nich, ktorí pre celú  skupinu pripravovali raňajky, ma ponúkli kávou. Je zložená zo skôr  narodených pútnikov. Napríklad pán s komplet šedivými vlasmi. Dosť ma to  pokoruje, lebo moja hlavná turistická devíza bola odjakživa rýchla  chôdza a vždy som bol ja, čo niekoho predbiehal. Snažím sa teda na nich  zavesiť a držať s nimi krok. Toto niekedy pomáha pri turistike, keď  niekto iný udáva tempo. Je to neuveriteľné, ale ani to nedokážem.  Začínam strácať už aj na peletón. Definitívne ich strácam z dohľadu v  kľukatých uličkách mesta Valença.   Krivkám okolo citadely mesta Valença. Vedú na ňu schody, s ktorými  nie som zadobre už od druhej etapy. Chíľu na ňu hľadím, či to stojí za  námahu. Povzbudzuje ma predstava hlasov priateľov, ktorí mi vyčítajú, že  som niekde bol a nič poriadne nenafotil a že tu zrkadlovku nosím len  pre imidž a vlastne ani pamäťovú kartu v nej nemám. Zdolávam schody,  horšie to bude smerom dole po nich. Takže, moji priatelia, nasledujúce  fotku venujem vám, že ste ma svojím spôsobom tiež povzbudzovali na mojej  púti. Za záväzok, ktorý ste mi šepkali, aj pre ktorý som to nechcel v  kritických situáciach vzdať (najmä ráno pri rozchádzaní). Za všetky:  "tyyy jo!! buen viaje.. hmm.. to bude pesi,  ze? :)) tak dobre topanky a odhodlanie a otvorene oci a objektiv :)".        A  ešte fotka z vrchu citadely na už španielske Tui a rieku Mino, ktorej  stredom prechádza portugalská-španielsko hranica. Znova stretávam Nemku,  ktorej meno som zabudol. Tiež fotografovala. Zasmiala  sa pri stretnutí.     Na moste uprostred rieky som o 12:57 svojho  času, vkráčam na španielsku pôdu cez mesto Tui. Uvidíme, čo je pravdy na  podobnosti portugalského a španielského jazyka. Vlastne je to jedno,  nedá sa ani povedať, že by som vedel portugalsky. Zahadzujem pre  konštrukciu stanu prebytočné stanové paličky, ktoré som používal ako  trekingové paličky. Pár krát ma cestou naštvali, keď zostala ich spodná  časť v blate (sú zložené z dvoch zásuvných častí) a musel som pre ne  urobiť krok späť, niekedy sa aj zohnúť. Vtedy som sa im celkom nahlas  vyhrážal: "Dievčatá, toto mi nerobte, lebo vás pri prvej príležitosti  vymením." Syndróm samotára sa začína prejavovať. Vyrábam si namiesto  nich jednu palicu z kusu konára. Je dlhšia, bude šikovnejšia pri  nepríjemných zostupoch.   V Tui sa pýtam na "Farmácia". Toto bolo jednoduché, slovíčko som si  pamätal z vývesných štítoch predošlých miest. Je mi poradené jedno  miesto. Zavreté. Španielská povestná siesta (portugalci to  nepraktizujú). Bezradne tam stojím, až kým mi akási pani samoiniciatívne  neukazuje, že na konci ulici bliká ďalší zelený kríž. Idem teda tam.  Farmácia je v historickej budove (ako celé Tui), drevené tmavé poličky,  lekárnička v bielom plášti (možno tesne pred dôchodkom) za mramorovým  pultom. Trocha som zneistený, či si zo školy pamätá latinčinu. Otváram  smsku vysvetlukúc: "Meu amigo estudente medicina" (zaručene gramaticky  zle) a ukazujem jej jeho diagnózu v latinčine. Stráca sa medzi  poličkami. Prináša krabičku s názvom flogoprofen, nejaká mastička, že či  si želám to. Mykám plecom. Pantonimicky zahrám ešte obväz. Pantonimicky  sa pýta, či elastický, alebo normálny. Chcem normálny. Prináša jeden.  Vravím, "tudo pe," pričom ukazujem na obidve nohy. Prináša druhý. Platím  4 eurá. Ďakujem a odchádzam.   Láka ma plagát na jednom Snack Bare: Chocolate co churros len za 2  eurá (chocolate je varená čokoláda, churros je niečo ako forneti).  Dostávam na to strašnú chuť. Vstupujem a objednávam si to. Čašníkovi  trvá príprava pomerne dlho, zatiaľ sledujem televíziu, v ktorej akurát  ide predpoveď počasia. Na celom španielsku, okrem najjužnejších oblastí,  sú obrázky mrakov s kvapkami. No nič moc. Potom hlásateľ počasia hovorí  o "próxima dia" a to už sa aj na severe ukazuje nesmelo slniečko. Len  teraz neviem, či zajtra, alebo až nasledujúci deň. Určite však nejaký z  nasledujúcich dní a to už je dáka nádej. Čašník prináša chocolate co  churros, ktoré noblesným pohybom skladá na stôl. Churros nie je toľko,  ako bolo na obrázku plagátu. Stal som sa obeťou marketingu...    Kúsok ďalej vstupujem do potravín. Kupujem si tri 150 gramové čokolády  za výhodnú cenu 1,79 eura. Predavačka po nablokovaní a zaplatení že  "Grácia" ja jej ešte odpovedám portugalským "Obrigado". Hneď ako vyjdem,  snažím sa osvojiť si túto frázu v španielčine. Pomáham si pri tom  konzumáciou prvej čokolády. To bol môj obed. Dosť fičím na čokoláde,  čistá energia.    Camino Santiago de Compostela tu už nie je značená len šípkami, ale aj  týmito keramickými dlaždičkami s mušlou. Najdlhší lúč ukazuje smer. Je  to pekný symbol, jednotlivé lúče mušle sa stretajú v jednom bode, presne  ako je to s pútnikmi a ich cestami do Compostely.         Kráčam okolo katedrály Santa María de Tui.         Dnu nevstupujem, len nakukám, lebo sa platí vstupné. Aspoň si fotím  batoh v portáli.         Šípkou som navigovaný cez zákutia Tui.       A tesne pred opustením mesta, stretám želanie "Bom Camino" s povzbudením  že zostáva 114 kilometrov.       Za mestom pokračujem po autostráde.  Dokonca pútnici tu už majú vlastný  pruh a tiež míľniky s keramickou mušľou a kilometroch, ktoré  napredovaním optimisticky ubúdajú.       Doobeda som ešte zažíval prehánky, ale teraz sa už vyčasilo. Dokonca  občas ma zohrejú aj slnečné lúče. Šlape sa mi celkom dobre, prechádzam  peknými úsekmi, nikoho nestretám, šľachy až tak nebolia. Tak to bolo aj  včera. K večeru sa to zlepšuje.    Dostávam sa do Ribadelouro. Slnko je už tesne nad obzorom. Je treba si  doplniť vodu, poriešiť večeru a hlavne si nájsť miesto na spanie. Ocitám  sa na križovatke. Predo mnou starý kamenný zjavne opustený dom s modrou  bránkou, vľavo žltá šípka, vpravo iná šípka s nápisom "100M Mirón Bar".  všetko je v tom momente vyriešené. Odbočujem vpravo.     Vstupujem do baru. Steny sú posprejované peknými pieces, okrem skupiny  hlučno hrajúcu nejakú, pravdepodobne hazardnú, hru pri jednom stole, je  úplne prázdny. V meste za nástenné pieces dostal prívlastok "štýlový",  ale dedina je zjavne mŕtva a bar teda veľká ryba v malom rybníku.  Pýtam sa barmana, či hovorí anglicky. "Little". Pýtam sa, aké mám  gastronomické možnosti v bare. Navrhuje mi  pao s carne (mäso).  Bielkoviny sú popri čokoládových sacharidoch tiež dôležité. Pao je náplň  do prázdneho žalúdka. Po piatich minútach mi donáša vskutku super  večeru. Zapíjam ju minerálkou. Pochvaľujem mu steny, pýtam sa, kto je  autorom. Vraví, že piati mladý amigos. Pýta sa, že kde mám v pláne spať,  že na blízku nič nie je. Ukazujem na batoh: "tenda" (teraz nie som  úprimný, no nemôžem mu prezradiť môj plán s opusteným domom s modrou  bránkou). Vraví, že na noc predpovedali dážď. Mykám plecom, že som  zvyknutý. Pýta sa, že ako vybavím sprchu (nemal som byť v albergue  lenivý, už to zrejme cítiť). Pokúšam sa o vtip a vravím, že za posledné  dni som mal dosť "shower" mysliac tým lejak. Pýta sa či v Tui. Vtip  nepochopil, jazyková beriéra. Odpovedám, že v albergue v Rubiaes  (hlavne, aby to nejak chápal). "Aaaaaa". Platím 4 eurá. Prosím ho  naplnenie fliaš. Poctivo ich vyplachuje, to ani ja nerobím. "Grácia."  Keď nemotorne s batohom odchádzam, otvára mi dvere. Druhé grácia. Vonku  prší, snažím sa bez skladania batohu vytiahnuť k nemu pripevnený  dáždnik. Pomáha mi ho vytiahnuť. Tretie grácia. Tri grácie.        Stmieva sa. To mi vyhovuje a nenápadne sa vkrádam modrou bránkou do  záhrady a z nej do domu. Nie je veľký. Predsieň, kuchyňa, špajza a dve  malé izby. Je celkom vyluftovaný, okná už asi dávno nemajú sklá. Na  spanie si vyberám miestnosť bližšie k ceste, lebo v tej druhej je  rozbitá podlaha. Zatváram okenice a dieru vo dverách od cesty prekrývam  doskami aby som mal okenice. Strop je mierne nahnitý. Nepredpokladám, že  zrovna dneska sa bude rútiť, ale pre istotu si dlážku upratujem pod  jediným nosným trámom v miestnosti (vyzerá byť zdravý). Jemné  upratovanie dlážky od prachu robím fúkaním, aby to bolo čo najviac  potichu. Celkovo sa snažím pohybovať potichu. Rozkladám si tam karimatku  so spacákom a presúvam sa do druhej miestnosti. Tam si pri sviečkach  namažem boľavé nohy flogoprofenom, umyjem zuby, zapíšem dôležité údaje a  otvorím si Písmo na odstavci:     Potom povedal: "Čomu sa podobá Božie kráľovstvo, k čomu ho  prirovnám? Podobá sa horčičnému zrnku, ktoré  človek vzal a zasial vo svojej záhrade. Keď vyrástlo, bol z neho strom a  nebeské vtáky hniezdili na jeho konároch." (Lk 13, 18-19).    Zaspávam s 41 000 krokmi v nohách (niečo cez 30 kilometrov), príjemne  chladivým pocitom na píšťalách a Slovom v myšlienkach.      PS: V 5 etape na na 10 dní prerušujem písanie, keďže odchádzam na ďalšiu cestu. Dôležité údaje mám však zapísané a ostatné sa nedá zabu 

                 
                                        
                        
                        Zdieľať
                    

                    
                            
                                    
                                    Zdieľať na
                            
                             
                                    
                             
                    

                                                                                                                        
                            
                            Diskusia: (3)
                        
                    
                    
                        
                        Zvýšte karmu
                    
                 
             

                             
            
                     
                         Ďalšie články blogera 
                         
                                                             
                                    
                    	                                                                                        

                                                                        
                                    
                                        Martin Rusina 
                                        
                                            10. etapa do Compostely alebo kto nemá v hlave, ten má v nohách
                                        
                                    
                                 
                                                             
                                    
                    	                                                                                        

                                                                        
                                    
                                        Martin Rusina 
                                        
                                            9. etapa do Compostely alebo ako som sa neskoro v noci doplazil
                                        
                                    
                                 
                                                             
                                    
                    	                                                                                        

                                                                        
                                    
                                        Martin Rusina 
                                        
                                            8. etapa do Compostely alebo pôstne putovanie
                                        
                                    
                                 
                                                             
                                    
                    	                                                                                        

                                                                        
                                    
                                        Martin Rusina 
                                        
                                            7. etapa do Compostely alebo posledná večera
                                        
                                    
                                 
                                                             
                                    
                    	                                                                                        

                                                                        
                                    
                                        Martin Rusina 
                                        
                                            6. etapa do Compostely alebo osud premočených smradlavých ponožiek
                                        
                                    
                                 
                                                     
                        
                            Ďalšie články blogera: Martin Rusina
                        
                     
            
                     
                         Ďalšie články z rubriky cestovanie 
                         
                                                             
                                    
                                                                                                                    

                                                                                                
                                    
                                        Miroslav Lisinovič 
                                        
                                            Horná brána v Modre
                                        
                                    
                                 
                                                             
                                    
                                                                                                                    

                                                                                                
                                    
                                        Martina Rúčková 
                                        
                                            Z Európy na Kaukaz: Çanakkale a bájna Trója
                                        
                                    
                                 
                                                             
                                    
                                                            	                                                                                        

                                                                                                
                                    
                                        Andrea Grešová 
                                        
                                            To je moje Rumunsko
                                        
                                    
                                 
                                                             
                                    
                                                                                                                    

                                                                                                
                                    
                                        Ján Serbák 
                                        
                                            Pamätník čs. armády s vojnovým cintorínom na Dukle
                                        
                                    
                                 
                                                             
                                    
                                                            	                                                                                        

                                                                                                
                                    
                                        Peter Kover 
                                        
                                            22 krajín (miest), ktoré sa naozaj oplatí vidieť
                                        
                                    
                                 
                                                     
                        
                            Ďalšie články z rubriky cestovanie
                        
                     
                 
            
                    
 
     Hlavné správy 
         
        
                                

        
         
            AKTUALIZOVANÉ 16:00
             Rubeľ kolabuje, ruská vláda má mimoriadne rokovať 
             Jeden dolár stál v utorok poobede už viac ako 78 rubľov, razantné zvýšenie úrokov nepomohlo. 
         
     
         
        
                                

        
         
            ZAHRANIČIE
             Taliban zabil v škole v Pakistane vyše sto ľudí, väčšinou deti 
             Militanti vtrhli do vojenskej školy v policajných rovnošatách. 
         
     
         
        
                                

        
         
            KOMENTARE.SME.SK
             Cynická obluda: Medzičasom na opustenom ostrove 
             Stroskotanci majú veľké šťastie, že sú dvaja. Lacné vtipy na úrovni ich autora. 
         
     
     

                 
     
    
     
        
 

     
                
                            
                    



         
            
                Martin Rusina
            
         
        martinrusina.blog.sme.sk (rss)
         
                                     
     
        Momentálne erazmus študent v Porte (Portugalsko)na fakulte Belas Artes
        
     
     
                     
                             
             

     
        
            
                
                    Počet článkov
                    11
                
                
                    Celková karma
                    
                                                0.00
                    
                
                
                    Priemerná čítanosť
                    2020
                
            
        
     

             

             Zoznam rubrík 
            
             
                                     
                        
                            Camino Santiago de Compostela
                        
                     
                                     
                        
                            Súkromné
                        
                     
                                     
                        
                            Nezaradené
                        
                     
                             
         
    

    

           
     Pošlite odkaz blogerovi 
    
         
            
         

         
         
         
         

         
         
Odosielateľ (e-mail)
 
         
Text
 
         
             
Protispamová ochrana 
 
 Zle. Skúste znova. 
Opíšte slová z obrázku: Načítať iné slová 
 Get an image CAPTCHA 
 
 
         
                 
            
         
    
  


 

     






            
    
        
    
 

        
         
         
             Už ste čítali? 
         
         
 

 kultura.sme.sk 
 Margaréta sa spriahla s diablom, no mala Kristovu pravdu 
 
 

 www.sme.sk 
 Pútnické miesta The Beatles alebo ako ľudia kráčajú po zebre 
 
 

 cestovanie.sme.sk 
 Lovia za svitania a v hmle 
 
 

 www.sme.sk 
 Ako sa valila lavína slobody. Ako padal komunizmus 
 
 

 kultura.sme.sk 
 Žiadne retro, poriadny biznis. Takto sa lisuje platňa 
 
	   
 


        
         
            
         

     

    
     
 
 
	 

		Kontakty
		Predplatné
		Etický kódex
		Pomoc
		Mapa stránky
		
	 
 
 
	 
		 
			Widget
			RSS
			Newsletter
		 
		 
			Mobil
			Smartphone
			Kindle
			Televízor
		 
		 
			Facebook
			Twitter
			Google+
		 
	 
	 
		
	 
	 
		Ďalšie weby skupiny: Prihlásenie do Post.sk
		Új Szó Slovak Spectator
		Agentúrne správy 
		Vydavateľstvo
		Inzercia
		Osobné údaje
		Návštevnosť webu
		Predajnosť tlače
		Petit Academy
		SME v škole 		© Copyright 1997-2014 Petit Press, a.s. 
	 
 
 
 


          
        
            
            

        
    

    
    


    


    
        
        
        
        
        
        
        
            
            
        
        
        
        
         
                                
               





 

 



        

 




