
      
    
    

     
	 
	 
 SME.sk 
 Zľavy 
 Zoznámenie 
 Reality 
 Dovolenky 
 Pizza 
 Reštaurácie 
 Recenzie 
 Inzeráty 
 Naničmama 	 
Nákupy 
		 
 Filmy na DVD 
 Hodinky 
 Parfémy 
 SME knihy a DVD 
 Superhosting 
 Tlačiareň 
 Víno 
 Tvorba webov 
 Predplatné SME 
 ProSenior 		 
	 
	 
 
	 
 


    
    
        
        
         
          
         
    

    
      
         
            
             
     
        
        
     
    Blog.SME.sk
 

    

         
        
                 
     
         
            Sme.sk
         
         
            Domov
         
         
            Regióny
         
         
            Ekonomika
         
         
            Svet
         
         
            Komentáre
         
         
            Kultúra
         
         
            Šport
         
         
            TV
         
         
            Auto
         
         
            Tech
         
         
            Poradňa
         
         
            Žena
         
         
            Bývanie
         
         
            Zdravie
         
         
            Blog
         
     
 

         
            
     
                                                         Politika 
                                                                                     Spoločnosť 
                                                                                     Cestovanie 
                                                                                     Ekonomika 
                                                                                     Fotografie 
                                                                                     Jedlo 
                                                                                     Kultúra 
                                                                                             
Ďalšie
                             
                                                                                         Lifestyle 
                                                                                                                                                                             Médiá 
                                                                                                                                                                             Nezaradené 
                                                                                                                                                                             Súkromné 
                                                                                                                                                                             Šport 
                                                                                                                                                                             Veda a technika 
                                                                                                                                                                             Zábava 
                                                                                                                                                                             Poézia 
                                                                                                                                                                             Próza 
                                                                                                                                                                             Kódex blogera 
                                                                                 
                         
                                                 
            Blogeri
         
     


            

    
    Prihlásiť sa


    
    Založte si blog



    
    Odhlásiť sa


    
    




         

        
        
         
            
         
         
                
     
                 
            SME.sk &gt;
            Blog.SME.sk &gt;
                            Jozef Drahovský
                                        &gt;
                Rôzne
                     
                 T-mobile a nekvalita služieb 

        
            
                                    31.8.2008
            o
            9:09
                        |
            Karma článku:
                11.53
            |
            Prečítané 
            4511-krát
                    
         
     
         
             

                 
                    Dlho som využíval služby T-mobilu, predtým Eurotelu, po rôznych premenách programov som skončil vo všeobecnej spokojnosti u karty EASY. Lenže kvalita služieb ide v poslednom období stále dole.
                 

                 Najprv T-mobil jednostranne skrátil platnosť kreditu z 12 mesiacov na 3 mesiace. Nakoľko telefón používam v 90% pre príjem hovorov a SMS, kredit mi prepadol.   Keďže som sa chcel vyhnúť aspoň tomu, aby prestala platiť samotná SIM karta, zavolal som na automatické EASY číslo 12350. Bohužiaľ táto služba sa zmenila na nútené vypočutie si množstva reklamy a až na zaver je menu ale poskytovanie informácie o zostatku kreditu a platnosti karty nefunguje.     Obr.1. Preto som vyplnil formulár "napíšte nám" a  poslal otázku internetom. Najprv som chcel poslať e-mail ale nemajú zverejnené adresu.     Obr. 2. Bohužiaľ ani internetom nie je možne T-mobilu zaslať otázku. Vráti sa "Chyba! -29268" Jediné čo zostáva pozitívne pre web t-mobilu, je to, že keď som v prehliadači zadal naspať dostal som sa k textu, ktorý som písal.   Preto skúšam komunikovať s T-mobilom aspoň týmto spôsobom. Možno niektorý kompetentný pracovník zareaguje, ak áno, oficiálnu odpoveď tu zverejním, a ak nie tak je tento článok informácia pre čitateľov na čo si majú dávať pozor.   Kópia otázky z formuláru:  Chcel som zistiť aspoň dokedy je plátna EASY karta, nakoľko kredit už neplatí rok ale len nejaký mesiac a možno sa skrátila aj platnosť karty, keďže informácia o skrátený platnosti kreditu nebola zákazníkom doručená a tak isto môže dopadnúť aj skrátenie platnosti karty.  Preto som zavolal na EASY číslo 12350, po vypočutí si množstva reklám som dal menu 1-dobíjanie a informácie a hláska mi ponúkla menu 1-dobitie z ktorej telefonujem, 2-dobitie inej 3-informácie o výške kreditu a platnosti, lenže keď stlačím 3 tak nedostanem informácie o kredite ale vráti ma v menu naspať. Je to úmysel aby som zavolal na informácie alebo technická porucha? Vaša odpoveď bude pravdepodobne použitá v médiách.  Jozef Drahovský 

                 
                                        
                        
                        Zdieľať
                    

                    
                            
                                    
                                    Zdieľať na
                            
                             
                                    
                             
                    

                                                                                                                        
                            
                            Diskusia: (39)
                        
                    
                    
                        
                        Zvýšte karmu
                    
                 
             

                             
            
                     
                         Ďalšie články blogera 
                         
                                                             
                                    
                    	                                                                                        

                                                                        
                                    
                                        Jozef Drahovský 
                                        
                                            Zneužívanie dopravného značenia a podnet na prokuratúru
                                        
                                    
                                 
                                                             
                                    
                    	                                                                                        

                                                                        
                                    
                                        Jozef Drahovský 
                                        
                                            Akou rýchlosťou sa smie a je vhodné ísť v danom mieste?
                                        
                                    
                                 
                                                             
                                    
                    	                                                                                        

                                                                        
                                    
                                        Jozef Drahovský 
                                        
                                            Poznáte dopravné značky súvisiace s parkovaním?
                                        
                                    
                                 
                                                             
                                    
                    	                                                                                        

                                                                        
                                    
                                        Jozef Drahovský 
                                        
                                            Darwinova cena za súkromné dopravné značenie
                                        
                                    
                                 
                                                             
                                    
                    	                                                                                        

                                                                        
                                    
                                        Jozef Drahovský 
                                        
                                            Aký vek a aké oprávnenie je potrebné na motorku?
                                        
                                    
                                 
                                                     
                        
                            Ďalšie články blogera: Jozef Drahovský
                        
                     
            
                     
                         Ďalšie články z rubriky spoločnosť 
                         
                                                             
                                    
                                                            	                                                                                        

                                                                                                
                                    
                                        Mária Levočská 
                                        
                                            Ďalšia obeť pomsty monsignora Jaraba
                                        
                                    
                                 
                                                             
                                    
                                                            	                                                                                        

                                                                                                
                                    
                                        Kristián Straka 
                                        
                                            Nebite ma, doktor Plzák... alebo POZVANIE NA VEČERU
                                        
                                    
                                 
                                                             
                                    
                                                            	                                                                                        

                                                                                                
                                    
                                        Kristián Straka 
                                        
                                            Oklamaní Ježiškom ?
                                        
                                    
                                 
                                                             
                                    
                                                            	                                                                                        

                                                                                                
                                    
                                        Milan Buno 
                                        
                                            Šup, šup, najesť sa. A utekať!
                                        
                                    
                                 
                                                             
                                    
                                                            	                                                                                        

                                                                                                
                                    
                                        Katarína Lorenčíková 
                                        
                                            Par uprimnych oslobodzujucich riadkov...
                                        
                                    
                                 
                                                     
                        
                            Ďalšie články z rubriky spoločnosť
                        
                     
                 
            
                    
 
     Hlavné správy 
         
        
                                

        
         
            ZAHRANIČIE
             Protestujúci v Maďarsku strácajú dych, Fidesz ich mätie novými návrhmi 
             Na demonštrácii proti Orbánovej vláde bolo v utorok už len niekoľko tisíc ľudí. 
         
     
         
        
                                

        
         
            AKTUALIZOVANÉ O 21:30
             Rubeľ pocítil pád na dno, Rusko je vo finančnej kríze 
             Dolár v utorok stál už takmer 80 rubľov, pod hladinu ho tlačia najmä nízke ceny ropy. 
         
     
         
        
                                

        
         
            AKTUALIZOVANÉ 21:50
             Taliban zabil v škole v Pakistane 132 detí 
             Pakistan až teraz poriadne zatlačil na islamistov. Odplatou je útok na deti vojakov. 
         
     
     

                 
     
    
     
        
 

     
                
                            
                    



         
            
                Jozef Drahovský
            
         
        drahovsky.blog.sme.sk (rss)
         
                        VIP
                             
     
        Pracuje v oblasti informačných technológií a elektroniky.  Rád jazdí autom a venuje sa analýzam v doprave, najmä z pohľadu plynulosti a bezpečnosti.
  
Facebook
  
  
        
     
     
                     
                             
             

     
        
            
                
                    Počet článkov
                    1036
                
                
                    Celková karma
                    
                                                8.45
                    
                
                
                    Priemerná čítanosť
                    5398
                
            
        
     

             

             Zoznam rubrík 
            
             
                                     
                        
                            Doprava
                        
                     
                                     
                        
                            Rôzne
                        
                     
                                     
                        
                            Zoznam článkov
                        
                     
                             
         
    

                     
                        
                                                            
                     Obľúbené blogy 
                    
                     
                                                 
                                            blog.sme.sk/*
                                     
                                                                             
                                            spravodaj.madaj.net
                                     
                                                                             
                                            4m.pilnik.sk
                                     
                                                                   
                     Obľúbené stránky 
                    
                     
                                                 
                                            JASPI
                                     
                                                                             
                                            profivodic.sk
                                     
                                                                             
                                            Pripomienkové konanie
                                     
                                                                             
                                            GeoInformatika.sk
                                     
                                                                             
                                            OpenStreetMap
                                     
                                                                             
                                            osel.cz
                                     
                            
             
         
            

           
     Pošlite odkaz blogerovi 
    
         
            
         

         
         
         
         

         
         
Odosielateľ (e-mail)
 
         
Text
 
         
             
Protispamová ochrana 
 
 Zle. Skúste znova. 
Opíšte slová z obrázku: Načítať iné slová 
 Get an image CAPTCHA 
 
 
         
                 
            
         
    
  


 

     






            
    
        
    
 

        
         
         
             Už ste čítali? 
         
         
 

 kultura.sme.sk 
 Margaréta sa spriahla s diablom, no mala Kristovu pravdu 
 
 

 www.sme.sk 
 Pútnické miesta The Beatles alebo ako ľudia kráčajú po zebre 
 
 

 cestovanie.sme.sk 
 Lovia za svitania a v hmle 
 
 

 www.sme.sk 
 Ako sa valila lavína slobody. Ako padal komunizmus 
 
 

 kultura.sme.sk 
 Žiadne retro, poriadny biznis. Takto sa lisuje platňa 
 
	   
 


        
         
            
         

     

    
     
 
 
	 

		Kontakty
		Predplatné
		Etický kódex
		Pomoc
		Mapa stránky
		
	 
 
 
	 
		 
			Widget
			RSS
			Newsletter
		 
		 
			Mobil
			Smartphone
			Kindle
			Televízor
		 
		 
			Facebook
			Twitter
			Google+
		 
	 
	 
		
	 
	 
		Ďalšie weby skupiny: Prihlásenie do Post.sk
		Új Szó Slovak Spectator
		Agentúrne správy 
		Vydavateľstvo
		Inzercia
		Osobné údaje
		Návštevnosť webu
		Predajnosť tlače
		Petit Academy
		SME v škole 		© Copyright 1997-2014 Petit Press, a.s. 
	 
 
 
 


          
        
            
            

        
    

    
    


    


    
        
        
        
        
        
        
        
            
            
        
        
        
        
         
                                
               





 

 



        

 




