
      
    
    

     
	 
	 
 SME.sk 
 Zľavy 
 Zoznámenie 
 Reality 
 Dovolenky 
 Pizza 
 Reštaurácie 
 Recenzie 
 Inzeráty 
 Naničmama 	 
Nákupy 
		 
 Filmy na DVD 
 Hodinky 
 Parfémy 
 SME knihy a DVD 
 Superhosting 
 Tlačiareň 
 Víno 
 Tvorba webov 
 Predplatné SME 
 ProSenior 		 
	 
	 
 
	 
 


    
    
        
        
         
          
         
    

    
      
         
            
             
     
        
        
     
    Blog.SME.sk
 

    

         
        
                 
     
         
            Sme.sk
         
         
            Domov
         
         
            Regióny
         
         
            Ekonomika
         
         
            Svet
         
         
            Komentáre
         
         
            Kultúra
         
         
            Šport
         
         
            TV
         
         
            Auto
         
         
            Tech
         
         
            Poradňa
         
         
            Žena
         
         
            Bývanie
         
         
            Zdravie
         
         
            Blog
         
     
 

         
            
     
                                                         Politika 
                                                                                     Spoločnosť 
                                                                                     Cestovanie 
                                                                                     Ekonomika 
                                                                                     Fotografie 
                                                                                     Jedlo 
                                                                                     Kultúra 
                                                                                             
Ďalšie
                             
                                                                                         Lifestyle 
                                                                                                                                                                             Médiá 
                                                                                                                                                                             Nezaradené 
                                                                                                                                                                             Súkromné 
                                                                                                                                                                             Šport 
                                                                                                                                                                             Veda a technika 
                                                                                                                                                                             Zábava 
                                                                                                                                                                             Poézia 
                                                                                                                                                                             Próza 
                                                                                                                                                                             Kódex blogera 
                                                                                 
                         
                                                 
            Blogeri
         
     


            

    
    Prihlásiť sa


    
    Založte si blog



    
    Odhlásiť sa


    
    




         

        
        
         
            
         
         
                
     
                 
            SME.sk &gt;
            Blog.SME.sk &gt;
                            Jozef Javurek
                                        &gt;
                Blogovanie
                     
                 Historické vozidlá v Palárikove 

        
            
                                    18.5.2008
            o
            22:22
                        |
            Karma článku:
                10.47
            |
            Prečítané 
            10349-krát
                    
         
     
         
             

                 
                    V sobotu 17. mája sa uskutočnila výstava historických vozidiel v Palárikove...
                 

                  Je to už druhý ročník vydareného podujatia. Mám k nemu niekoľko záberov s poznámkami. Zameral som sa pochopiteľne hlavne na tie vozidlá, ktoré z minulosti trochu poznám, tie čo vytvárajú jasné body na čiare času.....          Skúter Manet 125, vyrábaný v Považskej Bystrici bol pohodlným dopravným prostriedkom     -          Značka Velorex je viacej známa z výroby vozidiel pre invalidov, Jeden z nich si výborne zahral aj vo filme Vrchni prchni...       -          Jawa 250 perák, rok výroby 1948. Presne na takomto stroji som najazdil 30 tis. km, potom skončil u začínajúceho mladého zberateľa, ktorý sa aj v Palárikove predstavil so svojim nádherným veteránom     -          Nemožno povedať inak, ako že to je slávny Pionier Jawa 50, aspoň v rámci Československa      -          A je to tu: Aero 30 z roku 1935. Dvojtaktný vodou chladený dvojvalec obsahu 1000 cm3 . Predný náhon. Anton Porhajaš Veteran Car Club Mojmírovce       -          -     -          Simca Aronde bola pomerne často na našich cestách     -          A toto je auto - krásavec Škoda 440 Spartak     -          Luxusná Volga, na akej sa najčastejšie prevážali tajomníci OV a riaditelia podnikov     -          Tatra 603, to bol vo svojom čase pojem..... Tatra 613 už tak neoslnila.     -          Hliadka VB - Verejná bezpečnosť, také bolo vtedy pomenovanie obávanej polície, pred ktorou mali zlodeji rešpekt     -          O kultúru ľuďom a o atmosféru historickým vozidlám sa starali členovia Old Time Band  - Funny Fellows s krásnou speváčkou Zuzanou Haasovou     -          Funny Fellows complet (iba speváčka je skrytá)      -              Už historický autobus Škoda 706 RTO      -          Poľnohospodárska technika láka hlavne malých chlapcov     -          Krásavica Praga...     -          Zetor 3045...     -          Na záver: nenáročný obdivovateľ historických vozidiel... :)     -              

                 
                                        
                        
                        Zdieľať
                    

                    
                            
                                    
                                    Zdieľať na
                            
                             
                                    
                             
                    

                                                                                                                        
                            
                            Diskusia: (22)
                        
                    
                    
                        
                        Zvýšte karmu
                    
                 
             

                             
            
                     
                         Ďalšie články blogera 
                         
                                                             
                                    
                    	                                                                                        

                                                                        
                                    
                                        Jozef Javurek 
                                        
                                            Vieme prví, len či pravdu
                                        
                                    
                                 
                                                             
                                    
                                                                                                    

                                                                        
                                    
                                        Jozef Javurek 
                                        
                                            November
                                        
                                    
                                 
                                                             
                                    
                                                                                                    

                                                                        
                                    
                                        Jozef Javurek 
                                        
                                            Moja prvá fantastika
                                        
                                    
                                 
                                                             
                                    
                                                                                                    

                                                                        
                                    
                                        Jozef Javurek 
                                        
                                            Papierové mestá
                                        
                                    
                                 
                                                             
                                    
                                                                                                    

                                                                        
                                    
                                        Jozef Javurek 
                                        
                                            Spisovatelia v Smoleniciach
                                        
                                    
                                 
                                                     
                        
                            Ďalšie články blogera: Jozef Javurek
                        
                     
            
                     
                         Ďalšie články z rubriky veda a technika 
                         
                                                             
                                    
                                                            	                                                                                        

                                                                                                
                                    
                                        Mária Džunková 
                                        
                                            Prečo vôbec nevadí, ak nemáte DNA sekvenátor
                                        
                                    
                                 
                                                             
                                    
                                                            	                                                                                        

                                                                                                
                                    
                                        Jana K. Jones 
                                        
                                            Filozofia vedy - Čo, podľa Poppera, veda dokazuje?
                                        
                                    
                                 
                                                             
                                    
                                                            	                                                                                        

                                                                                                
                                    
                                        MUDr. Peter Žiak, PhD. 
                                        
                                            Prečo si niekedy nevšimneme červenú?
                                        
                                    
                                 
                                                             
                                    
                                                            	                                                                                        

                                                                                                
                                    
                                        Jana K. Jones 
                                        
                                            Filozofia vedy - kritérium falzifikovateľnosti podľa Karla Poppera
                                        
                                    
                                 
                                                             
                                    
                                                                                                                    

                                                                                                
                                    
                                        Miroslav Lisinovič 
                                        
                                            Tatra 87
                                        
                                    
                                 
                                                     
                        
                            Ďalšie články z rubriky veda a technika
                        
                     
                 
            
                    
 
     Hlavné správy 
         
        
                                

        
         
            AKTUALIZOVANÉ O 20:00
             Rubeľ pocítil pád na dno, Rusko je vo finančnej kríze 
             Dolár včera stál už takmer 80 rubľov, pod hladinu ho tlačia najmä nízke ceny ropy. 
         
     
         
        
                                

        
         
            ZAHRANIČIE
             Taliban zaútočil na citlivé miesto Pakistanu. Na deti 
             Taliban zabil v škole v Pakistane najmenej 141 ľudí, väčšinou deti. 
         
     
         
        
                                

        
         
            KOMENTARE.SME.SK
             Cynická obluda: Medzičasom na opustenom ostrove 
             Stroskotanci majú veľké šťastie, že sú dvaja. Lacné vtipy na úrovni ich autora. 
         
     
     

                 
     
    
     
        
 

     
                
                            
                    



         
            
                Jozef Javurek
            
         
        jozefjavurek.blog.sme.sk (rss)
         
                        VIP
                             
     
        Neoznačené fotografie na blogu výlučne z vlastnej tvorby (c). Inak je všetko vo hviezdach...
 
"štandardný už tradičný bloger, s istou mierou poctivosti" (jeden čitateľ)
 
 


Click for "Your New Digest 1".
Powered by RSS Feed Informer

počet návštev:







 
        
     
     
                     
                                                        
                        
                    
                                                        
                        
                    
                                                        
                        
                    
                             
             

     
        
            
                
                    Počet článkov
                    650
                
                
                    Celková karma
                    
                                                4.59
                    
                
                
                    Priemerná čítanosť
                    2950
                
            
        
     

             

             Zoznam rubrík 
            
             
                                     
                        
                            Slovensko
                        
                     
                                     
                        
                            Český raj
                        
                     
                                     
                        
                            Cestovanie
                        
                     
                                     
                        
                            Fotografie
                        
                     
                                     
                        
                            História
                        
                     
                                     
                        
                            Kultúra
                        
                     
                                     
                        
                            Poézia
                        
                     
                                     
                        
                            Próza
                        
                     
                                     
                        
                            Myšlienky, názory
                        
                     
                                     
                        
                            Blogovanie
                        
                     
                                     
                        
                            Technika a technológia
                        
                     
                                     
                        
                            Domácnosť
                        
                     
                                     
                        
                            Záhrada
                        
                     
                                     
                        
                            Zábava
                        
                     
                                     
                        
                            Zdravie
                        
                     
                                     
                        
                            Súkromné
                        
                     
                                     
                        
                            EÚ
                        
                     
                                     
                        
                            Hory, lesy
                        
                     
                             
         
    

    

        

     






            
    
        
    
 

        
         
         
             Už ste čítali? 
         
         
 

 kultura.sme.sk 
 Margaréta sa spriahla s diablom, no mala Kristovu pravdu 
 
 

 www.sme.sk 
 Pútnické miesta The Beatles alebo ako ľudia kráčajú po zebre 
 
 

 cestovanie.sme.sk 
 Lovia za svitania a v hmle 
 
 

 www.sme.sk 
 Ako sa valila lavína slobody. Ako padal komunizmus 
 
 

 kultura.sme.sk 
 Žiadne retro, poriadny biznis. Takto sa lisuje platňa 
 
	   
 


        
         
            
         

     

    
     
 
 
	 

		Kontakty
		Predplatné
		Etický kódex
		Pomoc
		Mapa stránky
		
	 
 
 
	 
		 
			Widget
			RSS
			Newsletter
		 
		 
			Mobil
			Smartphone
			Kindle
			Televízor
		 
		 
			Facebook
			Twitter
			Google+
		 
	 
	 
		
	 
	 
		Ďalšie weby skupiny: Prihlásenie do Post.sk
		Új Szó Slovak Spectator
		Agentúrne správy 
		Vydavateľstvo
		Inzercia
		Osobné údaje
		Návštevnosť webu
		Predajnosť tlače
		Petit Academy
		SME v škole 		© Copyright 1997-2014 Petit Press, a.s. 
	 
 
 
 


          
        
            
            

        
    

    
    


    


    
        
        
        
        
        
        
        
            
            
        
        
        
        
         
                                
               





 

 



        

 




