
      
    
    

     
	 
	 
 SME.sk 
 Zľavy 
 Zoznámenie 
 Reality 
 Dovolenky 
 Pizza 
 Reštaurácie 
 Recenzie 
 Inzeráty 
 Naničmama 	 
Nákupy 
		 
 Filmy na DVD 
 Hodinky 
 Parfémy 
 SME knihy a DVD 
 Superhosting 
 Tlačiareň 
 Víno 
 Tvorba webov 
 Predplatné SME 
 ProSenior 		 
	 
	 
 
	 
 


    
    
        
        
         
          
         
    

    
      
         
            
             
     
        
        
     
    Blog.SME.sk
 

    

         
        
                 
     
         
            Sme.sk
         
         
            Domov
         
         
            Regióny
         
         
            Ekonomika
         
         
            Svet
         
         
            Komentáre
         
         
            Kultúra
         
         
            Šport
         
         
            TV
         
         
            Auto
         
         
            Tech
         
         
            Poradňa
         
         
            Žena
         
         
            Bývanie
         
         
            Zdravie
         
         
            Blog
         
     
 

         
            
     
                                                         Politika 
                                                                                     Spoločnosť 
                                                                                     Cestovanie 
                                                                                     Ekonomika 
                                                                                     Fotografie 
                                                                                     Jedlo 
                                                                                     Kultúra 
                                                                                             
Ďalšie
                             
                                                                                         Lifestyle 
                                                                                                                                                                             Médiá 
                                                                                                                                                                             Nezaradené 
                                                                                                                                                                             Súkromné 
                                                                                                                                                                             Šport 
                                                                                                                                                                             Veda a technika 
                                                                                                                                                                             Zábava 
                                                                                                                                                                             Poézia 
                                                                                                                                                                             Próza 
                                                                                                                                                                             Kódex blogera 
                                                                                 
                         
                                                 
            Blogeri
         
     


            

    
    Prihlásiť sa


    
    Založte si blog



    
    Odhlásiť sa


    
    




         

        
        
         
            
         
         
                
     
                 
            SME.sk &gt;
            Blog.SME.sk &gt;
                            Kristína Kollárová
                                        &gt;
                Znamenia ako ich (ne)poznáme
                     
                 Blíženci tak trochu inak 

        
            
                                    15.4.2010
            o
            12:31
                        |
            Karma článku:
                1.81
            |
            Prečítané 
            390-krát
                    
         
     
         
             

                 
                    Blíženci sú riadny kríženci :))))
                 

                 Blíženci - extrémny to typ. :)  Toto znamenie najviac odporúčam ženám, ktoré sa neustále nudia a  potrebujú si život stále viac a viac soliť, teda okoreniť.  S týmto znamením je každý deň iný, či už je to žena alebo muž. Ak  hľadáte osvieženie, že sa budete zaoberať otázkami čo mu je? Kde je? Kto  je toto zviera? Kto je tento vynikajúci kuchár? Tak je pre vás blíženec  to pravé.  O hádanky máte postarané. Dovolím si s kľudným svedomím tvrdiť, že  väčšina mužov v tomto znamení sú sexuálne úchylný a nemajú problém to  hneď aj na rovinu povedať. Áno, všetci sme svojím spôsobom úchylní, ale  toto je vážne moc.:)  Aspoň keby sa to snažili nejako zakryť, ale nie... mmsky vo dne v noci  vám budú prichádzať stále. Niektorí muži vážne nerozumejú ženskej reči,  alebo to bude tým znamením?  Každopádne milí blíženci, tie vaše prasačinky a mmsky o vašom krásnom  ehm o vašej krásnej postave na nás nefungujú - česť výnimkám slečny a  dámy. :)  Ale patrí im niečo čo malo ktorému znameniu a to je humor.   Ten je fakt bezkonkurenčný  Aspoň teda jedného môjho známeho. Dokázala by som ho hodiny počúvať.  Jeho vtipné hlášky, vtipy, príhody z práce , štýl akým to podá nemá  proste chybu. Ale ako všetko, aj toto  má  jeden obrovský háčik, pre mňa  je to aspoň dosť veľký problém.   Majú veľký problém sústrediť sa, sústrediť sa na osobu, ktorá sedí  oproti nim snaží sa dostať k slovu, ale márne. Stále počúvate len aká je  jeho práca, aké sú jeho zážitky, a keď vám konečne dovolí niečo povedať  a vy s úsmevom na perách začnete rozprávať príhodu , ktorá sa vám stala  minulý rok na jar, vám opäť skočí do reči a povie: " ježiš to mi  pripomína ako som bol s kolegom...." a tak dáále :)  Pre mňa ako partner nič moc, ale pre niektoré ženy to môže byť ten pán s  veľkým ... humorom :)  Aj keď som veľakrát uvažovala, že ta sexuálna úchylnosť by nemusela byť  až takým veľkým prúserom, bojím sa, že problém so sústredením by mal aj  tam. Ale to je môj názor - každopádne stojí zato vyskúšať. :) 

                 
                                        
                        
                        Zdieľať
                    

                    
                            
                                    
                                    Zdieľať na
                            
                             
                                    
                             
                    

                                                                                                                        
                            
                            Diskusia: (12)
                        
                    
                    
                        
                        Zvýšte karmu
                    
                 
             

                             
            
                     
                         Ďalšie články blogera 
                         
                                                             
                                    
                    	                                                                                        

                                                                        
                                    
                                        Kristína Kollárová 
                                        
                                            Vodnár tak trochu inak
                                        
                                    
                                 
                                                             
                                    
                    	                                                                                        

                                                                        
                                    
                                        Kristína Kollárová 
                                        
                                            Strelec tak trochu inak
                                        
                                    
                                 
                                                             
                                    
                    	                                                                                        

                                                                        
                                    
                                        Kristína Kollárová 
                                        
                                            býk tak trochu inak
                                        
                                    
                                 
                                                     
                        
                            Ďalšie články blogera: Kristína Kollárová
                        
                     
            
                     
                         Ďalšie články z rubriky nezaradené 
                         
                                                             
                                    
                                                            	                                                                                        

                                                                                                
                                    
                                        Pavel Ondrejmiška 
                                        
                                            Dnes farnosť Žitavany, pred tisíc rokmi kráľovská fara v Kňažiciach
                                        
                                    
                                 
                                                             
                                    
                                                            	                                                                                        

                                                                                                
                                    
                                        Michal Pazič 
                                        
                                            Prečo školské zariadenie v Pakistane?
                                        
                                    
                                 
                                                             
                                    
                                                            	                                                                                        

                                                                                                
                                    
                                        Milan Removčík 
                                        
                                            Zimný Šíp.
                                        
                                    
                                 
                                                             
                                    
                                                            	                                                                                        

                                                                                                
                                    
                                          esc-sr 
                                        
                                            Čas (ne)vhodných darčekov
                                        
                                    
                                 
                                                             
                                    
                                                            	                                                                                        

                                                                                                
                                    
                                        Michal Filek 
                                        
                                            Ako je ťažké darovať bezdomovcom polievku?
                                        
                                    
                                 
                                                     
                        
                            Ďalšie články z rubriky nezaradené
                        
                     
                 
            
                    
 
     Hlavné správy 
         
        
                                

        
         
            AKTUALIZOVANÉ 16:00
             Rubeľ kolabuje, ruská vláda má mimoriadne rokovať 
             Jeden dolár stál v utorok poobede už viac ako 78 rubľov, razantné zvýšenie úrokov nepomohlo. 
         
     
         
        
                                

        
         
            ZAHRANIČIE
             Taliban zabil v škole v Pakistane vyše sto ľudí, väčšinou deti 
             Militanti vtrhli do vojenskej školy v policajných rovnošatách. 
         
     
         
        
                                

        
         
            KOMENTARE.SME.SK
             Cynická obluda: Medzičasom na opustenom ostrove 
             Stroskotanci majú veľké šťastie, že sú dvaja. Lacné vtipy na úrovni ich autora. 
         
     
     

                 
     
    
     
        
 

     
                
                            
                    



         
            
                Kristína Kollárová
            
         
        kristinakollarova.blog.sme.sk (rss)
         
                                     
     
        Prečo chceš všetko čo mám ja? Ved ani ja nechcem všetko čo máš Ty! :)Neplačem len ma pália oči... 
Nedokonale dokonalá :)))
        
     
     
                     
                             
             

     
        
            
                
                    Počet článkov
                    4
                
                
                    Celková karma
                    
                                                0.00
                    
                
                
                    Priemerná čítanosť
                    299
                
            
        
     

             

             Zoznam rubrík 
            
             
                                     
                        
                            Znamenia ako ich (ne)poznáme
                        
                     
                                     
                        
                            Súkromné
                        
                     
                                     
                        
                            Nezaradené
                        
                     
                             
         
    

    

        

     






            
    
        
    
 

        
         
         
             Už ste čítali? 
         
         
 

 kultura.sme.sk 
 Margaréta sa spriahla s diablom, no mala Kristovu pravdu 
 
 

 www.sme.sk 
 Pútnické miesta The Beatles alebo ako ľudia kráčajú po zebre 
 
 

 cestovanie.sme.sk 
 Lovia za svitania a v hmle 
 
 

 www.sme.sk 
 Ako sa valila lavína slobody. Ako padal komunizmus 
 
 

 kultura.sme.sk 
 Žiadne retro, poriadny biznis. Takto sa lisuje platňa 
 
	   
 


        
         
            
         

     

    
     
 
 
	 

		Kontakty
		Predplatné
		Etický kódex
		Pomoc
		Mapa stránky
		
	 
 
 
	 
		 
			Widget
			RSS
			Newsletter
		 
		 
			Mobil
			Smartphone
			Kindle
			Televízor
		 
		 
			Facebook
			Twitter
			Google+
		 
	 
	 
		
	 
	 
		Ďalšie weby skupiny: Prihlásenie do Post.sk
		Új Szó Slovak Spectator
		Agentúrne správy 
		Vydavateľstvo
		Inzercia
		Osobné údaje
		Návštevnosť webu
		Predajnosť tlače
		Petit Academy
		SME v škole 		© Copyright 1997-2014 Petit Press, a.s. 
	 
 
 
 


          
        
            
            

        
    

    
    


    


    
        
        
        
        
        
        
        
            
            
        
        
        
        
         
                                
               





 

 



        

 




