
      
    
    

     
	 
	 
 SME.sk 
 Zľavy 
 Zoznámenie 
 Reality 
 Dovolenky 
 Pizza 
 Reštaurácie 
 Recenzie 
 Inzeráty 
 Naničmama 	 
Nákupy 
		 
 Filmy na DVD 
 Hodinky 
 Parfémy 
 SME knihy a DVD 
 Superhosting 
 Tlačiareň 
 Víno 
 Tvorba webov 
 Predplatné SME 
 ProSenior 		 
	 
	 
 
	 
 


    
    
        
        
         
          
         
    

    
      
         
            
             
     
        
        
     
    Blog.SME.sk
 

    

         
        
                 
     
         
            Sme.sk
         
         
            Domov
         
         
            Regióny
         
         
            Ekonomika
         
         
            Svet
         
         
            Komentáre
         
         
            Kultúra
         
         
            Šport
         
         
            TV
         
         
            Auto
         
         
            Tech
         
         
            Poradňa
         
         
            Žena
         
         
            Bývanie
         
         
            Zdravie
         
         
            Blog
         
     
 

         
            
     
                                                         Politika 
                                                                                     Spoločnosť 
                                                                                     Cestovanie 
                                                                                     Ekonomika 
                                                                                     Fotografie 
                                                                                     Jedlo 
                                                                                     Kultúra 
                                                                                             
Ďalšie
                             
                                                                                         Lifestyle 
                                                                                                                                                                             Médiá 
                                                                                                                                                                             Nezaradené 
                                                                                                                                                                             Súkromné 
                                                                                                                                                                             Šport 
                                                                                                                                                                             Veda a technika 
                                                                                                                                                                             Zábava 
                                                                                                                                                                             Poézia 
                                                                                                                                                                             Próza 
                                                                                                                                                                             Kódex blogera 
                                                                                 
                         
                                                 
            Blogeri
         
     


            

    
    Prihlásiť sa


    
    Založte si blog



    
    Odhlásiť sa


    
    




         

        
        
         
            
         
         
                
     
                 
            SME.sk &gt;
            Blog.SME.sk &gt;
                            Marie Stracenská
                                        &gt;
                o kadečom
                     
                 Mamy iných 

        
            
                                    10.6.2010
            o
            7:35
                        |
            Karma článku:
                17.82
            |
            Prečítané 
            2527-krát
                    
         
     
         
             

                 
                    „Také zvláštne to bolo. Sused mi otvoril v tielku a slipoch. A jeho žena, susedka, tú som poriadne ani nevidel. Keď som k nim prišiel, niekam zaliezla. A o piatej poobede boli zamknutí na dva zámky." Manžel sa vrátil od susedov, bol u nich po radu. „A ty vieš, ako tá susedka vyzerá? Myslím si, že som ju vlastne predtým vôbec nevidel. A to tu bývame päť rokov." Priznávam, ak by odo mňa chcel opis, neviem, ako susedka vyzerá. Zvyčajne si ľudí všímam, no ona mi veľa šancí nedala. Nielen preto, že máme asi iný rytmus dní. Aj preto, že sa ľuďom vyhýba.
                 

                 A ja sa jej vôbec nečudujem. Musela si toho asi veľa vypočuť. A málo z toho bolo príjemné. Mama postihnutého chlapca, dnes už dospelého, to v malom meste vôbec nemá ľahké.   Viem, ako sa mnohí ľudia pozerali na môjho kamaráta vozíčkara. Ako sa báli niekedy hoci len dotknúť známeho dievčatka s Downovým syndrómom. Aj ako si mnohí mysleli, že tá kožná choroba priateľky, ktorá sa prejavuje bielymi fľakmi, je nákazlivá. (Neblbnite, nie je!!! - ale to som nemohla vykrikovať stále všade okolo...) Iní sú skrátka - iní. A „neiní" sa ich boja. A svoj strach menia na ústrky. Často.   Viem to od priateľov, v mojich očiach veľmi silných. Ľúbili sa a nestačilo im to, tak si osvojili a vychovali tri deti, jedno s horším postihnutím, než druhé. Ani jedno z detí sa nebolo schopné pohybovať bez vozíčka, dve aj v puberte potrebovali plienky. Obdivovala som ich.   O nepriateľstve a odsúvaní vie veľa rozprávať vozíčkar Ivan - jeho jedinou vinou je, že má veľmi krehké kosti. Chlapíkovi, ktorý mu kedysi ukradol auto upravené na ručný pohon, to asi celkom nedošlo.   Priznávam, aj ja som sa zľakla, keď ma nevedela prestať objímať pani v Domove sociálnych služieb - mala päťdesiat, hrala sa a kreslila ako osemročná a stisk mala ako zápasnícky šampión. Je niekedy ťažké vnímať ich svet. A vlastne to ani nikdy my „neiní" nepochopíme. Vďaka Bohu sme to nezažili.   No ich rodičia to zažili. Veľmi silno. Preto možno moja susedka už nikdy nikomu nebude dôverovať. Preto je ostražitá, vyhýba sa okoliu. Samota neubližuje.   Jej syn, s postihom, si poctivo na seba zarába. Robí to, čo vie - murárči. A to je úžasné. Rozhodne to však nebola ľahká cesta. Jeho, no najmä jeho rodičov, to stálo veľa síl.   Škoda, že ona - mama už nemá silu to tým, čo jej ubližovali, dnes povedať.     

                 
                                        
                        
                        Zdieľať
                    

                    
                            
                                    
                                    Zdieľať na
                            
                             
                                    
                             
                    

                                                                                                                        
                            
                            Diskusia: (4)
                        
                    
                    
                        
                        Zvýšte karmu
                    
                 
             

                             
            
                     
                         Ďalšie články blogera 
                         
                                                             
                                    
                    	                                                                                        

                                                                        
                                    
                                        Marie Stracenská 
                                        
                                            Vianoce vo štvrtok
                                        
                                    
                                 
                                                             
                                    
                    	                                                                                        

                                                                        
                                    
                                        Marie Stracenská 
                                        
                                            Nepoznám žiadne dieťa...
                                        
                                    
                                 
                                                             
                                    
                    	                                                                                        

                                                                        
                                    
                                        Marie Stracenská 
                                        
                                            Ranná káva
                                        
                                    
                                 
                                                             
                                    
                    	                                                                                        

                                                                        
                                    
                                        Marie Stracenská 
                                        
                                            Cez hrádzu zrýchlene
                                        
                                    
                                 
                                                             
                                    
                    	                                                                                        

                                                                        
                                    
                                        Marie Stracenská 
                                        
                                            Poschodová
                                        
                                    
                                 
                                                     
                        
                            Ďalšie články blogera: Marie Stracenská
                        
                     
            
                     
                         Ďalšie články z rubriky nezaradené 
                         
                                                             
                                    
                                                            	                                                                                        

                                                                                                
                                    
                                        Pavel Ondrejmiška 
                                        
                                            Dnes farnosť Žitavany, pred tisíc rokmi kráľovská fara v Kňažiciach
                                        
                                    
                                 
                                                             
                                    
                                                            	                                                                                        

                                                                                                
                                    
                                        Milan Removčík 
                                        
                                            Zimný Šíp.
                                        
                                    
                                 
                                                             
                                    
                                                            	                                                                                        

                                                                                                
                                    
                                          esc-sr 
                                        
                                            Čas (ne)vhodných darčekov
                                        
                                    
                                 
                                                             
                                    
                                                            	                                                                                        

                                                                                                
                                    
                                        Michal Filek 
                                        
                                            Ako je ťažké darovať bezdomovcom polievku?
                                        
                                    
                                 
                                                             
                                    
                                                                                                                    

                                                                                                
                                    
                                        Anna Kováčová 
                                        
                                            Na sexi postavu, zdravie, energiu a šťastný život nepotrebujete tabletky!
                                        
                                    
                                 
                                                     
                        
                            Ďalšie články z rubriky nezaradené
                        
                     
                 
            
                    
 
     Hlavné správy 
         
        
                                

        
         
            ZAHRANIČIE
             Protestujúci v Maďarsku strácajú dych, Fidesz ich mätie novými návrhmi 
             Na demonštrácii proti Orbánovej vláde bolo v utorok už len niekoľko tisíc ľudí. 
         
     
         
        
                                

        
         
            AKTUALIZOVANÉ O 21:30
             Rubeľ pocítil pád na dno, Rusko je vo finančnej kríze 
             Dolár včera stál už takmer 80 rubľov, pod hladinu ho tlačia najmä nízke ceny ropy. 
         
     
         
        
                                

        
         
            AKTUALIZOVANÉ 21:50
             Taliban zabil v škole v Pakistane 132 detí 
             Pakistan až teraz poriadne zatlačil na islamistov. Odplatou je útok na deti vojakov. 
         
     
     

                 
     
    
     
        
 

     
                
                            
                    



         
            
                Marie Stracenská
            
         
        stracenska.blog.sme.sk (rss)
         
                        VIP
                             
     
         Som žena. Novinárka, lektorka a konzultantka. Mama nádherných a šikovných dvojčiat. Manželka, dcéra, sestra, priateľka. Neľahostajná. Mám rada svet. Rovnako rýchlo sa viem nadchnúť, potešiť a rozosmiať ako pobúriť a nahlas rozhnevať. 
        
     
     
                     
                             
             

     
        
            
                
                    Počet článkov
                    701
                
                
                    Celková karma
                    
                                                12.16
                    
                
                
                    Priemerná čítanosť
                    1779
                
            
        
     

             

             Zoznam rubrík 
            
             
                                     
                        
                            o deťoch
                        
                     
                                     
                        
                            o vzťahoch
                        
                     
                                     
                        
                            o kadečom
                        
                     
                                     
                        
                            Súkromné
                        
                     
                                     
                        
                            Nezaradené
                        
                     
                             
         
    

    

             
             Čo ma zaujalo 
            Týmto článkom bloger klikol/klikla na karmu.
             
                                                         
                       Moja rozprávka
                     
                                                         
                       Zaťovia
                     
                                                         
                       Nápadník
                     
                                                         
                       Univerzitná nemocnica vyriešila problém Richterových prezervatívov
                     
                                                         
                       Obrovská stará dáma
                     
                                                         
                       Tutoľa máme kopčok
                     
                                                         
                       Bojovníčka
                     
                                                         
                       Vifon
                     
                             
         
           
     Pošlite odkaz blogerovi 
    
         
            
         

         
         
         
         

         
         
Odosielateľ (e-mail)
 
         
Text
 
         
             
Protispamová ochrana 
 
 Zle. Skúste znova. 
Opíšte slová z obrázku: Načítať iné slová 
 Get an image CAPTCHA 
 
 
         
                 
            
         
    
  


 

     






            
    
        
    
 

        
         
         
             Už ste čítali? 
         
         
 

 kultura.sme.sk 
 Margaréta sa spriahla s diablom, no mala Kristovu pravdu 
 
 

 www.sme.sk 
 Pútnické miesta The Beatles alebo ako ľudia kráčajú po zebre 
 
 

 cestovanie.sme.sk 
 Lovia za svitania a v hmle 
 
 

 www.sme.sk 
 Ako sa valila lavína slobody. Ako padal komunizmus 
 
 

 kultura.sme.sk 
 Žiadne retro, poriadny biznis. Takto sa lisuje platňa 
 
	   
 


        
         
            
         

     

    
     
 
 
	 

		Kontakty
		Predplatné
		Etický kódex
		Pomoc
		Mapa stránky
		
	 
 
 
	 
		 
			Widget
			RSS
			Newsletter
		 
		 
			Mobil
			Smartphone
			Kindle
			Televízor
		 
		 
			Facebook
			Twitter
			Google+
		 
	 
	 
		
	 
	 
		Ďalšie weby skupiny: Prihlásenie do Post.sk
		Új Szó Slovak Spectator
		Agentúrne správy 
		Vydavateľstvo
		Inzercia
		Osobné údaje
		Návštevnosť webu
		Predajnosť tlače
		Petit Academy
		SME v škole 		© Copyright 1997-2014 Petit Press, a.s. 
	 
 
 
 


          
        
            
            

        
    

    
    


    


    
        
        
        
        
        
        
        
            
            
        
        
        
        
         
                                
               





 

 



        

 




