
      
    
    

     
	 
	 
 SME.sk 
 Zľavy 
 Zoznámenie 
 Reality 
 Dovolenky 
 Pizza 
 Reštaurácie 
 Recenzie 
 Inzeráty 
 Naničmama 	 
Nákupy 
		 
 Filmy na DVD 
 Hodinky 
 Parfémy 
 SME knihy a DVD 
 Superhosting 
 Tlačiareň 
 Víno 
 Tvorba webov 
 Predplatné SME 
 ProSenior 		 
	 
	 
 
	 
 


    
    
        
        
         
          
         
    

    
      
         
            
             
     
        
        
     
    Blog.SME.sk
 

    

         
        
                 
     
         
            Sme.sk
         
         
            Domov
         
         
            Regióny
         
         
            Ekonomika
         
         
            Svet
         
         
            Komentáre
         
         
            Kultúra
         
         
            Šport
         
         
            TV
         
         
            Auto
         
         
            Tech
         
         
            Poradňa
         
         
            Žena
         
         
            Bývanie
         
         
            Zdravie
         
         
            Blog
         
     
 

         
            
     
                                                         Politika 
                                                                                     Spoločnosť 
                                                                                     Cestovanie 
                                                                                     Ekonomika 
                                                                                     Fotografie 
                                                                                     Jedlo 
                                                                                     Kultúra 
                                                                                             
Ďalšie
                             
                                                                                         Lifestyle 
                                                                                                                                                                             Médiá 
                                                                                                                                                                             Nezaradené 
                                                                                                                                                                             Súkromné 
                                                                                                                                                                             Šport 
                                                                                                                                                                             Veda a technika 
                                                                                                                                                                             Zábava 
                                                                                                                                                                             Poézia 
                                                                                                                                                                             Próza 
                                                                                                                                                                             Kódex blogera 
                                                                                 
                         
                                                 
            Blogeri
         
     


            

    
    Prihlásiť sa


    
    Založte si blog



    
    Odhlásiť sa


    
    




         

        
        
         
            
         
         
                
     
                 
            SME.sk &gt;
            Blog.SME.sk &gt;
                            Roman Brna
                                        &gt;
                Trafika
                     
                 Eyjafjallajökull 

        
            
                                    22.4.2010
            o
            14:40
                        (upravené
                3.7.2010
                o
                13:38)
                        |
            Karma článku:
                0.00
            |
            Prečítané 
            870-krát
                    
         
     
         
             

                 
                    Islandský stratovulkán. Je vysoký 1 666 m, má rozlohu asi 100 štvorcových kilometrov, kráter v priemere meria cca 3-4 km. Seizmická aktivita z roku 2009 vyvrcholila 20. marca a 14. apríla 2010 mohutnými erupciami. Posledný výbuch, sprevádzaný tisíckami malých zemetrasení a elektrických búrok, rozsiahle zamoril atmosféru sopečným popolom.
                 

                    foto: Reuters      foto: Brynjar Gauti      foto: Lucas Jackson      foto: Brynjar Gaudi      foto: Lucas Jackson      foto: Halldór Kolbeins      foto: Lucas Jackson      foto: Halldór Kolbeins      foto: Halldór Kolbeins      foto: Ingólfur Juliusson      foto: Lucas Jackson      foto: Halldór Kolbeins      foto: Halldór Kolbeins      foto: Brynjar Gauti      foto: Brynjar Gauti      foto: Brynjar Gauti      foto: Ulrich Latzenhofer      foto: Arnar Thorisson      foto: Olivier Vandeginste      foto: Halldór Kolbeins      foto: Olivier Vandeginste   zdroj: BOSTON.COM 

                 
                                        
                        
                        Zdieľať
                    

                    
                            
                                    
                                    Zdieľať na
                            
                             
                                    
                             
                    

                                                                                                                        
                            
                            Diskusia: (4)
                        
                    
                    
                        
                        Zvýšte karmu
                    
                 
             

                             
            
                     
                         Ďalšie články blogera 
                         
                                                             
                                    
                    	                                                                                        

                                                                        
                                    
                                        Roman Brna 
                                        
                                            Vy hnusné kreatúry!
                                        
                                    
                                 
                                                             
                                    
                    	                                                                                        

                                                                        
                                    
                                        Roman Brna 
                                        
                                            Ďakujem Vám!
                                        
                                    
                                 
                                                             
                                    
                    	                                                                                        

                                                                        
                                    
                                        Roman Brna 
                                        
                                            Nasnežilo / No Comment
                                        
                                    
                                 
                                                             
                                    
                    	                                                                                        

                                                                        
                                    
                                        Roman Brna 
                                        
                                            Neotravujte ma!
                                        
                                    
                                 
                                                             
                                    
                    	                                                                                        

                                                                        
                                    
                                        Roman Brna 
                                        
                                            Pour féliciter 2012 (kalendár)
                                        
                                    
                                 
                                                     
                        
                            Ďalšie články blogera: Roman Brna
                        
                     
            
                     
                         Ďalšie články z rubriky veda a technika 
                         
                                                             
                                    
                                                            	                                                                                        

                                                                                                
                                    
                                        Mária Džunková 
                                        
                                            Prečo vôbec nevadí, ak nemáte DNA sekvenátor
                                        
                                    
                                 
                                                             
                                    
                                                            	                                                                                        

                                                                                                
                                    
                                        Jana K. Jones 
                                        
                                            Filozofia vedy - Čo, podľa Poppera, veda dokazuje?
                                        
                                    
                                 
                                                             
                                    
                                                            	                                                                                        

                                                                                                
                                    
                                        MUDr. Peter Žiak, PhD. 
                                        
                                            Prečo si niekedy nevšimneme červenú?
                                        
                                    
                                 
                                                             
                                    
                                                            	                                                                                        

                                                                                                
                                    
                                        Jana K. Jones 
                                        
                                            Filozofia vedy - kritérium falzifikovateľnosti podľa Karla Poppera
                                        
                                    
                                 
                                                             
                                    
                                                                                                                    

                                                                                                
                                    
                                        Miroslav Lisinovič 
                                        
                                            Tatra 87
                                        
                                    
                                 
                                                     
                        
                            Ďalšie články z rubriky veda a technika
                        
                     
                 
            
                    
 
     Hlavné správy 
         
        
                                

        
         
            AKTUALIZOVANÉ 16:00
             Rubeľ kolabuje, ruská vláda má mimoriadne rokovať 
             Jeden dolár stál v utorok poobede už viac ako 78 rubľov, razantné zvýšenie úrokov nepomohlo. 
         
     
         
        
                                

        
         
            ZAHRANIČIE
             Taliban zaútočil na citlivé miesto Pakistanu. Na deti 
             Taliban zabil v škole v Pakistane najmenej 141 ľudí, väčšinou deti. 
         
     
         
        
                                

        
         
            KOMENTARE.SME.SK
             Cynická obluda: Medzičasom na opustenom ostrove 
             Stroskotanci majú veľké šťastie, že sú dvaja. Lacné vtipy na úrovni ich autora. 
         
     
     

                 
     
    
     
        
 

     
                
                            
                    



         
            
                Roman Brna
            
         
        romanbrna.blog.sme.sk (rss)
         
                                     
     
         normálka človek 
v tichu si žijem každodenný rachot 
potrebujem knihu a muziku 
fotografujem 
dýcham v Bratislave 
SME pravdu nehľadá, SME pravdu pozná 
preto som tu skončil 

  
        
     
     
                     
                             
             

     
        
            
                
                    Počet článkov
                    222
                
                
                    Celková karma
                    
                                                0.00
                    
                
                
                    Priemerná čítanosť
                    1084
                
            
        
     

    

    

           
     Pošlite odkaz blogerovi 
    
         
            
         

         
         
         
         

         
         
Odosielateľ (e-mail)
 
         
Text
 
         
             
Protispamová ochrana 
 
 Zle. Skúste znova. 
Opíšte slová z obrázku: Načítať iné slová 
 Get an image CAPTCHA 
 
 
         
                 
            
         
    
  


 

     






            
    
        
    
 

        
         
         
             Už ste čítali? 
         
         
 

 kultura.sme.sk 
 Margaréta sa spriahla s diablom, no mala Kristovu pravdu 
 
 

 www.sme.sk 
 Pútnické miesta The Beatles alebo ako ľudia kráčajú po zebre 
 
 

 cestovanie.sme.sk 
 Lovia za svitania a v hmle 
 
 

 www.sme.sk 
 Ako sa valila lavína slobody. Ako padal komunizmus 
 
 

 kultura.sme.sk 
 Žiadne retro, poriadny biznis. Takto sa lisuje platňa 
 
	   
 


        
         
            
         

     

    
     
 
 
	 

		Kontakty
		Predplatné
		Etický kódex
		Pomoc
		Mapa stránky
		
	 
 
 
	 
		 
			Widget
			RSS
			Newsletter
		 
		 
			Mobil
			Smartphone
			Kindle
			Televízor
		 
		 
			Facebook
			Twitter
			Google+
		 
	 
	 
		
	 
	 
		Ďalšie weby skupiny: Prihlásenie do Post.sk
		Új Szó Slovak Spectator
		Agentúrne správy 
		Vydavateľstvo
		Inzercia
		Osobné údaje
		Návštevnosť webu
		Predajnosť tlače
		Petit Academy
		SME v škole 		© Copyright 1997-2014 Petit Press, a.s. 
	 
 
 
 


          
        
            
            

        
    

    
    


    


    
        
        
        
        
        
        
        
            
            
        
        
        
        
         
                                
               





 

 



        

 




