
      
    
    

     
	 
	 
 SME.sk 
 Zľavy 
 Zoznámenie 
 Reality 
 Dovolenky 
 Pizza 
 Reštaurácie 
 Recenzie 
 Inzeráty 
 Naničmama 	 
Nákupy 
		 
 Filmy na DVD 
 Hodinky 
 Parfémy 
 SME knihy a DVD 
 Superhosting 
 Tlačiareň 
 Víno 
 Tvorba webov 
 Predplatné SME 
 ProSenior 		 
	 
	 
 
	 
 


    
    
        
        
         
          
         
    

    
      
         
            
             
     
        
        
     
    Blog.SME.sk
 

    

         
        
                 
     
         
            Sme.sk
         
         
            Domov
         
         
            Regióny
         
         
            Ekonomika
         
         
            Svet
         
         
            Komentáre
         
         
            Kultúra
         
         
            Šport
         
         
            TV
         
         
            Auto
         
         
            Tech
         
         
            Poradňa
         
         
            Žena
         
         
            Bývanie
         
         
            Zdravie
         
         
            Blog
         
     
 

         
            
     
                                                         Politika 
                                                                                     Spoločnosť 
                                                                                     Cestovanie 
                                                                                     Ekonomika 
                                                                                     Fotografie 
                                                                                     Jedlo 
                                                                                     Kultúra 
                                                                                             
Ďalšie
                             
                                                                                         Lifestyle 
                                                                                                                                                                             Médiá 
                                                                                                                                                                             Nezaradené 
                                                                                                                                                                             Súkromné 
                                                                                                                                                                             Šport 
                                                                                                                                                                             Veda a technika 
                                                                                                                                                                             Zábava 
                                                                                                                                                                             Poézia 
                                                                                                                                                                             Próza 
                                                                                                                                                                             Kódex blogera 
                                                                                 
                         
                                                 
            Blogeri
         
     


            

    
    Prihlásiť sa


    
    Založte si blog



    
    Odhlásiť sa


    
    




         

        
        
         
            
         
         
                
     
                 
            SME.sk &gt;
            Blog.SME.sk &gt;
                            Alexander JÁRAY
                                        &gt;
                Kvantová matematika
                     
                 &amp; Otvorený list prezidentovi USA, B. Obamovi. 

        
            
                                    17.4.2009
            o
            12:48
                        (upravené
                17.3.2014
                o
                19:41)
                        |
            Karma článku:
                9.79
            |
            Prečítané 
            3697-krát
                    
         
     
         
             

                 
                    Vážený pán prezident USA, Barack Obama. S veľkou pozornosťou sledujem vaše osobné kroky vedúce k riešeniu súčasnej svetovej hospodárskej krízy, ktorá vznikla práve v USA. Dovoľte mi,  v záujme občanov USA, ako aj celého ľudstva, oboznámiť Vás s moju konštruktívnu kritiku, smerujúcu k vaším ekonomickým opatreniam. Reálne riešenia akéhokoľvek problému je možné iba po tom, čo spoznáme dialektické príčiny vzniku predmetného problému. Vážený pán prezident USA, Vy dialektické príčiny súčasnej svetovej ekonomickej krízy nepoznáte, ja áno!
                 

                                                                                               Otvorený list prezidentovi USA, Barackovi Obamovi.               Odosielateľ: Alexander JÁRAY                         Adresát: Prezident USA Barack Obama             Vážený pán prezident USA.   S veľkou pozornosťou sledujem vaše osobné iniciatívy vedúce k riešeniu súčasnej svetovej hospodárskej krízy, ktorá vznikla práve v USA. Preto dovoľte mi,  oboznámiť Vás s mojou konštruktívnou kritikou, smerujúcou k vaším, nie práve principiálnym ekonomickým opatreniam.   Reálne riešenie akéhokoľvek problému je možné iba po tom, keď spoznáme dialektické príčiny vzniku predmetného problému. Vy pán prezident  dialektické príčiny vzniku súčasnej svetovej ekonomickej krízy nepoznáte, ja áno!   Preto dovoľte mi  uviesť dialektické, reálne príčiny vzniku „Vedeckého Komunizmu“ ako aj  súčasnej ekonomickej krízy.   Po rôznych izmoch, (kapitalizmus, idealizmus, soliptizmus, empiriokriticizmus..) jedna časť ľudskej  spoločnosti, (v Rusku) rozhodla sa celkom racionálne akceptovať za základ svojej spoločenskej filozofie, zákony vedy, číže zákony fyziky a matematiky. Tak vznikol spoločenský systém zvaný „Vedecký komunizmus“.   Ako je všeobecne známe „Vedecký komunizmus“ padol pred dvadsiatimi rokmi ako systém nefunkčný, ako systém zločinecký.   Z pádu zločineckého "Vedeckého Komunizmu" ale ľudstvo nevyvodilo žiadne poučenie. Nikoho na svete nenapadlo položiť si tú kardinálnu otázku, či „Vedecký komunizmus“ nepadol preto, že zákony vedy (fyziky a matematiky) sú mylné a že práve preto o vedecké bludy sa nikto opierať nesmie.   I keď pád „Vedeckého komunizmu“ bol exaktným dôkazom bludnosti, či zločinnosti vedy, veda ostala nedotknutá a tak mohla svoje bludy bez problémov pretransformovať aj do celosvetovej Globálnej ekonomiky.   Druhým exaktným dôkazom zločinnosti vedy, je súčasná svetová ekonomická kríza. Túto krízu vygenerovali univerzitne vzdelaní jedinci, z ktorých nejeden je nositeľom Nobelovej ceny za ekonómiu.   No ani teraz nie sú napadané bludy vedy, ani teraz sa príčina svetovej hospodárskej krízy nehľadá v bludoch vedy (fyziky a matematiky).   Pokiaľ sa neodhalia klamstvá vedy, neodhalia sa ani príčiny zločinnosti "Vedeckého Komunizmu", ale ani príčiny vzniku súčasnej hospodárskej krízy, ktorú jednoznačne vyvolali vedecké bludy aplikované v každodennej praxi.   Tento otvorený list píšem Vám preto, že komunikácia s vedeckou obcou je nemožná.       Vedci pochopiac, že oni svojimi bludmi splodili zločinecký „Vedecký Komunizmus“  ako aj súčasnú svetovú hospodársku krízu, živočíšnym pudom, pudom sebazáchovy, odmietajú reagovať na exaktné dôkazy ich omylov a iba trpne čakajú čo bude s nimi v budúcnosti.       Vážený pán prezident USA.   Túto aroganciu vedeckej obci na celom svete, mohli by ste eliminovať svojím prezidentským nariadením – dekrétom - manifestom, v ktorom by ste zakázali na území USA šíriť exaktne dokázané vedecké bludy.    (Vedúce k vzniku totalitných systémov a hospodárskym krízam.)   Keďže veda je záležitosť veľmi komplikovaná a pre nezainteresovaných (pre drvivú väčšinu členov ľudskej spoločnosti ) temer nepochopiteľná, preto boj proti bludom vedy je potrebné začať zákazom šírenia takého vedeckého bludu, ktorý pozná čo najviac občanov USA, i ľudí na celom svete.   Ten triviálny vedecký, matematický blud, ktorý pozná temer každý človek na Zemi, znie nasledovne:   „Každé číslo násobené nulou je nula“!         Tento matematický blud, sa povinne učia všetky deti na celom svete i v USA.   V čom spočíva bludnosť, aj tejto matematickej poučky. V tom, že v praxi ju človek nemôže nikde použiť. Táto poučka platí iba v samotnej matematike, ktorá skúma iba to, že ktoré číslo je šťastné a ktoré nešťastné, ktoré je párne a ktoré je nepárne, či prvočíslo, druhočíslo, alebo treťočíslo ....   Tri jablká vynásobene nulou, zostanú tromi jablkami,       lebo v materiálnej praxi niečo materiálne násobiť nulou znamená nenásobiť.   Už samotný nápad, niečo materiálne násobiť nulou, alebo nulu násobiť niečím materiálnym, pochádza iba z chorej hlavy, obecne iba z chorých hláv.       Vážený pán prezident USA.   Zakážte svojím prezidentským výnosom, vyučovať v USA vetu o násobení čísiel s nulou dovtedy, kým sa aspoň jeden matematik USA, neodhodlá sám na sebe dokázať platnosť tejto poučky, kým aspoň jeden učiteľ matematiky v USA, sa pred žiakmi nevynásobí nulou a nepremení  sa na nulu, čiže kým nezmizne z povrchu Zeme.    Ten pinqvin je geniálnejší ako všetci matematici sveta, lebo on vie ako sa má správne násobiť nulou, pričom matematici sveta nie !!!        x 0 =              x 0 = 0       Lebo iba  potom by sa mohli začať oficiálne odstraňovať reálne príčiny súčasnej hospodárskej krízy.    Lebo iba  potom by sa mohli  začať oficiálne búrať aj ďalšie totálne bludy tej vedy, ktorá splodila zločinecký „Vedecký komunizmus“ ako aj súčasnú svetovú hospodársku krízu.         Vážený pán prezident USA.   Osud ľudstva je vo vašich rukách, konkrétne vo vašom jedinom racionálnom zákaze a to v zákaze vyučovať  matematický blud o násobení nulou v USA. Týmto vaším výnosom nemôžete nič stratiť, ale môžete získať srdcia všetkých ľudí na  svete.   Tým môžete vyslobodiť ľudstvo zo zajatia vedeckých bludov, i zo súčasnej svetovej hospodárskej krízy.         S úprimným pozdravom:  Alexander Jozef JÁRAY.          Touto cestou úprimne ďakujem tým čitateľom, ktorí mi za obsah tohto listu udelili karmu, bolo ich zatiaľ 22. (29. 11. 2009) To svedčí o tom, že na Slovensku žijú aj rozumní a inteligentní ľudia, obdarený božou prozreteľnosťou, čiže vrodeným úsudkom rozoznať pravdu od klamstva.              

                 
                                        
                        
                        Zdieľať
                    

                    
                            
                                    
                                    Zdieľať na
                            
                             
                                    
                             
                    

                    
                    
                        
                        Zvýšte karmu
                    
                 
             

                             
            
                     
                         Ďalšie články blogera 
                         
                                                             
                                    
                    	                                                                                        

                                                                        
                                    
                                        Alexander JÁRAY 
                                        
                                            Overte si, či ste múdrym človekom s IQ 201 bodov.
                                        
                                    
                                 
                                                             
                                    
                    	                                                                                        

                                                                        
                                    
                                        Alexander JÁRAY 
                                        
                                            Ženský genetický kód!
                                        
                                    
                                 
                                                             
                                    
                    	                                                                                        

                                                                        
                                    
                                        Alexander JÁRAY 
                                        
                                            Experimentálny dôkaz neplatnosti „Všeobecnej teórie relativity“ pohybu matérie.
                                        
                                    
                                 
                                                             
                                    
                    	                                                                                        

                                                                        
                                    
                                        Alexander JÁRAY 
                                        
                                            Veritas vincit (Pravda víťazí.)
                                        
                                    
                                 
                                                             
                                    
                    	                                                                                        

                                                                        
                                    
                                        Alexander JÁRAY 
                                        
                                            Čas sem, čas tam, nám je to všetko jedno.
                                        
                                    
                                 
                                                     
                        
                            Ďalšie články blogera: Alexander JÁRAY
                        
                     
            
                     
                         Ďalšie články z rubriky veda a technika 
                         
                                                             
                                    
                                                            	                                                                                        

                                                                                                
                                    
                                        Mária Džunková 
                                        
                                            Prečo vôbec nevadí, ak nemáte DNA sekvenátor
                                        
                                    
                                 
                                                             
                                    
                                                            	                                                                                        

                                                                                                
                                    
                                        Jana K. Jones 
                                        
                                            Filozofia vedy - Čo, podľa Poppera, veda dokazuje?
                                        
                                    
                                 
                                                             
                                    
                                                            	                                                                                        

                                                                                                
                                    
                                        MUDr. Peter Žiak, PhD. 
                                        
                                            Prečo si niekedy nevšimneme červenú?
                                        
                                    
                                 
                                                             
                                    
                                                            	                                                                                        

                                                                                                
                                    
                                        Jana K. Jones 
                                        
                                            Filozofia vedy - kritérium falzifikovateľnosti podľa Karla Poppera
                                        
                                    
                                 
                                                             
                                    
                                                                                                                    

                                                                                                
                                    
                                        Miroslav Lisinovič 
                                        
                                            Tatra 87
                                        
                                    
                                 
                                                     
                        
                            Ďalšie články z rubriky veda a technika
                        
                     
                 
            
                    
 
     Hlavné správy 
         
        
                                

        
         
            AKTUALIZOVANÉ O 20:00
             Rubeľ pocítil pád na dno, Rusko je vo finančnej kríze 
             Dolár včera stál už takmer 80 rubľov, pod hladinu ho tlačia najmä nízke ceny ropy. 
         
     
         
        
                                

        
         
            ZAHRANIČIE
             Taliban zaútočil na citlivé miesto Pakistanu. Na deti 
             Taliban zabil v škole v Pakistane najmenej 141 ľudí, väčšinou deti. 
         
     
         
        
                                

        
         
            KOMENTARE.SME.SK
             Cynická obluda: Medzičasom na opustenom ostrove 
             Stroskotanci majú veľké šťastie, že sú dvaja. Lacné vtipy na úrovni ich autora. 
         
     
     

                 
     
    
     
        
 

     
                
                            
                    



         
            
                Alexander JÁRAY
            
         
        jaray.blog.sme.sk (rss)
         
                                     
     
        Pravde žijem, krivdu bijem, verne národ svoj milujem. To jediná moja vina a okrem tej žiadna iná.
        
     
     
                     
                                                        
                        
                    
                             
             

     
        
            
                
                    Počet článkov
                    255
                
                
                    Celková karma
                    
                                                0.00
                    
                
                
                    Priemerná čítanosť
                    1326
                
            
        
     

             

             Zoznam rubrík 
            
             
                                     
                        
                            Kvantová matematika
                        
                     
                                     
                        
                            O zločinoch vedcov
                        
                     
                                     
                        
                            Kde neplatia zákony fyziky
                        
                     
                                     
                        
                            Súkromné
                        
                     
                                     
                        
                            Nezaradené
                        
                     
                             
         
    

    

             
             Čo ma zaujalo 
            Týmto článkom bloger klikol/klikla na karmu.
             
                                                         
                       Overte si, či ste múdrym človekom s IQ 201 bodov.
                     
                                                         
                       Ženský genetický kód!
                     
                                                         
                       Veritas vincit (Pravda víťazí.)
                     
                                                         
                       Čas sem, čas tam, nám je to všetko jedno.
                     
                                                         
                       Kvíkanie divých svíň.
                     
                                                         
                       Ako nemohol vzniknúť priestor a hmota.
                     
                                                         
                       Odpoveď na otázku z Facebooku.
                     
                                                         
                       Moja dnešná elktornická pošta (26. 2. 2014).
                     
                                                         
                       Kde bolo tam bolo, bola raz jedna „Nežná revolúcia“.
                     
                                                         
                       Zákon zachovania hmoty.
                     
                             
         
           
     Pošlite odkaz blogerovi 
    
         
            
         

         
         
         
         

         
         
Odosielateľ (e-mail)
 
         
Text
 
         
             
Protispamová ochrana 
 
 Zle. Skúste znova. 
Opíšte slová z obrázku: Načítať iné slová 
 Get an image CAPTCHA 
 
 
         
                 
            
         
    
  


 

     






            
    
        
    
 

        
         
         
             Už ste čítali? 
         
         
 

 kultura.sme.sk 
 Margaréta sa spriahla s diablom, no mala Kristovu pravdu 
 
 

 www.sme.sk 
 Pútnické miesta The Beatles alebo ako ľudia kráčajú po zebre 
 
 

 cestovanie.sme.sk 
 Lovia za svitania a v hmle 
 
 

 www.sme.sk 
 Ako sa valila lavína slobody. Ako padal komunizmus 
 
 

 kultura.sme.sk 
 Žiadne retro, poriadny biznis. Takto sa lisuje platňa 
 
	   
 


        
         
            
         

     

    
     
 
 
	 

		Kontakty
		Predplatné
		Etický kódex
		Pomoc
		Mapa stránky
		
	 
 
 
	 
		 
			Widget
			RSS
			Newsletter
		 
		 
			Mobil
			Smartphone
			Kindle
			Televízor
		 
		 
			Facebook
			Twitter
			Google+
		 
	 
	 
		
	 
	 
		Ďalšie weby skupiny: Prihlásenie do Post.sk
		Új Szó Slovak Spectator
		Agentúrne správy 
		Vydavateľstvo
		Inzercia
		Osobné údaje
		Návštevnosť webu
		Predajnosť tlače
		Petit Academy
		SME v škole 		© Copyright 1997-2014 Petit Press, a.s. 
	 
 
 
 


          
        
            
            

        
    

    
    


    


    
        
        
        
        
        
        
        
            
            
        
        
        
        
         
                                
               





 

 



        

 




