
      
    
    

     
	 
	 
 SME.sk 
 Zľavy 
 Zoznámenie 
 Reality 
 Dovolenky 
 Pizza 
 Reštaurácie 
 Recenzie 
 Inzeráty 
 Naničmama 	 
Nákupy 
		 
 Filmy na DVD 
 Hodinky 
 Parfémy 
 SME knihy a DVD 
 Superhosting 
 Tlačiareň 
 Víno 
 Tvorba webov 
 Predplatné SME 
 ProSenior 		 
	 
	 
 
	 
 


    
    
        
        
         
          
         
    

    
      
         
            
             
     
        
        
     
    Blog.SME.sk
 

    

         
        
                 
     
         
            Sme.sk
         
         
            Domov
         
         
            Regióny
         
         
            Ekonomika
         
         
            Svet
         
         
            Komentáre
         
         
            Kultúra
         
         
            Šport
         
         
            TV
         
         
            Auto
         
         
            Tech
         
         
            Poradňa
         
         
            Žena
         
         
            Bývanie
         
         
            Zdravie
         
         
            Blog
         
     
 

         
            
     
                                                         Politika 
                                                                                     Spoločnosť 
                                                                                     Cestovanie 
                                                                                     Ekonomika 
                                                                                     Fotografie 
                                                                                     Jedlo 
                                                                                     Kultúra 
                                                                                             
Ďalšie
                             
                                                                                         Lifestyle 
                                                                                                                                                                             Médiá 
                                                                                                                                                                             Nezaradené 
                                                                                                                                                                             Súkromné 
                                                                                                                                                                             Šport 
                                                                                                                                                                             Veda a technika 
                                                                                                                                                                             Zábava 
                                                                                                                                                                             Poézia 
                                                                                                                                                                             Próza 
                                                                                                                                                                             Kódex blogera 
                                                                                 
                         
                                                 
            Blogeri
         
     


            

    
    Prihlásiť sa


    
    Založte si blog



    
    Odhlásiť sa


    
    




         

        
        
         
            
         
         
                
     
                 
            SME.sk &gt;
            Blog.SME.sk &gt;
                            Peter Molnár
                                        &gt;
                Pamiatky
                     
                 Hrady a hrádky Zemplína - Csonkavár (Kráľovský Chlmec) 

        
            
                                    20.9.2009
            o
            20:25
                        (upravené
                24.6.2010
                o
                14:03)
                        |
            Karma článku:
                10.60
            |
            Prečítané 
            5154-krát
                    
         
     
         
             

                 
                    Dnes navštívime ďalšiu malú zrúcaninku južného Zemplína - "hrádok s nevyjasneným typologickým štatútom" v Kráľovskom Chlmci, ľudovo známy ako Csonkavár (maď. doslova "Hrad trosiek / Troskohrad")...  
                 

                                                              POLOHA A TURISTICKÉ INFO    Dnešné mestečko Kráľovský Chlmec leží na úpätí jedného z viacerých osamotene stojacich masívov v juhovýchodnej časti Východoslovenskej nížiny, v nadmorskej výške okolo 114 m. Zvyšky hrádku sa nachádzajú na svahu kopca Malý vrch (poloha Kráľovský vŕšok) na južnom okraji mesta. Hneď vedľa zachovanej zrúcaniny stojí mestský amfiteáter a stará chalupa s historizujúcou krčmičkou „Pivnica Perényiovcov".       K hrádku nájdete cestu ľahko. Smerom na centrum mesta je jednou z mnohých menších uličiek odbočujúcich smerom k svahom aj Ulica Zuzany Lorántffyovej (áno, tej, čo sme ju spomínali aj pri návšteve Sárospataku). Na jej opačný koniec sa napája kľukatá Podhradská ulica. Asi už nemusím viac hovoriť, že ? :-) Ak by ste si aj tak nevedeli rady, spýtajte sa niekoho na Csonkavár alebo amfík a oni vás tam už nejak nasmerujú. Alebo ak chcete, pozrite si nasledujúci link...                       Hrádok Csonkavár nájdete aj na Google Maps.       HISTÓRIA    Prvé písomné správy o Kráľovskom Chlmci nájdeme v listine kráľa Ondreja II. z roku 1214. Kráľ v nej potvrdil leleskému prepoštovi vlastníctvo majetkov, ktoré vznikajúcemu prepošstvu daroval vacovský biskup Boleslav (1188-1211). Jednou z darovaných dedín s územnými majetkami k nej patriacimi bol aj Chlmec. Zaujímavý je fakt, že už vtedy mal status trhového miesta („cum libero foro... predium Helmech"). Na prelome 13. a 14. storočia mal v Chlmci kúriu šľachtic Dionýz. Jemu a jeho príbuzným dal Karol Róbert v roku 1323 skonfiškovať chlmecké majetky a udelil ich šľachticovi Mikčovi. Chlmec bol vo vlastníctve Mikča a jeho dedičov aj začiatkom druhej polovice 14. storočia. Dedina opäť menila vlastníka v roku 1403, kedy ju Žigmund Luxemburský daroval šľachticovi Matúšovi z Pavloviec. Kráľovský Chlmec sa ako mestečko („oppidum Helmech") prvýkrát uvádza v písomnom zázname z roku 1461. Vlastníkmi Chlmca boli ku koncu 16. storočia najmä šľachtici z Bátora a v prvej polovici 17. storočia Ňáriovci (Nyáriovci).    Niektoré hypotézy pripisujú vznik hrádku na svahu nad Chlmcom práve Matúšovi z Pavloviec, resp. rodu Páloczyovcov vo všeobecnosti. O genéze hrádku je isté len to, že vznikol veľmi neskoro, najskôr až niekedy v druhej polovici 15. storočia. Väčšina existujúcich dôkazov však naznačuje, že pravdepodobnejšie obdobie vzniku je prelom 15. a 16. storočia alebo začiatok 16. storočia. Podľa dochovaného záznamu v župnej monografii ho vlastnil Peter z Perína (Perényi), vtedajší majiteľ Trebišovského hradu a mnohých ďalších majetkov v Zemplínskej župe (tiež budúci vlastník Sárospataku). Ak bol obytný komplex nad Chlmcom hradom, tak k jeho hradnému panstvu patrili v neskorom 15. a ranom 16. storočí  mestečko Chlmec a dediny Malý Horeš, Semjén a Ricse. V druhej polovici 16. storočia začlenili Perényivcovi mestečko Chlmec a jeho hradné panstvo do hradného panstva Sárospatak. Posledný záznam o existencii hrádku je z roku 1548, kedy kráľ Ferdinand I. Habsburský vydal príkaz na jeho zbúranie (pravdepodobne kvôli nezhodám, ktoré mal v tom čase s Perényiovcami). Príkaz bol zjavne úspešne splnený, lebo od druhej polovice 16. storočia sa o hrádku neobjavila už žiadna zmienka...       POPIS HRADU, JEHO VÝVOJA A STAVEBNÝCH ÚPRAV    Dilema okolo „hrádku" v Chlmci spočíva najmä v otázke, či bol vôbec skutočnou opevnenou stavbou. V okolitom teréne nevidno žiadne stopy po výraznejšej fortifikácii. Málopočetné písomné záznamy a väčšina hmotných nálezov väčšmi nahrávajú teórii, že išlo skôr o neskorostredovekú kamennú obytnú stavbu, teda akési šľachtické sídlo kaštieľovitého typu, resp. pripomínajúce ranú formu kaštieľa. Zachovaný objekt bol kedysi dvojpodlažný, pričom na prvom poschodí sú v severovýchodnej stene zachované dve okienka s polkruhovým zaklenutím. V juhovýchodnej stene sa zachovali zvyšky valenej klenby z lomového kameňa, ktoré boli zapustené zrejme až dodatočne. Nárožia stavby sú vybudované z veľkých tesaných tufitových kvádrov s rozmermi 35-40 x 60-70 x 40 cm.   Aj keď s pravdepodobným hrádkom nasledujúci fakt asi nesúvisí, uvádzam ho len tak pre zaujímavosť : V inventári mesta z prvej polovice 17. storočia sa spomína istý panský majer (udvarház) s obytnou poschodovou kúriou vybavenou kachľovými pecami so zelenou glazúrou, s domami pre služobníctvo, sýpkou, vínnou pivnicou a kaplnkou.    Už tradične - pôdorys hradu... teda pardón, hrádku :      ;-)   A voilá, oná tajomná zrúcaninka obytnej budovy hrádku-nehrádku :          Ten plot prechádzajúci tesne popri nej vymedzuje okraj mestského amfíku... :-)         Veľa toho z tejto kedysi väčšej a trošku vyššej budovy už nestojí, no stále sa tu dá toho obdivovať viac ako minule v Kazimíri... ;-)         Okná sa zachovali priam perfektne - všimnite si sotva narušené oblúky valenej klenby...                Bez obáv, dá sa tam pohodlne vyliezť. Ale opatrne, aby ste nedokatovali seba aj 500 rokov staré murivo... :-P :-)       Z okna nie sú bohvieako epické výhľady, no môžete si aspoň dôkladne poobzerať jeho murivo.      Vidíte. Epické ? Neveľmi... Ale stále celkom súca panorámka, však ? ;-)      Posledných pár rokov sa priestranstvo pred ruinou a amfíkom teší aj tomuto novučičkému malému parkovisku. Popravde, využívajú ho najmä štamgasti navštevujúci Perényiovskú krčmičku hneď vedľa ruiny... :-))      Zadná stena tejto miestnosti sa nepochlapila natoľko ako tá predná - len sa na ňu pozrite, ts, ts...      OK, je načase dať si aj nejaké výpravnejšie zábery z profilu... *pustí epickú hudbu* ;-)))               "...tramtaráááá, da-da-da-dam-da-d..." M-hmhmhm... No dobre, to by už aj stačilo. :-)      Človek by mal dojem, že naňho tá zrúcaninka čumí dvoma prekvapenými očami...      ...a zíve bývalým pivničným okienkom s ďalším pekne zachovaným exemplárom valenej klenby... :-)      "Už idete ? Pááá !"      Maj sa, Csonki... ;-)    ----   Fotografie : (C) Peter Molnár - október 2006   Použitá (a odporúčaná) literatúra :   Vallašek A., Slivka M.; Hrady a hrádky na východnom Slovensku; Východoslovenské vydavateľstvo 1990       Plaček M., Bóna M.; Encyklopédia slovenských hradov; Nakladatelství Libri Praha a Vydavateľstvo Slovart 2007       Autori obrázkov :       Pôdorys hrádku Csonkavár - z knihy Hrady a hrádky na východnom Slovensku, upravil Peter Molnár (2009)       Použitá mapa : Turistická mapa č. 148 - Zemplínske vrchy / Latorická rovina; 1. vydanie; VKÚ Harmanec 1998       Odporúčané webstránky :       http://www.hrady.sk/kralovsky-chlmec.php  - Hrádok Csonkavár v databáze hradov.sk    http://www.zamky.sk/?q=node/3&amp;mon=81125&amp;det=3 - Hrádok Csonkavár v databáze zamkov.sk   http://www.kralovskychlmec.sk/ - oficiálna stránka mesta Kráľovský Chlmec   Malý tip :   Ak máte radi vínnu turistiku, môžete zájsť aj do neďalekého Malého a Veľkého Horeša. V Malom Horeši sa nachádza ojedinelý súbor vínnych pivníc rôzneho veku (niektoré párstoročné, iné úplne nové) a Horeš samotný sa považuje za jedno z centier tradičného vinárstva na Medzibodroží (chýr susedného tokajského regiónu síce nemá, ale víno tu nie je o nič horšie)...     

                 
                                        
                        
                        Zdieľať
                    

                    
                            
                                    
                                    Zdieľať na
                            
                             
                                    
                             
                    

                                                                                                                        
                            
                            Diskusia: (7)
                        
                    
                    
                        
                        Zvýšte karmu
                    
                 
             

                             
            
                     
                         Ďalšie články blogera 
                         
                                                             
                                    
                    	                                                                                        

                                                                        
                                    
                                        Peter Molnár 
                                        
                                            "This isn't a ghost story, it's a love story..." :-)
                                        
                                    
                                 
                                                             
                                    
                    	                                                                                        

                                                                        
                                    
                                        Peter Molnár 
                                        
                                            Sakrálne pamiatky Zemplína - Kostol v Oboríne
                                        
                                    
                                 
                                                             
                                    
                    	                                                                                        

                                                                        
                                    
                                        Peter Molnár 
                                        
                                            Sila / Slabosť (?)
                                        
                                    
                                 
                                                             
                                    
                    	                                                                                        

                                                                        
                                    
                                        Peter Molnár 
                                        
                                            Vianočný koncert dobovej sviatočnej hudby a kolied 2013
                                        
                                    
                                 
                                                             
                                    
                    	                                                                                        

                                                                        
                                    
                                        Peter Molnár 
                                        
                                            Káry-veteráni : Zemplín Veterán Rally 2012
                                        
                                    
                                 
                                                     
                        
                            Ďalšie články blogera: Peter Molnár
                        
                     
            
                     
                         Ďalšie články z rubriky cestovanie 
                         
                                                             
                                    
                                                                                                                    

                                                                                                
                                    
                                        Miroslav Lisinovič 
                                        
                                            Horná brána v Modre
                                        
                                    
                                 
                                                             
                                    
                                                                                                                    

                                                                                                
                                    
                                        Martina Rúčková 
                                        
                                            Z Európy na Kaukaz: Çanakkale a bájna Trója
                                        
                                    
                                 
                                                             
                                    
                                                            	                                                                                        

                                                                                                
                                    
                                        Andrea Grešová 
                                        
                                            To je moje Rumunsko
                                        
                                    
                                 
                                                             
                                    
                                                                                                                    

                                                                                                
                                    
                                        Ján Serbák 
                                        
                                            Pamätník čs. armády s vojnovým cintorínom na Dukle
                                        
                                    
                                 
                                                             
                                    
                                                            	                                                                                        

                                                                                                
                                    
                                        Peter Kover 
                                        
                                            22 krajín (miest), ktoré sa naozaj oplatí vidieť
                                        
                                    
                                 
                                                     
                        
                            Ďalšie články z rubriky cestovanie
                        
                     
                 
            
                    
 
     Hlavné správy 
         
        
                                

        
         
            KOMENTÁR PETRA SCHUTZA
             Len korupčné škandály preferencie Smeru nepotopia 
             Ak chce opozícia vo voľbách zvrhnúť Smer, bez rozšírenia repertoáru si neporadí. 
         
     
         
        
                                

        
         
            AKTUALIZOVANÉ O 21:30
             Rubeľ pocítil pád na dno, Rusko je vo finančnej kríze 
             Dolár v utorok stál už takmer 80 rubľov, pod hladinu ho tlačia najmä nízke ceny ropy. 
         
     
         
        
                                

        
         
            AKTUALIZOVANÉ 23:50
             Taliban zabil v škole v Pakistane 132 detí 
             Pakistan až teraz poriadne zatlačil na islamistov. Odplatou je útok na deti vojakov. 
         
     
     

                 
     
    
     
        
 

     
                
                            
                    



         
            
                Peter Molnár
            
         
        petermolnar.blog.sme.sk (rss)
         
                        VIP
                             
     
        Peter Molnár sa menujem, občas niečo dokafrem... :-)
Povolanie : Steampunkový medievalista a pilot Krvavého jastraba... ;-)







"Naučiť sa lietať je jednoduché - hodiť sa o zem a netrafiť sa." (Douglas Adams)

        
     
     
                     
                             
             

     
        
            
                
                    Počet článkov
                    146
                
                
                    Celková karma
                    
                                                0.00
                    
                
                
                    Priemerná čítanosť
                    3475
                
            
        
     

             

             Zoznam rubrík 
            
             
                                     
                        
                            Len(ivý a)tak
                        
                     
                                     
                        
                            Mojimi očami
                        
                     
                                     
                        
                            Duma Molnárova :-)
                        
                     
                                     
                        
                            Výstrelky literárne
                        
                     
                                     
                        
                            Subjektívne objektívom
                        
                     
                                     
                        
                            Filmárina - tvrdá drina
                        
                     
                                     
                        
                            Zápisky letcove
                        
                     
                                     
                        
                            Na vandrovke
                        
                     
                                     
                        
                            Történelem
                        
                     
                                     
                        
                            Pamiatky
                        
                     
                                     
                        
                            Recenzie
                        
                     
                                     
                        
                            Muzička
                        
                     
                                     
                        
                            Haluzenie
                        
                     
                                     
                        
                            Súkromné
                        
                     
                             
         
    

                     
                        
                                                            
                     Obľúbené články 
                    
                     
                                                 
                                            Petícia proti okliešťovaniu slovenského infozákona
                                     
                                                                             
                                            Zase zavádzanie o veľkých šelmách v NP
                                     
                                                                             
                                            STOP úplatkom na Slovensku !
                                     
                                                                             
                                            Šarišský hrad je už uprataný...
                                     
                                                                             
                                            11. 11. 1918
                                     
                                                                             
                                            Interview Karčiho Sudora s Nikou od Hrdzinov ! :-D
                                     
                                                                             
                                            Quo vadis, Podhradie ?
                                     
                                                                             
                                            Sv. František má dôvod byť nasratý...
                                     
                                                                             
                                            Danka o križiakoch... ;-)
                                     
                                                                             
                                            Super tvorivý nápad...
                                     
                                                                             
                                            Kwásne wewevičky... :-D
                                     
                                                                             
                                            Hrady v SR - obete nezáujmu (+ pútavá diskusia)...
                                     
                                                                             
                                            Niečo pre nás fantastov... :-)
                                     
                                                                             
                                            Prídeme o lokalitu najstaršieho mestského parku v Európe ?
                                     
                                                                             
                                            Tak tento chalan mi hovorí z duše...
                                     
                                                                             
                                            PICKACHU LANGUAGE VERSION OF MY BLOG :-)
                                     
                                                                             
                                            Hviezdoslav by nariekal...
                                     
                                                                             
                                            Báseň môjho obľúbeného svätca...
                                     
                                                                             
                                            Majstrovská mini-analýza našej momentálnej súčasnosti
                                     
                                                                             
                                            Občianska spoločnosť na Slovensku = zakázané tabu ?
                                     
                                                                             
                                            Pre Slovensko potrebná sebakatarzia...
                                     
                                                                   
                     Obľúbené knihy 
                    
                     
                                                 
                                            Všetko možné...
                                     
                                                                   
                     Čo práve počúvam 
                    
                     
                                                 
                                            Všetko možné okrem dychovky, duc-duc a sladkastého popu...
                                     
                                                                             
                                            Vox Vulgaris - The Shape of Medieval Music To Come
                                     
                                                                             
                                            Hrdza - Muzička a Pod Božími oknami
                                     
                                                                             
                                            Peha - Niečo sa chystá, Krajinou a Experiment
                                     
                                                                             
                                            Rôzne soundtracky... a také oné... :-P Ta ne ? :-)
                                     
                                                                   
                     Obľúbené blogy 
                    
                     
                                                 
                                            Vlaky, vystrihovačky, kalvárie...
                                     
                                                                             
                                            Ocieľka
                                     
                                                                             
                                            Kočka (Miau_84)
                                     
                                                                             
                                            Hraničiarka
                                     
                                                                             
                                            Jašter Karol
                                     
                                                                             
                                            Katalánska kečupiarka
                                     
                                                                             
                                            Slovak Press Watch
                                     
                                                                             
                                            Malý dejepisný blog
                                     
                                                                             
                                            Vlčica - impresionistka
                                     
                                                                             
                                            Mademoiselle Saša
                                     
                                                                             
                                            Priateľská pani z Kežmarku
                                     
                                                                             
                                            Parížan z Bratislavy
                                     
                                                                             
                                            Griša
                                     
                                                                             
                                            Srandista
                                     
                                                                             
                                            Malká Katka
                                     
                                                                             
                                            Sarkastický space cowboy
                                     
                                                                             
                                            Bledá Bia - The One and Only... ;-)
                                     
                                                                             
                                            Religionistka romantická
                                     
                                                                             
                                            Historička s hokejkou
                                     
                                                                             
                                            Zasnená cykloturistka
                                     
                                                                             
                                            Anjel strážny všetkých potvoriek
                                     
                                                                             
                                            New-wierďáčka Riddick (starý aj nový blog)
                                     
                                                                             
                                            Múdra pani od Blát
                                     
                                                                             
                                            Slamená elfka
                                     
                                                                             
                                            Znalec heraldiky a literatúry
                                     
                                                                             
                                            Ďuri and Skúki
                                     
                                                                             
                                            Hrúza
                                     
                                                                             
                                            Kohútik jarabý
                                     
                                                                             
                                            Poetka - optimistka
                                     
                                                                             
                                            Young professor Soták
                                     
                                                                   
                     Obľúbené stránky 
                    
                     
                                                 
                                            Moje srdcovky :
                                     
                                                                             
                                            Turistika a všeličo okolo nej...
                                     
                                                                             
                                            Slovenské hrady
                                     
                                                                             
                                            Všetko o slovenských pamiatkach...
                                     
                                                                             
                                            ...plus niečo o ich obnove...
                                     
                                                                             
                                            Vesmír : Posledná hranica :-)
                                     
                                                                             
                                            Prvorepublikové lietadlá ;-)
                                     
                                                                             
                                            Bojovníci na pláteno-preglejkových tátošoch...
                                     
                                                                             
                                            ...a ich príbehy vyrozprávané starými fotkami...
                                     
                                                                             
                                            Klub vojenskej histórie Beskydy
                                     
                                                                             
                                            Vojenská technika prvej svetovej
                                     
                                                                             
                                            Najlepší motoršport na svete...
                                     
                                                                             
                                            Literárne oné :
                                     
                                                                             
                                            Sci-fi a fantasy
                                     
                                                                             
                                            Sci-fi a fantasy
                                     
                                                                             
                                            Najväčšie AH fórum na internete (plné AH próz a scenárov)
                                     
                                                                             
                                            Užitočné stránočky :
                                     
                                                                             
                                            Cestovné poriadky
                                     
                                                                             
                                            Filmy
                                     
                                                                             
                                            Filmy
                                     
                                                                             
                                            Vždy čerstvé info o dianí v médiách...
                                     
                                                                             
                                            Chmáru jasnú ! Nezabudnúť na počasie...
                                     
                                                                             
                                            Iné záležitosti :
                                     
                                                                             
                                            Sekundárny online domicil
                                     
                                                                             
                                            Ešte sa uvidí...
                                     
                            
             
         
            

             
             Čo ma zaujalo 
            Týmto článkom bloger klikol/klikla na karmu.
             
                                                         
                       Naozaj žijeme v 21. storočí?
                     
                                                         
                       TA3 robí Ficovi reklamu
                     
                                                         
                       Dubrovnik bez duše
                     
                                                         
                       Pivonky, poctivá slanina a trochu normálny život
                     
                                                         
                       Ako som pozval svoju mamu na Slovensko
                     
                                                         
                       Riskantný krok ministerstva školstva
                     
                                                         
                       "Sociálny" SMER
                     
                                                         
                       Empatia. To je čo?
                     
                                                         
                       Internetové diskusie zaplavili proruskí trollovia, píše Guardian
                     
                                                         
                       Nie je láska ako láska
                     
                             
         
           
     Pošlite odkaz blogerovi 
    
         
            
         

         
         
         
         

         
         
Odosielateľ (e-mail)
 
         
Text
 
         
             
Protispamová ochrana 
 
 Zle. Skúste znova. 
Opíšte slová z obrázku: Načítať iné slová 
 Get an image CAPTCHA 
 
 
         
                 
            
         
    
  


 

     






            
    
        
    
 

        
         
         
             Už ste čítali? 
         
         
 

 kultura.sme.sk 
 Margaréta sa spriahla s diablom, no mala Kristovu pravdu 
 
 

 www.sme.sk 
 Pútnické miesta The Beatles alebo ako ľudia kráčajú po zebre 
 
 

 cestovanie.sme.sk 
 Lovia za svitania a v hmle 
 
 

 www.sme.sk 
 Ako sa valila lavína slobody. Ako padal komunizmus 
 
 

 kultura.sme.sk 
 Žiadne retro, poriadny biznis. Takto sa lisuje platňa 
 
	   
 


        
         
            
         

     

    
     
 
 
	 

		Kontakty
		Predplatné
		Etický kódex
		Pomoc
		Mapa stránky
		
	 
 
 
	 
		 
			Widget
			RSS
			Newsletter
		 
		 
			Mobil
			Smartphone
			Kindle
			Televízor
		 
		 
			Facebook
			Twitter
			Google+
		 
	 
	 
		
	 
	 
		Ďalšie weby skupiny: Prihlásenie do Post.sk
		Új Szó Slovak Spectator
		Agentúrne správy 
		Vydavateľstvo
		Inzercia
		Osobné údaje
		Návštevnosť webu
		Predajnosť tlače
		Petit Academy
		SME v škole 		© Copyright 1997-2014 Petit Press, a.s. 
	 
 
 
 


          
        
            
            

        
    

    
    


    


    
        
        
        
        
        
        
        
            
            
        
        
        
        
         
                                
               





 

 



        

 




