
      
    
    

     
	 
	 
 SME.sk 
 Zľavy 
 Zoznámenie 
 Reality 
 Dovolenky 
 Pizza 
 Reštaurácie 
 Recenzie 
 Inzeráty 
 Naničmama 	 
Nákupy 
		 
 Filmy na DVD 
 Hodinky 
 Parfémy 
 SME knihy a DVD 
 Superhosting 
 Tlačiareň 
 Víno 
 Tvorba webov 
 Predplatné SME 
 ProSenior 		 
	 
	 
 
	 
 


    
    
        
        
         
          
         
    

    
      
         
            
             
     
        
        
     
    Blog.SME.sk
 

    

         
        
                 
     
         
            Sme.sk
         
         
            Domov
         
         
            Regióny
         
         
            Ekonomika
         
         
            Svet
         
         
            Komentáre
         
         
            Kultúra
         
         
            Šport
         
         
            TV
         
         
            Auto
         
         
            Tech
         
         
            Poradňa
         
         
            Žena
         
         
            Bývanie
         
         
            Zdravie
         
         
            Blog
         
     
 

         
            
     
                                                         Politika 
                                                                                     Spoločnosť 
                                                                                     Cestovanie 
                                                                                     Ekonomika 
                                                                                     Fotografie 
                                                                                     Jedlo 
                                                                                     Kultúra 
                                                                                             
Ďalšie
                             
                                                                                         Lifestyle 
                                                                                                                                                                             Médiá 
                                                                                                                                                                             Nezaradené 
                                                                                                                                                                             Súkromné 
                                                                                                                                                                             Šport 
                                                                                                                                                                             Veda a technika 
                                                                                                                                                                             Zábava 
                                                                                                                                                                             Poézia 
                                                                                                                                                                             Próza 
                                                                                                                                                                             Kódex blogera 
                                                                                 
                         
                                                 
            Blogeri
         
     


            

    
    Prihlásiť sa


    
    Založte si blog



    
    Odhlásiť sa


    
    




         

        
        
         
            
         
         
                
     
                 
            SME.sk &gt;
            Blog.SME.sk &gt;
                            Robert Mihály
                                        &gt;
                Nezaradené
                     
                 Dúhový Pride porazil nenávisť 

        
            
                                    23.5.2010
            o
            13:40
                        (upravené
                23.5.2010
                o
                22:01)
                        |
            Karma článku:
                12.13
            |
            Prečítané 
            3018-krát
                    
         
     
         
             

                 
                    Včerajší deň na Dúhovom Pride mal viacero chutí a podôb. I napriek nechutnom divadle neonacistov sa však včera ukázalo, že v tejto krajine žije i mnoho ľudí, ktorí myšlienky tolerancie podporujú, mnoho ľudí, ktorí majú srdce na tom správnom mieste a nie v pästiach, svaloch, nemajú ich uväznené klamstvom a nenávisťou ako spomínaná neonacistická čvarga.
                 

                 
  
   Každý kto čakal pretrčajúcich sa polonahých úchylov ukazujúcich genitálie, ako účastníkov pride-u klamlivo označovali mnohí cirkevní a politickí predstavitelia, bol včera zrejme sklamaný. Takisto i všetci, ktorí sa obhliadali po postavičke pľuvajúceho Jána Slotu boli sklamaní - ani on sa nedostavil (zrejme)   I napriek mnohým diskusiam, bol včerajší deň podľa môjho názoru i dňom zlyhania polície. I napriek tomu že minister vnútra Kaliňak v nedelnej relácii "Na telo" zbabelo zvaluje vinu na organizačný štáb, ktorý si mal podľa neho zabezpečiť SBS-ku a polícia podľa neho bola pripravená dostatočne. Aj keď treba objektívne povedať to, že na slovenské pomery mohlo mať bezpečnostné zlyhanie omnoho vážnejšie dôsledky. Toto by však nemalo byť v žiadnom prípade útechou. Polícia bola o akcii informovaná niekoľko mesiacov vopred, preto mala byť pripravená na všetky možné scenáre, realita však bola iná! Už pred obedňajšími hodinami sa v centre Bratislavy vyskytovalo viacero početných skupín ľudí, s tričkami Slovenskej pospolitosti a iných organizácií, ktoré otvorene vyhlásili výzvu na násilné prerušenie tohto pochodu. Okolo jednej hodiny sa tieto skupiny spojili a s niekoľkými urážlivými transparentmi, pokrikmi, urážkami, vyhrážkami a zaťatými päsťami sa začali približovať k zhromaždeným účastníkom Dúhového Pridu. Po zákroku polície, ktorá agresívny dav skandujúci heslá ako "policajný štát" zatlačila do bezpečnejšej vzdialenosti nastala prvá chyba. I napriek výtržnostiam totiž polícia nechala mnohých týchto ľudí sa nepovšimnute vytratiť a dostať sa nepozorovane medzi účastníkov dúhového protestu. Na moje upozornenie 4 mestských policajtov, ktorých som upozornil na skutočnosť že viacerí ľudia, ktorí stáli na čele políciou zatlačeného agresívneho davu, že viacerí ľudia mali na tričkách nacistické symboly čím porušujú zákon a páchajú trestný čin, som dostal odpoveď: "No a čo." a k tomu viacero priblblých úsmevov. Ten im však zmrzol, keď jeden z týchto neonacistov odpálil v dave slzný plyn a ich lahkovážnosť sa zmenila na obavu z megaškandálu. Je však smutné, že polícia začne aktívne konať až keď im horí za zadkom a práve toto o mnohých veciach svedčí.   Som zástancom diskusie názorov, avšak oponenti, ktorí včera prišli vyjadriť Pride-u nesúhlas neboli vžiadnom prípade ľudia, ktorí používajú argumenty za okrúhlim stolom. 99% týchto ľudí boli sympatizanti neonacistického hnutia a pomýleného združenia Slovenská pospolitosť. Potom sa niet čudovať, že Hviezdoslavove básne zneli v obklúčení nacistikých symbolov (a Pavol Országh sa musel v hrobe obracať), a i toto svedčí o nie príliš jasných názoroch týchto ľudí, ktorí väčšinou počúvajú slová svojich vodcov akoby sa mali zamyslieť nad vlastnými činmi a konaním. Je zarážajúce, že títo ľudia vôbec kandidujú vo voľbách do parlamentu!   I napriek týmto udalostiam bol včerajší Pride skvelý, a stojím si za tým, že bol na Slovensku potrebný! Čo ma však potešilo je to, že prišlo mnoho ľudí, ktorí ukázali, že nemajú strach z niekoľkých vyholených hláv a nedajú sa zastrašiť násilím. Nedali sa zastrašiť, prešli popri nich a zaplavili Nový most dúhovými farbami. Preto si dovolím tvrdiť, že včerajší deň v Bratislave bol dňom víťazstva tolerancie nad nenávisťou a takisto i obrovským signálom do budúcnosti a osobne verím, že len v tom pozitívnom zmysle. 

                 
                                        
                        
                        Zdieľať
                    

                    
                            
                                    
                                    Zdieľať na
                            
                             
                                    
                             
                    

                                                                                                                        
                            
                            Diskusia: (129)
                        
                    
                    
                        
                        Zvýšte karmu
                    
                 
             

                             
            
                     
                         Ďalšie články blogera 
                         
                                                             
                                    
                    	                                                                                        

                                                                        
                                    
                                        Robert Mihály 
                                        
                                            Gratulácia i kritika Lajčáka ohľadom obchodu so zbraňami
                                        
                                    
                                 
                                                             
                                    
                    	                                                                                        

                                                                        
                                    
                                        Robert Mihály 
                                        
                                            Slovensko zrejme porušilo zbrojné embargo voči Číne
                                        
                                    
                                 
                                                             
                                    
                    	                                                                                        

                                                                        
                                    
                                        Robert Mihály 
                                        
                                            Protest počas medzinárodnej bezpečnostnej konferencie v Bratislave
                                        
                                    
                                 
                                                             
                                    
                    	                                                                                        

                                                                        
                                    
                                        Robert Mihály 
                                        
                                            Partnerom GLOBSEC 2013 je zbrojárska firma známa korupciou
                                        
                                    
                                 
                                                             
                                    
                    	                                                                                        

                                                                        
                                    
                                        Robert Mihály 
                                        
                                            Hlinkov prostredník pred Ústavom pamäti národa
                                        
                                    
                                 
                                                     
                        
                            Ďalšie články blogera: Robert Mihály
                        
                     
            
                     
                         Ďalšie články z rubriky politika 
                         
                                                             
                                    
                                                            	                                                                                        

                                                                                                
                                    
                                        Tomáš Hudec 
                                        
                                            Chceme zvýšiť účasť ľudí vo voľbách? Zaveďme eVoľby!
                                        
                                    
                                 
                                                             
                                    
                                                            	                                                                                        

                                                                                                
                                    
                                        Robert Bestro 
                                        
                                            Výmena vedenia parlamentu zjavne prospela
                                        
                                    
                                 
                                                             
                                    
                                                            	                                                                                        

                                                                                                
                                    
                                        Júlia Piraňa Mikolášiková 
                                        
                                            Obvinia ďalšiu novinárku z údajného ohovárania policajného šéfa Ševčíka?
                                        
                                    
                                 
                                                             
                                    
                                                            	                                                                                        

                                                                                                
                                    
                                        Stanislav Martinčko 
                                        
                                            Stužka z kvetinárstva za 16 centov a rozkradnuté milióny!!
                                        
                                    
                                 
                                                             
                                    
                                                            	                                                                                        

                                                                                                
                                    
                                        Veronika Remisova 
                                        
                                            Elektronické mýto podľa Ficovej vlády – prehľadnejšie sa to skrátka nedá
                                        
                                    
                                 
                                                     
                        
                            Ďalšie články z rubriky politika
                        
                     
                 
            
                    
 
     Hlavné správy 
         
        
                                

        
         
            AKTUALIZOVANÉ 20:22
             Slovenky v hlavnej skupine nebodovali, Švédky vyhrali o 9 gólov 
             Naše hádzanárky hrali na ME piaty zápas. V Záhrebe proti Švédkam. 
         
     
         
        
                                

        
         
            AKTUALIZOVANÉ O 20:00
             Rubeľ pocítil pád na dno, Rusko je vo finančnej kríze 
             Dolár včera stál už takmer 80 rubľov, pod hladinu ho tlačia najmä nízke ceny ropy. 
         
     
         
        
                                

        
         
            ZAHRANIČIE
             Taliban zaútočil na citlivé miesto Pakistanu. Na deti 
             Taliban zabil v škole v Pakistane najmenej 141 ľudí, väčšinou deti. 
         
     
     

                 
     
    
     
        
 

     
                
                            
                    



         
            
                Robert Mihály
            
         
        robertmihaly.blog.sme.sk (rss)
         
                                     
     
        Som človek, ktorý sa snaží hľadieť svojimi očami. Som človek, ktorý navôkol vidí iba ďalších ľudí, nikoho viac a nikoho menej.
        
     
     
                     
                             
             

     
        
            
                
                    Počet článkov
                    82
                
                
                    Celková karma
                    
                                                0.00
                    
                
                
                    Priemerná čítanosť
                    2006
                
            
        
     

             

             Zoznam rubrík 
            
             
                                     
                        
                            Súkromné
                        
                     
                                     
                        
                            Nezaradené
                        
                     
                             
         
    

    

             
             Čo ma zaujalo 
            Týmto článkom bloger klikol/klikla na karmu.
             
                                                         
                       Indiáni v Izraeli
                     
                                                         
                       Mier nie je extrém
                     
                                                         
                       Gratulácia i kritika Lajčáka ohľadom obchodu so zbraňami
                     
                                                         
                       Slovensko zrejme porušilo zbrojné embargo voči Číne
                     
                                                         
                       Protest počas medzinárodnej bezpečnostnej konferencie v Bratislave
                     
                                                         
                       Partnerom GLOBSEC 2013 je zbrojárska firma známa korupciou
                     
                                                         
                       Hlinkov prostredník pred Ústavom pamäti národa
                     
                                                         
                       Kontraples pred operou!
                     
                                                         
                       Za rozdávanie jedla zdarma sú fyzicky napádaní!
                     
                                                         
                       Vycvičme si SS-ákov
                     
                             
         
           
     Pošlite odkaz blogerovi 
    
         
            
         

         
         
         
         

         
         
Odosielateľ (e-mail)
 
         
Text
 
         
             
Protispamová ochrana 
 
 Zle. Skúste znova. 
Opíšte slová z obrázku: Načítať iné slová 
 Get an image CAPTCHA 
 
 
         
                 
            
         
    
  


 

     






            
    
        
    
 

        
         
         
             Už ste čítali? 
         
         
 

 kultura.sme.sk 
 Margaréta sa spriahla s diablom, no mala Kristovu pravdu 
 
 

 www.sme.sk 
 Pútnické miesta The Beatles alebo ako ľudia kráčajú po zebre 
 
 

 cestovanie.sme.sk 
 Lovia za svitania a v hmle 
 
 

 www.sme.sk 
 Ako sa valila lavína slobody. Ako padal komunizmus 
 
 

 kultura.sme.sk 
 Žiadne retro, poriadny biznis. Takto sa lisuje platňa 
 
	   
 


        
         
            
         

     

    
     
 
 
	 

		Kontakty
		Predplatné
		Etický kódex
		Pomoc
		Mapa stránky
		
	 
 
 
	 
		 
			Widget
			RSS
			Newsletter
		 
		 
			Mobil
			Smartphone
			Kindle
			Televízor
		 
		 
			Facebook
			Twitter
			Google+
		 
	 
	 
		
	 
	 
		Ďalšie weby skupiny: Prihlásenie do Post.sk
		Új Szó Slovak Spectator
		Agentúrne správy 
		Vydavateľstvo
		Inzercia
		Osobné údaje
		Návštevnosť webu
		Predajnosť tlače
		Petit Academy
		SME v škole 		© Copyright 1997-2014 Petit Press, a.s. 
	 
 
 
 


          
        
            
            

        
    

    
    


    


    
        
        
        
        
        
        
        
            
            
        
        
        
        
         
                                
               





 

 



        

 




