
      
    
    

     
	 
	 
 SME.sk 
 Zľavy 
 Zoznámenie 
 Reality 
 Dovolenky 
 Pizza 
 Reštaurácie 
 Recenzie 
 Inzeráty 
 Naničmama 	 
Nákupy 
		 
 Filmy na DVD 
 Hodinky 
 Parfémy 
 SME knihy a DVD 
 Superhosting 
 Tlačiareň 
 Víno 
 Tvorba webov 
 Predplatné SME 
 ProSenior 		 
	 
	 
 
	 
 


    
    
        
        
         
          
         
    

    
      
         
            
             
     
        
        
     
    Blog.SME.sk
 

    

         
        
                 
     
         
            Sme.sk
         
         
            Domov
         
         
            Regióny
         
         
            Ekonomika
         
         
            Svet
         
         
            Komentáre
         
         
            Kultúra
         
         
            Šport
         
         
            TV
         
         
            Auto
         
         
            Tech
         
         
            Poradňa
         
         
            Žena
         
         
            Bývanie
         
         
            Zdravie
         
         
            Blog
         
     
 

         
            
     
                                                         Politika 
                                                                                     Spoločnosť 
                                                                                     Cestovanie 
                                                                                     Ekonomika 
                                                                                     Fotografie 
                                                                                     Jedlo 
                                                                                     Kultúra 
                                                                                             
Ďalšie
                             
                                                                                         Lifestyle 
                                                                                                                                                                             Médiá 
                                                                                                                                                                             Nezaradené 
                                                                                                                                                                             Súkromné 
                                                                                                                                                                             Šport 
                                                                                                                                                                             Veda a technika 
                                                                                                                                                                             Zábava 
                                                                                                                                                                             Poézia 
                                                                                                                                                                             Próza 
                                                                                                                                                                             Kódex blogera 
                                                                                 
                         
                                                 
            Blogeri
         
     


            

    
    Prihlásiť sa


    
    Založte si blog



    
    Odhlásiť sa


    
    




         

        
        
         
            
         
         
                
     
                 
            SME.sk &gt;
            Blog.SME.sk &gt;
                            Daniel Mikletič
                                        &gt;
                Nezaradené
                     
                 Bébé volá Hamšíkovi 

        
            
                                    15.6.2010
            o
            15:47
                        (upravené
                15.6.2010
                o
                15:56)
                        |
            Karma článku:
                5.39
            |
            Prečítané 
            736-krát
                    
         
     
         
             

                 
                    Bébé, malý chlapec z Južnej Afriky s frizúrou nášho kapitána, zavolal po zápase svojmu doterajšiemu idolu - Marekovi. Podarilo sa nám zapísať tento neoverený telefonát tesne po vyrovnávajúcom góle.
                 

                 Bébé:   Haló, Marek? Tu Bébé, čau!   Marek:   No nazdar, Bébé, pozeral si zápas?   Bébé:   Noó... to čo bolo? Prečo ste nebojovali až do konca.   Marek:   No jednoducho smola...   Bébé:   Ja som si myslel, že ste väčší bojovníci. Vy ste to nejako flákali celý zápas.   Marek:   Veď vieš, sme na majstrovstvách prvý krát.   Bébé:   Mali ste plné gate? Však ste boli o triedu lepší.   Marek:   Nie nemali, len sme hrali takticky.   Bébé:   A to čo je za taktika? My tu v Afrike na lúke hráme vždy o víťazstvo.   Marek:   Však aj my, ale ten tlak nám nedal podať plný výkon.   Bébé:   Aký tlak? To tie trúbky, vuvuzely?   Marek:   Ale nie...   Bébé:   Fúkalo ti príliš do vlasov? Mne sa zdalo, že sa šetríte na Talianov.   Marek:   Hrali sme naplno.   Bébé:   Ale viac na vlastnej polovici. Aj si pekne strieľal, ale vždy ďaleko vedľa. Nevidel si dobre?   Marek:   No to si nejaký expert. Nedalo sa, oni sa bránili.   Bébé:   Až tak sa bránili, že nakoniec vyrovnali. Čo na takýto výkon povedia u vás na Slovensku?   Marek:   Asi nás nebudú priveľmi chváliť. No sme radi, že sme tu na majstrovstvách.   Bébé:   Chlapci tu u nás na lúke vravia, že vy Slováci už nevyhráte nič, že ste slabosi.   Marek:   Tak im povedz, že sa mýlia.   Bébé:   Asi im nič nepoviem, budú si robiť so mňa srandu. Ale ten mladý Weis sa im páčil, aj ten gól, hoci trošku z ofsajdu. Potom išli hrať futbal na dvor. Škoda, že ste takí pokakaní.   Marek:   Ale Bébé!   Bébé:   Idem aj ja hrať na dvor futbal, tak mi nevolaj. Možno sa ešte niekedy ozvem. Mama mi ale hovorí, že sa mám ísť dať holičovi ostrihať, tak neviem Marek. Tak sa zatiaľ maj! Si tam ešte, dúfam, že si neodpadol... 

                 
                                        
                        
                        Zdieľať
                    

                    
                            
                                    
                                    Zdieľať na
                            
                             
                                    
                             
                    

                                                                                                                        
                            
                            Diskusia: (5)
                        
                    
                    
                        
                        Zvýšte karmu
                    
                 
             

                             
            
                     
                         Ďalšie články blogera 
                         
                                                             
                                    
                    	                                                                                        

                                                                        
                                    
                                        Daniel Mikletič 
                                        
                                            Bushido nie je z ho*en, no neprepískol to?
                                        
                                    
                                 
                                                             
                                    
                    	                                                                                        

                                                                        
                                    
                                        Daniel Mikletič 
                                        
                                            Vláda istôt výtvarníkov
                                        
                                    
                                 
                                                             
                                    
                    	                                                                                        

                                                                        
                                    
                                        Daniel Mikletič 
                                        
                                            Ako ďalej s „povojnovou“ STV?
                                        
                                    
                                 
                                                             
                                    
                    	                                                                                        

                                                                        
                                    
                                        Daniel Mikletič 
                                        
                                            Kúpim stranu. Zn.: Fico
                                        
                                    
                                 
                                                             
                                    
                    	                                                                                        

                                                                        
                                    
                                        Daniel Mikletič 
                                        
                                            Predčasné voľby na jar 2011
                                        
                                    
                                 
                                                     
                        
                            Ďalšie články blogera: Daniel Mikletič
                        
                     
            
                     
                         Ďalšie články z rubriky šport 
                         
                                                             
                                    
                                                            	                                                                                        

                                                                                                
                                    
                                        Jozef Fabian 
                                        
                                            Žreb Ligy Majstrov
                                        
                                    
                                 
                                                             
                                    
                                                            	                                                                                        

                                                                                                
                                    
                                        Martin Duda 
                                        
                                            Rozprávka o slávnom futbalovom kráľovstve
                                        
                                    
                                 
                                                             
                                    
                                                                                                                    

                                                                                                
                                    
                                        Marian Čapla 
                                        
                                            Za dvadsaťjeden tristoštyridsaťdva. Je to veľa alebo málo?
                                        
                                    
                                 
                                                             
                                    
                                                            	                                                                                        

                                                                                                
                                    
                                        Peter Jačiansky 
                                        
                                            Ako chutí dobrá francúzska polievka?
                                        
                                    
                                 
                                                             
                                    
                                                            	                                                                                        

                                                                                                
                                    
                                        Adrián Kocur 
                                        
                                            Halák hviezdou nových Islanders
                                        
                                    
                                 
                                                     
                        
                            Ďalšie články z rubriky šport
                        
                     
                 
            
                    
 
     Hlavné správy 
         
        
                                

        
         
            ZAHRANIČIE
             Protestujúci v Maďarsku strácajú dych, Fidesz ich mätie novými návrhmi 
             Na demonštrácii proti Orbánovej vláde bolo v utorok už len niekoľko tisíc ľudí. 
         
     
         
        
                                

        
         
            AKTUALIZOVANÉ O 21:30
             Rubeľ pocítil pád na dno, Rusko je vo finančnej kríze 
             Dolár včera stál už takmer 80 rubľov, pod hladinu ho tlačia najmä nízke ceny ropy. 
         
     
         
        
                                

        
         
            AKTUALIZOVANÉ 21:50
             Taliban zabil v škole v Pakistane 132 detí 
             Pakistan až teraz poriadne zatlačil na islamistov. Odplatou je útok na deti vojakov. 
         
     
     

                 
     
    
     
        
 

     
                
                            
                    



         
            
                Daniel Mikletič
            
         
        mikletic.blog.sme.sk (rss)
         
                                     
     
        scenárista, textár, novinár, režisér, hudobný producent (nezávislý)

        
     
     
                     
                             
             

     
        
            
                
                    Počet článkov
                    44
                
                
                    Celková karma
                    
                                                0.00
                    
                
                
                    Priemerná čítanosť
                    2076
                
            
        
     

             

             Zoznam rubrík 
            
             
                                     
                        
                            Súkromné
                        
                     
                                     
                        
                            Nezaradené
                        
                     
                             
         
    

    

             
             Čo ma zaujalo 
            Týmto článkom bloger klikol/klikla na karmu.
             
                                                         
                       Bushido nie je z ho*en, no neprepískol to?
                     
                             
         
           
     Pošlite odkaz blogerovi 
    
         
            
         

         
         
         
         

         
         
Odosielateľ (e-mail)
 
         
Text
 
         
             
Protispamová ochrana 
 
 Zle. Skúste znova. 
Opíšte slová z obrázku: Načítať iné slová 
 Get an image CAPTCHA 
 
 
         
                 
            
         
    
  


 

     






            
    
        
    
 

        
         
         
             Už ste čítali? 
         
         
 

 kultura.sme.sk 
 Margaréta sa spriahla s diablom, no mala Kristovu pravdu 
 
 

 www.sme.sk 
 Pútnické miesta The Beatles alebo ako ľudia kráčajú po zebre 
 
 

 cestovanie.sme.sk 
 Lovia za svitania a v hmle 
 
 

 www.sme.sk 
 Ako sa valila lavína slobody. Ako padal komunizmus 
 
 

 kultura.sme.sk 
 Žiadne retro, poriadny biznis. Takto sa lisuje platňa 
 
	   
 


        
         
            
         

     

    
     
 
 
	 

		Kontakty
		Predplatné
		Etický kódex
		Pomoc
		Mapa stránky
		
	 
 
 
	 
		 
			Widget
			RSS
			Newsletter
		 
		 
			Mobil
			Smartphone
			Kindle
			Televízor
		 
		 
			Facebook
			Twitter
			Google+
		 
	 
	 
		
	 
	 
		Ďalšie weby skupiny: Prihlásenie do Post.sk
		Új Szó Slovak Spectator
		Agentúrne správy 
		Vydavateľstvo
		Inzercia
		Osobné údaje
		Návštevnosť webu
		Predajnosť tlače
		Petit Academy
		SME v škole 		© Copyright 1997-2014 Petit Press, a.s. 
	 
 
 
 


          
        
            
            

        
    

    
    


    


    
        
        
        
        
        
        
        
            
            
        
        
        
        
         
                                
               





 

 



        

 




