
      
    
    

     
	 
	 
 SME.sk 
 Zľavy 
 Zoznámenie 
 Reality 
 Dovolenky 
 Pizza 
 Reštaurácie 
 Recenzie 
 Inzeráty 
 Naničmama 	 
Nákupy 
		 
 Filmy na DVD 
 Hodinky 
 Parfémy 
 SME knihy a DVD 
 Superhosting 
 Tlačiareň 
 Víno 
 Tvorba webov 
 Predplatné SME 
 ProSenior 		 
	 
	 
 
	 
 


    
    
        
        
         
          
         
    

    
      
         
            
             
     
        
        
     
    Blog.SME.sk
 

    

         
        
                 
     
         
            Sme.sk
         
         
            Domov
         
         
            Regióny
         
         
            Ekonomika
         
         
            Svet
         
         
            Komentáre
         
         
            Kultúra
         
         
            Šport
         
         
            TV
         
         
            Auto
         
         
            Tech
         
         
            Poradňa
         
         
            Žena
         
         
            Bývanie
         
         
            Zdravie
         
         
            Blog
         
     
 

         
            
     
                                                         Politika 
                                                                                     Spoločnosť 
                                                                                     Cestovanie 
                                                                                     Ekonomika 
                                                                                     Fotografie 
                                                                                     Jedlo 
                                                                                     Kultúra 
                                                                                             
Ďalšie
                             
                                                                                         Lifestyle 
                                                                                                                                                                             Médiá 
                                                                                                                                                                             Nezaradené 
                                                                                                                                                                             Súkromné 
                                                                                                                                                                             Šport 
                                                                                                                                                                             Veda a technika 
                                                                                                                                                                             Zábava 
                                                                                                                                                                             Poézia 
                                                                                                                                                                             Próza 
                                                                                                                                                                             Kódex blogera 
                                                                                 
                         
                                                 
            Blogeri
         
     


            

    
    Prihlásiť sa


    
    Založte si blog



    
    Odhlásiť sa


    
    




         

        
        
         
            
         
         
                
     
                 
            SME.sk &gt;
            Blog.SME.sk &gt;
                            Jana Dratvová
                                        &gt;
                Sprcha duše vo verši
                     
                 Pocta priateľstvu... 

        
            
                                    23.4.2010
            o
            10:27
                        (upravené
                25.4.2010
                o
                14:58)
                        |
            Karma článku:
                8.04
            |
            Prečítané 
            399-krát
                    
         
     
         
             

                 
                    Benjamín Tinák: "Priateľ je chlebom, keď si hladný, a vodou, keď hynieš od smädu..."
                 

                 
  
               Priateľ podá ruku   keď zrúti sa ti svet       Nastaví pozorné ucho   prelomí tvoje ticho   otáznikom odpovede hľadá   priateľa si váž   maj ho rád, či rada...       Pred ústa servítku si nedá   nerobí grimasy ako mím   vie,   že najkrutejšie lži vravel by mlčaním       (J. Kollár: Život nadobúda krásu a naozajstnú hodnotu len vtedy, keď sa stane poetickým, prostredníctvom lásky a priateľstva.)       S priateľom sa nebojíš sám   ty si obraz, on je rám       (Cicero: Jeden dobrý priateľ je hodný viac ako sto príbuzných.)       Priateľ ťa dobre pozná   neznáša bremeno obetí   ak pokĺzneš sa   prepáči, odpustí...       Priateľ pochváli   vysloví aj hanu   zbytočne popol nesype   na tvojho srdca ranu       (Dobrý priateľ je nádej v krajší svet. Pretože v ňom vidíme, že nesebecké, tolerantné vzťahy môžu fungovať.)       S priateľom žiadna cesta   nie je dlhá   priateľ sa nehrá na dobrodruha       Úsmevy násobí   vzorec žiaľu delí    aj s jednou jahodou   rád sa vždy podelí       (V skutočnom priateľstve je niekedy viac lásky ako v láskej samotnej.)                                     

                 
                                        
                        
                        Zdieľať
                    

                    
                            
                                    
                                    Zdieľať na
                            
                             
                                    
                             
                    

                                                                                                                        
                            
                            Diskusia: (25)
                        
                    
                    
                        
                        Zvýšte karmu
                    
                 
             

                             
            
                     
                         Ďalšie články blogera 
                         
                                                             
                                    
                    	                                                                                        

                                                                        
                                    
                                        Jana Dratvová 
                                        
                                            Chcem byť strom
                                        
                                    
                                 
                                                             
                                    
                    	                                                                                        

                                                                        
                                    
                                        Jana Dratvová 
                                        
                                            Zabudnutá
                                        
                                    
                                 
                                                             
                                    
                    	                                                                                        

                                                                        
                                    
                                        Jana Dratvová 
                                        
                                            Sama sa  rozhodla
                                        
                                    
                                 
                                                             
                                    
                    	                                                                                        

                                                                        
                                    
                                        Jana Dratvová 
                                        
                                            Kľúč nosíš v sebe
                                        
                                    
                                 
                                                             
                                    
                    	                                                                                        

                                                                        
                                    
                                        Jana Dratvová 
                                        
                                            Vraj
                                        
                                    
                                 
                                                     
                        
                            Ďalšie články blogera: Jana Dratvová
                        
                     
            
                     
                         Ďalšie články z rubriky poézia 
                         
                                                             
                                    
                                                            	                                                                                        

                                                                                                
                                    
                                        Maťo Chudík 
                                        
                                            Niečo sa stalo
                                        
                                    
                                 
                                                             
                                    
                                                            	                                                                                        

                                                                                                
                                    
                                        Tomáš Fuček 
                                        
                                            Posúvam sa dozadu
                                        
                                    
                                 
                                                             
                                    
                                                            	                                                                                        

                                                                                                
                                    
                                        Filip Glejdura 
                                        
                                            . . .  a bolo mu to aj tak jedno
                                        
                                    
                                 
                                                             
                                    
                                                            	                                                                                        

                                                                                                
                                    
                                        Drahoslav Mika 
                                        
                                            Chmúrava
                                        
                                    
                                 
                                                             
                                    
                                                            	                                                                                        

                                                                                                
                                    
                                        Janka Bernáthová 
                                        
                                            Iba dozrievam
                                        
                                    
                                 
                                                     
                        
                            Ďalšie články z rubriky poézia
                        
                     
                 
            
                    
 
     Hlavné správy 
         
        
                                

        
         
            AKTUALIZOVANÉ 16:00
             Rubeľ kolabuje, ruská vláda má mimoriadne rokovať 
             Jeden dolár stál v utorok poobede už viac ako 78 rubľov, razantné zvýšenie úrokov nepomohlo. 
         
     
         
        
                                

        
         
            ZAHRANIČIE
             Taliban zaútočil na citlivé miesto Pakistanu. Na deti 
             Taliban zabil v škole v Pakistane najmenej 141 ľudí, väčšinou deti. 
         
     
         
        
                                

        
         
            KOMENTARE.SME.SK
             Cynická obluda: Medzičasom na opustenom ostrove 
             Stroskotanci majú veľké šťastie, že sú dvaja. Lacné vtipy na úrovni ich autora. 
         
     
     

                 
     
    
     
        
 

     
                
                            
                    



         
            
                Jana Dratvová
            
         
        dratvova.blog.sme.sk (rss)
         
                                     
     
        Milujem písmenká a rada sa s nimi hrám.
        
     
     
                     
                             
             

     
        
            
                
                    Počet článkov
                    590
                
                
                    Celková karma
                    
                                                0.00
                    
                
                
                    Priemerná čítanosť
                    1365
                
            
        
     

             

             Zoznam rubrík 
            
             
                                     
                        
                            Sprcha duše vo verši
                        
                     
                                     
                        
                            jedlo, bylinky
                        
                     
                                     
                        
                            oprášené spomienky
                        
                     
                                     
                        
                            Môj zverinec
                        
                     
                                     
                        
                            Čriepky dňa
                        
                     
                                     
                        
                            Uletené, pokus o fejtón
                        
                     
                                     
                        
                            Súkromné
                        
                     
                                     
                        
                            Nezaradené kadečo
                        
                     
                             
         
    

    

           
     Pošlite odkaz blogerovi 
    
         
            
         

         
         
         
         

         
         
Odosielateľ (e-mail)
 
         
Text
 
         
             
Protispamová ochrana 
 
 Zle. Skúste znova. 
Opíšte slová z obrázku: Načítať iné slová 
 Get an image CAPTCHA 
 
 
         
                 
            
         
    
  


 

     






            
    
        
    
 

        
         
         
             Už ste čítali? 
         
         
 

 kultura.sme.sk 
 Margaréta sa spriahla s diablom, no mala Kristovu pravdu 
 
 

 www.sme.sk 
 Pútnické miesta The Beatles alebo ako ľudia kráčajú po zebre 
 
 

 cestovanie.sme.sk 
 Lovia za svitania a v hmle 
 
 

 www.sme.sk 
 Ako sa valila lavína slobody. Ako padal komunizmus 
 
 

 kultura.sme.sk 
 Žiadne retro, poriadny biznis. Takto sa lisuje platňa 
 
	   
 


        
         
            
         

     

    
     
 
 
	 

		Kontakty
		Predplatné
		Etický kódex
		Pomoc
		Mapa stránky
		
	 
 
 
	 
		 
			Widget
			RSS
			Newsletter
		 
		 
			Mobil
			Smartphone
			Kindle
			Televízor
		 
		 
			Facebook
			Twitter
			Google+
		 
	 
	 
		
	 
	 
		Ďalšie weby skupiny: Prihlásenie do Post.sk
		Új Szó Slovak Spectator
		Agentúrne správy 
		Vydavateľstvo
		Inzercia
		Osobné údaje
		Návštevnosť webu
		Predajnosť tlače
		Petit Academy
		SME v škole 		© Copyright 1997-2014 Petit Press, a.s. 
	 
 
 
 


          
        
            
            

        
    

    
    


    


    
        
        
        
        
        
        
        
            
            
        
        
        
        
         
                                
               





 

 



        

 




