
      
    
    

     
	 
	 
 SME.sk 
 Zľavy 
 Zoznámenie 
 Reality 
 Dovolenky 
 Pizza 
 Reštaurácie 
 Recenzie 
 Inzeráty 
 Naničmama 	 
Nákupy 
		 
 Filmy na DVD 
 Hodinky 
 Parfémy 
 SME knihy a DVD 
 Superhosting 
 Tlačiareň 
 Víno 
 Tvorba webov 
 Predplatné SME 
 ProSenior 		 
	 
	 
 
	 
 


    
    
        
        
         
          
         
    

    
      
         
            
             
     
        
        
     
    Blog.SME.sk
 

    

         
        
                 
     
         
            Sme.sk
         
         
            Domov
         
         
            Regióny
         
         
            Ekonomika
         
         
            Svet
         
         
            Komentáre
         
         
            Kultúra
         
         
            Šport
         
         
            TV
         
         
            Auto
         
         
            Tech
         
         
            Poradňa
         
         
            Žena
         
         
            Bývanie
         
         
            Zdravie
         
         
            Blog
         
     
 

         
            
     
                                                         Politika 
                                                                                     Spoločnosť 
                                                                                     Cestovanie 
                                                                                     Ekonomika 
                                                                                     Fotografie 
                                                                                     Jedlo 
                                                                                     Kultúra 
                                                                                             
Ďalšie
                             
                                                                                         Lifestyle 
                                                                                                                                                                             Médiá 
                                                                                                                                                                             Nezaradené 
                                                                                                                                                                             Súkromné 
                                                                                                                                                                             Šport 
                                                                                                                                                                             Veda a technika 
                                                                                                                                                                             Zábava 
                                                                                                                                                                             Poézia 
                                                                                                                                                                             Próza 
                                                                                                                                                                             Kódex blogera 
                                                                                 
                         
                                                 
            Blogeri
         
     


            

    
    Prihlásiť sa


    
    Založte si blog



    
    Odhlásiť sa


    
    




         

        
        
         
            
         
         
                
     
                 
            SME.sk &gt;
            Blog.SME.sk &gt;
                            Alojz Hlina
                                        &gt;
                Nezaradené
                     
                 Tankisti versus compfighteri. 

        
            
                                    9.5.2010
            o
            14:15
                        (upravené
                9.5.2010
                o
                14:26)
                        |
            Karma článku:
                10.93
            |
            Prečítané 
            1711-krát
                    
         
     
         
             

                 
                    Keď som bol malý chlapec, išiel v TV seriál Štyria tankisti a pes. V sobotu na námestí SNP to na začiatku tiež vyzeralo tak, že budeme štyria, ešte skočím pre môjho psa  a bude to ako v tom seriáli. Nakoniec však prišli ľudia, a aj sme šli v sprievode k sídlu SNS. Chcem sa poďakovať všetkým tým, ktorí tam včera boli. Špeciálne skupine, ktorá hrala bez nároku na honorár a dokonca na pre túto príležitosť zložila skladbu. Lacovi, Milanovi, Marcelovi, Jane a mnohým ďalším, ktorí pomohli urobiť peknú symbolickú akciu. Všetkým tým, ktorí tam boli a aj tým, ktorí išli v sprievode. Rád by som poďakoval aj človeku, ktorý na moju otázku, že za koľko požičia to OT-éčko, mávol rukou a povedal, že to je dobre.
                 

                  Na škole sa učí fyzika, a na nej Zákon o zachovaní energie. Koľko energie dáš, toľko energie dostaneš. Pre istotu ešte jeden raz: Koľko dáš, toľko dostaneš.   Moja úprava pre našu potrebu je: koľko energie vydáš, toľko jej dostaneš naspäť. Koľko pozitívnej energie vydáš, toľko i dostaneš späť /platí aj opačne pre negatívnu energiu/.   Pomôže prečítať si knihu: Muž, ktorý sadil stromy. Geniálna kniha. Úplne kratučká. Geniálny príbeh. Alebo aj dnes /nedeľa/ som pozeral dokument na Spektre o chlapíkovi, ktorý začal kampaň „Chicken out" - kampaň o voľnom výbehu sliepok.  Inšpiratívny dokument, a jeho príbeh dosvedčuje, že každá drobná snaha má zmysel, a keď je dobrá myšlienka a veľa energie, tak sa dá veľa vecí zmeniť.   Treba však povedať aj malé upozornenie.   Ak by ste kypeli energiou a entuziazmom, odporúčam Vám dobrú predprípravu na čítanie diskusií pod článkami, v ktorých budú napr. diskutovať o nejakej akcii, ktorej ste sa zúčastnili. Compfighteri vyštartujú okamžite a zasadia smrteľný úder vášmu nadšeniu, chuti niečo urobiť. Vždy ich tam je zopár  pripravených  zo svojimi akože vtipnými komentármi a geniálnymi myšlienkami.    Ako napríklad, nerobiť nič je zlé, ale aj niečo robiť je zlé, ináč povedané, ak niečo robíte proti SNS, tak vlastne im tým robíte reklamu. Do kelu, fakt je to zamotaný kruh. Tak sa pýtam, čo vlastne treba robiť? Len mi neodpovedajte: NEVOLIŤ. Lebo ja ich nevolím a táto rada nestačí. Lebo sú ľudia, ktorí ich volia. Čo s tým, géniovia?   Viem, že nemá  význam presvedčovať presvedčených.  Tak teda nepresvedčujem tých, ktorí nevolia SNS. Ale upravil som slovník a rozprávam tak, aby som presvedčil tých, ktorí ich volia. A čo sa stane? Ste primitív - taký istý, ako Slota atď. Opäť zamotaný kruh.   Sobotňajší „tankisti" prešli cez mesto pešo. Compfighteri odpálili pár smrteľných rán, aby ich schladili. Čo pomôže? Znova si prečítať knihu Muž, ktorý sadil stromy, ešte raz  si pozrieť dokument o chlapíkovi, ktorý venoval obrovské množstvo energie kvôli voľnému výbehu sliepok,  no a tak ....         

                 
                                        
                        
                        Zdieľať
                    

                    
                            
                                    
                                    Zdieľať na
                            
                             
                                    
                             
                    

                                                                                                                        
                            
                            Diskusia: (38)
                        
                    
                    
                        
                        Zvýšte karmu
                    
                 
             

                             
            
                     
                         Ďalšie články blogera 
                         
                                                             
                                    
                    	                                                                                        

                                                                        
                                    
                                        Alojz Hlina 
                                        
                                            Čo sa Penta v Číne nenaučila
                                        
                                    
                                 
                                                             
                                    
                    	                                                                                        

                                                                        
                                    
                                        Alojz Hlina 
                                        
                                            Zrušiť zdravotné odvody je nebotyčná hlúposť!
                                        
                                    
                                 
                                                             
                                    
                    	                                                                                        

                                                                        
                                    
                                        Alojz Hlina 
                                        
                                            Nočné rokovanie bude aj pred Paškovou vilou
                                        
                                    
                                 
                                                             
                                    
                    	                                                                                        

                                                                        
                                    
                                        Alojz Hlina 
                                        
                                            Smer zlegalizoval nezákonné billboardy
                                        
                                    
                                 
                                                             
                                    
                    	                                                                                        

                                                                        
                                    
                                        Alojz Hlina 
                                        
                                            O slovenskej žurnalistike rozhodne Shooty
                                        
                                    
                                 
                                                     
                        
                            Ďalšie články blogera: Alojz Hlina
                        
                     
            
                     
                         Ďalšie články z rubriky politika 
                         
                                                             
                                    
                                                            	                                                                                        

                                                                                                
                                    
                                        Tomáš Hudec 
                                        
                                            Chceme zvýšiť účasť ľudí vo voľbách? Zaveďme eVoľby!
                                        
                                    
                                 
                                                             
                                    
                                                            	                                                                                        

                                                                                                
                                    
                                        Robert Bestro 
                                        
                                            Výmena vedenia parlamentu zjavne prospela
                                        
                                    
                                 
                                                             
                                    
                                                            	                                                                                        

                                                                                                
                                    
                                        Júlia Piraňa Mikolášiková 
                                        
                                            Obvinia ďalšiu novinárku z údajného ohovárania policajného šéfa Ševčíka?
                                        
                                    
                                 
                                                             
                                    
                                                            	                                                                                        

                                                                                                
                                    
                                        Stanislav Martinčko 
                                        
                                            Stužka z kvetinárstva za 16 centov a rozkradnuté milióny!!
                                        
                                    
                                 
                                                             
                                    
                                                            	                                                                                        

                                                                                                
                                    
                                        Veronika Remisova 
                                        
                                            Elektronické mýto podľa Ficovej vlády – prehľadnejšie sa to skrátka nedá
                                        
                                    
                                 
                                                     
                        
                            Ďalšie články z rubriky politika
                        
                     
                 
            
                    
 
     Hlavné správy 
         
        
                                

        
         
            AKTUALIZOVANÉ O 20:00
             Rubeľ pocítil pád na dno, Rusko je vo finančnej kríze 
             Dolár včera stál už takmer 80 rubľov, pod hladinu ho tlačia najmä nízke ceny ropy. 
         
     
         
        
                                

        
         
            ZAHRANIČIE
             Taliban zaútočil na citlivé miesto Pakistanu. Na deti 
             Taliban zabil v škole v Pakistane najmenej 141 ľudí, väčšinou deti. 
         
     
         
        
                                

        
         
            KOMENTARE.SME.SK
             Cynická obluda: Medzičasom na opustenom ostrove 
             Stroskotanci majú veľké šťastie, že sú dvaja. Lacné vtipy na úrovni ich autora. 
         
     
     

                 
     
    
     
        
 

     
                
                            
                    



         
            
                Alojz Hlina
            
         
        alojzhlina.blog.sme.sk (rss)
         
                                     
     
        Alojz Hlina - nezávislý poslanec NR SR, občan Slovenska, občan mesta Bratislava, oravský bača. www.alojzhlina.sk
        
     
     
                     
                             
             

     
        
            
                
                    Počet článkov
                    518
                
                
                    Celková karma
                    
                                                8.94
                    
                
                
                    Priemerná čítanosť
                    3789
                
            
        
     

             

             Zoznam rubrík 
            
             
                                     
                        
                            Súkromné
                        
                     
                                     
                        
                            Nezaradené
                        
                     
                             
         
    

    

             
             Čo ma zaujalo 
            Týmto článkom bloger klikol/klikla na karmu.
             
                                                         
                       Tak kvôli tomu vyhodili Čaploviča?
                     
                                                         
                       Politický nekorektné úvahy k Dňu Európy a Dňu víťazstva
                     
                                                         
                       Hanebná nominácia na ústavného sudcu
                     
                                                         
                       Stane sa  SMER chrapúňom  roka?
                     
                                                         
                       Košičania, budete svietiť ako baterky?
                     
                                                         
                       Simpsonovci a Hlinovo hrdinstvo
                     
                                                         
                       Ako udržiavajú P.Paška a R.Kaliňák krehkú rovnováhu?
                     
                                                         
                       Môžete ísť do kostola, ale omša nebude
                     
                                                         
                       Keď SMER zabezpečuje koledy
                     
                                                         
                       Študenti, ako chutila držková u premiéra?
                     
                             
         
           
     Pošlite odkaz blogerovi 
    
         
            
         

         
         
         
         

         
         
Odosielateľ (e-mail)
 
         
Text
 
         
             
Protispamová ochrana 
 
 Zle. Skúste znova. 
Opíšte slová z obrázku: Načítať iné slová 
 Get an image CAPTCHA 
 
 
         
                 
            
         
    
  


 

     






            
    
        
    
 

        
         
         
             Už ste čítali? 
         
         
 

 kultura.sme.sk 
 Margaréta sa spriahla s diablom, no mala Kristovu pravdu 
 
 

 www.sme.sk 
 Pútnické miesta The Beatles alebo ako ľudia kráčajú po zebre 
 
 

 cestovanie.sme.sk 
 Lovia za svitania a v hmle 
 
 

 www.sme.sk 
 Ako sa valila lavína slobody. Ako padal komunizmus 
 
 

 kultura.sme.sk 
 Žiadne retro, poriadny biznis. Takto sa lisuje platňa 
 
	   
 


        
         
            
         

     

    
     
 
 
	 

		Kontakty
		Predplatné
		Etický kódex
		Pomoc
		Mapa stránky
		
	 
 
 
	 
		 
			Widget
			RSS
			Newsletter
		 
		 
			Mobil
			Smartphone
			Kindle
			Televízor
		 
		 
			Facebook
			Twitter
			Google+
		 
	 
	 
		
	 
	 
		Ďalšie weby skupiny: Prihlásenie do Post.sk
		Új Szó Slovak Spectator
		Agentúrne správy 
		Vydavateľstvo
		Inzercia
		Osobné údaje
		Návštevnosť webu
		Predajnosť tlače
		Petit Academy
		SME v škole 		© Copyright 1997-2014 Petit Press, a.s. 
	 
 
 
 


          
        
            
            

        
    

    
    


    


    
        
        
        
        
        
        
        
            
            
        
        
        
        
         
                                
               





 

 



        

 




