
      
    
    

     
	 
	 
 SME.sk 
 Zľavy 
 Zoznámenie 
 Reality 
 Dovolenky 
 Pizza 
 Reštaurácie 
 Recenzie 
 Inzeráty 
 Naničmama 	 
Nákupy 
		 
 Filmy na DVD 
 Hodinky 
 Parfémy 
 SME knihy a DVD 
 Superhosting 
 Tlačiareň 
 Víno 
 Tvorba webov 
 Predplatné SME 
 ProSenior 		 
	 
	 
 
	 
 


    
    
        
        
         
          
         
    

    
      
         
            
             
     
        
        
     
    Blog.SME.sk
 

    

         
        
                 
     
         
            Sme.sk
         
         
            Domov
         
         
            Regióny
         
         
            Ekonomika
         
         
            Svet
         
         
            Komentáre
         
         
            Kultúra
         
         
            Šport
         
         
            TV
         
         
            Auto
         
         
            Tech
         
         
            Poradňa
         
         
            Žena
         
         
            Bývanie
         
         
            Zdravie
         
         
            Blog
         
     
 

         
            
     
                                                         Politika 
                                                                                     Spoločnosť 
                                                                                     Cestovanie 
                                                                                     Ekonomika 
                                                                                     Fotografie 
                                                                                     Jedlo 
                                                                                     Kultúra 
                                                                                             
Ďalšie
                             
                                                                                         Lifestyle 
                                                                                                                                                                             Médiá 
                                                                                                                                                                             Nezaradené 
                                                                                                                                                                             Súkromné 
                                                                                                                                                                             Šport 
                                                                                                                                                                             Veda a technika 
                                                                                                                                                                             Zábava 
                                                                                                                                                                             Poézia 
                                                                                                                                                                             Próza 
                                                                                                                                                                             Kódex blogera 
                                                                                 
                         
                                                 
            Blogeri
         
     


            

    
    Prihlásiť sa


    
    Založte si blog



    
    Odhlásiť sa


    
    




         

        
        
         
            
         
         
                
     
                 
            SME.sk &gt;
            Blog.SME.sk &gt;
                            Miroslav Lisinovič
                                        &gt;
                Slovenské Kalvárie
                     
                 Putovanie po slovenských Kalváriách CV - Úhorná 

        
            
                                    13.7.2009
            o
            11:22
                        |
            Karma článku:
                9.50
            |
            Prečítané 
            3219-krát
                    
         
     
         
             

                 
                    V dnešnom pokračovaní putovania sa pozrieme na jedno staré pútnické miesto, zasvätené Panne Márii Snežnej, v náručí hôr okresu Gelnica...
                 

                    Kaplnka Panny Márie Snežnej s prameňom liečivej vody sa nachádza asi polhodinu pešej chôdze nad obcou.      Úhorná patrí pod farnosť Smolník v rožňavskej diecéze      Toto pútnické miesto sa smutne preslávilo tragickou nehodou autobusu s pútnikmi v roku 2003, pri ktorej zahynulo 13 ľudí.      Tunajšia Krížová cesta je veľmi jednoduchá, pozostáva zo 14 krížov         V trubkových konštrukciách sú vsadené menšie kríže, natreté na hnedo      Konštrukcia prístrešku slúži pre slávenie liturgií pod holým nebom      Odpust sa tu koná každoročne v prvú augustovú sobotu a nedeľu, samotný sviatok Panny Márie Snežnej pripadá na 5. august.            Poslednými zastaveniami sa Krížová cesta dostáva do lesa         Okolité prostredie lúk a hôr je veľmi vhodné na pešiu turistiku aj cyklistiku           

                 
                                        
                        
                        Zdieľať
                    

                    
                            
                                    
                                    Zdieľať na
                            
                             
                                    
                             
                    

                                                                                                                        
                            
                            Diskusia: (1)
                        
                    
                    
                        
                        Zvýšte karmu
                    
                 
             

                             
            
                     
                         Ďalšie články blogera 
                         
                                                             
                                    
                                                                                                    

                                                                        
                                    
                                        Miroslav Lisinovič 
                                        
                                            Horná brána v Modre
                                        
                                    
                                 
                                                             
                                    
                                                                                                    

                                                                        
                                    
                                        Miroslav Lisinovič 
                                        
                                            Motorový rušeň 754.045 ČD "Brejlovec"
                                        
                                    
                                 
                                                             
                                    
                                                                                                    

                                                                        
                                    
                                        Miroslav Lisinovič 
                                        
                                            Tatra 87
                                        
                                    
                                 
                                                             
                                    
                                                                                                    

                                                                        
                                    
                                        Miroslav Lisinovič 
                                        
                                            Skutočnosť a model: Grassalkovichov palác v Bratislave
                                        
                                    
                                 
                                                             
                                    
                                                                                                    

                                                                        
                                    
                                        Miroslav Lisinovič 
                                        
                                            Putovanie po slovenských Kalváriách (194) - Klokočov
                                        
                                    
                                 
                                                     
                        
                            Ďalšie články blogera: Miroslav Lisinovič
                        
                     
            
                     
                         Ďalšie články z rubriky cestovanie 
                         
                                                             
                                    
                                                                                                                    

                                                                                                
                                    
                                        Miroslav Lisinovič 
                                        
                                            Horná brána v Modre
                                        
                                    
                                 
                                                             
                                    
                                                                                                                    

                                                                                                
                                    
                                        Martina Rúčková 
                                        
                                            Z Európy na Kaukaz: Çanakkale a bájna Trója
                                        
                                    
                                 
                                                             
                                    
                                                            	                                                                                        

                                                                                                
                                    
                                        Andrea Grešová 
                                        
                                            To je moje Rumunsko
                                        
                                    
                                 
                                                             
                                    
                                                                                                                    

                                                                                                
                                    
                                        Ján Serbák 
                                        
                                            Pamätník čs. armády s vojnovým cintorínom na Dukle
                                        
                                    
                                 
                                                             
                                    
                                                            	                                                                                        

                                                                                                
                                    
                                        Peter Kover 
                                        
                                            22 krajín (miest), ktoré sa naozaj oplatí vidieť
                                        
                                    
                                 
                                                     
                        
                            Ďalšie články z rubriky cestovanie
                        
                     
                 
            
                    
 
     Hlavné správy 
         
        
                                

        
         
            KOMENTÁR PETRA SCHUTZA
             Len korupčné škandály preferencie Smeru nepotopia 
             Ak chce opozícia vo voľbách zvrhnúť Smer, bez rozšírenia repertoáru si neporadí. 
         
     
         
        
                                

        
         
            AKTUALIZOVANÉ O 21:30
             Rubeľ pocítil pád na dno, Rusko je vo finančnej kríze 
             Dolár v utorok stál už takmer 80 rubľov, pod hladinu ho tlačia najmä nízke ceny ropy. 
         
     
         
        
                                

        
         
            AKTUALIZOVANÉ 23:50
             Taliban zabil v škole v Pakistane 132 detí 
             Pakistan až teraz poriadne zatlačil na islamistov. Odplatou je útok na deti vojakov. 
         
     
     

                 
     
    
     
        
 

     
                
                            
                    



         
            
                Miroslav Lisinovič
            
         
        lisinovic.blog.sme.sk (rss)
         
                        VIP
                             
     
         Študent študujúci v škole života. 
        
     
     
                     
                             
             

     
        
            
                
                    Počet článkov
                    519
                
                
                    Celková karma
                    
                                                6.39
                    
                
                
                    Priemerná čítanosť
                    2266
                
            
        
     

             

             Zoznam rubrík 
            
             
                                     
                        
                            Šaštín
                        
                     
                                     
                        
                            Slovenské Kalvárie
                        
                     
                                     
                        
                            Z mojej papierovej dielne
                        
                     
                                     
                        
                            reportáže z modelárskych akcií
                        
                     
                                     
                        
                            v prírode
                        
                     
                                     
                        
                            ulicami miest
                        
                     
                                     
                        
                            železnice a MHD
                        
                     
                                     
                        
                            motorizmus
                        
                     
                                     
                        
                            viera
                        
                     
                                     
                        
                            extra
                        
                     
                             
         
    

                     
                        
                                                            
                     Obľúbené blogy 
                    
                     
                                                 
                                            Môj brat
                                     
                                                                             
                                            Moja manželka:)
                                     
                                                                   
                     Obľúbené stránky 
                    
                     
                                                 
                                            railtrains.sk
                                     
                            
             
         
            

        

     






            
    
        
    
 

        
         
         
             Už ste čítali? 
         
         
 

 kultura.sme.sk 
 Margaréta sa spriahla s diablom, no mala Kristovu pravdu 
 
 

 www.sme.sk 
 Pútnické miesta The Beatles alebo ako ľudia kráčajú po zebre 
 
 

 cestovanie.sme.sk 
 Lovia za svitania a v hmle 
 
 

 www.sme.sk 
 Ako sa valila lavína slobody. Ako padal komunizmus 
 
 

 kultura.sme.sk 
 Žiadne retro, poriadny biznis. Takto sa lisuje platňa 
 
	   
 


        
         
            
         

     

    
     
 
 
	 

		Kontakty
		Predplatné
		Etický kódex
		Pomoc
		Mapa stránky
		
	 
 
 
	 
		 
			Widget
			RSS
			Newsletter
		 
		 
			Mobil
			Smartphone
			Kindle
			Televízor
		 
		 
			Facebook
			Twitter
			Google+
		 
	 
	 
		
	 
	 
		Ďalšie weby skupiny: Prihlásenie do Post.sk
		Új Szó Slovak Spectator
		Agentúrne správy 
		Vydavateľstvo
		Inzercia
		Osobné údaje
		Návštevnosť webu
		Predajnosť tlače
		Petit Academy
		SME v škole 		© Copyright 1997-2014 Petit Press, a.s. 
	 
 
 
 


          
        
            
            

        
    

    
    


    


    
        
        
        
        
        
        
        
            
            
        
        
        
        
         
                                
               





 

 



        

 




