
      
    
    

     
	 
	 
 SME.sk 
 Zľavy 
 Zoznámenie 
 Reality 
 Dovolenky 
 Pizza 
 Reštaurácie 
 Recenzie 
 Inzeráty 
 Naničmama 	 
Nákupy 
		 
 Filmy na DVD 
 Hodinky 
 Parfémy 
 SME knihy a DVD 
 Superhosting 
 Tlačiareň 
 Víno 
 Tvorba webov 
 Predplatné SME 
 ProSenior 		 
	 
	 
 
	 
 


    
    
        
        
         
          
         
    

    
      
         
            
             
     
        
        
     
    Blog.SME.sk
 

    

         
        
                 
     
         
            Sme.sk
         
         
            Domov
         
         
            Regióny
         
         
            Ekonomika
         
         
            Svet
         
         
            Komentáre
         
         
            Kultúra
         
         
            Šport
         
         
            TV
         
         
            Auto
         
         
            Tech
         
         
            Poradňa
         
         
            Žena
         
         
            Bývanie
         
         
            Zdravie
         
         
            Blog
         
     
 

         
            
     
                                                         Politika 
                                                                                     Spoločnosť 
                                                                                     Cestovanie 
                                                                                     Ekonomika 
                                                                                     Fotografie 
                                                                                     Jedlo 
                                                                                     Kultúra 
                                                                                             
Ďalšie
                             
                                                                                         Lifestyle 
                                                                                                                                                                             Médiá 
                                                                                                                                                                             Nezaradené 
                                                                                                                                                                             Súkromné 
                                                                                                                                                                             Šport 
                                                                                                                                                                             Veda a technika 
                                                                                                                                                                             Zábava 
                                                                                                                                                                             Poézia 
                                                                                                                                                                             Próza 
                                                                                                                                                                             Kódex blogera 
                                                                                 
                         
                                                 
            Blogeri
         
     


            

    
    Prihlásiť sa


    
    Založte si blog



    
    Odhlásiť sa


    
    




         

        
        
         
            
         
         
                
     
                 
            SME.sk &gt;
            Blog.SME.sk &gt;
                            Peter Fidler
                                        &gt;
                Veda - ostatne
                     
                 Islam dobieha kresťanstvo alebo O konci sveta 

        
            
                                    8.6.2010
            o
            9:00
                        (upravené
                8.6.2010
                o
                10:59)
                        |
            Karma článku:
                13.32
            |
            Prečítané 
            5790-krát
                    
         
     
         
             

                 
                    Islamský kalendár vznikol na pokyn kalifa Umar ibn al-Chattába v roku 638 n.l. Vychádzal z kalendára používaného v arabskom svete už dlhé roky. Bol lunárny, s pravidelným striedaním 29 a 30 dňových mesiacov. Rok má preto dodnes v tomto kalendári dĺžku iba 354 dní. Deň naviac sa pridáva na koniec posledného mesiaca v roku, pričom striedanie obyčajných a priestupných rokov sa ustálilo v dvoch podobách: v tureckom 8 ročnom a arabskom 30 ročnom štýle, ktorý je aj používanejší.
                 

                 Islamský letopočet sa nezačína útekom Mohameda z Mekky do Mediny (hidžra), ako sa bežne traduje, ale o niekoľko týždňov skôr - 16. júla 622 n.l. V tento deň bol totiž pozorovaný Mesiac prvýkrát po nove (preto hovoríme o lunárnej hidžre) a v moslimskom kalendári dostal označenie 1. Muharram roku 1 (podobne ako v našom letopočte, ani u moslimov si nenašiel miesto rok nula).   Hoci korán zakazuje počítanie času inak ako pomocou Mesiaca, zrejme z praktických dôvodov sa v niektorých krajinách (Irán, Turecko, Pakistan) rozšírila aj tzv. slnečná hidžra, kde má rok 365 alebo 366 dní a začína sa jarnou rovnodennosťou.   Toľko hovoria fakty, teraz zopár zaujímavostí. Tým, že islamský kalendár má len 354 dní a je teda o 10 až 11 dní kratší ako presné trvanie roka, posunie sa moslimský nový rok - 1. Muharram každých 33 rokov (skutočných rokov) cez všetky ročné obdobia(!). Je teda zrejmé, že takýto kalendár nájde praktické využitie jedine v oblastiach, kde sa ročné obdobia nestriedajú alebo, ešte skôr, na vyslovene náboženské účely. Žiadny roľník by dlho neprežil, keby sa riadil kalendárom, ktorý by mu radil sadiť v decembri.   Islamský kalendár začal počítať letopočet s viac ako 600-ročným meškaním oproti kresťanstvu. Ich rok je však kratší ako náš, a preto sa ku kresťanskému letopočtu pomaly približuje, vždy o jednotku za 33 rokov. Rozdiel 621 rokov klesol dodnes na 579 (dnešok, 8.6.2010, pripadá na 25.6.1431). Je zrejmé, že kdesi v budúcnosti leží rok, kedy dôjde k vyrovnaniu islamského letopočtu s kresťanským. Stačí trochu hrania s konvertorom kalendárnych sústav a výsledok je tu: 28. 12. 20841 n.l. nastane prvá zhoda v letopočte, pretože vtedy sa začne 1. Muharramom moslimský rok 20841 lunárnej hidžry. 3. Obdobie čiastočných prekrývaní letopočtov potrvá 65 rokov a skončí 10. 1. 20906 n.l., kedy sa skončí moslimský rok 20906 (30. Džul-l-hidžra 20906) a k prekryvu rokov už nikdy nedôjde. Od tohto okamihu budú bližšie k budúcnosti moslimovia.   Môže ale dôjsť aj k úplnému vyrovnaniu dátumov v našich kalendároch? Odpoveď je áno, vrcholom obdobia prelínaní oboch kalendárov bude rok 20874 n.l., ktorý úplne pohltí rok 20874 lunárnej hidžry a presne 1. mája 20874 nastane úplná zhoda. 1. 5. 20874 n.l. = 1. 5. 20874 lunárnej hidžry (resp. 1. Džumadá-al-Rilá 20874). Zhoda potrvá po celý máj a skončí sa 30. mája 20874; nasledujúci deň sa kresťania zdržia ešte v máji, kým islamský kalendár preskočí do 6.mesiaca Džumadá-al-Áchira.           Pohádkam o konci sveta, ktorý má nastať 21. decembra roku 2012 asi koniec minimálne do tohto dátumu nenastane. Je to tak vzrušujúco blízko a zároveň dosť ďaleko na tvorbu bohapustých nezmyslov ako tajomná hviezda či planéta Nemesis, ktorú síce nikto nikdy nevidel, ale je už za humnami, aby narobila cirkus vo vnútri slnečnej sústavy. Ako to už býva, v ten deň sa zistí nečakaná chybička a stanoví  sa nový termín apokalypsy, najlepšie tak asi o 10 rokov dopredu.  Predpokladám, že máloktorý z našich novodobých internetových prorokov tuší, odkiaľ sa ten dátum vzal, zrejme im stačí, že sa to „tak hovorí" a že sa v ňom elegantne prepletajú jednotky a dvojky. Tí ostrieľanejší zvyknú vytiahnúť silný tromf, vraj sa vtedy končí mayský kalendár a vraj je tento kalendár „najpresnejší" (priznávam, pred týmto argumentom mám chuť sa skloniť).   Tak sa na to pozrime. Mayský kalendár v tzv. východzom rade je tvorený hierarchicky vnorenými 6 počítadlami. Základnou jednotkou je jeden deň - v jazyku Mayov Kin. 20 Kinov tvorí jeden Uinal, 18 Uinalov jeden Tun (to je približne rok), 20 Tunov jeden Katun, 20 Katunov jeden Baktun a 20 Baktunov jeden Pictun. Pictun je najdlhšia jednotka, nie je už nikam vnorená a čísluje sa priebežne donekonečna. Keďže však trvá 2.880.000 dní  (7890 rokov) nenaplnila sa od počiatkov mayskej civilizácie dodnes ani len jedenkrát (!). Zopár príkladov: dnes 8. 6. 2010 je v mayskom východzom rade 13.7.17.19.12.0 (čítané zľava doprava v poradí Kin, Uinal, Tun, Katun, Baktun, Pictun, Mayovia všetky cykly číslujú od nuly). Mayský kalendár začína východzím radom 0.0.0.0.0.0, čo zodpovedá v kresťanskom letopočte 6. 9. 3114 p.n.l. (resp. v matematickom ponímaní roku -3113).   Pozrime sa na náš koniec sveta. 20. decembra 2012 nastane v mayskom kalendári 19.17.19.19.12.0 a nasledujúci deň, v náš apokalyptický 21. december 2012, sa mayský kalendár preklopí na 0.0.0.0.13.0. Je to neuveriteľné, ale žiaden koniec mayského kalendára, iba nový, v poradí už štrnásty Bactun. A číslovanie pokračuje ďalej. Naozaj sa dožijeme 22. decembra 2012 a v 3.0.0.0.13.0 oslávime Vianoce. Keďže nás apokalyptici strašia koncom sveta, pozrime sa aj do histórie. Trinásty Bactun, ten, v ktorom sme dnes, začal pred takmer 400 rokmi, presne 18. septembra 1618, dvanásty Bactun 8. júna 1224... a bez zmienky o strašidelnej pohrome. Ako už vieme, štrnásty Bactun sa začína 21. decembra 2012, no a nasledujúci koniec sveta si môžete naplánovať na 26. marec 2407.   Ale ak chceme koniec sveta, tak poriadny. Prvý Pictun v histórii, teda ten najväčší cyklus, sa naplní 12. októbra 4772 (19.17.19.19.19.0) a nasledujúci deň, 13. október 4772 už bude Pictun s poradovým číslom 1 (presne 0.0.0.0.0.1). Ak však budete predpovedať koniec sveta v takej ďalekej budúcnosti, nikoho s tým nezaujmete, vaše stránky budú mať nulovú čítanosť, knihy zapadnú prachom na pultoch. No ale to už sú problémy spojené s týmto povolaním.      Na záver a pre úplnosť, východzí rad nie je jediný kalendárny systém Mayov. Používali aj posvätný kalendár, ktorý mal dve zložky: cyklus Tzolkin a cyklus Haab. Tzolkin trvá 260 dní (13 x 20 dní) a pozostáva z čísla (od 1 do 13) a názvu dňa (od 1 do 20, viď zoznam nižšie). Po 260 dňoch sa situácia zopakuje a tomu istému číslu pripadne to isté meno dňa. Tzolkin začína dňom 1 Ik, nasleduje 2 Akbal, 3 Kan atď. Cyklus Haab je vlastne ročný kalendár s dĺžkou 365 dní, s 18 mesiacmi po 20 dní a posledným päťdňovým mesiacom. Opäť zopár príkladov:   Dnes 8. 6. 2010 je v Tzolkine 13 Ben a v Haabe 6. Zotz. Zajtra bude 1 Ix (Tzolkin) a 7. Zotz (Haab). Nový cyklus Tzolkin začne znova dňom 1 Ik, 20. septembra 2011, a nový cyklus Haab začne nultým dňom mesiaca Pop, 3. apríla 2011.     
   1 Ik 6 Manik 11 Eb 16 Caban   2 Akbal 7 Lamat 12 Ben 17 Eznac   3 Kan 8 Muluc 13 Ix 18 Cauac   4 Chicchan 9 Oc 14 Men 19 Ahau   5 Cimi 10 Chuen 15 Cib 20 Imix      20 dní cyklu Tzolkin, ktoré sa prelínajú s 13-dňovým číslovaním.         
   1 Pop 7 Yaxkin 13 Mac 19 Uayeb   2 Uo 8 Mol 14 Kankin    3 Zip 9 Chen 15 Muan    4 Zotz 10 Yax 16 Pax    5 Tzec 11 Zac 17 Kayab    6 Xyl 12 Ceh 18 Cumhu       19 mesiacov cyklu Haab       Použitá literatúra: M. Znášik, Kalendáre v premenách času, 2001 Žilina 

                 
                                        
                        
                        Zdieľať
                    

                    
                            
                                    
                                    Zdieľať na
                            
                             
                                    
                             
                    

                                                                                                                        
                            
                            Diskusia: (66)
                        
                    
                    
                        
                        Zvýšte karmu
                    
                 
             

                             
            
                     
                         Ďalšie články blogera 
                         
                                                             
                                    
                    	                                                                                        

                                                                        
                                    
                                        Peter Fidler 
                                        
                                            O tom, ako sme v Orange aréne náš prvý zápas hrali
                                        
                                    
                                 
                                                             
                                    
                    	                                                                                        

                                                                        
                                    
                                        Peter Fidler 
                                        
                                            Jesenná rovnodennosť 2010: Návrat do doby bronzovej
                                        
                                    
                                 
                                                             
                                    
                    	                                                                                        

                                                                        
                                    
                                        Peter Fidler 
                                        
                                            Dejiny netvorí len politika
                                        
                                    
                                 
                                                             
                                    
                    	                                                                                        

                                                                        
                                    
                                        Peter Fidler 
                                        
                                            Nedokonalý vesmír
                                        
                                    
                                 
                                                             
                                    
                    	                                                                                        

                                                                        
                                    
                                        Peter Fidler 
                                        
                                            Šrotovisko na obežnej dráhe
                                        
                                    
                                 
                                                     
                        
                            Ďalšie články blogera: Peter Fidler
                        
                     
            
                     
                         Ďalšie články z rubriky veda a technika 
                         
                                                             
                                    
                                                            	                                                                                        

                                                                                                
                                    
                                        Mária Džunková 
                                        
                                            Prečo vôbec nevadí, ak nemáte DNA sekvenátor
                                        
                                    
                                 
                                                             
                                    
                                                            	                                                                                        

                                                                                                
                                    
                                        Jana K. Jones 
                                        
                                            Filozofia vedy - Čo, podľa Poppera, veda dokazuje?
                                        
                                    
                                 
                                                             
                                    
                                                            	                                                                                        

                                                                                                
                                    
                                        MUDr. Peter Žiak, PhD. 
                                        
                                            Prečo si niekedy nevšimneme červenú?
                                        
                                    
                                 
                                                             
                                    
                                                            	                                                                                        

                                                                                                
                                    
                                        Jana K. Jones 
                                        
                                            Filozofia vedy - kritérium falzifikovateľnosti podľa Karla Poppera
                                        
                                    
                                 
                                                             
                                    
                                                                                                                    

                                                                                                
                                    
                                        Miroslav Lisinovič 
                                        
                                            Tatra 87
                                        
                                    
                                 
                                                     
                        
                            Ďalšie články z rubriky veda a technika
                        
                     
                 
            
                    
 
     Hlavné správy 
         
        
                                

        
         
            ZAHRANIČIE
             Protestujúci v Maďarsku strácajú dych, Fidesz ich mätie novými návrhmi 
             Na demonštrácii proti Orbánovej vláde bolo v utorok už len niekoľko tisíc ľudí. 
         
     
         
        
                                

        
         
            AKTUALIZOVANÉ 20:22
             Slovenky v hlavnej skupine nebodovali, Švédky vyhrali o 9 gólov 
             Naše hádzanárky hrali na ME piaty zápas. V Záhrebe proti Švédkam. 
         
     
         
        
                                

        
         
            AKTUALIZOVANÉ O 21:30
             Rubeľ pocítil pád na dno, Rusko je vo finančnej kríze 
             Dolár včera stál už takmer 80 rubľov, pod hladinu ho tlačia najmä nízke ceny ropy. 
         
     
     

                 
     
    
     
        
 

     
                
                            
                    



         
            
                Peter Fidler
            
         
        fidler.blog.sme.sk (rss)
         
                        VIP
                             
     
        Momentálne intenzívne sa zaoberajúci štúdiom holandčiny. 
"Je lepšie o otázke diskutovať bez toho, aby sme došli k záveru, ako dôjsť k záveru bez toho, aby sa  diskutovalo" J. Joubert
  

 


        
     
     
                     
                             
             

     
        
            
                
                    Počet článkov
                    41
                
                
                    Celková karma
                    
                                                0.00
                    
                
                
                    Priemerná čítanosť
                    4015
                
            
        
     

             

             Zoznam rubrík 
            
             
                                     
                        
                            Veda - kozmologia
                        
                     
                                     
                        
                            Veda - biologia
                        
                     
                                     
                        
                            Veda - ostatne
                        
                     
                                     
                        
                            Spolocnost
                        
                     
                                     
                        
                            Nezaradené
                        
                     
                             
         
    

                     
                        
                                                            
                     Obľúbené knihy 
                    
                     
                                                 
                                            Davies: Kosmický jackpot
                                     
                                                                             
                                            Ridley: Genóm
                                     
                                                                             
                                            Gonzales-Crussi: Medicína
                                     
                                                                             
                                            Darwin: O pohlavním výběru
                                     
                                                                             
                                            Kaplan: Šance je, že
                                     
                                                                             
                                            Svoboda: Utajené dějiny podnebí
                                     
                                                                             
                                            Soukup: Dějiny antropologie
                                     
                                                                             
                                            Mareš: Příběhy matematiky
                                     
                                                                             
                                            Dawkins: Příběh předka
                                     
                                                                             
                                            Hirax-Baričák: Úcta k prírode a úsmev ako zmysel života
                                     
                                                                             
                                            Jones, J.: Říše světla
                                     
                                                                             
                                            Bulík, I.: Afriky
                                     
                                                                             
                                            Ridley, M.: Červená královná
                                     
                                                                             
                                            Shubin, N.: Ryba v nás
                                     
                                                                             
                                            Schacter, D.: Sedm hříchú paměti
                                     
                                                                             
                                            Foley, R.: Lidé před člověkem
                                     
                                                                             
                                            Fossey, D.: Gorillas in the Mist
                                     
                                                                             
                                            Komárek, S.: Obraz člověka a přirody v zrcadle biologie
                                     
                                                                             
                                            Bodmer, McKie: Kniha človeka
                                     
                                                                             
                                            Sagan, C.: Draci z ráje
                                     
                                                                             
                                            Diamond, J.: Osudy lidských společností
                                     
                                                                             
                                            Lewis-Williams, D.: Uvnitř neolitické mysli
                                     
                                                                             
                                            Chown, M.: Čarodějná pec
                                     
                                                                             
                                            Vilenkin, A.: Mnoho světú v jednom
                                     
                                                                             
                                            Stewart, I.: Hraje Bůh kostky?
                                     
                                                                             
                                            Smolin, L,.: Fyzika v potížích
                                     
                                                                             
                                            Sagan, C.: Testament: Miliony milionú
                                     
                                                                             
                                            Pinker. S: Slova a pravidla
                                     
                                                                             
                                            Borscheid, P.: Virus času
                                     
                                                                             
                                            Gribbin, J.: Životopis vesmíru
                                     
                                                                             
                                            Sagan, C.: Druhy vědecké zkušenosti
                                     
                                                                             
                                            Livio, M.: Zlatý řez
                                     
                                                                             
                                            Davies, P.: O čase
                                     
                                                                             
                                            Weisman, A.: Svet bez nás
                                     
                                                                             
                                            Ministr, Z.: Géniové dávnověku
                                     
                                                                             
                                            Wells, S.: Adam a jeho rod
                                     
                                                                             
                                            Levy, S. B.: Antibiotický paradox
                                     
                                                                             
                                            Krauss, L.: Proměny vesmíru
                                     
                                                                             
                                            Flegr, J.: Zamrzlá evoluce
                                     
                                                                             
                                            Mikulášek, Z.: Úvod do fyziky hvězd a hvězdných soustav
                                     
                                                                             
                                            Dawkins, R.: Sobecký gén
                                     
                                                                             
                                            Seife, Ch.: Nula
                                     
                                                                             
                                            Webb, S.: Kde tedy všichi jsou?
                                     
                                                                             
                                            Bowden, M.: Black Hawk down
                                     
                                                                             
                                            Darwin,Ch.: O púvodu člověka
                                     
                                                                             
                                            Judson, O.: Sexuální poradna pro všechna živá stvoření
                                     
                                                                             
                                            Kirshner, P.: Výstřední vesmír
                                     
                                                                             
                                            Barrow, J.: Teorie všeho
                                     
                                                                             
                                            Barrow, J.: Teorie ničeho
                                     
                                                                             
                                            Austad,S.: Proč stárneme
                                     
                                                                             
                                            Masson, J.: Když sloni pláčou
                                     
                                                                             
                                            Sagan, C.: Stíny zapomenutých předkú
                                     
                                                                             
                                            Kaku, M.: Hyperprostor
                                     
                                                                             
                                            Fagan, B.: Malá doba ledová
                                     
                                                                             
                                            Acot, P.: Historie a změna klimatu
                                     
                                                                             
                                            Barrow, J.: Kniha o nekonečnu
                                     
                                                                             
                                            Mayr, E.: Čo je to evolúcia
                                     
                                                                             
                                            Gould: S. J.: Dinosauři v kupce sena
                                     
                                                                             
                                            Fouts, R.: Naši nejbližši přibuzní
                                     
                                                                             
                                            de Waal, F.: Dobráci od přirody
                                     
                                                                             
                                            Gribbin, J.: Pátrání po velkém třesku
                                     
                                                                             
                                            Feynman, R.: QED: Nezvyčajná teória svetla a látky
                                     
                                                                   
                     Čo práve počúvam 
                    
                     
                                                 
                                            Red Hot Chili Peppers
                                     
                                                                             
                                            John Frusciante: Curtains
                                     
                                                                             
                                            John Frusciante: The Will to Death
                                     
                                                                   
                     Obľúbené stránky 
                    
                     
                                                 
                                            Fyzika
                                     
                                                                             
                                            Fotoalbum
                                     
                                                                             
                                            Sekcia pozorovateľov premenných hviezd ČAS
                                     
                                                                             
                                            Veda a logika kontra iracionalna viera
                                     
                                                                             
                                            Sky and Telescope
                                     
                                                                             
                                            Zne objevu
                                     
                                                                             
                                            Astronomicke noviny
                                     
                                                                             
                                            Ceske zdruzenie skeptikov SISYFOS
                                     
                            
             
         
            

             
             Čo ma zaujalo 
            Týmto článkom bloger klikol/klikla na karmu.
             
                                                         
                       V prvej línii boja za lepšie Slovensko
                     
                                                         
                       Rektor Akadémie médií šíriteľom antiukrajinskej propagandy
                     
                                                         
                       Stopa za lietadlom a vyvrátenie konšpiračnej teórie chemtrails
                     
                                                         
                       Prečo šváby nemajú kolesá
                     
                                                         
                       Smerák Horvát má problém
                     
                                                         
                       Zbohatlíci kolonizujú Petržalskú hrádzu. Polícia nekoná.
                     
                                                         
                       Od polovice marca majú deviataci učenie na háku
                     
                                                         
                       Prihlásenie vozidla na dopravnom inšpektoráte? Katastrofa
                     
                                                         
                       Tajomné búchanie dverí. Duchovia?
                     
                                                         
                       Kvantová mechanika dýchania
                     
                             
         
           
     Pošlite odkaz blogerovi 
    
         
            
         

         
         
         
         

         
         
Odosielateľ (e-mail)
 
         
Text
 
         
             
Protispamová ochrana 
 
 Zle. Skúste znova. 
Opíšte slová z obrázku: Načítať iné slová 
 Get an image CAPTCHA 
 
 
         
                 
            
         
    
  


 

     






            
    
        
    
 

        
         
         
             Už ste čítali? 
         
         
 

 kultura.sme.sk 
 Margaréta sa spriahla s diablom, no mala Kristovu pravdu 
 
 

 www.sme.sk 
 Pútnické miesta The Beatles alebo ako ľudia kráčajú po zebre 
 
 

 cestovanie.sme.sk 
 Lovia za svitania a v hmle 
 
 

 www.sme.sk 
 Ako sa valila lavína slobody. Ako padal komunizmus 
 
 

 kultura.sme.sk 
 Žiadne retro, poriadny biznis. Takto sa lisuje platňa 
 
	   
 


        
         
            
         

     

    
     
 
 
	 

		Kontakty
		Predplatné
		Etický kódex
		Pomoc
		Mapa stránky
		
	 
 
 
	 
		 
			Widget
			RSS
			Newsletter
		 
		 
			Mobil
			Smartphone
			Kindle
			Televízor
		 
		 
			Facebook
			Twitter
			Google+
		 
	 
	 
		
	 
	 
		Ďalšie weby skupiny: Prihlásenie do Post.sk
		Új Szó Slovak Spectator
		Agentúrne správy 
		Vydavateľstvo
		Inzercia
		Osobné údaje
		Návštevnosť webu
		Predajnosť tlače
		Petit Academy
		SME v škole 		© Copyright 1997-2014 Petit Press, a.s. 
	 
 
 
 


          
        
            
            

        
    

    
    


    


    
        
        
        
        
        
        
        
            
            
        
        
        
        
         
                                
               





 

 



        

 




