
      
    
    

     
	 
	 
 SME.sk 
 Zľavy 
 Zoznámenie 
 Reality 
 Dovolenky 
 Pizza 
 Reštaurácie 
 Recenzie 
 Inzeráty 
 Naničmama 	 
Nákupy 
		 
 Filmy na DVD 
 Hodinky 
 Parfémy 
 SME knihy a DVD 
 Superhosting 
 Tlačiareň 
 Víno 
 Tvorba webov 
 Predplatné SME 
 ProSenior 		 
	 
	 
 
	 
 


    
    
        
        
         
          
         
    

    
      
         
            
             
     
        
        
     
    Blog.SME.sk
 

    

         
        
                 
     
         
            Sme.sk
         
         
            Domov
         
         
            Regióny
         
         
            Ekonomika
         
         
            Svet
         
         
            Komentáre
         
         
            Kultúra
         
         
            Šport
         
         
            TV
         
         
            Auto
         
         
            Tech
         
         
            Poradňa
         
         
            Žena
         
         
            Bývanie
         
         
            Zdravie
         
         
            Blog
         
     
 

         
            
     
                                                         Politika 
                                                                                     Spoločnosť 
                                                                                     Cestovanie 
                                                                                     Ekonomika 
                                                                                     Fotografie 
                                                                                     Jedlo 
                                                                                     Kultúra 
                                                                                             
Ďalšie
                             
                                                                                         Lifestyle 
                                                                                                                                                                             Médiá 
                                                                                                                                                                             Nezaradené 
                                                                                                                                                                             Súkromné 
                                                                                                                                                                             Šport 
                                                                                                                                                                             Veda a technika 
                                                                                                                                                                             Zábava 
                                                                                                                                                                             Poézia 
                                                                                                                                                                             Próza 
                                                                                                                                                                             Kódex blogera 
                                                                                 
                         
                                                 
            Blogeri
         
     


            

    
    Prihlásiť sa


    
    Založte si blog



    
    Odhlásiť sa


    
    




         

        
        
         
            
         
         
                
     
                 
            SME.sk &gt;
            Blog.SME.sk &gt;
                            Marie Stracenská
                                        &gt;
                Nezaradené
                     
                 Bohyne a my 

        
            
                                    18.3.2010
            o
            18:20
                        (upravené
                18.3.2010
                o
                18:28)
                        |
            Karma článku:
                8.95
            |
            Prečítané 
            1775-krát
                    
         
     
         
             

                 
                    Vplávala do šatne. Presne vo chvíli, keď som sa ešte mokrá snažila natrieť svoje sádelnaté nohy krémom. Tvár po cvičení som mala ešte stále červená, so sklopenými očami som zahanbujúco hľadala v skrinke kúsky odevu.
                 

                 Mala koženú bundičku a koženú sukničku, obidve príjemne voľné, ale pritom zvýrazňujúce jej dokonalú postavu. Elegantná, neupachtená, pomalými gestami odomkla skrinku a začala sa prezliekať do úboru. Neciv, okríkla som sa v duchu. A pridala som na tempe obliekania - rovná sa zahaľovania môjho tela do milosrdných šiat, ktoré zakryjú strie, jazvy, tuky, celulitídu, zarastajúce nohy - a vôbec všetko, čo mi na mne vadí. Teda - všetkého. Kým som sa obliekla, ona zmenila svoje elegantné hnedé kožené na malé čierne určené do posilňovne. Tepláčiky, krátka bundička, vypnuté vlasy. Husté, mierne zvlnené, zopnuté určite značkovou gumičkou. To som pozorovala periférne, keď som sa pred zrkadlom už oblečená snažila na tvári vykúzliť niečo, s čím môžem ísť do práce. Panebože, ona je aj namaľovaná! Zbadala som, keď popri mne prichádzala nabrať si vodu. A spomenula som si na seba pred hodinou - zvyšky tieňov zo včerajška a mastné vlasy prichytené narýchlo sponkou, aby neprekážali. K tomu úbor určený na prepotenie, rozhodne nie na reprezentáciu. Nohavice mám už minimálne šesť rokov, tričko je tiež zo starších (no hádam nové nebudem drať ráno pri cvičení!) staršie tenisky (veď ešte krásne držia formu a sú mi akurát). Domaľovala som sa, načechrala vlasy, zbalila si prepotené smrady do tašky a zamierila k východu. Pri dverách sme boli takmer súčasne. Teoreticky už som v tom čase mala vyzerať k svetu - určená na distribúciu pred kolegov, upravená tak, aby to dvanásť hodín v práci vydržalo. Ona sa chystala stráviť hodinu na strojoch, intenzívnym pohybom, potením sa a dychčaním. Stojac v tej chvíli vedľa nej som si pripadala ako vytiahnutá zo smetného koša.   Ona s dvihnutou hlavou sebavedomo vplávala do haly plnej strojov k osobnému trénerovi. Ja som rýchlym krokom zamierila k recepcii, zaplatiť a stratiť sa v aute v útrobách podzemných garáží.   Z hlavy som ju ešte hodnú chvíľu nedostala. Ako to robí? Ako je možné, že môže byť taká krásna tak skoro ráno, navyše v situácii, keď od nej pôvab nikto a nič nevyžaduje? Najhoršie je, že som presvedčená, že krásna nechcela byť za každú cenu. Je taká skrátka stále. Dokonalá. Úžasná. Pôvabne ohromujúca. Niektoré ženy sú hold bohyne vždy.   Neviem, či ma utešuje pocit, že také môžu byť len vďaka nám - nechutne spoteným, často zamračeným, nevýrazným osobám... 

                 
                                        
                        
                        Zdieľať
                    

                    
                            
                                    
                                    Zdieľať na
                            
                             
                                    
                             
                    

                                                                                                                        
                            
                            Diskusia: (491)
                        
                    
                    
                        
                        Zvýšte karmu
                    
                 
             

                             
            
                     
                         Ďalšie články blogera 
                         
                                                             
                                    
                    	                                                                                        

                                                                        
                                    
                                        Marie Stracenská 
                                        
                                            Vianoce vo štvrtok
                                        
                                    
                                 
                                                             
                                    
                    	                                                                                        

                                                                        
                                    
                                        Marie Stracenská 
                                        
                                            Nepoznám žiadne dieťa...
                                        
                                    
                                 
                                                             
                                    
                    	                                                                                        

                                                                        
                                    
                                        Marie Stracenská 
                                        
                                            Ranná káva
                                        
                                    
                                 
                                                             
                                    
                    	                                                                                        

                                                                        
                                    
                                        Marie Stracenská 
                                        
                                            Cez hrádzu zrýchlene
                                        
                                    
                                 
                                                             
                                    
                    	                                                                                        

                                                                        
                                    
                                        Marie Stracenská 
                                        
                                            Poschodová
                                        
                                    
                                 
                                                     
                        
                            Ďalšie články blogera: Marie Stracenská
                        
                     
            
                     
                         Ďalšie články z rubriky nezaradené 
                         
                                                             
                                    
                                                            	                                                                                        

                                                                                                
                                    
                                        Michal Pazič 
                                        
                                            Prečo školské zariadenie v Pakistane?
                                        
                                    
                                 
                                                             
                                    
                                                            	                                                                                        

                                                                                                
                                    
                                        Milan Removčík 
                                        
                                            Zimný Šíp.
                                        
                                    
                                 
                                                             
                                    
                                                            	                                                                                        

                                                                                                
                                    
                                          esc-sr 
                                        
                                            Čas (ne)vhodných darčekov
                                        
                                    
                                 
                                                             
                                    
                                                            	                                                                                        

                                                                                                
                                    
                                        Michal Filek 
                                        
                                            Ako je ťažké darovať bezdomovcom polievku?
                                        
                                    
                                 
                                                             
                                    
                                                                                                                    

                                                                                                
                                    
                                        Anna Kováčová 
                                        
                                            Na sexi postavu, zdravie, energiu a šťastný život nepotrebujete tabletky!
                                        
                                    
                                 
                                                     
                        
                            Ďalšie články z rubriky nezaradené
                        
                     
                 
            
                    
 
     Hlavné správy 
         
        
                                

        
         
            AKTUALIZOVANÉ 16:00
             Rubeľ kolabuje, ruská vláda má mimoriadne rokovať 
             Jeden dolár stál v utorok poobede už viac ako 78 rubľov, razantné zvýšenie úrokov nepomohlo. 
         
     
         
        
                                

        
         
            ZAHRANIČIE
             Taliban zabil v škole v Pakistane vyše sto ľudí, väčšinou deti 
             Militanti vtrhli do vojenskej školy v policajných rovnošatách. 
         
     
         
        
                                

        
         
            KOMENTARE.SME.SK
             Cynická obluda: Medzičasom na opustenom ostrove 
             Stroskotanci majú veľké šťastie, že sú dvaja. Lacné vtipy na úrovni ich autora. 
         
     
     

                 
     
    
     
        
 

     
                
                            
                    



         
            
                Marie Stracenská
            
         
        stracenska.blog.sme.sk (rss)
         
                        VIP
                             
     
         Som žena. Novinárka, lektorka a konzultantka. Mama nádherných a šikovných dvojčiat. Manželka, dcéra, sestra, priateľka. Neľahostajná. Mám rada svet. Rovnako rýchlo sa viem nadchnúť, potešiť a rozosmiať ako pobúriť a nahlas rozhnevať. 
        
     
     
                     
                             
             

     
        
            
                
                    Počet článkov
                    701
                
                
                    Celková karma
                    
                                                12.17
                    
                
                
                    Priemerná čítanosť
                    1779
                
            
        
     

             

             Zoznam rubrík 
            
             
                                     
                        
                            o deťoch
                        
                     
                                     
                        
                            o vzťahoch
                        
                     
                                     
                        
                            o kadečom
                        
                     
                                     
                        
                            Súkromné
                        
                     
                                     
                        
                            Nezaradené
                        
                     
                             
         
    

    

             
             Čo ma zaujalo 
            Týmto článkom bloger klikol/klikla na karmu.
             
                                                         
                       Moja rozprávka
                     
                                                         
                       Zaťovia
                     
                                                         
                       Nápadník
                     
                                                         
                       Univerzitná nemocnica vyriešila problém Richterových prezervatívov
                     
                                                         
                       Obrovská stará dáma
                     
                                                         
                       Tutoľa máme kopčok
                     
                                                         
                       Bojovníčka
                     
                                                         
                       Vifon
                     
                             
         
           
     Pošlite odkaz blogerovi 
    
         
            
         

         
         
         
         

         
         
Odosielateľ (e-mail)
 
         
Text
 
         
             
Protispamová ochrana 
 
 Zle. Skúste znova. 
Opíšte slová z obrázku: Načítať iné slová 
 Get an image CAPTCHA 
 
 
         
                 
            
         
    
  


 

     






            
    
        
    
 

        
         
         
             Už ste čítali? 
         
         
 

 kultura.sme.sk 
 Margaréta sa spriahla s diablom, no mala Kristovu pravdu 
 
 

 www.sme.sk 
 Pútnické miesta The Beatles alebo ako ľudia kráčajú po zebre 
 
 

 cestovanie.sme.sk 
 Lovia za svitania a v hmle 
 
 

 www.sme.sk 
 Ako sa valila lavína slobody. Ako padal komunizmus 
 
 

 kultura.sme.sk 
 Žiadne retro, poriadny biznis. Takto sa lisuje platňa 
 
	   
 


        
         
            
         

     

    
     
 
 
	 

		Kontakty
		Predplatné
		Etický kódex
		Pomoc
		Mapa stránky
		
	 
 
 
	 
		 
			Widget
			RSS
			Newsletter
		 
		 
			Mobil
			Smartphone
			Kindle
			Televízor
		 
		 
			Facebook
			Twitter
			Google+
		 
	 
	 
		
	 
	 
		Ďalšie weby skupiny: Prihlásenie do Post.sk
		Új Szó Slovak Spectator
		Agentúrne správy 
		Vydavateľstvo
		Inzercia
		Osobné údaje
		Návštevnosť webu
		Predajnosť tlače
		Petit Academy
		SME v škole 		© Copyright 1997-2014 Petit Press, a.s. 
	 
 
 
 


          
        
            
            

        
    

    
    


    


    
        
        
        
        
        
        
        
            
            
        
        
        
        
         
                                
               





 

 



        

 




