
      
    
    

     
	 
	 
 SME.sk 
 Zľavy 
 Zoznámenie 
 Reality 
 Dovolenky 
 Pizza 
 Reštaurácie 
 Recenzie 
 Inzeráty 
 Naničmama 	 
Nákupy 
		 
 Filmy na DVD 
 Hodinky 
 Parfémy 
 SME knihy a DVD 
 Superhosting 
 Tlačiareň 
 Víno 
 Tvorba webov 
 Predplatné SME 
 ProSenior 		 
	 
	 
 
	 
 


    
    
        
        
         
          
         
    

    
      
         
            
             
     
        
        
     
    Blog.SME.sk
 

    

         
        
                 
     
         
            Sme.sk
         
         
            Domov
         
         
            Regióny
         
         
            Ekonomika
         
         
            Svet
         
         
            Komentáre
         
         
            Kultúra
         
         
            Šport
         
         
            TV
         
         
            Auto
         
         
            Tech
         
         
            Poradňa
         
         
            Žena
         
         
            Bývanie
         
         
            Zdravie
         
         
            Blog
         
     
 

         
            
     
                                                         Politika 
                                                                                     Spoločnosť 
                                                                                     Cestovanie 
                                                                                     Ekonomika 
                                                                                     Fotografie 
                                                                                     Jedlo 
                                                                                     Kultúra 
                                                                                             
Ďalšie
                             
                                                                                         Lifestyle 
                                                                                                                                                                             Médiá 
                                                                                                                                                                             Nezaradené 
                                                                                                                                                                             Súkromné 
                                                                                                                                                                             Šport 
                                                                                                                                                                             Veda a technika 
                                                                                                                                                                             Zábava 
                                                                                                                                                                             Poézia 
                                                                                                                                                                             Próza 
                                                                                                                                                                             Kódex blogera 
                                                                                 
                         
                                                 
            Blogeri
         
     


            

    
    Prihlásiť sa


    
    Založte si blog



    
    Odhlásiť sa


    
    




         

        
        
         
            
         
         
                
     
                 
            SME.sk &gt;
            Blog.SME.sk &gt;
                            Marek Šefčík
                                        &gt;
                Nezaradené
                     
                 Viem, kde skončili prachy za emisie 

        
            
                                    11.4.2010
            o
            20:19
                        (upravené
                11.4.2010
                o
                21:23)
                        |
            Karma článku:
                9.93
            |
            Prečítané 
            1618-krát
                    
         
     
         
             

                 
                    A to je len začiatok a omrvinka z toho, čím disponujem. Moje informácie sú pravdivé. Na to môžte vziať jed.
                 

                 
To je on... A ja viem, kde je.fotky.sme.sk
   Môžem dosvedčiť, že z vládnej strany, ktorú nebudem menovať, až polovica poslancov má preukázateľne nelegálne príjmy. Viem, odkiaľ mali dve opozičné strany peniaze na svoju činnosť. A môžte si byť istí, že ak by som bol konkrétnejší, určite by si za to voľakto šiel sadnúť do chládku. Už som spomínal, že mám cédečko, na ktorom sú mená spojené s nebankovými subjektami. Dvaja starostovia, či vlastne ich bolo dvesto, môžu potvrdiť hrubé korupčné jednanie pri prideľovaní eurodotácií mestám a obciam. Viem o nich, ale nechcite odo mňa konkrétne mená. Viem, kto zavliekol Kováča mladšieho do Rakúska. Ale, priatelia, to sú všetko len také bočááčiky. Skutočnou pikoškou je, že viem, kde sa momentálne ukrýva Usáma...   ... a že či poviem? Ani za nič! Nech si to zistia, keď to chcú vedieť, sami. Ja na nikoho nič nevyklopím. Ani žiadnemu prokurátorovi (ten nech si trnkne nohou), ani Američanom. Nech zisťujú a hľadajú sami.   Som frajer, že to všetko viem, čo? Som zhasínajúci Vladimír M. a už by ste o mne ani nepočuli, keby som nedisponoval tým, čím si všetci myslíte, že disponujem, lebo som vám to povedal. Čo furt Fico a tie jeho nepotvrdené informácie, ktoré len tak občas trepne do pľacu? Aj ja som tu a viem navymýšľať omnoho viac, ako on. Ja som to zaviedol, ja nachádzam informácie na stole, ja mám cédečko, tak čo sa mi do toho tento mieša?     

                 
                                        
                        
                        Zdieľať
                    

                    
                            
                                    
                                    Zdieľať na
                            
                             
                                    
                             
                    

                                                                                                                        
                            
                            Diskusia: (3)
                        
                    
                    
                        
                        Zvýšte karmu
                    
                 
             

                             
            
                     
                         Ďalšie články blogera 
                         
                                                             
                                    
                    	                                                                                        

                                                                        
                                    
                                        Marek Šefčík 
                                        
                                            Posledný článok
                                        
                                    
                                 
                                                             
                                    
                    	                                                                                        

                                                                        
                                    
                                        Marek Šefčík 
                                        
                                            Nebuďme naivní
                                        
                                    
                                 
                                                             
                                    
                    	                                                                                        

                                                                        
                                    
                                        Marek Šefčík 
                                        
                                            30+4=30
                                        
                                    
                                 
                                                             
                                    
                    	                                                                                        

                                                                        
                                    
                                        Marek Šefčík 
                                        
                                            Nový čas vyhorel
                                        
                                    
                                 
                                                             
                                    
                    	                                                                                        

                                                                        
                                    
                                        Marek Šefčík 
                                        
                                            Tomu hovorím výchova
                                        
                                    
                                 
                                                     
                        
                            Ďalšie články blogera: Marek Šefčík
                        
                     
            
                     
                         Ďalšie články z rubriky politika 
                         
                                                             
                                    
                                                            	                                                                                        

                                                                                                
                                    
                                        Tomáš Hudec 
                                        
                                            Chceme zvýšiť účasť ľudí vo voľbách? Zaveďme eVoľby!
                                        
                                    
                                 
                                                             
                                    
                                                            	                                                                                        

                                                                                                
                                    
                                        Robert Bestro 
                                        
                                            Výmena vedenia parlamentu zjavne prospela
                                        
                                    
                                 
                                                             
                                    
                                                            	                                                                                        

                                                                                                
                                    
                                        Júlia Piraňa Mikolášiková 
                                        
                                            Obvinia ďalšiu novinárku z údajného ohovárania policajného šéfa Ševčíka?
                                        
                                    
                                 
                                                             
                                    
                                                            	                                                                                        

                                                                                                
                                    
                                        Stanislav Martinčko 
                                        
                                            Stužka z kvetinárstva za 16 centov a rozkradnuté milióny!!
                                        
                                    
                                 
                                                             
                                    
                                                            	                                                                                        

                                                                                                
                                    
                                        Veronika Remisova 
                                        
                                            Elektronické mýto podľa Ficovej vlády – prehľadnejšie sa to skrátka nedá
                                        
                                    
                                 
                                                     
                        
                            Ďalšie články z rubriky politika
                        
                     
                 
            
                    
 
     Hlavné správy 
         
        
                                

        
         
            AKTUALIZOVANÉ 16:00
             Rubeľ kolabuje, ruská vláda má mimoriadne rokovať 
             Jeden dolár stál v utorok poobede už viac ako 78 rubľov, razantné zvýšenie úrokov nepomohlo. 
         
     
         
        
                                

        
         
            ZAHRANIČIE
             Taliban zabil v škole v Pakistane vyše sto ľudí, väčšinou deti 
             Militanti vtrhli do vojenskej školy v policajných rovnošatách. 
         
     
         
        
                                

        
         
            KOMENTARE.SME.SK
             Cynická obluda: Medzičasom na opustenom ostrove 
             Stroskotanci majú veľké šťastie, že sú dvaja. Lacné vtipy na úrovni ich autora. 
         
     
     

                 
     
    
     
        
 

     
                
                            
                    



         
            
                Marek Šefčík
            
         
        sefcik.blog.sme.sk (rss)
         
                                     
     
        Stredoškolský učiteľ, otec troch detí a manžel jednej manželky :)
 Marek Šefčík nový blog  



        
     
     
                     
                             
             

     
        
            
                
                    Počet článkov
                    135
                
                
                    Celková karma
                    
                                                0.00
                    
                
                
                    Priemerná čítanosť
                    2433
                
            
        
     

             

             Zoznam rubrík 
            
             
                                     
                        
                            Súkromné
                        
                     
                                     
                        
                            Nezaradené
                        
                     
                             
         
    

                     
                        
                                                            
                     Obľúbené články 
                    
                     
                                                 
                                            výber sme
                                     
                                                                   
                     Obľúbené blogy 
                    
                     
                                                 
                                            Slavomír Repka
                                     
                                                                             
                                            Zuzana Roy
                                     
                                                                             
                                            Emília Katriňáková
                                     
                                                                             
                                            Ondrej Močkor
                                     
                                                                             
                                            Júlia Hubeňáková - Bianka
                                     
                                                                             
                                            Martin Ližičiar
                                     
                                                                             
                                            Jakub Betinský
                                     
                                                                             
                                            Juraj Šeliga
                                     
                                                                             
                                            Róbert Flamík
                                     
                                                                             
                                            Ivka Vrablanská *IV*
                                     
                                                                             
                                            Róbert Kekiš
                                     
                                                                             
                                            Andrej Zeman
                                     
                                                                   
                     Obľúbené stránky 
                    
                     
                                                 
                                            linux config
                                     
                            
             
         
            

           
     Pošlite odkaz blogerovi 
    
         
            
         

         
         
         
         

         
         
Odosielateľ (e-mail)
 
         
Text
 
         
             
Protispamová ochrana 
 
 Zle. Skúste znova. 
Opíšte slová z obrázku: Načítať iné slová 
 Get an image CAPTCHA 
 
 
         
                 
            
         
    
  


 

     






            
    
        
    
 

        
         
         
             Už ste čítali? 
         
         
 

 kultura.sme.sk 
 Margaréta sa spriahla s diablom, no mala Kristovu pravdu 
 
 

 www.sme.sk 
 Pútnické miesta The Beatles alebo ako ľudia kráčajú po zebre 
 
 

 cestovanie.sme.sk 
 Lovia za svitania a v hmle 
 
 

 www.sme.sk 
 Ako sa valila lavína slobody. Ako padal komunizmus 
 
 

 kultura.sme.sk 
 Žiadne retro, poriadny biznis. Takto sa lisuje platňa 
 
	   
 


        
         
            
         

     

    
     
 
 
	 

		Kontakty
		Predplatné
		Etický kódex
		Pomoc
		Mapa stránky
		
	 
 
 
	 
		 
			Widget
			RSS
			Newsletter
		 
		 
			Mobil
			Smartphone
			Kindle
			Televízor
		 
		 
			Facebook
			Twitter
			Google+
		 
	 
	 
		
	 
	 
		Ďalšie weby skupiny: Prihlásenie do Post.sk
		Új Szó Slovak Spectator
		Agentúrne správy 
		Vydavateľstvo
		Inzercia
		Osobné údaje
		Návštevnosť webu
		Predajnosť tlače
		Petit Academy
		SME v škole 		© Copyright 1997-2014 Petit Press, a.s. 
	 
 
 
 


          
        
            
            

        
    

    
    


    


    
        
        
        
        
        
        
        
            
            
        
        
        
        
         
                                
               





 

 



        

 




