
      
    
    

     
	 
	 
 SME.sk 
 Zľavy 
 Zoznámenie 
 Reality 
 Dovolenky 
 Pizza 
 Reštaurácie 
 Recenzie 
 Inzeráty 
 Naničmama 	 
Nákupy 
		 
 Filmy na DVD 
 Hodinky 
 Parfémy 
 SME knihy a DVD 
 Superhosting 
 Tlačiareň 
 Víno 
 Tvorba webov 
 Predplatné SME 
 ProSenior 		 
	 
	 
 
	 
 


    
    
        
        
         
          
         
    

    
      
         
            
             
     
        
        
     
    Blog.SME.sk
 

    

         
        
                 
     
         
            Sme.sk
         
         
            Domov
         
         
            Regióny
         
         
            Ekonomika
         
         
            Svet
         
         
            Komentáre
         
         
            Kultúra
         
         
            Šport
         
         
            TV
         
         
            Auto
         
         
            Tech
         
         
            Poradňa
         
         
            Žena
         
         
            Bývanie
         
         
            Zdravie
         
         
            Blog
         
     
 

         
            
     
                                                         Politika 
                                                                                     Spoločnosť 
                                                                                     Cestovanie 
                                                                                     Ekonomika 
                                                                                     Fotografie 
                                                                                     Jedlo 
                                                                                     Kultúra 
                                                                                             
Ďalšie
                             
                                                                                         Lifestyle 
                                                                                                                                                                             Médiá 
                                                                                                                                                                             Nezaradené 
                                                                                                                                                                             Súkromné 
                                                                                                                                                                             Šport 
                                                                                                                                                                             Veda a technika 
                                                                                                                                                                             Zábava 
                                                                                                                                                                             Poézia 
                                                                                                                                                                             Próza 
                                                                                                                                                                             Kódex blogera 
                                                                                 
                         
                                                 
            Blogeri
         
     


            

    
    Prihlásiť sa


    
    Založte si blog



    
    Odhlásiť sa


    
    




         

        
        
         
            
         
         
                
     
                 
            SME.sk &gt;
            Blog.SME.sk &gt;
                            Alojz Hlina
                                        &gt;
                Nezaradené
                     
                 Trhajte krvilačné šelmy!!! 

        
            
                                    24.1.2010
            o
            22:25
                        (upravené
                25.1.2010
                o
                7:54)
                        |
            Karma článku:
                14.01
            |
            Prečítané 
            36113-krát
                    
         
     
         
             

                 
                    ????? Hvorecký,  Nepoznáme sa osobne, ale keďže ste sa rozhodol oprášiť záujem o Vaše skvosty ducha cez moju osobu, tak sa spoznáme.
                 

                 Videl som Vás už raz dávno v relácii Pod lampou, kde ste sa snažil veľmi neúctivo, a za každú cenu   intelektuálne komentovať film Umučenie Krista, a to tak premúdrelo, že Vás už aj pán Hríb musel zastaviť, aby ste sa nestrápňovali.To mi úplne stačilo na to, aby som Vašu tvorbu začal totálne ignorovať. Do knižiek investujem dosť, ale Vašu by som si nekúpil. A odteraz už duplom nie. Nikdy som sa nehral na intelektuála a žijem si svoj život. Keďže ma niektoré veci prestali baviť, a ,,Váš hlas intelektuála" v spoločenskom dianí absentoval, tak som sa verejne ozval. Netušil som však, že čiastočný záujem o moju osobu zobudí,, barda" slovenskej literatúry, aby mocným morálnym hlasom zakričal: Zastavte ho!  Predpokladám, že ste tento blog poslali do novín.  A čakáte, čakáte na svoju šancu zviditeľniť sa. Zabudol ste však na jednu vec, pán Hvorecký. Zabudli ste, že tým môžete niekomu ublížiť, a z formulácií Vášho blogu nadobúdam presvedčenie, že to bolo dokonca Vašim zámerom. Keďže je nedeľa, a ja v nedeľu trávim čas s rodinou a nie komunikáciou s do seba zahľadeným pseudointelektuálom, tak to skrátim.  Fakty: Predpokladám, že ste venovali veľa času so zhromažďovaním dôkazov pre svoje tvrdenia, a len ste čakali na správnu chvíľu ich zverejniť. Lebo ak nie, máte zavarené na poriadny problém. Vaše tvrdenia v texte sú závažného charakteru a poškodzujú ma. Prezentujete sa, že ste človek vzdelaný. Tak potom viete, že nemôžete len tak klamať a na svoje tvrdenia máte dôkazy. Potom môžete spokojne spávať, a nemusíte si sporiť peniaze na náhradu škôd.  Takže postup bude nasledovný: Do stredy 27/1/2010 sa mi ospravedlníte, a ja pre Vás urobím to, že na Vás zabudnem.  Druhá varianta:  - Poškodenie môjho mena a následné konanie o náhradu škody.  - Nakoľko je možné identifikovať zámer poškodiť moju osobu, právna analýza, či nedošlo k trestnému činu ohovárania. - Samostatné konanie spoločnosti, ktorá je vlastníkom ochrannej známky Mr.Li o náhradu škody.  Ak nemáte  právnika, pokojne Vám odporučím nejakého, ktorý Vám i zadarmo povie, že hore uvedené konania sú opodstatnené. Navyše sa začnem brániť, ale reklamu Vám robiť nebudem.  Verejne sa zaväzujem, že peniaze, ktoré od Vás vysúdim, venujem na podporu vydávania detských kníh. Takže nakoniec sa Vám podarí zapísať sa do dejín slovenskej literatúry, síce ako nechcený sponzor.  Neviem, kto Vám to poradil, alebo to nebodaj máte z vlastnej hlavy, no vybrali ste si zlý chrbát, na ktorom sa chcete vydriapať ku záujmu o Vašu osobu.   Vyhlásenie pre média.   Keďže predpokladám, že pán Hvorecký svoje objavné zistenie za horúca rozposlal kade-tade, a kým mi začnú pribúdať na účte peniaze od Hvoreckého, dávam pre všetkých, koho to zaujíma toto vyhlásenie:  1.	Verejne sa kajám, že ma téma „Miloševič" obišla. Nikdy som sa k nej nevyjadroval, ani necítil potrebu, a už vôbec som nikdy o ňom nelepil nejaké plagáty. Priznávam, že som pred 14 - timi rokmi lepil plagáty na Štúrovej ulici a nielen na nej. Vlastne skoro celé mesto som polepil, a aj som dostal za to pokutu. Téma bola, že mesto sa nezaujíma, že vysoko vážený podnikateľ /aj dnes/ - majiteľ budovy s nájomnými bytmi, ktoré  mal nájomníkom predať, v zime vypol kúrenie, odpojil odpadovú kanalizáciu, odpojil vodu v dome na Štúrovej. Moja manželka bola vtedy tehotná, a vedľa mňa - v byte prežila posledné tri mesiace svojho života 87-ročná suseda tak, že potrebu robila do igelitového sáčku. Vy by ste nelepili plagáty? Ja som lepil, a nielen to. A aj teraz by som lepil.  2.	Lexu som stretol jediný raz v živote, pred skoro 20timi rokmi. Vtedy som organizoval akciu Študentské voľby v PKO a Lexa ma tesne pred začiatkom presviedčal, že HZDS by tam malo mať dvoch zástupcov namiesto jedného ako každý. A ja som s tou mojou naivitou, ktorá mi ostala čiastočne do dnešných čias odpovedal, že sa to nedá, že by to bolo nefér. Na čo mi on povedal, že som u neho skončil, a tak sa stalo. Nevidím najmenší logický dôvod, prečo by som mal lepiť nejaké prolexovské plagáty, a nikdy som tak nikdy nerobil. 3.	Nikdy som sa nevenoval pašovaniu čínskeho tovaru a pašovaný tovar som nikdy nepredával.  Aké ľahké je ublížiť.   S pozdravom,   Alojz Hlina 

                 
                                        
                        
                        Zdieľať
                    

                    
                            
                                    
                                    Zdieľať na
                            
                             
                                    
                             
                    

                                                                                                                        
                            
                            Diskusia: (460)
                        
                    
                    
                        
                        Zvýšte karmu
                    
                 
             

                             
            
                     
                         Ďalšie články blogera 
                         
                                                             
                                    
                    	                                                                                        

                                                                        
                                    
                                        Alojz Hlina 
                                        
                                            Čo sa Penta v Číne nenaučila
                                        
                                    
                                 
                                                             
                                    
                    	                                                                                        

                                                                        
                                    
                                        Alojz Hlina 
                                        
                                            Zrušiť zdravotné odvody je nebotyčná hlúposť!
                                        
                                    
                                 
                                                             
                                    
                    	                                                                                        

                                                                        
                                    
                                        Alojz Hlina 
                                        
                                            Nočné rokovanie bude aj pred Paškovou vilou
                                        
                                    
                                 
                                                             
                                    
                    	                                                                                        

                                                                        
                                    
                                        Alojz Hlina 
                                        
                                            Smer zlegalizoval nezákonné billboardy
                                        
                                    
                                 
                                                             
                                    
                    	                                                                                        

                                                                        
                                    
                                        Alojz Hlina 
                                        
                                            O slovenskej žurnalistike rozhodne Shooty
                                        
                                    
                                 
                                                     
                        
                            Ďalšie články blogera: Alojz Hlina
                        
                     
            
                     
                         Ďalšie články z rubriky nezaradené 
                         
                                                             
                                    
                                                            	                                                                                        

                                                                                                
                                    
                                        Pavel Ondrejmiška 
                                        
                                            Dnes farnosť Žitavany, pred tisíc rokmi kráľovská fara v Kňažiciach
                                        
                                    
                                 
                                                             
                                    
                                                            	                                                                                        

                                                                                                
                                    
                                        Milan Removčík 
                                        
                                            Zimný Šíp.
                                        
                                    
                                 
                                                             
                                    
                                                            	                                                                                        

                                                                                                
                                    
                                          esc-sr 
                                        
                                            Čas (ne)vhodných darčekov
                                        
                                    
                                 
                                                             
                                    
                                                            	                                                                                        

                                                                                                
                                    
                                        Michal Filek 
                                        
                                            Ako je ťažké darovať bezdomovcom polievku?
                                        
                                    
                                 
                                                             
                                    
                                                                                                                    

                                                                                                
                                    
                                        Anna Kováčová 
                                        
                                            Na sexi postavu, zdravie, energiu a šťastný život nepotrebujete tabletky!
                                        
                                    
                                 
                                                     
                        
                            Ďalšie články z rubriky nezaradené
                        
                     
                 
            
                    
 
     Hlavné správy 
         
        
                                

        
         
            AKTUALIZOVANÉ O 20:00
             Rubeľ pocítil pád na dno, Rusko je vo finančnej kríze 
             Dolár včera stál už takmer 80 rubľov, pod hladinu ho tlačia najmä nízke ceny ropy. 
         
     
         
        
                                

        
         
            ZAHRANIČIE
             Taliban zaútočil na citlivé miesto Pakistanu. Na deti 
             Taliban zabil v škole v Pakistane najmenej 141 ľudí, väčšinou deti. 
         
     
         
        
                                

        
         
            KOMENTARE.SME.SK
             Cynická obluda: Medzičasom na opustenom ostrove 
             Stroskotanci majú veľké šťastie, že sú dvaja. Lacné vtipy na úrovni ich autora. 
         
     
     

                 
     
    
     
        
 

     
                
                            
                    



         
            
                Alojz Hlina
            
         
        alojzhlina.blog.sme.sk (rss)
         
                                     
     
        Alojz Hlina - nezávislý poslanec NR SR, občan Slovenska, občan mesta Bratislava, oravský bača. www.alojzhlina.sk
        
     
     
                     
                             
             

     
        
            
                
                    Počet článkov
                    518
                
                
                    Celková karma
                    
                                                8.94
                    
                
                
                    Priemerná čítanosť
                    3789
                
            
        
     

             

             Zoznam rubrík 
            
             
                                     
                        
                            Súkromné
                        
                     
                                     
                        
                            Nezaradené
                        
                     
                             
         
    

    

             
             Čo ma zaujalo 
            Týmto článkom bloger klikol/klikla na karmu.
             
                                                         
                       Tak kvôli tomu vyhodili Čaploviča?
                     
                                                         
                       Politický nekorektné úvahy k Dňu Európy a Dňu víťazstva
                     
                                                         
                       Hanebná nominácia na ústavného sudcu
                     
                                                         
                       Stane sa  SMER chrapúňom  roka?
                     
                                                         
                       Košičania, budete svietiť ako baterky?
                     
                                                         
                       Simpsonovci a Hlinovo hrdinstvo
                     
                                                         
                       Ako udržiavajú P.Paška a R.Kaliňák krehkú rovnováhu?
                     
                                                         
                       Môžete ísť do kostola, ale omša nebude
                     
                                                         
                       Keď SMER zabezpečuje koledy
                     
                                                         
                       Študenti, ako chutila držková u premiéra?
                     
                             
         
           
     Pošlite odkaz blogerovi 
    
         
            
         

         
         
         
         

         
         
Odosielateľ (e-mail)
 
         
Text
 
         
             
Protispamová ochrana 
 
 Zle. Skúste znova. 
Opíšte slová z obrázku: Načítať iné slová 
 Get an image CAPTCHA 
 
 
         
                 
            
         
    
  


 

     






            
    
        
    
 

        
         
         
             Už ste čítali? 
         
         
 

 kultura.sme.sk 
 Margaréta sa spriahla s diablom, no mala Kristovu pravdu 
 
 

 www.sme.sk 
 Pútnické miesta The Beatles alebo ako ľudia kráčajú po zebre 
 
 

 cestovanie.sme.sk 
 Lovia za svitania a v hmle 
 
 

 www.sme.sk 
 Ako sa valila lavína slobody. Ako padal komunizmus 
 
 

 kultura.sme.sk 
 Žiadne retro, poriadny biznis. Takto sa lisuje platňa 
 
	   
 


        
         
            
         

     

    
     
 
 
	 

		Kontakty
		Predplatné
		Etický kódex
		Pomoc
		Mapa stránky
		
	 
 
 
	 
		 
			Widget
			RSS
			Newsletter
		 
		 
			Mobil
			Smartphone
			Kindle
			Televízor
		 
		 
			Facebook
			Twitter
			Google+
		 
	 
	 
		
	 
	 
		Ďalšie weby skupiny: Prihlásenie do Post.sk
		Új Szó Slovak Spectator
		Agentúrne správy 
		Vydavateľstvo
		Inzercia
		Osobné údaje
		Návštevnosť webu
		Predajnosť tlače
		Petit Academy
		SME v škole 		© Copyright 1997-2014 Petit Press, a.s. 
	 
 
 
 


          
        
            
            

        
    

    
    


    


    
        
        
        
        
        
        
        
            
            
        
        
        
        
         
                                
               





 

 



        

 




