
      
    
    

     
	 
	 
 SME.sk 
 Zľavy 
 Zoznámenie 
 Reality 
 Dovolenky 
 Pizza 
 Reštaurácie 
 Recenzie 
 Inzeráty 
 Naničmama 	 
Nákupy 
		 
 Filmy na DVD 
 Hodinky 
 Parfémy 
 SME knihy a DVD 
 Superhosting 
 Tlačiareň 
 Víno 
 Tvorba webov 
 Predplatné SME 
 ProSenior 		 
	 
	 
 
	 
 


    
    
        
        
         
          
         
    

    
      
         
            
             
     
        
        
     
    Blog.SME.sk
 

    

         
        
                 
     
         
            Sme.sk
         
         
            Domov
         
         
            Regióny
         
         
            Ekonomika
         
         
            Svet
         
         
            Komentáre
         
         
            Kultúra
         
         
            Šport
         
         
            TV
         
         
            Auto
         
         
            Tech
         
         
            Poradňa
         
         
            Žena
         
         
            Bývanie
         
         
            Zdravie
         
         
            Blog
         
     
 

         
            
     
                                                         Politika 
                                                                                     Spoločnosť 
                                                                                     Cestovanie 
                                                                                     Ekonomika 
                                                                                     Fotografie 
                                                                                     Jedlo 
                                                                                     Kultúra 
                                                                                             
Ďalšie
                             
                                                                                         Lifestyle 
                                                                                                                                                                             Médiá 
                                                                                                                                                                             Nezaradené 
                                                                                                                                                                             Súkromné 
                                                                                                                                                                             Šport 
                                                                                                                                                                             Veda a technika 
                                                                                                                                                                             Zábava 
                                                                                                                                                                             Poézia 
                                                                                                                                                                             Próza 
                                                                                                                                                                             Kódex blogera 
                                                                                 
                         
                                                 
            Blogeri
         
     


            

    
    Prihlásiť sa


    
    Založte si blog



    
    Odhlásiť sa


    
    




         

        
        
         
            
         
         
                
     
                 
            SME.sk &gt;
            Blog.SME.sk &gt;
                            Čo je nové na sme.sk
                                        &gt;
                Nezaradené
                     
                 SME na webe je medzi 200 najvplyvnejšími novinami sveta 

        
            
                                    4.2.2010
            o
            8:37
                        (upravené
                4.2.2010
                o
                9:06)
                        |
            Karma článku:
                11.48
            |
            Prečítané 
            5169-krát
                    
         
     
         
             

                 
                    SME sú jediné slovenské noviny, ktorých web sa dostal do tohtoročného rebríčka TOP 200 najvplyvnejších novinových webov na svete.
                 

                 Rebríček od roku 2005 každoročne zostavuje austrálska spoločnosť 4imn.com.  Zohľadňuje pri tom najmä pozíciu daného webu v najväčších vyhľadávačoch, návštevnosť a popularitu webu vyjadrenú v počte odkazov, ktoré naň vedú.   V rebríčku sa nezohľadňuje jazyk média alebo veľkosť krajiny, v ktorej pôsobí, výrazne mu teda dominujú noviny z najväčších krajín.    Najvplyvnejší web na svete má podľa neho New York Times, nasledujú britský Guardian, čínsky The Peoples Daily, ďalej USA Today a španielsky El Mundo.   SME sa do rebríčka dostalo prvýkrát, je na 58. mieste v Európe 154. na svete.   Susedia   Z Česka sa do rebríčku dostal web idnes.cz, z Poľska (na úctyhodné 18. miesto) Gazeta Wyborcza. Z Maďarska ani Ukrajiny sa do top 200 webov neprebojovali ani jediné noviny.   Celý rebríček - svet   Celý rebríček - Európa   Rebríček - Slovensko 

                 
                                        
                        
                        Zdieľať
                    

                    
                            
                                    
                                    Zdieľať na
                            
                             
                                    
                             
                    

                                                                                                                        
                            
                            Diskusia: (28)
                        
                    
                    
                        
                        Zvýšte karmu
                    
                 
             

                             
            
                     
                         Ďalšie články blogera 
                         
                                                             
                                    
                    	                                                                                        

                                                                        
                                    
                                        Čo je nové na sme.sk 
                                        
                                            SME hľadá redaktorov, online editorov
                                        
                                    
                                 
                                                             
                                    
                    	                                                                                        

                                                                        
                                    
                                        Čo je nové na sme.sk 
                                        
                                            Prečo pod niektorými článkami nie je možnosť diskutovať?
                                        
                                    
                                 
                                                             
                                    
                    	                                                                                        

                                                                        
                                    
                                        Čo je nové na sme.sk 
                                        
                                            Sme.sk hľadá HTML/CSS kodéra
                                        
                                    
                                 
                                                             
                                    
                    	                                                                                        

                                                                        
                                    
                                        Čo je nové na sme.sk 
                                        
                                            Vitajte na úplne nových blogoch
                                        
                                    
                                 
                                                             
                                    
                    	                                                                                        

                                                                        
                                    
                                        Čo je nové na sme.sk 
                                        
                                            Nová titulná stránka SME.sk: Viac správ, viac čítania
                                        
                                    
                                 
                                                     
                        
                            Ďalšie články blogera: Čo je nové na sme.sk
                        
                     
            
                     
                         Ďalšie články z rubriky spoločnosť 
                         
                                                             
                                    
                                                            	                                                                                        

                                                                                                
                                    
                                        Kristián Straka 
                                        
                                            Nebite ma, doktor Plzák... alebo POZVANIE NA VEČERU
                                        
                                    
                                 
                                                             
                                    
                                                            	                                                                                        

                                                                                                
                                    
                                        Kristián Straka 
                                        
                                            Oklamaní Ježiškom ?
                                        
                                    
                                 
                                                             
                                    
                                                            	                                                                                        

                                                                                                
                                    
                                        Milan Buno 
                                        
                                            Šup, šup, najesť sa. A utekať!
                                        
                                    
                                 
                                                             
                                    
                                                            	                                                                                        

                                                                                                
                                    
                                        Katarína Lorenčíková 
                                        
                                            Par uprimnych oslobodzujucich riadkov...
                                        
                                    
                                 
                                                             
                                    
                                                            	                                                                                        

                                                                                                
                                    
                                        Alžbeta Slováková Spáčilová 
                                        
                                            Selfie s nádychom hyenizmu a krutosti
                                        
                                    
                                 
                                                     
                        
                            Ďalšie články z rubriky spoločnosť
                        
                     
                 
            
                    
 
     Hlavné správy 
         
        
                                

        
         
            AKTUALIZOVANÉ 16:00
             Rubeľ kolabuje, ruská vláda má mimoriadne rokovať 
             Jeden dolár stál v utorok poobede už viac ako 78 rubľov, razantné zvýšenie úrokov nepomohlo. 
         
     
         
        
                                

        
         
            ZAHRANIČIE
             Taliban zabil v škole v Pakistane vyše sto ľudí, väčšinou deti 
             Militanti vtrhli do vojenskej školy v policajných rovnošatách. 
         
     
         
        
                                

        
         
            KOMENTARE.SME.SK
             Cynická obluda: Medzičasom na opustenom ostrove 
             Stroskotanci majú veľké šťastie, že sú dvaja. Lacné vtipy na úrovni ich autora. 
         
     
     

                 
     
    
     
        
 

     
                
                            
                    



         
            
                Čo je nové na sme.sk
            
         
        novinky.blog.sme.sk (rss)
         
                                     
     
         Novinky, zlepšenia a vôbec všetko, s čím sa chceme podeliť. 
        
     
     
                     
                                                        
                        
                    
                                                        
                        
                    
                                                        
                        
                    
                             
             

     
        
            
                
                    Počet článkov
                    153
                
                
                    Celková karma
                    
                                                0.00
                    
                
                
                    Priemerná čítanosť
                    6917
                
            
        
     

             

             Zoznam rubrík 
            
             
                                     
                        
                            Novinky na sme.sk
                        
                     
                                     
                        
                            Nezaradené
                        
                     
                             
         
    

    

        

     






            
    
        
    
 

        
         
         
             Už ste čítali? 
         
         
 

 kultura.sme.sk 
 Margaréta sa spriahla s diablom, no mala Kristovu pravdu 
 
 

 www.sme.sk 
 Pútnické miesta The Beatles alebo ako ľudia kráčajú po zebre 
 
 

 cestovanie.sme.sk 
 Lovia za svitania a v hmle 
 
 

 www.sme.sk 
 Ako sa valila lavína slobody. Ako padal komunizmus 
 
 

 kultura.sme.sk 
 Žiadne retro, poriadny biznis. Takto sa lisuje platňa 
 
	   
 


        
         
            
         

     

    
     
 
 
	 

		Kontakty
		Predplatné
		Etický kódex
		Pomoc
		Mapa stránky
		
	 
 
 
	 
		 
			Widget
			RSS
			Newsletter
		 
		 
			Mobil
			Smartphone
			Kindle
			Televízor
		 
		 
			Facebook
			Twitter
			Google+
		 
	 
	 
		
	 
	 
		Ďalšie weby skupiny: Prihlásenie do Post.sk
		Új Szó Slovak Spectator
		Agentúrne správy 
		Vydavateľstvo
		Inzercia
		Osobné údaje
		Návštevnosť webu
		Predajnosť tlače
		Petit Academy
		SME v škole 		© Copyright 1997-2014 Petit Press, a.s. 
	 
 
 
 


          
        
            
            

        
    

    
    


    


    
        
        
        
        
        
        
        
            
            
        
        
        
        
         
                                
               





 

 



        

 




