
      
    
    

     
	 
	 
 SME.sk 
 Zľavy 
 Zoznámenie 
 Reality 
 Dovolenky 
 Pizza 
 Reštaurácie 
 Recenzie 
 Inzeráty 
 Naničmama 	 
Nákupy 
		 
 Filmy na DVD 
 Hodinky 
 Parfémy 
 SME knihy a DVD 
 Superhosting 
 Tlačiareň 
 Víno 
 Tvorba webov 
 Predplatné SME 
 ProSenior 		 
	 
	 
 
	 
 


    
    
        
        
         
          
         
    

    
      
         
            
             
     
        
        
     
    Blog.SME.sk
 

    

         
        
                 
     
         
            Sme.sk
         
         
            Domov
         
         
            Regióny
         
         
            Ekonomika
         
         
            Svet
         
         
            Komentáre
         
         
            Kultúra
         
         
            Šport
         
         
            TV
         
         
            Auto
         
         
            Tech
         
         
            Poradňa
         
         
            Žena
         
         
            Bývanie
         
         
            Zdravie
         
         
            Blog
         
     
 

         
            
     
                                                         Politika 
                                                                                     Spoločnosť 
                                                                                     Cestovanie 
                                                                                     Ekonomika 
                                                                                     Fotografie 
                                                                                     Jedlo 
                                                                                     Kultúra 
                                                                                             
Ďalšie
                             
                                                                                         Lifestyle 
                                                                                                                                                                             Médiá 
                                                                                                                                                                             Nezaradené 
                                                                                                                                                                             Súkromné 
                                                                                                                                                                             Šport 
                                                                                                                                                                             Veda a technika 
                                                                                                                                                                             Zábava 
                                                                                                                                                                             Poézia 
                                                                                                                                                                             Próza 
                                                                                                                                                                             Kódex blogera 
                                                                                 
                         
                                                 
            Blogeri
         
     


            

    
    Prihlásiť sa


    
    Založte si blog



    
    Odhlásiť sa


    
    




         

        
        
         
            
         
         
                
     
                 
            SME.sk &gt;
            Blog.SME.sk &gt;
                            Patrícia Michniková
                                        &gt;
                zabava
                     
                 Klubova vystava bullterierov Kamenny Mlyn, 10.4.2010 

        
            
                                    18.4.2010
            o
            17:15
                        |
            Karma článku:
                0.00
            |
            Prečítané 
            945-krát
                    
         
     
         
             

                 
                    Minuly vikend sa konala klubova vystava "bojovych" psov- bullterierov. Preco je bojovych v uvodzovkach? Pretoze tieto zvierata su neskutocne mile, hrave a hlavne strasne oddane majitelovi. A hlavne su to strasne macky.   Oceneny pes je Cannibul z chovnej stanice Flegmabull. Jeho brat skoncil na 4. mieste.
                 

                 
  
 

                 
                                        
                        
                        Zdieľať
                    

                    
                            
                                    
                                    Zdieľať na
                            
                             
                                    
                             
                    

                                                                                                                        
                            
                            Diskusia: (44)
                        
                    
                    
                        
                        Zvýšte karmu
                    
                 
             

                             
            
                     
                         Ďalšie články blogera 
                         
                                                             
                                    
                    	                                                                                        

                                                                        
                                    
                                        Patrícia Michniková 
                                        
                                            KLAMSTVO
                                        
                                    
                                 
                                                             
                                    
                    	                                                                                        

                                                                        
                                    
                                        Patrícia Michniková 
                                        
                                            zima
                                        
                                    
                                 
                                                             
                                    
                    	                                                                                        

                                                                        
                                    
                                        Patrícia Michniková 
                                        
                                            na jar sa vsetko meni, zacina nam leto
                                        
                                    
                                 
                                                             
                                    
                    	                                                                                        

                                                                        
                                    
                                        Patrícia Michniková 
                                        
                                            na jar sa vsetko meni... part 4
                                        
                                    
                                 
                                                             
                                    
                    	                                                                                        

                                                                        
                                    
                                        Patrícia Michniková 
                                        
                                            na jar sa vsetko meni... part 3
                                        
                                    
                                 
                                                     
                        
                            Ďalšie články blogera: Patrícia Michniková
                        
                     
            
                     
                         Ďalšie články z rubriky súkromné 
                         
                                                             
                                    
                                                            	                                                                                        

                                                                                                
                                    
                                        Marek Strapko 
                                        
                                            Najbližší mi boli tí "kakaoví"
                                        
                                    
                                 
                                                             
                                    
                                                                                                                    

                                                                                                
                                    
                                        Mária Malinová 
                                        
                                            Sexuálna výchova na Slovensku neexistuje a nikdy neexistovala
                                        
                                    
                                 
                                                             
                                    
                                                            	                                                                                        

                                                                                                
                                    
                                        Helena Smihulova Laucikova 
                                        
                                            Mágia kina
                                        
                                    
                                 
                                                             
                                    
                                                            	                                                                                        

                                                                                                
                                    
                                        Dušan Koniar 
                                        
                                            Tri esemesky z minulosti hľadajú svoju budúcnosť
                                        
                                    
                                 
                                                             
                                    
                                                            	                                                                                        

                                                                                                
                                    
                                        Zuzana Gerhátová 
                                        
                                            ako ma upratal sedemročný chlapec
                                        
                                    
                                 
                                                     
                        
                            Ďalšie články z rubriky súkromné
                        
                     
                 
            
                    
 
     Hlavné správy 
         
        
                                

        
         
            AKTUALIZOVANÉ 16:00
             Rubeľ kolabuje, ruská vláda má mimoriadne rokovať 
             Jeden dolár stál v utorok poobede už viac ako 78 rubľov, razantné zvýšenie úrokov nepomohlo. 
         
     
         
        
                                

        
         
            ZAHRANIČIE
             Taliban zabil v škole v Pakistane vyše sto ľudí, väčšinou deti 
             Militanti vtrhli do vojenskej školy v policajných rovnošatách. 
         
     
         
        
                                

        
         
            KOMENTARE.SME.SK
             Cynická obluda: Medzičasom na opustenom ostrove 
             Stroskotanci majú veľké šťastie, že sú dvaja. Lacné vtipy na úrovni ich autora. 
         
     
     

                 
     
    
     
        
 

     
                
                            
                    



         
            
                Patrícia Michniková
            
         
        michnikova.blog.sme.sk (rss)
         
                                     
     
        Milujem zivot a krasne dni a tie horsie nejak prezijem :)
        
     
     
                     
                             
             

     
        
            
                
                    Počet článkov
                    20
                
                
                    Celková karma
                    
                                                0.00
                    
                
                
                    Priemerná čítanosť
                    706
                
            
        
     

             

             Zoznam rubrík 
            
             
                                     
                        
                            Súkromné
                        
                     
                                     
                        
                            cestovanie
                        
                     
                                     
                        
                            zabava
                        
                     
                                     
                        
                            Nezaradené
                        
                     
                                     
                        
                            poviedky
                        
                     
                             
         
    

                     
                        
                                                            
                     Čo práve počúvam 
                    
                     
                                                 
                                            Metallica
                                     
                                                                             
                                            Szidy Tobias
                                     
                                                                             
                                            Nightwish
                                     
                            
             
         
            

           
     Pošlite odkaz blogerovi 
    
         
            
         

         
         
         
         

         
         
Odosielateľ (e-mail)
 
         
Text
 
         
             
Protispamová ochrana 
 
 Zle. Skúste znova. 
Opíšte slová z obrázku: Načítať iné slová 
 Get an image CAPTCHA 
 
 
         
                 
            
         
    
  


 

     






            
    
        
    
 

        
         
         
             Už ste čítali? 
         
         
 

 kultura.sme.sk 
 Margaréta sa spriahla s diablom, no mala Kristovu pravdu 
 
 

 www.sme.sk 
 Pútnické miesta The Beatles alebo ako ľudia kráčajú po zebre 
 
 

 cestovanie.sme.sk 
 Lovia za svitania a v hmle 
 
 

 www.sme.sk 
 Ako sa valila lavína slobody. Ako padal komunizmus 
 
 

 kultura.sme.sk 
 Žiadne retro, poriadny biznis. Takto sa lisuje platňa 
 
	   
 


        
         
            
         

     

    
     
 
 
	 

		Kontakty
		Predplatné
		Etický kódex
		Pomoc
		Mapa stránky
		
	 
 
 
	 
		 
			Widget
			RSS
			Newsletter
		 
		 
			Mobil
			Smartphone
			Kindle
			Televízor
		 
		 
			Facebook
			Twitter
			Google+
		 
	 
	 
		
	 
	 
		Ďalšie weby skupiny: Prihlásenie do Post.sk
		Új Szó Slovak Spectator
		Agentúrne správy 
		Vydavateľstvo
		Inzercia
		Osobné údaje
		Návštevnosť webu
		Predajnosť tlače
		Petit Academy
		SME v škole 		© Copyright 1997-2014 Petit Press, a.s. 
	 
 
 
 


          
        
            
            

        
    

    
    


    


    
        
        
        
        
        
        
        
            
            
        
        
        
        
         
                                
               





 

 



        

 




