
      
    
    

     
	 
	 
 SME.sk 
 Zľavy 
 Zoznámenie 
 Reality 
 Dovolenky 
 Pizza 
 Reštaurácie 
 Recenzie 
 Inzeráty 
 Naničmama 	 
Nákupy 
		 
 Filmy na DVD 
 Hodinky 
 Parfémy 
 SME knihy a DVD 
 Superhosting 
 Tlačiareň 
 Víno 
 Tvorba webov 
 Predplatné SME 
 ProSenior 		 
	 
	 
 
	 
 


    
    
        
        
         
          
         
    

    
      
         
            
             
     
        
        
     
    Blog.SME.sk
 

    

         
        
                 
     
         
            Sme.sk
         
         
            Domov
         
         
            Regióny
         
         
            Ekonomika
         
         
            Svet
         
         
            Komentáre
         
         
            Kultúra
         
         
            Šport
         
         
            TV
         
         
            Auto
         
         
            Tech
         
         
            Poradňa
         
         
            Žena
         
         
            Bývanie
         
         
            Zdravie
         
         
            Blog
         
     
 

         
            
     
                                                         Politika 
                                                                                     Spoločnosť 
                                                                                     Cestovanie 
                                                                                     Ekonomika 
                                                                                     Fotografie 
                                                                                     Jedlo 
                                                                                     Kultúra 
                                                                                             
Ďalšie
                             
                                                                                         Lifestyle 
                                                                                                                                                                             Médiá 
                                                                                                                                                                             Nezaradené 
                                                                                                                                                                             Súkromné 
                                                                                                                                                                             Šport 
                                                                                                                                                                             Veda a technika 
                                                                                                                                                                             Zábava 
                                                                                                                                                                             Poézia 
                                                                                                                                                                             Próza 
                                                                                                                                                                             Kódex blogera 
                                                                                 
                         
                                                 
            Blogeri
         
     


            

    
    Prihlásiť sa


    
    Založte si blog



    
    Odhlásiť sa


    
    




         

        
        
         
            
         
         
                
     
                 
            SME.sk &gt;
            Blog.SME.sk &gt;
                            Magdaléna Stýblová
                                        &gt;
                Nezaradené
                     
                 Aké prekvapenie? 

        
            
                                    18.4.2010
            o
            19:14
                        (upravené
                18.4.2010
                o
                19:34)
                        |
            Karma článku:
                9.44
            |
            Prečítané 
            994-krát
                    
         
     
         
             

                 
                    Zvykne sa pokoncertoch účinkujúcich obdarovať kvetom či bonbonierou. Ale čo sa nestalo?...
                 

                  Nedávno som si spomenula na jeden koncert, kde som účinkovala. Koncert veľmi úspešný, publikum spokojné, jednoducho plnosť emócií. Na tomto podujatí sa zúčastnili aj moji rodinní príslušníci. Návšetvou ma poctila aj moja 85-ročná stará mama, ktorá si priviedla rovesníčku-kamarátku. Celá akcia skončila, veci sme si balili, prijímali sme gratulácie a dostávali sme rôzne prezenty. Kamarátka mojej starej mamy ma obdarila čokoládou X, istého slovenského výrobcu a slovne ma veľmi chválila. Avšak...   Všetky darčeky som poslala po rodičoch domov a išli sme koncert patrične osláviť. Zanedlho som sa však vrátila domov, kde ma čakala mamka aj s mojimi cukrovinkami zoradenými podľa velkosti a čakala na pokyn, ktorú otvoriť. Vravím jej, že nech otvorí čo len chce. Medzi vážnou konkurenciou zvíťazila čokoláda X. Popri rozhovore som záležitosť X otvárala. Na moje zdesenie vypadla polovica čokolády. POLOVICA!!!!! Zbledla som. Hlavou mi prebehlo všetko možné. Predsa bola zatvorená, čo to je??? Mamka si aj tak odlomila a chcela ju ísť konzumovať. Rázne som zakročila:-Nie!!! Čo ked'je otrávená?-iná možnosť ma ani nenapadla. Dotyčná pani je totiž bývalá pracovníčka lekárne a možno tam niečo zákerné pochytila a teraz to skúša na mne?! Mamka sa však zasmiala a jedla.   Napokon to nevydržala a povedala, že medzitým čo som bola preč, tá pani u nás bola. Doma sa jej manžel priznal, že jej potajomky tu čokoládku "vyžieral" tak, aby si to nevšimla. A ona si to naozaj nevšimla. Prišla sa nám ospravedlniť a vyjadriť ako hrozne sa hanbí za manžela.   Tak dramatická situácia sa napokon prejavila veľmi vtipne. Ešte aj teraz ked' ju stretnem sa mi ospravedlňuje, ved' sa nič nestalo:D     

                 
                                        
                        
                        Zdieľať
                    

                    
                            
                                    
                                    Zdieľať na
                            
                             
                                    
                             
                    

                                                                                                                        
                            
                            Diskusia: (4)
                        
                    
                    
                        
                        Zvýšte karmu
                    
                 
             

                             
            
                     
                         Ďalšie články blogera 
                         
                                                             
                                    
                    	                                                                                        

                                                                        
                                    
                                        Magdaléna Stýblová 
                                        
                                            Naivných. Koľko nás v skutočnosti je?
                                        
                                    
                                 
                                                             
                                    
                    	                                                                                        

                                                                        
                                    
                                        Magdaléna Stýblová 
                                        
                                            Kultúrne Slovensko časť 2. alebo ako sa mi rozum zastavil
                                        
                                    
                                 
                                                             
                                    
                    	                                                                                        

                                                                        
                                    
                                        Magdaléna Stýblová 
                                        
                                            "Kultúrne Slovensko" časť 1.
                                        
                                    
                                 
                                                             
                                    
                    	                                                                                        

                                                                        
                                    
                                        Magdaléna Stýblová 
                                        
                                            Dovolenka inak
                                        
                                    
                                 
                                                             
                                    
                    	                                                                                        

                                                                        
                                    
                                        Magdaléna Stýblová 
                                        
                                            Zdravotníctvo šokuje
                                        
                                    
                                 
                                                     
                        
                            Ďalšie články blogera: Magdaléna Stýblová
                        
                     
            
                     
                         Ďalšie články z rubriky zábava 
                         
                                                             
                                    
                                                            	                                                                                        

                                                                                                
                                    
                                        Jozef Bednár 
                                        
                                            Ako Mikuláš moju dcérku o čižmičku „obral“
                                        
                                    
                                 
                                                             
                                    
                                                            	                                                                                        

                                                                                                
                                    
                                        Daniela Paculíková 
                                        
                                            Aké sú vaše topánky?
                                        
                                    
                                 
                                                             
                                    
                                                            	                                                                                        

                                                                                                
                                    
                                        Marian Letko 
                                        
                                            Maroško to má rád zozadu
                                        
                                    
                                 
                                                             
                                    
                                                            	                                                                                        

                                                                                                
                                    
                                        Fero Škoda 
                                        
                                            Nemecký vlog o horách, vode a takmer stratených nervoch
                                        
                                    
                                 
                                                             
                                    
                                                            	                                                                                        

                                                                                                
                                    
                                        Ján Vilček 
                                        
                                            Kritizovať politiku Absurdistanu inotajmi absurdít
                                        
                                    
                                 
                                                     
                        
                            Ďalšie články z rubriky zábava
                        
                     
                 
            
                    
 
     Hlavné správy 
         
        
                                

        
         
            AKTUALIZOVANÉ 16:00
             Rubeľ kolabuje, ruská vláda má mimoriadne rokovať 
             Jeden dolár stál v utorok poobede už viac ako 78 rubľov, razantné zvýšenie úrokov nepomohlo. 
         
     
         
        
                                

        
         
            ZAHRANIČIE
             Taliban zabil v škole v Pakistane vyše sto ľudí, väčšinou deti 
             Militanti vtrhli do vojenskej školy v policajných rovnošatách. 
         
     
         
        
                                

        
         
            KOMENTARE.SME.SK
             Cynická obluda: Medzičasom na opustenom ostrove 
             Stroskotanci majú veľké šťastie, že sú dvaja. Lacné vtipy na úrovni ich autora. 
         
     
     

                 
     
    
     
        
 

     
                
                            
                    



         
            
                Magdaléna Stýblová
            
         
        styblova.blog.sme.sk (rss)
         
                                     
     
        ponáhľajme sa milovať ľudí, pretože rýchlo odchádzajú...
        
     
     
                     
                             
             

     
        
            
                
                    Počet článkov
                    14
                
                
                    Celková karma
                    
                                                0.00
                    
                
                
                    Priemerná čítanosť
                    810
                
            
        
     

             

             Zoznam rubrík 
            
             
                                     
                        
                            Súkromné
                        
                     
                                     
                        
                            Nezaradené
                        
                     
                             
         
    

    

             
             Čo ma zaujalo 
            Týmto článkom bloger klikol/klikla na karmu.
             
                                                         
                       Na malomeštiakovej svadbe v SND
                     
                             
         
           
     Pošlite odkaz blogerovi 
    
         
            
         

         
         
         
         

         
         
Odosielateľ (e-mail)
 
         
Text
 
         
             
Protispamová ochrana 
 
 Zle. Skúste znova. 
Opíšte slová z obrázku: Načítať iné slová 
 Get an image CAPTCHA 
 
 
         
                 
            
         
    
  


 

     






            
    
        
    
 

        
         
         
             Už ste čítali? 
         
         
 

 kultura.sme.sk 
 Margaréta sa spriahla s diablom, no mala Kristovu pravdu 
 
 

 www.sme.sk 
 Pútnické miesta The Beatles alebo ako ľudia kráčajú po zebre 
 
 

 cestovanie.sme.sk 
 Lovia za svitania a v hmle 
 
 

 www.sme.sk 
 Ako sa valila lavína slobody. Ako padal komunizmus 
 
 

 kultura.sme.sk 
 Žiadne retro, poriadny biznis. Takto sa lisuje platňa 
 
	   
 


        
         
            
         

     

    
     
 
 
	 

		Kontakty
		Predplatné
		Etický kódex
		Pomoc
		Mapa stránky
		
	 
 
 
	 
		 
			Widget
			RSS
			Newsletter
		 
		 
			Mobil
			Smartphone
			Kindle
			Televízor
		 
		 
			Facebook
			Twitter
			Google+
		 
	 
	 
		
	 
	 
		Ďalšie weby skupiny: Prihlásenie do Post.sk
		Új Szó Slovak Spectator
		Agentúrne správy 
		Vydavateľstvo
		Inzercia
		Osobné údaje
		Návštevnosť webu
		Predajnosť tlače
		Petit Academy
		SME v škole 		© Copyright 1997-2014 Petit Press, a.s. 
	 
 
 
 


          
        
            
            

        
    

    
    


    


    
        
        
        
        
        
        
        
            
            
        
        
        
        
         
                                
               





 

 



        

 




