
      
    
    

     
	 
	 
 SME.sk 
 Zľavy 
 Zoznámenie 
 Reality 
 Dovolenky 
 Pizza 
 Reštaurácie 
 Recenzie 
 Inzeráty 
 Naničmama 	 
Nákupy 
		 
 Filmy na DVD 
 Hodinky 
 Parfémy 
 SME knihy a DVD 
 Superhosting 
 Tlačiareň 
 Víno 
 Tvorba webov 
 Predplatné SME 
 ProSenior 		 
	 
	 
 
	 
 


    
    
        
        
         
          
         
    

    
      
         
            
             
     
        
        
     
    Blog.SME.sk
 

    

         
        
                 
     
         
            Sme.sk
         
         
            Domov
         
         
            Regióny
         
         
            Ekonomika
         
         
            Svet
         
         
            Komentáre
         
         
            Kultúra
         
         
            Šport
         
         
            TV
         
         
            Auto
         
         
            Tech
         
         
            Poradňa
         
         
            Žena
         
         
            Bývanie
         
         
            Zdravie
         
         
            Blog
         
     
 

         
            
     
                                                         Politika 
                                                                                     Spoločnosť 
                                                                                     Cestovanie 
                                                                                     Ekonomika 
                                                                                     Fotografie 
                                                                                     Jedlo 
                                                                                     Kultúra 
                                                                                             
Ďalšie
                             
                                                                                         Lifestyle 
                                                                                                                                                                             Médiá 
                                                                                                                                                                             Nezaradené 
                                                                                                                                                                             Súkromné 
                                                                                                                                                                             Šport 
                                                                                                                                                                             Veda a technika 
                                                                                                                                                                             Zábava 
                                                                                                                                                                             Poézia 
                                                                                                                                                                             Próza 
                                                                                                                                                                             Kódex blogera 
                                                                                 
                         
                                                 
            Blogeri
         
     


            

    
    Prihlásiť sa


    
    Založte si blog



    
    Odhlásiť sa


    
    




         

        
        
         
            
         
         
                
     
                 
            SME.sk &gt;
            Blog.SME.sk &gt;
                            igor matovič
                                        &gt;
                Nezaradené
                     
                 Ako sa nám autíčko samopodpálilo 

        
            
                                    24.5.2010
            o
            12:12
                        (upravené
                26.5.2010
                o
                22:27)
                        |
            Karma článku:
                17.35
            |
            Prečítané 
            24773-krát
                    
         
     
         
             

                 
                    Píšem do Regionálnych novín rubriku "na strane obyčajných ľudí" - snažím sa tak klamaným ľuďom aspoň trošku pootvoriť okále. Keďže idú v 1,5 miliónovom náklade ľuďom rovno do schránok, nie je to pre túto dnešnú bandu nič moc príjemné. Pár mesiacov robíme aj samostatné letáky - také naše predvolebné. Obsah posledného však natoľko niekoho vytočil, že nám podpálil auto, ktoré tie letáky rozvážalo. Čo z neho zostalo? Veď sa pozrite.
                 

                          Po všetkých vyhrážkach, že ak neprestanem písať proti ich novým bohom, tak mi zavrú hubu, sa to asi dalo čakať. Napriek tomu verím, že 13. júna ráno zistia, že ich snaha bola márna a bohovia zostúpia z Olympu.       PS1. Na priemyselnej kamere je vraj záznam, ako sa auto so zhasnutými svetlami priblížilo k nášmu. Niekto z neho vystúpil, niečím ho oblial a podpálil. Túto nedeľu o 0:41 nadránom.   PS2. Ďakujem všetkým zamestnancom vydavateľstva regionPRESS, že napriek všetkému, nebudú mať strach svoju prácu aj naďalej vykonávať. Avšak autá by som, aspoň do volieb, parkoval niekde bezpečnejšie.   PS3. Ak by ste chceli vedieť, aké to bolo auto - Peugeot Partner, cca 2 ročný.   PS4: Ak by ste sa chceli zahrať na detektíva - tu je spomínaný leták: http://obycajniludia.sk/2010/05/24/novinky_20_2010/.  Myslím, že človek nemusí byť ani Sherlock Holmes, aby vedel, komu  napísané ležalo v žalúdku.   PS5: Z úcty k ľuďom, ktorí v diskusii hlásajú, že sme si určite to auto sami podpálili, som zmenil názov článku z pôvodného Ako nám autíčko podpálili. Verím, že teraz majú väčšiu radosť. Vám ostatným ďakujem za podporu;) 

                 
                                        
                        
                        Zdieľať
                    

                    
                            
                                    
                                    Zdieľať na
                            
                             
                                    
                             
                    

                                                                                                                        
                            
                            Diskusia: (255)
                        
                    
                    
                        
                        Zvýšte karmu
                    
                 
             

                             
            
                     
                         Ďalšie články blogera 
                         
                                                             
                                    
                    	                                                                                        

                                                                        
                                    
                                        igor matovič 
                                        
                                            6:59 minútu do moratória - Kto nevolí, volí Fica
                                        
                                    
                                 
                                                             
                                    
                    	                                                                                        

                                                                        
                                    
                                        igor matovič 
                                        
                                            List od Fica
                                        
                                    
                                 
                                                             
                                    
                    	                                                                                        

                                                                        
                                    
                                        igor matovič 
                                        
                                            Du ven blejt, spoločnosti!
                                        
                                    
                                 
                                                             
                                    
                    	                                                                                        

                                                                        
                                    
                                        igor matovič 
                                        
                                            Potrat či adopcia? Matka, či krkavčia mater?
                                        
                                    
                                 
                                                             
                                    
                    	                                                                                        

                                                                        
                                    
                                        igor matovič 
                                        
                                            Megafónom na Fica, alias menej politiky, viac morálky
                                        
                                    
                                 
                                                     
                        
                            Ďalšie články blogera: igor matovič
                        
                     
            
                     
                         Ďalšie články z rubriky politika 
                         
                                                             
                                    
                                                            	                                                                                        

                                                                                                
                                    
                                        Tomáš Hudec 
                                        
                                            Chceme zvýšiť účasť ľudí vo voľbách? Zaveďme eVoľby!
                                        
                                    
                                 
                                                             
                                    
                                                            	                                                                                        

                                                                                                
                                    
                                        Robert Bestro 
                                        
                                            Výmena vedenia parlamentu zjavne prospela
                                        
                                    
                                 
                                                             
                                    
                                                            	                                                                                        

                                                                                                
                                    
                                        Júlia Piraňa Mikolášiková 
                                        
                                            Obvinia ďalšiu novinárku z údajného ohovárania policajného šéfa Ševčíka?
                                        
                                    
                                 
                                                             
                                    
                                                            	                                                                                        

                                                                                                
                                    
                                        Stanislav Martinčko 
                                        
                                            Stužka z kvetinárstva za 16 centov a rozkradnuté milióny!!
                                        
                                    
                                 
                                                             
                                    
                                                            	                                                                                        

                                                                                                
                                    
                                        Veronika Remisova 
                                        
                                            Elektronické mýto podľa Ficovej vlády – prehľadnejšie sa to skrátka nedá
                                        
                                    
                                 
                                                     
                        
                            Ďalšie články z rubriky politika
                        
                     
                 
            
                    
 
     Hlavné správy 
         
        
                                

        
         
            AKTUALIZOVANÉ 20:22
             Slovenky v hlavnej skupine nebodovali, Švédky vyhrali o 9 gólov 
             Naše hádzanárky hrali na ME piaty zápas. V Záhrebe proti Švédkam. 
         
     
         
        
                                

        
         
            AKTUALIZOVANÉ O 20:00
             Rubeľ pocítil pád na dno, Rusko je vo finančnej kríze 
             Dolár včera stál už takmer 80 rubľov, pod hladinu ho tlačia najmä nízke ceny ropy. 
         
     
         
        
                                

        
         
            ZAHRANIČIE
             Taliban zaútočil na citlivé miesto Pakistanu. Na deti 
             Taliban zabil v škole v Pakistane najmenej 141 ľudí, väčšinou deti. 
         
     
     

                 
     
    
     
        
 

     
                
                            
                    



         
            
                igor matovič
            
         
        matovic.blog.sme.sk (rss)
         
                                     
     
        Verím, že politici by mali ľuďom slúžiť a nie žiť na ich úkor. Na Slovensku to tak zväčša nie je. Preto som sa rozhodol vstúpiť do politiky, ľuďom pomaly otvárať okále a chliev čistiť. Po vyhadzove z klubu SaS za hlasovanie proti úmyslu umožniť Orbánovi rozdávať maďarské občianstvo na Slovensku, sme založili hnutie OBYČAJNÍ ĽUDIA a nezávislé osobnosti. Dnes máme najväčší opozičný klub a snažíme sa spoločne ľuďom dokázať, že spoločenstvo zodpovedných nezávislých ľudí sa dokáže správať zodpovedne, bez toho, aby sme našim poslancom brali vlastné svedomie a presvedčenie.
        
     
     
                     
                             
             

     
        
            
                
                    Počet článkov
                    55
                
                
                    Celková karma
                    
                                                0.00
                    
                
                
                    Priemerná čítanosť
                    12694
                
            
        
     

             

             Zoznam rubrík 
            
             
                                     
                        
                            Súkromné
                        
                     
                                     
                        
                            Nezaradené
                        
                     
                             
         
    

    

           
     Pošlite odkaz blogerovi 
    
         
            
         

         
         
         
         

         
         
Odosielateľ (e-mail)
 
         
Text
 
         
             
Protispamová ochrana 
 
 Zle. Skúste znova. 
Opíšte slová z obrázku: Načítať iné slová 
 Get an image CAPTCHA 
 
 
         
                 
            
         
    
  


 

     






            
    
        
    
 

        
         
         
             Už ste čítali? 
         
         
 

 kultura.sme.sk 
 Margaréta sa spriahla s diablom, no mala Kristovu pravdu 
 
 

 www.sme.sk 
 Pútnické miesta The Beatles alebo ako ľudia kráčajú po zebre 
 
 

 cestovanie.sme.sk 
 Lovia za svitania a v hmle 
 
 

 www.sme.sk 
 Ako sa valila lavína slobody. Ako padal komunizmus 
 
 

 kultura.sme.sk 
 Žiadne retro, poriadny biznis. Takto sa lisuje platňa 
 
	   
 


        
         
            
         

     

    
     
 
 
	 

		Kontakty
		Predplatné
		Etický kódex
		Pomoc
		Mapa stránky
		
	 
 
 
	 
		 
			Widget
			RSS
			Newsletter
		 
		 
			Mobil
			Smartphone
			Kindle
			Televízor
		 
		 
			Facebook
			Twitter
			Google+
		 
	 
	 
		
	 
	 
		Ďalšie weby skupiny: Prihlásenie do Post.sk
		Új Szó Slovak Spectator
		Agentúrne správy 
		Vydavateľstvo
		Inzercia
		Osobné údaje
		Návštevnosť webu
		Predajnosť tlače
		Petit Academy
		SME v škole 		© Copyright 1997-2014 Petit Press, a.s. 
	 
 
 
 


          
        
            
            

        
    

    
    


    


    
        
        
        
        
        
        
        
            
            
        
        
        
        
         
                                
               





 

 



        

 




