
      
    
    

     
	 
	 
 SME.sk 
 Zľavy 
 Zoznámenie 
 Reality 
 Dovolenky 
 Pizza 
 Reštaurácie 
 Recenzie 
 Inzeráty 
 Naničmama 	 
Nákupy 
		 
 Filmy na DVD 
 Hodinky 
 Parfémy 
 SME knihy a DVD 
 Superhosting 
 Tlačiareň 
 Víno 
 Tvorba webov 
 Predplatné SME 
 ProSenior 		 
	 
	 
 
	 
 


    
    
        
        
         
          
         
    

    
      
         
            
             
     
        
        
     
    Blog.SME.sk
 

    

         
        
                 
     
         
            Sme.sk
         
         
            Domov
         
         
            Regióny
         
         
            Ekonomika
         
         
            Svet
         
         
            Komentáre
         
         
            Kultúra
         
         
            Šport
         
         
            TV
         
         
            Auto
         
         
            Tech
         
         
            Poradňa
         
         
            Žena
         
         
            Bývanie
         
         
            Zdravie
         
         
            Blog
         
     
 

         
            
     
                                                         Politika 
                                                                                     Spoločnosť 
                                                                                     Cestovanie 
                                                                                     Ekonomika 
                                                                                     Fotografie 
                                                                                     Jedlo 
                                                                                     Kultúra 
                                                                                             
Ďalšie
                             
                                                                                         Lifestyle 
                                                                                                                                                                             Médiá 
                                                                                                                                                                             Nezaradené 
                                                                                                                                                                             Súkromné 
                                                                                                                                                                             Šport 
                                                                                                                                                                             Veda a technika 
                                                                                                                                                                             Zábava 
                                                                                                                                                                             Poézia 
                                                                                                                                                                             Próza 
                                                                                                                                                                             Kódex blogera 
                                                                                 
                         
                                                 
            Blogeri
         
     


            

    
    Prihlásiť sa


    
    Založte si blog



    
    Odhlásiť sa


    
    




         

        
        
         
            
         
         
                
     
                 
            SME.sk &gt;
            Blog.SME.sk &gt;
                            Radovan Baláž
                                        &gt;
                Nitra milá Nitra
                     
                 Do boja s odpadkami v Zoborských vrchoch 

        
            
                                    20.4.2010
            o
            9:29
                        (upravené
                20.4.2010
                o
                0:04)
                        |
            Karma článku:
                0.00
            |
            Prečítané 
            628-krát
                    
         
     
         
             

                 
                    Najbližšiu sobotu bude patriť Zobor tým, ktorým prekážajú množstvá odpadkov v prírode nad Nitrou. Tým, ktorým nie je ľahostajný jej stav. Neváhajte, príďte a pomôžte i vy.  Jarné čistenie Zobora 2010 K e d y - 24. apríla o 9:00 hod. K d e - začíname pred Liečebným ústavom, potom turistické chodníky a ich okolie medzi Dražovcami, Pyramídou, Zoborom a Žibricou. K t o - turisti, milovníci prírody, žiaci, študenti, Nitrania, dobrovoľníci, všetci ľudia ochotní pomôcť.  A k o - vlastnými rukami, pre všetkých sú pripravené pracovné rukavice a vrecia na odpad. Ten bude zvezený pred Liečebák do kontajnerov a jeho likvidáciu zabezpečí Mesto Nitra   Z a  č o - odmenou pre vás bude tlačený sprievodca o Náučnom chodníku Zoborské vrchy, občerstvenie, malý darček od Nitrianskeho horského spolu a najmä váš dobrý pocit.    Viac informácii vrátane pozvánky nájdete na stránkach partnerského  portálu Webnoviny.sk.
                 

                

                 
                                        
                        
                        Zdieľať
                    

                    
                            
                                    
                                    Zdieľať na
                            
                             
                                    
                             
                    

                                                                                                                        
                            
                            Diskusia: (0)
                        
                    
                    
                        
                        Zvýšte karmu
                    
                 
             

                             
            
                     
                         Ďalšie články blogera 
                         
                                                             
                                    
                    	                                                                                        

                                                                        
                                    
                                        Radovan Baláž 
                                        
                                            Jarné čistenie Zobora, 8. ročník
                                        
                                    
                                 
                                                             
                                    
                    	                                                                                        

                                                                        
                                    
                                        Radovan Baláž 
                                        
                                            Lokálpatriot z Nitrianskeho horského spolku
                                        
                                    
                                 
                                                             
                                    
                    	                                                                                        

                                                                        
                                    
                                        Radovan Baláž 
                                        
                                            Jarné čistenie Zobora, 7. časť
                                        
                                    
                                 
                                                             
                                    
                    	                                                                                        

                                                                        
                                    
                                        Radovan Baláž 
                                        
                                            Festival Vysoké hory Nitra už túto sobotu
                                        
                                    
                                 
                                                             
                                    
                    	                                                                                        

                                                                        
                                    
                                        Radovan Baláž 
                                        
                                            O tom ako sme čistili Zobor, časť šiesta
                                        
                                    
                                 
                                                     
                        
                            Ďalšie články blogera: Radovan Baláž
                        
                     
            
                     
                         Ďalšie články z rubriky spoločnosť 
                         
                                                             
                                    
                                                            	                                                                                        

                                                                                                
                                    
                                        Mária Levočská 
                                        
                                            Ďalšia obeť pomsty monsignora Jaraba
                                        
                                    
                                 
                                                             
                                    
                                                            	                                                                                        

                                                                                                
                                    
                                        Kristián Straka 
                                        
                                            Nebite ma, doktor Plzák... alebo POZVANIE NA VEČERU
                                        
                                    
                                 
                                                             
                                    
                                                            	                                                                                        

                                                                                                
                                    
                                        Kristián Straka 
                                        
                                            Oklamaní Ježiškom ?
                                        
                                    
                                 
                                                             
                                    
                                                            	                                                                                        

                                                                                                
                                    
                                        Milan Buno 
                                        
                                            Šup, šup, najesť sa. A utekať!
                                        
                                    
                                 
                                                             
                                    
                                                            	                                                                                        

                                                                                                
                                    
                                        Katarína Lorenčíková 
                                        
                                            Par uprimnych oslobodzujucich riadkov...
                                        
                                    
                                 
                                                     
                        
                            Ďalšie články z rubriky spoločnosť
                        
                     
                 
            
                    
 
     Hlavné správy 
         
        
                                

        
         
            AKTUALIZOVANÉ 16:00
             Rubeľ kolabuje, ruská vláda má mimoriadne rokovať 
             Jeden dolár stál v utorok poobede už viac ako 78 rubľov, razantné zvýšenie úrokov nepomohlo. 
         
     
         
        
                                

        
         
            ZAHRANIČIE
             Taliban zabil v škole v Pakistane vyše sto ľudí, väčšinou deti 
             Militanti vtrhli do vojenskej školy v policajných rovnošatách. 
         
     
         
        
                                

        
         
            KOMENTARE.SME.SK
             Cynická obluda: Medzičasom na opustenom ostrove 
             Stroskotanci majú veľké šťastie, že sú dvaja. Lacné vtipy na úrovni ich autora. 
         
     
     

                 
     
    
     
        
 

     
                
                            
                    



         
            
                Radovan Baláž
            
         
        radovanbalaz.blog.sme.sk (rss)
         
                                     
     
        Mladý s hlavou v oblakoch a striebrom vo vlasoch, hľadajúci a niekedy aj nachádzajúci...krásne momenty v každodennom živote.
        
     
     
                     
                             
             

     
        
            
                
                    Počet článkov
                    70
                
                
                    Celková karma
                    
                                                0.00
                    
                
                
                    Priemerná čítanosť
                    2309
                
            
        
     

             

             Zoznam rubrík 
            
             
                                     
                        
                            malá galéria AKCENT
                        
                     
                                     
                        
                            Nitra milá Nitra
                        
                     
                                     
                        
                            Nitriansky horský spolok
                        
                     
                                     
                        
                            Rodná hruda
                        
                     
                                     
                        
                            Stretnutia s hudbou
                        
                     
                                     
                        
                            Kultúra
                        
                     
                                     
                        
                            Spoza objektívu
                        
                     
                                     
                        
                            trafacka.sk
                        
                     
                                     
                        
                            Svet autizmu
                        
                     
                                     
                        
                            Súkromné
                        
                     
                                     
                        
                            Nezaradené
                        
                     
                             
         
    

                     
                        
                                                            
                     Čo práve počúvam 
                    
                     
                                                 
                                            RÁDIO_FM
                                     
                                                                             
                                            POHODA radio
                                     
                                                                   
                     Obľúbené blogy 
                    
                     
                                                 
                                            Juraj Lukáč
                                     
                                                                             
                                            Dávid Králik
                                     
                                                                             
                                            Jozef Javurek
                                     
                                                                   
                     Obľúbené stránky 
                    
                     
                                                 
                                            Nitriansky horský spolok
                                     
                                                                             
                                            Výnimočná akcia s jedinečnou atmosférou-POHODA
                                     
                                                                             
                                            Najlepšie slovenské rádio_FM
                                     
                                                                             
                                            denník SME
                                     
                                                                             
                                            Pavol Barabáš a jeho svet
                                     
                            
             
         
            

             
             Čo ma zaujalo 
            Týmto článkom bloger klikol/klikla na karmu.
             
                                                         
                       Zbohatlíci kolonizujú Petržalskú hrádzu. Polícia nekoná.
                     
                                                         
                       Slovenský Biomasaker motorovou pílou
                     
                                                         
                       Problémy s pamäťou kardinála Korca
                     
                                                         
                       .ráno po voľbách
                     
                                                         
                       Benát
                     
                                                         
                       Keď budete nabudúce kupovať banán...
                     
                                                         
                       Jana Kirschner
                     
                                                         
                       Prečo Rytmus môže to, čo nemohol Mikla ?
                     
                                                         
                       Prezident píše ľuďom - reakcia
                     
                                                         
                       Fero Kele: (aj) O strachu
                     
                             
         
        

     






            
    
        
    
 

        
         
         
             Už ste čítali? 
         
         
 

 kultura.sme.sk 
 Margaréta sa spriahla s diablom, no mala Kristovu pravdu 
 
 

 www.sme.sk 
 Pútnické miesta The Beatles alebo ako ľudia kráčajú po zebre 
 
 

 cestovanie.sme.sk 
 Lovia za svitania a v hmle 
 
 

 www.sme.sk 
 Ako sa valila lavína slobody. Ako padal komunizmus 
 
 

 kultura.sme.sk 
 Žiadne retro, poriadny biznis. Takto sa lisuje platňa 
 
	   
 


        
         
            
         

     

    
     
 
 
	 

		Kontakty
		Predplatné
		Etický kódex
		Pomoc
		Mapa stránky
		
	 
 
 
	 
		 
			Widget
			RSS
			Newsletter
		 
		 
			Mobil
			Smartphone
			Kindle
			Televízor
		 
		 
			Facebook
			Twitter
			Google+
		 
	 
	 
		
	 
	 
		Ďalšie weby skupiny: Prihlásenie do Post.sk
		Új Szó Slovak Spectator
		Agentúrne správy 
		Vydavateľstvo
		Inzercia
		Osobné údaje
		Návštevnosť webu
		Predajnosť tlače
		Petit Academy
		SME v škole 		© Copyright 1997-2014 Petit Press, a.s. 
	 
 
 
 


          
        
            
            

        
    

    
    


    


    
        
        
        
        
        
        
        
            
            
        
        
        
        
         
                                
               





 

 



        

 




