
      
    
    

     
	 
	 
 SME.sk 
 Zľavy 
 Zoznámenie 
 Reality 
 Dovolenky 
 Pizza 
 Reštaurácie 
 Recenzie 
 Inzeráty 
 Naničmama 	 
Nákupy 
		 
 Filmy na DVD 
 Hodinky 
 Parfémy 
 SME knihy a DVD 
 Superhosting 
 Tlačiareň 
 Víno 
 Tvorba webov 
 Predplatné SME 
 ProSenior 		 
	 
	 
 
	 
 


    
    
        
        
         
          
         
    

    
      
         
            
             
     
        
        
     
    Blog.SME.sk
 

    

         
        
                 
     
         
            Sme.sk
         
         
            Domov
         
         
            Regióny
         
         
            Ekonomika
         
         
            Svet
         
         
            Komentáre
         
         
            Kultúra
         
         
            Šport
         
         
            TV
         
         
            Auto
         
         
            Tech
         
         
            Poradňa
         
         
            Žena
         
         
            Bývanie
         
         
            Zdravie
         
         
            Blog
         
     
 

         
            
     
                                                         Politika 
                                                                                     Spoločnosť 
                                                                                     Cestovanie 
                                                                                     Ekonomika 
                                                                                     Fotografie 
                                                                                     Jedlo 
                                                                                     Kultúra 
                                                                                             
Ďalšie
                             
                                                                                         Lifestyle 
                                                                                                                                                                             Médiá 
                                                                                                                                                                             Nezaradené 
                                                                                                                                                                             Súkromné 
                                                                                                                                                                             Šport 
                                                                                                                                                                             Veda a technika 
                                                                                                                                                                             Zábava 
                                                                                                                                                                             Poézia 
                                                                                                                                                                             Próza 
                                                                                                                                                                             Kódex blogera 
                                                                                 
                         
                                                 
            Blogeri
         
     


            

    
    Prihlásiť sa


    
    Založte si blog



    
    Odhlásiť sa


    
    




         

        
        
         
            
         
         
                
     
                 
            SME.sk &gt;
            Blog.SME.sk &gt;
                            Marianna Kawaschová
                                        &gt;
                Nezaradené
                     
                 ... „sloboda, to je ten najväčší dar v živote človeka“ ... 

        
            
                                    3.5.2010
            o
            17:18
                        |
            Karma článku:
                3.61
            |
            Prečítané 
            337-krát
                    
         
     
         
             

                 
                    „Daj bože, aby sa to už nikdy nikomu v živote nezopakovalo,“ hovoria ľudia ktorý prežili 2.sv. vojnu. Ľudia, ktorí boli deportovaní v roku 1944 z východného Slovenska do Ruska. Deportácie sa uskutočnili pomocou vagónov a okrem suchého chleba, trochu suchej ryby a 2 dc vody sa v rukách deportovaných neobjavilo žiadne iné jedlo.
                 

                  Vojaci, ktorí ich viedli do väzenia nemali viac ako 20 rokov a takto mladí už zabíjali. Denne vo väzení zomrelo cca 50 ľudí, ktorých prehodili cez plot nahých a nechali ich telá lesnej zvery.     Takto neľudský bol a stále aj bude komunizmus! Ľudské práva im nič nehovorili, slobodu nepoznali. S ľuďmi zaobchádzali ako so spodinou, zabíjali ich, ako keby to bola bežná vec. Veľa ľudí zabúda na to, čo sa dialo pred 50/60 rokmi. Zabúdame už teraz, čo bude o 200 rokov? Kto si spomenie na ľudí, ktorí zomreli pri Akcii K- zatváranie kláštorov. Vtedy ŠTB a Armáda zlikvidovala 2/3 kláštorov na Slovensku a rehoľníkov, ktorí kládli odpor zabili. A prečo? Komunisti tvrdili, že chcú rozpútať 3.sv.vojnu. Ľudia si ešte dobre pamätali 1. a 2. sv. vojnu, 3. už nechceli. Ale pravda to vôbec nebola. Komunisti chceli úplne získať štátnu moc a pre ňu boli ochotní spraviť všetko, klamať, kradnúť, dokonca aj zabíjať.     V tomto období ste na ulici, v krčme....nikde, nemohli prejaviť váš názor. Nemohli ste povedať, že sa vám nepáči to alebo tamto. Museli ste proste so všetkým súhlasiť, museli ste súhlasiť s komunistami. Chceli ste byť aspoň na chvíľku slobodný, aspoň na malú chvíľku mať vlastný názor? Neprichádzalo do úvahy.    Netreba zabudnúť na to čo sa dialo, lebo ak na to zabudneme, samy zapríčiníme to, že sa to bude opakovať. Opäť príde niekto kto bude chcieť orientovať všetku moc vo svojich rukách a z nás si urobí „cvičené opice“. Budeme robiť, hovoriť a jesť to čo on nám prikáže. Kto sa bude brániť, bude na mieste zastrelený, presne tak, ako to bolo za vlády komunistov. Preto sa poučme z minulosti a nedovoľme, aby sa to opakovalo v budúcnosti. Sloboda je ten najväčší dar aký máme a ak si to neuvedomíme, rýchlo o ňu prídeme.     

                 
                                        
                        
                        Zdieľať
                    

                    
                            
                                    
                                    Zdieľať na
                            
                             
                                    
                             
                    

                                                                                                                        
                            
                            Diskusia: (1)
                        
                    
                    
                        
                        Zvýšte karmu
                    
                 
             

                             
            
                     
                         Ďalšie články blogera 
                         
                                                             
                                    
                    	                                                                                        

                                                                        
                                    
                                        Marianna Kawaschová 
                                        
                                            Na čom skutočne záleží ?
                                        
                                    
                                 
                                                             
                                    
                    	                                                                                        

                                                                        
                                    
                                        Marianna Kawaschová 
                                        
                                            Homosexuáli, aj oni chcú ľúbiť
                                        
                                    
                                 
                                                             
                                    
                    	                                                                                        

                                                                        
                                    
                                        Marianna Kawaschová 
                                        
                                            Krič kým vládzeš, na pódium prichádza IneKafe
                                        
                                    
                                 
                                                             
                                    
                    	                                                                                        

                                                                        
                                    
                                        Marianna Kawaschová 
                                        
                                            Stratila som sa na ceste môjho života ... nájdem ju?
                                        
                                    
                                 
                                                             
                                    
                    	                                                                                        

                                                                        
                                    
                                        Marianna Kawaschová 
                                        
                                            Muž, ktorý mi dal iný pohľad na život
                                        
                                    
                                 
                                                     
                        
                            Ďalšie články blogera: Marianna Kawaschová
                        
                     
            
                     
                         Ďalšie články z rubriky nezaradené 
                         
                                                             
                                    
                                                            	                                                                                        

                                                                                                
                                    
                                        Pavel Ondrejmiška 
                                        
                                            Dnes farnosť Žitavany, pred tisíc rokmi kráľovská fara v Kňažiciach
                                        
                                    
                                 
                                                             
                                    
                                                            	                                                                                        

                                                                                                
                                    
                                        Michal Pazič 
                                        
                                            Prečo školské zariadenie v Pakistane?
                                        
                                    
                                 
                                                             
                                    
                                                            	                                                                                        

                                                                                                
                                    
                                        Milan Removčík 
                                        
                                            Zimný Šíp.
                                        
                                    
                                 
                                                             
                                    
                                                            	                                                                                        

                                                                                                
                                    
                                          esc-sr 
                                        
                                            Čas (ne)vhodných darčekov
                                        
                                    
                                 
                                                             
                                    
                                                            	                                                                                        

                                                                                                
                                    
                                        Michal Filek 
                                        
                                            Ako je ťažké darovať bezdomovcom polievku?
                                        
                                    
                                 
                                                     
                        
                            Ďalšie články z rubriky nezaradené
                        
                     
                 
            
                    
 
     Hlavné správy 
         
        
                                

        
         
            AKTUALIZOVANÉ O 20:00
             Rubeľ pocítil pád na dno, Rusko je vo finančnej kríze 
             Dolár včera stál už takmer 80 rubľov, pod hladinu ho tlačia najmä nízke ceny ropy. 
         
     
         
        
                                

        
         
            ZAHRANIČIE
             Taliban zaútočil na citlivé miesto Pakistanu. Na deti 
             Taliban zabil v škole v Pakistane najmenej 141 ľudí, väčšinou deti. 
         
     
         
        
                                

        
         
            KOMENTARE.SME.SK
             Cynická obluda: Medzičasom na opustenom ostrove 
             Stroskotanci majú veľké šťastie, že sú dvaja. Lacné vtipy na úrovni ich autora. 
         
     
     

                 
     
    
     
        
 

     
                
                            
                    



         
            
                Marianna Kawaschová
            
         
        kawaschova.blog.sme.sk (rss)
         
                                     
     
         
        
     
     
                     
                             
             

     
        
            
                
                    Počet článkov
                    39
                
                
                    Celková karma
                    
                                                0.00
                    
                
                
                    Priemerná čítanosť
                    396
                
            
        
     

             

             Zoznam rubrík 
            
             
                                     
                        
                            Súkromné
                        
                     
                                     
                        
                            Nezaradené
                        
                     
                             
         
    

    

           
     Pošlite odkaz blogerovi 
    
         
            
         

         
         
         
         

         
         
Odosielateľ (e-mail)
 
         
Text
 
         
             
Protispamová ochrana 
 
 Zle. Skúste znova. 
Opíšte slová z obrázku: Načítať iné slová 
 Get an image CAPTCHA 
 
 
         
                 
            
         
    
  


 

     






            
    
        
    
 

        
         
         
             Už ste čítali? 
         
         
 

 kultura.sme.sk 
 Margaréta sa spriahla s diablom, no mala Kristovu pravdu 
 
 

 www.sme.sk 
 Pútnické miesta The Beatles alebo ako ľudia kráčajú po zebre 
 
 

 cestovanie.sme.sk 
 Lovia za svitania a v hmle 
 
 

 www.sme.sk 
 Ako sa valila lavína slobody. Ako padal komunizmus 
 
 

 kultura.sme.sk 
 Žiadne retro, poriadny biznis. Takto sa lisuje platňa 
 
	   
 


        
         
            
         

     

    
     
 
 
	 

		Kontakty
		Predplatné
		Etický kódex
		Pomoc
		Mapa stránky
		
	 
 
 
	 
		 
			Widget
			RSS
			Newsletter
		 
		 
			Mobil
			Smartphone
			Kindle
			Televízor
		 
		 
			Facebook
			Twitter
			Google+
		 
	 
	 
		
	 
	 
		Ďalšie weby skupiny: Prihlásenie do Post.sk
		Új Szó Slovak Spectator
		Agentúrne správy 
		Vydavateľstvo
		Inzercia
		Osobné údaje
		Návštevnosť webu
		Predajnosť tlače
		Petit Academy
		SME v škole 		© Copyright 1997-2014 Petit Press, a.s. 
	 
 
 
 


          
        
            
            

        
    

    
    


    


    
        
        
        
        
        
        
        
            
            
        
        
        
        
         
                                
               





 

 



        

 




