
      
    
    

     
	 
	 
 SME.sk 
 Zľavy 
 Zoznámenie 
 Reality 
 Dovolenky 
 Pizza 
 Reštaurácie 
 Recenzie 
 Inzeráty 
 Naničmama 	 
Nákupy 
		 
 Filmy na DVD 
 Hodinky 
 Parfémy 
 SME knihy a DVD 
 Superhosting 
 Tlačiareň 
 Víno 
 Tvorba webov 
 Predplatné SME 
 ProSenior 		 
	 
	 
 
	 
 


    
    
        
        
         
          
         
    

    
      
         
            
             
     
        
        
     
    Blog.SME.sk
 

    

         
        
                 
     
         
            Sme.sk
         
         
            Domov
         
         
            Regióny
         
         
            Ekonomika
         
         
            Svet
         
         
            Komentáre
         
         
            Kultúra
         
         
            Šport
         
         
            TV
         
         
            Auto
         
         
            Tech
         
         
            Poradňa
         
         
            Žena
         
         
            Bývanie
         
         
            Zdravie
         
         
            Blog
         
     
 

         
            
     
                                                         Politika 
                                                                                     Spoločnosť 
                                                                                     Cestovanie 
                                                                                     Ekonomika 
                                                                                     Fotografie 
                                                                                     Jedlo 
                                                                                     Kultúra 
                                                                                             
Ďalšie
                             
                                                                                         Lifestyle 
                                                                                                                                                                             Médiá 
                                                                                                                                                                             Nezaradené 
                                                                                                                                                                             Súkromné 
                                                                                                                                                                             Šport 
                                                                                                                                                                             Veda a technika 
                                                                                                                                                                             Zábava 
                                                                                                                                                                             Poézia 
                                                                                                                                                                             Próza 
                                                                                                                                                                             Kódex blogera 
                                                                                 
                         
                                                 
            Blogeri
         
     


            

    
    Prihlásiť sa


    
    Založte si blog



    
    Odhlásiť sa


    
    




         

        
        
         
            
         
         
                
     
                 
            SME.sk &gt;
            Blog.SME.sk &gt;
                            Ján Mydlo
                                        &gt;
                Nezaradené
                     
                 Sladká minulosť 

        
            
                                    29.3.2010
            o
            21:40
                        (upravené
                25.2.2014
                o
                11:32)
                        |
            Karma článku:
                3.23
            |
            Prečítané 
            295-krát
                    
         
     
         
             

                 
                    Stretávali sme sa v klube násťročný pubertiaci.Postavili sme si ho a opustenom židovskom cintoríne,rovno medzi náhrobkami.Bol to môj chvíľkový nápad a prvý som vykopal miesto pre búdu,čo mala byť našim budúcim klubom.Postupne sa pridal Slavo,potom Marián a Ľudo aj Norbert.Z rodičovského domu zmizli dosky,plechy zo súdov od smoly,ktoré tak usilovne zrovnal môj dedko.Boli sme mladý,blaznivý a večný romantici...
                 

                 Z vonku plech,z vnútra dosky pomedzi to vysypať škváru z uhlia a máte dokonalú izoláciu.Teplo domova nám vytváral pec PETRÍK,ktorý na dvore už potom ťažko zháňala moja babka.Vôbec sme nevnímali totalitnýrežim,netýkalo sa nás to.Proste bezstarostné časy.Náhrobky na cintoríne sme nerozbíjali a kľud nebožtíkov narúšal len zvuk naších gitár.Často znel spev starých trampskych piesní.Dievčatá nám klub zútulnili koberčekmi.Pri petrolejkách či žiari ohníčka,sme viedli nekonečné rozhovory.Boli sme veľmi dobrá partia, chlapcov aj dievčat.Vedeli sme stále vymyslieť dobrú hru a nepamätám,žeby sme sa nudili.Aby v zime dievčatá nestáli bokom,hrali hokej spoločne z nami.Mohol by som donekonečna písať o tých krásnych časoch,mnohý z Vás ich určite zažili,ale chcem o inom.Chcem hovoriť o svojej násťročnej dcére,ktorá postáva aj celé dni v opustenej autobusovej zastávke,kedže mladý nemajú svoj klub,stretávajú sa tam.Často počujem z jej úst,nudím sa.Tento chladný svet ľudských bytostí,často spája už len net,facebook,azet...To kúzlo ľudského tepla,sa vytráca.Su chladný navzájom,počuť to aj z ich debát.Kde je ta spolupatričnosť?Kde je ta láska,ktorú sme vedeli tak rozdávať mi?Vertemi,je mi ich ľúto,ľúto ich pretechnizovaného,ale prázdneho života. 

                 
                                        
                        
                        Zdieľať
                    

                    
                            
                                    
                                    Zdieľať na
                            
                             
                                    
                             
                    

                                                                                                                        
                            
                            Diskusia: (0)
                        
                    
                    
                        
                        Zvýšte karmu
                    
                 
             

                             
            
                     
                         Ďalšie články blogera 
                         
                                                             
                                    
                    	                                                                                        

                                                                        
                                    
                                        Ján Mydlo 
                                        
                                            Láska v zabudnutí
                                        
                                    
                                 
                                                             
                                    
                    	                                                                                        

                                                                        
                                    
                                        Ján Mydlo 
                                        
                                            Kozub.
                                        
                                    
                                 
                                                             
                                    
                    	                                                                                        

                                                                        
                                    
                                        Ján Mydlo 
                                        
                                            Žiť v prítomnosti je tá správna cesta.
                                        
                                    
                                 
                                                             
                                    
                    	                                                                                        

                                                                        
                                    
                                        Ján Mydlo 
                                        
                                            si môj kamarát?
                                        
                                    
                                 
                                                             
                                    
                    	                                                                                        

                                                                        
                                    
                                        Ján Mydlo 
                                        
                                            Feng -šuej.
                                        
                                    
                                 
                                                     
                        
                            Ďalšie články blogera: Ján Mydlo
                        
                     
            
                     
                         Ďalšie články z rubriky nezaradené 
                         
                                                             
                                    
                                                            	                                                                                        

                                                                                                
                                    
                                        Pavel Ondrejmiška 
                                        
                                            Dnes farnosť Žitavany, pred tisíc rokmi kráľovská fara v Kňažiciach
                                        
                                    
                                 
                                                             
                                    
                                                            	                                                                                        

                                                                                                
                                    
                                        Michal Pazič 
                                        
                                            Prečo školské zariadenie v Pakistane?
                                        
                                    
                                 
                                                             
                                    
                                                            	                                                                                        

                                                                                                
                                    
                                        Milan Removčík 
                                        
                                            Zimný Šíp.
                                        
                                    
                                 
                                                             
                                    
                                                            	                                                                                        

                                                                                                
                                    
                                          esc-sr 
                                        
                                            Čas (ne)vhodných darčekov
                                        
                                    
                                 
                                                             
                                    
                                                            	                                                                                        

                                                                                                
                                    
                                        Michal Filek 
                                        
                                            Ako je ťažké darovať bezdomovcom polievku?
                                        
                                    
                                 
                                                     
                        
                            Ďalšie články z rubriky nezaradené
                        
                     
                 
            
                    
 
     Hlavné správy 
         
        
                                

        
         
            AKTUALIZOVANÉ 16:00
             Rubeľ kolabuje, ruská vláda má mimoriadne rokovať 
             Jeden dolár stál v utorok poobede už viac ako 78 rubľov, razantné zvýšenie úrokov nepomohlo. 
         
     
         
        
                                

        
         
            ZAHRANIČIE
             Taliban zabil v škole v Pakistane vyše sto ľudí, väčšinou deti 
             Militanti vtrhli do vojenskej školy v policajných rovnošatách. 
         
     
         
        
                                

        
         
            KOMENTARE.SME.SK
             Cynická obluda: Medzičasom na opustenom ostrove 
             Stroskotanci majú veľké šťastie, že sú dvaja. Lacné vtipy na úrovni ich autora. 
         
     
     

                 
     
    
     
        
 

     
                
                            
                    



         
            
                Ján Mydlo
            
         
        janmydlo.blog.sme.sk (rss)
         
                                     
     
        Som človek,ktorému záleží na pravde a viere,viere v zdravého ducha tohto malého,ale hrdého národa.
        
     
     
                     
                             
             

     
        
            
                
                    Počet článkov
                    25
                
                
                    Celková karma
                    
                                                0.00
                    
                
                
                    Priemerná čítanosť
                    695
                
            
        
     

             

             Zoznam rubrík 
            
             
                                     
                        
                            Nezaradené
                        
                     
                             
         
    

    

        

     






            
    
        
    
 

        
         
         
             Už ste čítali? 
         
         
 

 kultura.sme.sk 
 Margaréta sa spriahla s diablom, no mala Kristovu pravdu 
 
 

 www.sme.sk 
 Pútnické miesta The Beatles alebo ako ľudia kráčajú po zebre 
 
 

 cestovanie.sme.sk 
 Lovia za svitania a v hmle 
 
 

 www.sme.sk 
 Ako sa valila lavína slobody. Ako padal komunizmus 
 
 

 kultura.sme.sk 
 Žiadne retro, poriadny biznis. Takto sa lisuje platňa 
 
	   
 


        
         
            
         

     

    
     
 
 
	 

		Kontakty
		Predplatné
		Etický kódex
		Pomoc
		Mapa stránky
		
	 
 
 
	 
		 
			Widget
			RSS
			Newsletter
		 
		 
			Mobil
			Smartphone
			Kindle
			Televízor
		 
		 
			Facebook
			Twitter
			Google+
		 
	 
	 
		
	 
	 
		Ďalšie weby skupiny: Prihlásenie do Post.sk
		Új Szó Slovak Spectator
		Agentúrne správy 
		Vydavateľstvo
		Inzercia
		Osobné údaje
		Návštevnosť webu
		Predajnosť tlače
		Petit Academy
		SME v škole 		© Copyright 1997-2014 Petit Press, a.s. 
	 
 
 
 


          
        
            
            

        
    

    
    


    


    
        
        
        
        
        
        
        
            
            
        
        
        
        
         
                                
               





 

 



        

 




