
      
    
    

     
	 
	 
 SME.sk 
 Zľavy 
 Zoznámenie 
 Reality 
 Dovolenky 
 Pizza 
 Reštaurácie 
 Recenzie 
 Inzeráty 
 Naničmama 	 
Nákupy 
		 
 Filmy na DVD 
 Hodinky 
 Parfémy 
 SME knihy a DVD 
 Superhosting 
 Tlačiareň 
 Víno 
 Tvorba webov 
 Predplatné SME 
 ProSenior 		 
	 
	 
 
	 
 


    
    
        
        
         
          
         
    

    
      
         
            
             
     
        
        
     
    Blog.SME.sk
 

    

         
        
                 
     
         
            Sme.sk
         
         
            Domov
         
         
            Regióny
         
         
            Ekonomika
         
         
            Svet
         
         
            Komentáre
         
         
            Kultúra
         
         
            Šport
         
         
            TV
         
         
            Auto
         
         
            Tech
         
         
            Poradňa
         
         
            Žena
         
         
            Bývanie
         
         
            Zdravie
         
         
            Blog
         
     
 

         
            
     
                                                         Politika 
                                                                                     Spoločnosť 
                                                                                     Cestovanie 
                                                                                     Ekonomika 
                                                                                     Fotografie 
                                                                                     Jedlo 
                                                                                     Kultúra 
                                                                                             
Ďalšie
                             
                                                                                         Lifestyle 
                                                                                                                                                                             Médiá 
                                                                                                                                                                             Nezaradené 
                                                                                                                                                                             Súkromné 
                                                                                                                                                                             Šport 
                                                                                                                                                                             Veda a technika 
                                                                                                                                                                             Zábava 
                                                                                                                                                                             Poézia 
                                                                                                                                                                             Próza 
                                                                                                                                                                             Kódex blogera 
                                                                                 
                         
                                                 
            Blogeri
         
     


            

    
    Prihlásiť sa


    
    Založte si blog



    
    Odhlásiť sa


    
    




         

        
        
         
            
         
         
                
     
                 
            SME.sk &gt;
            Blog.SME.sk &gt;
                            Oldřich Kovář
                                        &gt;
                Moje obľúbené stránky
                     
                 Robko, Janko  a homosexuáli 

        
            
                                    13.6.2010
            o
            20:13
                        (upravené
                14.6.2010
                o
                9:24)
                        |
            Karma článku:
                10.58
            |
            Prečítané 
            2851-krát
                    
         
     
         
             

                 
                    Na začiatok moje predsavzatie do nového funkčného obdobia:  Robko, ak Iveta nebude premiérkou, tak máš odo mňa automaticky hlas v ďalších voľbách.   Ale čo ma dnes podráždilo, keď sa Robko aj Janko hneď v prvých reakciách na výsledky volieb opreli o našich 4 percentných daňových poplatníkov.
                 

                 
  
   A to ako KDH rozchodí realizáciu bodu č. 92, SAS programu:      Pre páry rovnakého pohlavia zaviesť nový právny inštitút životného partnerstva založený na princípe vzájomnej vyživovacej povinnosti partnerov zakladajúci medzi partnermi príbuzenský vzťah so všetkými právnymi následkami vrátane dedenia zo zákona v I. dedičskej skupine. Právne následky založenia životného partnerstva sú obdobné ako pri manželstve avšak bez možnosti uzatvoriť ho pred dovŕšením 18. roku veku, bez vzniku vyživovacej povinnosti rozvedených životných partnerov a bez možnosti adopcie detí párom. Cirkevnú formu uzatvárania životného partnerstva navrhujeme ako prípustnú, závislú od dobrovoľného rozhodnutia registrovanej cirkvi takúto službu poskytovať.       Moja kamarátka, ktorá našla šťastie v spoločnom, živote s partnerkou, po patáliách s niekoľkými partnermi, iného pohlavia, zistila, že žena, je pre ňu ten stabilný pilier, ktorý jej pomôže zdolávať, radosti a nástrahy života. Pre mňa je to úplne normálny vzťah.            Môj syn Maxík, chodí do škôlky, kde pani majiteľka škôlky je rozvedená, a vyjadrila sa. že jej život bez prvku iného pohlavia, je omnoho krajší a znesiteľnejší ako život, so samcom. Moje rozvedené spolužiačky na stretávke po 15 rokov zo strednej školy, boli nadšené, že sa zbavili nadbytočnej testosterónovej záťaže. A necitujem vybrané slová mojej polovičky, ženského pohlavia, keď nechám po sebe niekde “čisté” ponožky....               Citujem dnešný výrok pána Figeľa: „KDH reprezentuje zmenu a chce byť jej nositeľom“         "Miluj blížneho svojho ako seba samého" - hovorí 2. prikázanie, ktoré je hlavnou časťou Ježišovho učenia a snáď KDH by ho malo plne rešpektovať, čo povedie k správnej formulácii právnej úpravy registrovaného partnerstva na Slovensku, a neznemožní to vytvorenie novej zodpovednej vlády.               Verím, že na formálnom papieri sa určite dohodnú. Veď sa nejedná o manželstvo, ale o úpravu vzťahu medzi dvoma ľuďmi, ktorí sa rozhodli prežiť život spolu, v dobrom aj zlom.               Neviem či je to náhoda, ale rozdiel medzi bývalou koalíciu a KDH, SAS, SDKU a Most-Híd, je 4,2. (44,1 – 39,9 = 4,2 %). Žeby Robkovi a Jankovi podkúrili (zateplili) naši právoplatní milujúci občania.               Povedzme si na rovinu, ktoré z našich žien by privítalo spolužitie s Robkom a Jankom. A možno by si pomohli aj sami. To by bol párik Janko a RobkoJ 

                 
                                        
                        
                        Zdieľať
                    

                    
                            
                                    
                                    Zdieľať na
                            
                             
                                    
                             
                    

                                                                                                                        
                            
                            Diskusia: (20)
                        
                    
                    
                        
                        Zvýšte karmu
                    
                 
             

                             
            
                     
                         Ďalšie články blogera 
                         
                                                             
                                    
                    	                                                                                        

                                                                        
                                    
                                        Oldřich Kovář 
                                        
                                            Pozor na praktiky ZSE pri výmene elektromeru
                                        
                                    
                                 
                                                             
                                    
                    	                                                                                        

                                                                        
                                    
                                        Oldřich Kovář 
                                        
                                            Pripravte sa na drahé preplácanie  peňažných šekov na Slovensku
                                        
                                    
                                 
                                                             
                                    
                    	                                                                                        

                                                                        
                                    
                                        Oldřich Kovář 
                                        
                                            Môj príbeh Coca-Coly
                                        
                                    
                                 
                                                             
                                    
                    	                                                                                        

                                                                        
                                    
                                        Oldřich Kovář 
                                        
                                            Keď sa finanční kontrolóri Ministerstva školstva flákajú
                                        
                                    
                                 
                                                             
                                    
                    	                                                                                        

                                                                        
                                    
                                        Oldřich Kovář 
                                        
                                            Juraj Široký, finančný audítor
                                        
                                    
                                 
                                                     
                        
                            Ďalšie články blogera: Oldřich Kovář
                        
                     
            
                     
                         Ďalšie články z rubriky politika 
                         
                                                             
                                    
                                                            	                                                                                        

                                                                                                
                                    
                                        Tomáš Hudec 
                                        
                                            Chceme zvýšiť účasť ľudí vo voľbách? Zaveďme eVoľby!
                                        
                                    
                                 
                                                             
                                    
                                                            	                                                                                        

                                                                                                
                                    
                                        Robert Bestro 
                                        
                                            Výmena vedenia parlamentu zjavne prospela
                                        
                                    
                                 
                                                             
                                    
                                                            	                                                                                        

                                                                                                
                                    
                                        Júlia Piraňa Mikolášiková 
                                        
                                            Obvinia ďalšiu novinárku z údajného ohovárania policajného šéfa Ševčíka?
                                        
                                    
                                 
                                                             
                                    
                                                            	                                                                                        

                                                                                                
                                    
                                        Stanislav Martinčko 
                                        
                                            Stužka z kvetinárstva za 16 centov a rozkradnuté milióny!!
                                        
                                    
                                 
                                                             
                                    
                                                            	                                                                                        

                                                                                                
                                    
                                        Veronika Remisova 
                                        
                                            Elektronické mýto podľa Ficovej vlády – prehľadnejšie sa to skrátka nedá
                                        
                                    
                                 
                                                     
                        
                            Ďalšie články z rubriky politika
                        
                     
                 
            
                    
 
     Hlavné správy 
         
        
                                

        
         
            ZAHRANIČIE
             Protestujúci v Maďarsku strácajú dych, Fidesz ich mätie novými návrhmi 
             Na demonštrácii proti Orbánovej vláde bolo v utorok už len niekoľko tisíc ľudí. 
         
     
         
        
                                

        
         
            AKTUALIZOVANÉ O 21:30
             Rubeľ pocítil pád na dno, Rusko je vo finančnej kríze 
             Dolár včera stál už takmer 80 rubľov, pod hladinu ho tlačia najmä nízke ceny ropy. 
         
     
         
        
                                

        
         
            AKTUALIZOVANÉ 21:50
             Taliban zabil v škole v Pakistane 132 detí 
             Pakistan až teraz poriadne zatlačil na islamistov. Odplatou je útok na deti vojakov. 
         
     
     

                 
     
    
     
        
 

     
                
                            
                    



         
            
                Oldřich Kovář
            
         
        oldrichkovar.blog.sme.sk (rss)
         
                                     
     
        Mám rád aktívny prístup k životu a milujem jazdenie na divokej vode :-). Čo vás nezabije, vás posilní.Ja.


        
     
     
                     
                             
             

     
        
            
                
                    Počet článkov
                    112
                
                
                    Celková karma
                    
                                                0.00
                    
                
                
                    Priemerná čítanosť
                    2504
                
            
        
     

             

             Zoznam rubrík 
            
             
                                     
                        
                            Moje obľúbené stránky
                        
                     
                                     
                        
                            Súkromné
                        
                     
                                     
                        
                            Nezaradené
                        
                     
                             
         
    

    

             
             Čo ma zaujalo 
            Týmto článkom bloger klikol/klikla na karmu.
             
                                                         
                       Priznanie na Súdnej rade - ide o naše deti!
                     
                                                         
                       Keď stretávate Andreja Kisku každé ráno, nemusíte počúvať Fica
                     
                                                         
                       Chlapotika
                     
                                                         
                       Robert Fico tajne spustil privatizáciu Slovak Telekomu
                     
                                                         
                       Som veriaci - kto je viac?
                     
                                                         
                       Pozor na praktiky ZSE pri výmene elektromeru
                     
                                                         
                       Pripravte sa na drahé preplácanie  peňažných šekov na Slovensku
                     
                                                         
                       Vážené SME a blogeri, nechajte už pána premiéra Fica žiť.
                     
                                                         
                       Môj príbeh Coca-Coly
                     
                                                         
                       Keď sa finanční kontrolóri Ministerstva školstva flákajú
                     
                             
         
           
     Pošlite odkaz blogerovi 
    
         
            
         

         
         
         
         

         
         
Odosielateľ (e-mail)
 
         
Text
 
         
             
Protispamová ochrana 
 
 Zle. Skúste znova. 
Opíšte slová z obrázku: Načítať iné slová 
 Get an image CAPTCHA 
 
 
         
                 
            
         
    
  


 

     






            
    
        
    
 

        
         
         
             Už ste čítali? 
         
         
 

 kultura.sme.sk 
 Margaréta sa spriahla s diablom, no mala Kristovu pravdu 
 
 

 www.sme.sk 
 Pútnické miesta The Beatles alebo ako ľudia kráčajú po zebre 
 
 

 cestovanie.sme.sk 
 Lovia za svitania a v hmle 
 
 

 www.sme.sk 
 Ako sa valila lavína slobody. Ako padal komunizmus 
 
 

 kultura.sme.sk 
 Žiadne retro, poriadny biznis. Takto sa lisuje platňa 
 
	   
 


        
         
            
         

     

    
     
 
 
	 

		Kontakty
		Predplatné
		Etický kódex
		Pomoc
		Mapa stránky
		
	 
 
 
	 
		 
			Widget
			RSS
			Newsletter
		 
		 
			Mobil
			Smartphone
			Kindle
			Televízor
		 
		 
			Facebook
			Twitter
			Google+
		 
	 
	 
		
	 
	 
		Ďalšie weby skupiny: Prihlásenie do Post.sk
		Új Szó Slovak Spectator
		Agentúrne správy 
		Vydavateľstvo
		Inzercia
		Osobné údaje
		Návštevnosť webu
		Predajnosť tlače
		Petit Academy
		SME v škole 		© Copyright 1997-2014 Petit Press, a.s. 
	 
 
 
 


          
        
            
            

        
    

    
    


    


    
        
        
        
        
        
        
        
            
            
        
        
        
        
         
                                
               





 

 



        

 




