

 1. cieľ bol Rím. 
  
 Anjelský hrad, doslova. 
 Ako inak, koloseum :-) 
  
 Obelisk. 
  
 Bazilika sv. Petra. 
 Park za Sixtínskou kaplnkou. 
  
 2. cieľ- Florencia. 
  
 3. cieľ- Lido Di Jesolo. 
  
 A posledný cieľ- Benátky. 

