
      
    
    

     
	 
	 
 SME.sk 
 Zľavy 
 Zoznámenie 
 Reality 
 Dovolenky 
 Pizza 
 Reštaurácie 
 Recenzie 
 Inzeráty 
 Naničmama 	 
Nákupy 
		 
 Filmy na DVD 
 Hodinky 
 Parfémy 
 SME knihy a DVD 
 Superhosting 
 Tlačiareň 
 Víno 
 Tvorba webov 
 Predplatné SME 
 ProSenior 		 
	 
	 
 
	 
 


    
    
        
        
         
          
         
    

    
      
         
            
             
     
        
        
     
    Blog.SME.sk
 

    

         
        
                 
     
         
            Sme.sk
         
         
            Domov
         
         
            Regióny
         
         
            Ekonomika
         
         
            Svet
         
         
            Komentáre
         
         
            Kultúra
         
         
            Šport
         
         
            TV
         
         
            Auto
         
         
            Tech
         
         
            Poradňa
         
         
            Žena
         
         
            Bývanie
         
         
            Zdravie
         
         
            Blog
         
     
 

         
            
     
                                                         Politika 
                                                                                     Spoločnosť 
                                                                                     Cestovanie 
                                                                                     Ekonomika 
                                                                                     Fotografie 
                                                                                     Jedlo 
                                                                                     Kultúra 
                                                                                             
Ďalšie
                             
                                                                                         Lifestyle 
                                                                                                                                                                             Médiá 
                                                                                                                                                                             Nezaradené 
                                                                                                                                                                             Súkromné 
                                                                                                                                                                             Šport 
                                                                                                                                                                             Veda a technika 
                                                                                                                                                                             Zábava 
                                                                                                                                                                             Poézia 
                                                                                                                                                                             Próza 
                                                                                                                                                                             Kódex blogera 
                                                                                 
                         
                                                 
            Blogeri
         
     


            

    
    Prihlásiť sa


    
    Založte si blog



    
    Odhlásiť sa


    
    




         

        
        
         
            
         
         
                
     
                 
            SME.sk &gt;
            Blog.SME.sk &gt;
                            Čo je nové na sme.sk
                                        &gt;
                Novinky na sme.sk
                     
                 Vypnite politiku! Na blogoch a vybrali.sme.sk to už ide 

        
            
                                    5.5.2010
            o
            13:48
                        |
            Karma článku:
                11.66
            |
            Prečítané 
            4120-krát
                    
         
     
         
             

                 
                    Ak ste už presýtení politikou, ak vás vyrušuje, že namiesto ľudských tém sa všade riešia len voľby a ľavicovo-pravicový súboj, veríme, že vás potešíme. Odteraz môžete z výberu blogov i z vybrali.sme.sk politiku vylúčiť.
                 

                 Stačí, aby ste zaškrtli, že si neprajete zobrazovať články o politike a prestanú pre vás existovať.   
 Schválne - porovnajte si obsah titulky blogov či vybrali.sme.sk s politikou a bez nej. Možno zistíte, že bez politiky nemôžete žiť. V takom prípade ju rovnako jednoducho do vášho zobrazenia vrátite. A možno vám bude stačiť do politiky len občas nazrieť.    Kedykoľvek kliknite na rubriku politika, ktorá združuje politické články na blogoch i vybrali.sme.sk a zobrazia sa vám politické články bez ohľadu na to, či si ich necháte zobrazovať v titulkových výberoch.    Ak ste politik, vaša smola   Ak ste autor a šíriteľ politických článkov, nevieme, či potešíme aj vás. Vaše články sa prestanú zobrazovať na prominentných miestach u mnohých našich čitateľov. Budeme sledovať, či svoje blogy a články správne zaraďujete do rubriky politika.   Ak nájdeme články, ktoré budú mať zreteľný politický náboj, v inej ako politickej rubrike, budeme ich dôsledne preraďovať. Vieme, že politika častokrát zasahuje do iných oblastí života a úplne najčastejšie sa prelína s ekonomikou, no našim cieľom je predovšetkým spokojnosť čitateľov. Ak si niektorí z nich neprajú čítať politické témy, umožníme im to aj za cenu preraďovania tématicky zmiešaných článkov do politickej rubriky.   Nikoho nechceme odradiť od politicky angažovaného písania, no všetci politici, poslanci, kandidáti a sympatizanti sa musia zmieriť s tým, že tento obsah ukážeme len tomu, kto si to praje.   Čo si o tom myslíte? Napíšte nám do diskusie. 

                 
                                        
                        
                        Zdieľať
                    

                    
                            
                                    
                                    Zdieľať na
                            
                             
                                    
                             
                    

                                                                                                                        
                            
                            Diskusia: (99)
                        
                    
                    
                        
                        Zvýšte karmu
                    
                 
             

                             
            
                     
                         Ďalšie články blogera 
                         
                                                             
                                    
                    	                                                                                        

                                                                        
                                    
                                        Čo je nové na sme.sk 
                                        
                                            SME hľadá redaktorov, online editorov
                                        
                                    
                                 
                                                             
                                    
                    	                                                                                        

                                                                        
                                    
                                        Čo je nové na sme.sk 
                                        
                                            Prečo pod niektorými článkami nie je možnosť diskutovať?
                                        
                                    
                                 
                                                             
                                    
                    	                                                                                        

                                                                        
                                    
                                        Čo je nové na sme.sk 
                                        
                                            Sme.sk hľadá HTML/CSS kodéra
                                        
                                    
                                 
                                                             
                                    
                    	                                                                                        

                                                                        
                                    
                                        Čo je nové na sme.sk 
                                        
                                            Vitajte na úplne nových blogoch
                                        
                                    
                                 
                                                             
                                    
                    	                                                                                        

                                                                        
                                    
                                        Čo je nové na sme.sk 
                                        
                                            Nová titulná stránka SME.sk: Viac správ, viac čítania
                                        
                                    
                                 
                                                     
                        
                            Ďalšie články blogera: Čo je nové na sme.sk
                        
                     
            
                     
                         Ďalšie články z rubriky spoločnosť 
                         
                                                             
                                    
                                                            	                                                                                        

                                                                                                
                                    
                                        Mária Levočská 
                                        
                                            Ďalšia obeť pomsty monsignora Jaraba
                                        
                                    
                                 
                                                             
                                    
                                                            	                                                                                        

                                                                                                
                                    
                                        Kristián Straka 
                                        
                                            Nebite ma, doktor Plzák... alebo POZVANIE NA VEČERU
                                        
                                    
                                 
                                                             
                                    
                                                            	                                                                                        

                                                                                                
                                    
                                        Kristián Straka 
                                        
                                            Oklamaní Ježiškom ?
                                        
                                    
                                 
                                                             
                                    
                                                            	                                                                                        

                                                                                                
                                    
                                        Milan Buno 
                                        
                                            Šup, šup, najesť sa. A utekať!
                                        
                                    
                                 
                                                             
                                    
                                                            	                                                                                        

                                                                                                
                                    
                                        Katarína Lorenčíková 
                                        
                                            Par uprimnych oslobodzujucich riadkov...
                                        
                                    
                                 
                                                     
                        
                            Ďalšie články z rubriky spoločnosť
                        
                     
                 
            
                    
 
     Hlavné správy 
         
        
                                

        
         
            AKTUALIZOVANÉ O 20:00
             Rubeľ pocítil pád na dno, Rusko je vo finančnej kríze 
             Dolár včera stál už takmer 80 rubľov, pod hladinu ho tlačia najmä nízke ceny ropy. 
         
     
         
        
                                

        
         
            ZAHRANIČIE
             Taliban zaútočil na citlivé miesto Pakistanu. Na deti 
             Taliban zabil v škole v Pakistane najmenej 141 ľudí, väčšinou deti. 
         
     
         
        
                                

        
         
            KOMENTARE.SME.SK
             Cynická obluda: Medzičasom na opustenom ostrove 
             Stroskotanci majú veľké šťastie, že sú dvaja. Lacné vtipy na úrovni ich autora. 
         
     
     

                 
     
    
     
        
 

     
                
                            
                    



         
            
                Čo je nové na sme.sk
            
         
        novinky.blog.sme.sk (rss)
         
                                     
     
         Novinky, zlepšenia a vôbec všetko, s čím sa chceme podeliť. 
        
     
     
                     
                                                        
                        
                    
                                                        
                        
                    
                                                        
                        
                    
                             
             

     
        
            
                
                    Počet článkov
                    153
                
                
                    Celková karma
                    
                                                0.00
                    
                
                
                    Priemerná čítanosť
                    6917
                
            
        
     

             

             Zoznam rubrík 
            
             
                                     
                        
                            Novinky na sme.sk
                        
                     
                                     
                        
                            Nezaradené
                        
                     
                             
         
    

    

        

     






            
    
        
    
 

        
         
         
             Už ste čítali? 
         
         
 

 kultura.sme.sk 
 Margaréta sa spriahla s diablom, no mala Kristovu pravdu 
 
 

 www.sme.sk 
 Pútnické miesta The Beatles alebo ako ľudia kráčajú po zebre 
 
 

 cestovanie.sme.sk 
 Lovia za svitania a v hmle 
 
 

 www.sme.sk 
 Ako sa valila lavína slobody. Ako padal komunizmus 
 
 

 kultura.sme.sk 
 Žiadne retro, poriadny biznis. Takto sa lisuje platňa 
 
	   
 


        
         
            
         

     

    
     
 
 
	 

		Kontakty
		Predplatné
		Etický kódex
		Pomoc
		Mapa stránky
		
	 
 
 
	 
		 
			Widget
			RSS
			Newsletter
		 
		 
			Mobil
			Smartphone
			Kindle
			Televízor
		 
		 
			Facebook
			Twitter
			Google+
		 
	 
	 
		
	 
	 
		Ďalšie weby skupiny: Prihlásenie do Post.sk
		Új Szó Slovak Spectator
		Agentúrne správy 
		Vydavateľstvo
		Inzercia
		Osobné údaje
		Návštevnosť webu
		Predajnosť tlače
		Petit Academy
		SME v škole 		© Copyright 1997-2014 Petit Press, a.s. 
	 
 
 
 


          
        
            
            

        
    

    
    


    


    
        
        
        
        
        
        
        
            
            
        
        
        
        
         
                                
               





 

 



        

 




