
      
    
    

     
	 
	 
 SME.sk 
 Zľavy 
 Zoznámenie 
 Reality 
 Dovolenky 
 Pizza 
 Reštaurácie 
 Recenzie 
 Inzeráty 
 Naničmama 	 
Nákupy 
		 
 Filmy na DVD 
 Hodinky 
 Parfémy 
 SME knihy a DVD 
 Superhosting 
 Tlačiareň 
 Víno 
 Tvorba webov 
 Predplatné SME 
 ProSenior 		 
	 
	 
 
	 
 


    
    
        
        
         
          
         
    

    
      
         
            
             
     
        
        
     
    Blog.SME.sk
 

    

         
        
                 
     
         
            Sme.sk
         
         
            Domov
         
         
            Regióny
         
         
            Ekonomika
         
         
            Svet
         
         
            Komentáre
         
         
            Kultúra
         
         
            Šport
         
         
            TV
         
         
            Auto
         
         
            Tech
         
         
            Poradňa
         
         
            Žena
         
         
            Bývanie
         
         
            Zdravie
         
         
            Blog
         
     
 

         
            
     
                                                         Politika 
                                                                                     Spoločnosť 
                                                                                     Cestovanie 
                                                                                     Ekonomika 
                                                                                     Fotografie 
                                                                                     Jedlo 
                                                                                     Kultúra 
                                                                                             
Ďalšie
                             
                                                                                         Lifestyle 
                                                                                                                                                                             Médiá 
                                                                                                                                                                             Nezaradené 
                                                                                                                                                                             Súkromné 
                                                                                                                                                                             Šport 
                                                                                                                                                                             Veda a technika 
                                                                                                                                                                             Zábava 
                                                                                                                                                                             Poézia 
                                                                                                                                                                             Próza 
                                                                                                                                                                             Kódex blogera 
                                                                                 
                         
                                                 
            Blogeri
         
     


            

    
    Prihlásiť sa


    
    Založte si blog



    
    Odhlásiť sa


    
    




         

        
        
         
            
         
         
                
     
                 
            SME.sk &gt;
            Blog.SME.sk &gt;
                            Roman Daniel Baranek
                                        &gt;
                Varíme s medveďom
                     
                 Varíme s medveďom - Studené polievky na horúce dni 

        
            
                                    13.7.2008
            o
            12:00
                        |
            Karma článku:
                11.16
            |
            Prečítané 
            8824-krát
                    
         
     
         
             

                 
                    Studené polievky sú skvelým zakončením horúcich dní. Sú osviežujúce a lahodné. Dajú sa skladovať v chladničke niekoľko dní. Čím sú studenšie, tým lepšie. Najčastejšie sa pripravujú zo zeleniny, alebo z ovocia. Často sa do nich pridáva ako vložka alkohol. My sme tento krát vyskúšali zeleninové abstinenčné :) a pochutnali sme si na dvoch variantoch z medzinárodnej kuchyne a jednom vlastnom vynáleze.
                 

                  TARATOR     Tarator je letná polievka z bulharskej kuchyne. Ako obvykle má mnoho variant a v každej rodine ju pripravujú trochu inak. My si pripravíme variantu mojej prababičky. Budeme na ňu potrebovať šalátovú uhorku, (jedna ako je na obrázku, vystačí na dve pekné porcie), kôpor, cesnak, kyslú smotanu a pohár neperlivej minerálky. Na dochutenie použijeme soľ a trochu olivového oleja.           Uhorku ošúpeme, zbavíme jadierok a nakrájame na drobné kúsky.          Pridáme k nej posekaný kôpor, smotanu a roztlačený cesnak a všetko spolu premiešame. Podľa chuti osolíme a odložíme do chladničky aspoň na dve hodiny (najlepšie do druhého dňa).           Pred podávaním vmiešame do taratoru vychladenú minerálku a na tanieri pokvapkáme olivovým olejom.           Ako obmenu skúste do taratoru vmiešať perlivú minerálku. Jedlo získa zaujímavú štruktúru. Som presvedčený, že ďalšie svoje obľúbené obmeny napíše v diskusii Macko.          GASPAČO     Na ďalšiu studenú polievku si odskočíme do Španielska. Zeleninové gaspačo ma osobne veľmi nadchlo a stal som sa jeho veľkým priaznivcom. Na túto skvelú pochúťku si pripravíme asi pol kilogramu zrelých paradajok (a znova upozorňujem, paradajky kupujte nosom, ak nevoňajú, nebudú ani chutiť), jednu väčšiu uhorku, zelené papriky, cibuľu a cesnak. K tomu deciliter kvalitného olivového oleja. Všetko dochutíme balzamikovým octom a soľou. Nakoniec použijeme aj trochu petržlenovej vňate na ozdobu.          Paradajky narežeme do kríža a zalejeme ich vriacou vodou. Necháme ich stáť asi pol minúty a potom ich zlejeme.          Táto procedúra pomôže tomu, aby sa koža z paradajok ľahko ošúpala. Olúpané paradajky nakrájame na kusy. Uhorku ošúpeme, zbavíme jadier a tiež nakrájame. Papriku očistíme, zbavíme semienok, umyjeme a nakrájame. Všetku zeleninu dáme do mixéra. Pridáme cibuľu, cesnak, olivový olej a balzamikový ocot a rozmixujeme dohladka. Ak je hmota príliš hustá, môžeme pridať trochu vody.          Podľa chuti osolíme a necháme naozaj poriadne vychladnúť. Na mise môžeme posypať nadrobno nasekanou petržlenovou vňaťou. Ako vložka sa používajú drobné kúsky použitej zeleniny, niekde spomínajú vajíčko natvrdo, alebo krutóny. Mne však najviac chutí len takto, s krajcom bieleho chleba.          BYLINKOVÁ POLIEVKA     Tak toto som vymyslel počas dlhých letných nocí, keď sa človek lepí sám na seba a nedá sa mu spať. Skúsil som to len tak nesmelo ponúknuť Mackovi, ale malo to naozaj veľký úspech. Pri výrobe bylinkovej polievky som použil viazaničku bazalky, viazaničku petržlenovej vňate, trochu čerstvého tymiánu, liter plnotučného acidofilného mlieka a kvalitný olivový olej. Na dochutenie použijeme soľ, trochu bieleho korenia a balzamikový ocot. Pre cesnakofilov dobrá správa, pokojne ho pridajte.          Bylinky umyjeme a spolu s ostatnými ingredienciami strčíme do mixéra. Vo fľaške si necháme tak pol decilitra acidofilného mlieka. Poriadne rozmixujeme na hladkú hmotu.        Hotovú polievku necháme vychladnúť. Ozdobil som ju penou zo zvyšku acidka (poriadne som s ním triasol vo fľaši).        Ako vložku som použil malé koláčiky z lístkového cesta.            Tak k studeným polievkam nezostáva len popriať dobrú chuť. A niekedy nabudúce si skúsime ovocné.  

                 
                                        
                        
                        Zdieľať
                    

                    
                            
                                    
                                    Zdieľať na
                            
                             
                                    
                             
                    

                                                                                                                        
                            
                            Diskusia: (39)
                        
                    
                    
                        
                        Zvýšte karmu
                    
                 
             

                             
            
                     
                         Ďalšie články blogera 
                         
                                                             
                                    
                                                                                                    

                                                                        
                                    
                                        Roman Daniel Baranek 
                                        
                                            Varíme s medveďom - Rok v kuchyni
                                        
                                    
                                 
                                                             
                                    
                                                                                                    

                                                                        
                                    
                                        Roman Daniel Baranek 
                                        
                                            Adriana Macháčová, Róbert Dyda: Vieme prví
                                        
                                    
                                 
                                                             
                                    
                                                                                                    

                                                                        
                                    
                                        Roman Daniel Baranek 
                                        
                                            Varíme s medveďom - Oškvarkové pagáče
                                        
                                    
                                 
                                                             
                                    
                                                                                                    

                                                                        
                                    
                                        Roman Daniel Baranek 
                                        
                                            Varíme s medveďom - Rýchlovka - Hruškové tartelky
                                        
                                    
                                 
                                                             
                                    
                                                                                                    

                                                                        
                                    
                                        Roman Daniel Baranek 
                                        
                                            Varíme s medveďom - Plnené kura
                                        
                                    
                                 
                                                     
                        
                            Ďalšie články blogera: Roman Daniel Baranek
                        
                     
            
                     
                         Ďalšie články z rubriky jedlo 
                         
                                                             
                                    
                                                            	                                                                                        

                                                                                                
                                    
                                        Radovan Bránik 
                                        
                                            Kúpte si chladničku na webe, bude vám bez nej HEJ.SK!
                                        
                                    
                                 
                                                             
                                    
                                                            	                                                                                        

                                                                                                
                                    
                                        Carlos Arturo Sotelo Zumarán 
                                        
                                            Je banán ovocie, alebo zelenina?
                                        
                                    
                                 
                                                             
                                    
                                                            	                                                                                        

                                                                                                
                                    
                                        MUDr. Peter Žiak, PhD. 
                                        
                                            Multivitamíny znižujú riziko vzniku sivého zákalu
                                        
                                    
                                 
                                                             
                                    
                                                                                                                    

                                                                                                
                                    
                                        Peter Krško 
                                        
                                            Výživa podľa piatich elementov - tepelné pôsobenie potravín na organizmus
                                        
                                    
                                 
                                                             
                                    
                                                            	                                                                                        

                                                                                                
                                    
                                        Larisa Adámková 
                                        
                                            Bylinky a korenie v kuchyni dokážu liečiť
                                        
                                    
                                 
                                                     
                        
                            Ďalšie články z rubriky jedlo
                        
                     
                 
            
                    
 
     Hlavné správy 
         
        
                                

        
         
            ZAHRANIČIE
             Protestujúci v Maďarsku strácajú dych, Fidesz ich mätie novými návrhmi 
             Na demonštrácii proti Orbánovej vláde bolo v utorok už len niekoľko tisíc ľudí. 
         
     
         
        
                                

        
         
            AKTUALIZOVANÉ O 21:30
             Rubeľ pocítil pád na dno, Rusko je vo finančnej kríze 
             Dolár v utorok stál už takmer 80 rubľov, pod hladinu ho tlačia najmä nízke ceny ropy. 
         
     
         
        
                                

        
         
            AKTUALIZOVANÉ 21:50
             Taliban zabil v škole v Pakistane 132 detí 
             Pakistan až teraz poriadne zatlačil na islamistov. Odplatou je útok na deti vojakov. 
         
     
     

                 
     
    
     
        
 

     
                
                            
                    



         
            
                Roman Daniel Baranek
            
         
        baranek.blog.sme.sk (rss)
         
                                     
     
         Som chlap odvedľa. 
        
     
     
                     
                             
             

     
        
            
                
                    Počet článkov
                    612
                
                
                    Celková karma
                    
                                                10.28
                    
                
                
                    Priemerná čítanosť
                    6507
                
            
        
     

             

             Zoznam rubrík 
            
             
                                     
                        
                            Zápisky medveďa
                        
                     
                                     
                        
                            Varíme s medveďom
                        
                     
                                     
                        
                            Medveď mudruje
                        
                     
                                     
                        
                            Kapitolky z tanca a baletu
                        
                     
                                     
                        
                            Neďeľná chvíľka poézie
                        
                     
                                     
                        
                            Poviedka na Nedeľu
                        
                     
                                     
                        
                            Súkromné
                        
                     
                                     
                        
                            Nezaradené
                        
                     
                             
         
    

                     
                        
                                                            
                     Obľúbené články 
                    
                     
                                                 
                                            Vylepšovač nálady
                                     
                                                                   
                     Čo práve počúvam 
                    
                     
                                                 
                                            Zuzana Navarova
                                     
                                                                             
                                            Jaromír Nohavica
                                     
                                                                             
                                            Mari Boine
                                     
                                                                   
                     Obľúbené blogy 
                    
                     
                                                 
                                            Marek - psovitá šelma na SME
                                     
                                                                             
                                            Marian - skvele od skoromenovca
                                     
                                                                             
                                            Helena - si ma prekvapila, príjemne
                                     
                                                                             
                                            Intoni - vnímavé až éterické
                                     
                                                                             
                                            Janka - ľudské a dýchajúce
                                     
                                                                             
                                            Ivana - o ľuďoch a neľuďoch
                                     
                                                                             
                                            Andrea - písanie numero uno
                                     
                                                                             
                                            Natalia - múdre a citlivé
                                     
                                                                             
                                            Veronika - srdiečko a príroda
                                     
                                                                             
                                            Dušan - básničky ako hrom
                                     
                                                                             
                                            Karol - ako to, ze som ta zabudol
                                     
                                                                             
                                            Katarina - velmi nezne
                                     
                                                                             
                                            Iviatko - paradne fotky
                                     
                                                                             
                                            Zuzibeth  - nasa krvna skupina
                                     
                                                                             
                                            Boris - velmi silne citanie
                                     
                                                                             
                                            David - tesim sa vždy na všetkých
                                     
                                                                   
                     Obľúbené stránky 
                    
                     
                                                 
                                            Chlieb nas kazdodenny
                                     
                                                                             
                                            VEGETARIÁNI POZOR!!!
                                     
                                                                             
                                            Recepty na Netcabinet.sk
                                     
                                                                             
                                            Recepty na Objav.sk
                                     
                                                                             
                                            Kuchár len tak z pasie...
                                     
                                                                             
                                            Recepty od GABRIELA
                                     
                                                                             
                                            Malomestský gurmán - dalsi skvely o vareni
                                     
                                                                             
                                            delikatesy.sk - este nieco o vareni
                                     
                                                                             
                                            Lepsiu o vareni nepoznam
                                     
                            
             
         
            

             
             Čo ma zaujalo 
            Týmto článkom bloger klikol/klikla na karmu.
             
                                                         
                       Nehaňte hipstera môjho
                     
                                                         
                       Milujú katolíci len tých, ktorí sú na kolenách?
                     
                                                         
                       Varíme s medveďom - Opité kuracie závitky
                     
                                                         
                       Byť ženou je úžasné...
                     
                                                         
                       Čo ešte mi chcete vziať?
                     
                                                         
                       Novodobý hon na čarodejnice alebo upaľovanie homosexuálov na hranici
                     
                                                         
                       Jozef Bednárik. Niet čo dodať.
                     
                                                         
                       Toto nie je diskriminácia, to len nefunguje
                     
                                                         
                       Z politiky sa vytratila česť?
                     
                                                         
                       Geeky coffee post
                     
                             
         
        

     






            
    
        
    
 

        
         
         
             Už ste čítali? 
         
         
 

 kultura.sme.sk 
 Margaréta sa spriahla s diablom, no mala Kristovu pravdu 
 
 

 www.sme.sk 
 Pútnické miesta The Beatles alebo ako ľudia kráčajú po zebre 
 
 

 cestovanie.sme.sk 
 Lovia za svitania a v hmle 
 
 

 www.sme.sk 
 Ako sa valila lavína slobody. Ako padal komunizmus 
 
 

 kultura.sme.sk 
 Žiadne retro, poriadny biznis. Takto sa lisuje platňa 
 
	   
 


        
         
            
         

     

    
     
 
 
	 

		Kontakty
		Predplatné
		Etický kódex
		Pomoc
		Mapa stránky
		
	 
 
 
	 
		 
			Widget
			RSS
			Newsletter
		 
		 
			Mobil
			Smartphone
			Kindle
			Televízor
		 
		 
			Facebook
			Twitter
			Google+
		 
	 
	 
		
	 
	 
		Ďalšie weby skupiny: Prihlásenie do Post.sk
		Új Szó Slovak Spectator
		Agentúrne správy 
		Vydavateľstvo
		Inzercia
		Osobné údaje
		Návštevnosť webu
		Predajnosť tlače
		Petit Academy
		SME v škole 		© Copyright 1997-2014 Petit Press, a.s. 
	 
 
 
 


          
        
            
            

        
    

    
    


    


    
        
        
        
        
        
        
        
            
            
        
        
        
        
         
                                
               





 

 



        

 




