
      
    
    

     
	 
	 
 SME.sk 
 Zľavy 
 Zoznámenie 
 Reality 
 Dovolenky 
 Pizza 
 Reštaurácie 
 Recenzie 
 Inzeráty 
 Naničmama 	 
Nákupy 
		 
 Filmy na DVD 
 Hodinky 
 Parfémy 
 SME knihy a DVD 
 Superhosting 
 Tlačiareň 
 Víno 
 Tvorba webov 
 Predplatné SME 
 ProSenior 		 
	 
	 
 
	 
 


    
    
        
        
         
          
         
    

    
      
         
            
             
     
        
        
     
    Blog.SME.sk
 

    

         
        
                 
     
         
            Sme.sk
         
         
            Domov
         
         
            Regióny
         
         
            Ekonomika
         
         
            Svet
         
         
            Komentáre
         
         
            Kultúra
         
         
            Šport
         
         
            TV
         
         
            Auto
         
         
            Tech
         
         
            Poradňa
         
         
            Žena
         
         
            Bývanie
         
         
            Zdravie
         
         
            Blog
         
     
 

         
            
     
                                                         Politika 
                                                                                     Spoločnosť 
                                                                                     Cestovanie 
                                                                                     Ekonomika 
                                                                                     Fotografie 
                                                                                     Jedlo 
                                                                                     Kultúra 
                                                                                             
Ďalšie
                             
                                                                                         Lifestyle 
                                                                                                                                                                             Médiá 
                                                                                                                                                                             Nezaradené 
                                                                                                                                                                             Súkromné 
                                                                                                                                                                             Šport 
                                                                                                                                                                             Veda a technika 
                                                                                                                                                                             Zábava 
                                                                                                                                                                             Poézia 
                                                                                                                                                                             Próza 
                                                                                                                                                                             Kódex blogera 
                                                                                 
                         
                                                 
            Blogeri
         
     


            

    
    Prihlásiť sa


    
    Založte si blog



    
    Odhlásiť sa


    
    




         

        
        
         
            
         
         
                
     
                 
            SME.sk &gt;
            Blog.SME.sk &gt;
                            Ladislav Větvička
                                        &gt;
                Slovenšti bratři a sestry
                     
                 Zvlaštni dopisovatel Větvička z Afriky hlasi: Slovaci splnili plan! 

        
            
                                    15.6.2010
            o
            16:16
                        (upravené
                15.6.2010
                o
                16:27)
                        |
            Karma článku:
                10.24
            |
            Prečítané 
            2926-krát
                    
         
     
         
             

                 
                    Užasna remiza! V historicky prvnim zapase na mistrovstvi ziskalo Slovensko remizu, ale nebyla to žadna sranda. Od poloviny zapasu zme vedli (my, bo my ostravaci zme tež tak trochu Slovaci, ni?), ke koncu už to vypadalo docela tragicky, ale nakonec zme dosahli vysněne remizy!
                 

                 
  
   Možna ste trochu smutni, Slovaci, ale z teho si nic nerobte. Musime to brat pozityvně. Představte si, že byste prohrali. To byste měli prd. A takhle mate bod za remizu, keru ste si naplanovali.   Ukol, ten zněl od počatku jasně. Remizu musime ziskat, aji kdyby zme si měli dat vlastni. Zapas začal pozityvně, bo remizy zme vlastně dosahli už v okamžiku prvniho kopnuti do balona. Slovenšti synci běhali s balonem chvilu tam a chvilu zase zpatky. Cilem bylo kopat tak, aby balon neskončil v te ďurovane siťce, co je na každe straně hřišťa a cely poločas se to uspěšně dařilo.   O přestavce se synci dali v kabině po pivu a bohužel se to projevilo na kvalitě hry. Brzy po rozehrani kopnul do balona jakysik Turek a balon nečekaně skončil v Novojičinske siťce. Kurňa, co fčil? Slovenšti synci ještě reklamovali, že gol tam spadnul z ofsajdu, ale rozhodči se nedal ukecat. Cyp. V tomto okamžiku se remiza - cil zapasu - vzdalovala do nenavratna.   Nic ještě nebylo ztracene, furt zbyvalo 40 minut do konca. Slovenšti synci přestali hrat a enem se tak prochazali po hřišťu, no ale co s tym, když ti Novojičinšti synci nebyli schopni vyrovnat?   Hrozne. Bylo to nervydrasajici drama, už sem se bal, že našeho cila nedosahnem a remiza bude ztracena. Naštěsti minutu po koncu zapasu jakysik Novojičiňak přiběhnul ku naši brance a balon tam dotlačil.   Tuž to mi spadnul kamen ze srdce. Sice to bylo už po zapase (kurňa, zase dostane premije za robotu přesčas, hajzl jeden), ale vysledek se počita a planovaneho cila tak bylo dosaženo.   Gratulujem, synci!   PS: Zli Česi na serveru iDnes už v 90. minutě nevěřili, že dokažete dosahnut remizy, ale je vidět, že pevna vule a moralka dokazala zvitězit nad lži a nenavisti.      PS: No a fčil se idu nenapadně podivat do kabiny abysem zjistil, jaky je plan pro zapasy s Paragrafama a Makaroncama. 

                 
                                        
                        
                        Zdieľať
                    

                    
                            
                                    
                                    Zdieľať na
                            
                             
                                    
                             
                    

                                                                                                                        
                            
                            Diskusia: (20)
                        
                    
                    
                        
                        Zvýšte karmu
                    
                 
             

                             
            
                     
                         Ďalšie články blogera 
                         
                                                             
                                    
                    	                                                                                        

                                                                        
                                    
                                        Ladislav Větvička 
                                        
                                            Stanky na prešporske Hlavne stanici
                                        
                                    
                                 
                                                             
                                    
                    	                                                                                        

                                                                        
                                    
                                        Ladislav Větvička 
                                        
                                            Česi budu pozityvně dyskriminovani a povinně dostanu cyganske minystry
                                        
                                    
                                 
                                                             
                                    
                    	                                                                                        

                                                                        
                                    
                                        Ladislav Větvička 
                                        
                                            Jak sem se snažil pomoct slovenske slanince
                                        
                                    
                                 
                                                             
                                    
                    	                                                                                        

                                                                        
                                    
                                        Ladislav Větvička 
                                        
                                            EU: Česi budu papat domaci uzene, Slovaci možu žrat chemicke blato
                                        
                                    
                                 
                                                             
                                    
                    	                                                                                        

                                                                        
                                    
                                        Ladislav Větvička 
                                        
                                            Cosik o propagandě: Krvežiznive hordy vtrhly na Krym
                                        
                                    
                                 
                                                     
                        
                            Ďalšie články blogera: Ladislav Větvička
                        
                     
            
                     
                         Ďalšie články z rubriky šport 
                         
                                                             
                                    
                                                            	                                                                                        

                                                                                                
                                    
                                        Jozef Fabian 
                                        
                                            Žreb Ligy Majstrov
                                        
                                    
                                 
                                                             
                                    
                                                            	                                                                                        

                                                                                                
                                    
                                        Martin Duda 
                                        
                                            Rozprávka o slávnom futbalovom kráľovstve
                                        
                                    
                                 
                                                             
                                    
                                                                                                                    

                                                                                                
                                    
                                        Marian Čapla 
                                        
                                            Za dvadsaťjeden tristoštyridsaťdva. Je to veľa alebo málo?
                                        
                                    
                                 
                                                             
                                    
                                                            	                                                                                        

                                                                                                
                                    
                                        Peter Jačiansky 
                                        
                                            Ako chutí dobrá francúzska polievka?
                                        
                                    
                                 
                                                             
                                    
                                                            	                                                                                        

                                                                                                
                                    
                                        Adrián Kocur 
                                        
                                            Halák hviezdou nových Islanders
                                        
                                    
                                 
                                                     
                        
                            Ďalšie články z rubriky šport
                        
                     
                 
            
                    
 
     Hlavné správy 
         
        
                                

        
         
            ZAHRANIČIE
             Protestujúci v Maďarsku strácajú dych, Fidesz ich mätie novými návrhmi 
             Na demonštrácii proti Orbánovej vláde bolo v utorok už len niekoľko tisíc ľudí. 
         
     
         
        
                                

        
         
            AKTUALIZOVANÉ O 21:30
             Rubeľ pocítil pád na dno, Rusko je vo finančnej kríze 
             Dolár včera stál už takmer 80 rubľov, pod hladinu ho tlačia najmä nízke ceny ropy. 
         
     
         
        
                                

        
         
            AKTUALIZOVANÉ 21:50
             Taliban zabil v škole v Pakistane 132 detí 
             Pakistan až teraz poriadne zatlačil na islamistov. Odplatou je útok na deti vojakov. 
         
     
     

                 
     
    
     
        
 

     
                
                            
                    



         
            
                Ladislav Větvička
            
         
        vetvicka.blog.sme.sk (rss)
         
                        VIP
                             
     
         Ostravsky cyp. 
        
     
     
                     
                             
             

     
        
            
                
                    Počet článkov
                    95
                
                
                    Celková karma
                    
                                                0.00
                    
                
                
                    Priemerná čítanosť
                    3802
                
            
        
     

             

             Zoznam rubrík 
            
             
                                     
                        
                            Knižka MAMULOVY DĚTI
                        
                     
                                     
                        
                            Slovenšti bratři a sestry
                        
                     
                                     
                        
                            Moravšti/Slezšti/Češti bratia
                        
                     
                                     
                        
                            Ostravske hlupoty a cypoviny
                        
                     
                                     
                        
                            Štreky ven z Ostravy
                        
                     
                             
         
    

                     
                        
                                                            
                     Obľúbené články 
                    
                     
                                                 
                                            Havlik
                                     
                                                                             
                                            Vašiček
                                     
                                                                   
                     Čo práve počúvam 
                    
                     
                                                 
                                            Uspěch
                                     
                            
             
         
            

             
             Čo ma zaujalo 
            Týmto článkom bloger klikol/klikla na karmu.
             
                                                         
                       Stanky na prešporske Hlavne stanici
                     
                                                         
                       Česi budu pozityvně dyskriminovani a povinně dostanu cyganske minystry
                     
                                                         
                       EU: Česi budu papat domaci uzene, Slovaci možu žrat chemicke blato
                     
                                                         
                       Môže prezident nemať názor na Nežnú revolúciu?
                     
                                                         
                       Česi. Podivní masochisti ve středu Európy.
                     
                                                         
                       Tajemstvi Vasila, hybrydniho polityka rusinskeho puvodu
                     
                                                         
                       Elita slovenská, kam si sa podela?
                     
                                                         
                       Vysoke školy produkuju zbruselizovane absolventy
                     
                                                         
                       The Best Větva Foto 2013
                     
                                                         
                       Cely svět, včetně Burkina Fasa, zavidi Slovakum hokejove dresy
                     
                             
         
        

     






            
    
        
    
 

        
         
         
             Už ste čítali? 
         
         
 

 kultura.sme.sk 
 Margaréta sa spriahla s diablom, no mala Kristovu pravdu 
 
 

 www.sme.sk 
 Pútnické miesta The Beatles alebo ako ľudia kráčajú po zebre 
 
 

 cestovanie.sme.sk 
 Lovia za svitania a v hmle 
 
 

 www.sme.sk 
 Ako sa valila lavína slobody. Ako padal komunizmus 
 
 

 kultura.sme.sk 
 Žiadne retro, poriadny biznis. Takto sa lisuje platňa 
 
	   
 


        
         
            
         

     

    
     
 
 
	 

		Kontakty
		Predplatné
		Etický kódex
		Pomoc
		Mapa stránky
		
	 
 
 
	 
		 
			Widget
			RSS
			Newsletter
		 
		 
			Mobil
			Smartphone
			Kindle
			Televízor
		 
		 
			Facebook
			Twitter
			Google+
		 
	 
	 
		
	 
	 
		Ďalšie weby skupiny: Prihlásenie do Post.sk
		Új Szó Slovak Spectator
		Agentúrne správy 
		Vydavateľstvo
		Inzercia
		Osobné údaje
		Návštevnosť webu
		Predajnosť tlače
		Petit Academy
		SME v škole 		© Copyright 1997-2014 Petit Press, a.s. 
	 
 
 
 


          
        
            
            

        
    

    
    


    


    
        
        
        
        
        
        
        
            
            
        
        
        
        
         
                                
               





 

 



        

 




