
      
    
    

     
	 
	 
 SME.sk 
 Zľavy 
 Zoznámenie 
 Reality 
 Dovolenky 
 Pizza 
 Reštaurácie 
 Recenzie 
 Inzeráty 
 Naničmama 	 
Nákupy 
		 
 Filmy na DVD 
 Hodinky 
 Parfémy 
 SME knihy a DVD 
 Superhosting 
 Tlačiareň 
 Víno 
 Tvorba webov 
 Predplatné SME 
 ProSenior 		 
	 
	 
 
	 
 


    
    
        
        
         
          
         
    

    
      
         
            
             
     
        
        
     
    Blog.SME.sk
 

    

         
        
                 
     
         
            Sme.sk
         
         
            Domov
         
         
            Regióny
         
         
            Ekonomika
         
         
            Svet
         
         
            Komentáre
         
         
            Kultúra
         
         
            Šport
         
         
            TV
         
         
            Auto
         
         
            Tech
         
         
            Poradňa
         
         
            Žena
         
         
            Bývanie
         
         
            Zdravie
         
         
            Blog
         
     
 

         
            
     
                                                         Politika 
                                                                                     Spoločnosť 
                                                                                     Cestovanie 
                                                                                     Ekonomika 
                                                                                     Fotografie 
                                                                                     Jedlo 
                                                                                     Kultúra 
                                                                                             
Ďalšie
                             
                                                                                         Lifestyle 
                                                                                                                                                                             Médiá 
                                                                                                                                                                             Nezaradené 
                                                                                                                                                                             Súkromné 
                                                                                                                                                                             Šport 
                                                                                                                                                                             Veda a technika 
                                                                                                                                                                             Zábava 
                                                                                                                                                                             Poézia 
                                                                                                                                                                             Próza 
                                                                                                                                                                             Kódex blogera 
                                                                                 
                         
                                                 
            Blogeri
         
     


            

    
    Prihlásiť sa


    
    Založte si blog



    
    Odhlásiť sa


    
    




         

        
        
         
            
         
         
                
     
                 
            SME.sk &gt;
            Blog.SME.sk &gt;
                            Ján Kvasnička
                                        &gt;
                Nezaradené
                     
                 7 základných znakov komunizmu !!! 

        
            
                                    27.6.2010
            o
            15:34
                        |
            Karma článku:
                2.79
            |
            Prečítané 
            980-krát
                    
         
     
         
             

                 
                    Komunizmus v praxi !
                 

                 
  
       1. Každý má prácu.  2. Hoci každý má  prácu, nikto nič nerobí.   
 3. Hoci nikto nič nerobí, plán sa plní nad  100 %.  4. Hoci sa plán plní nad 100 %, nikde ničoho niet.  5.  Hoci nikde ničoho niet, každý má všetko.  6. Hoci každý má  všetko, predsa všetci kradnú.  7. Hoci všetci kradnú, nikde to  nechýba.     

                 
                                        
                        
                        Zdieľať
                    

                    
                            
                                    
                                    Zdieľať na
                            
                             
                                    
                             
                    

                                                                                                                        
                            
                            Diskusia: (3)
                        
                    
                    
                        
                        Zvýšte karmu
                    
                 
             

                             
            
                     
                         Ďalšie články blogera 
                         
                                                             
                                    
                    	                                                                                        

                                                                        
                                    
                                        Ján Kvasnička 
                                        
                                            Koniec ekonomickej slobody Európskych národov !!!
                                        
                                    
                                 
                                                             
                                    
                    	                                                                                        

                                                                        
                                    
                                        Ján Kvasnička 
                                        
                                            Rómsky problém ? - riešenie Sociálne Odkázané Spoločenstvá !
                                        
                                    
                                 
                                                             
                                    
                    	                                                                                        

                                                                        
                                    
                                        Ján Kvasnička 
                                        
                                            Problém dekriminalizácia marihuany ?
                                        
                                    
                                 
                                                             
                                    
                    	                                                                                        

                                                                        
                                    
                                        Ján Kvasnička 
                                        
                                            Slovenský šport je čas na zmenu.
                                        
                                    
                                 
                                                             
                                    
                    	                                                                                        

                                                                        
                                    
                                        Ján Kvasnička 
                                        
                                            Šikanovanie vodičov na cestách.
                                        
                                    
                                 
                                                     
                        
                            Ďalšie články blogera: Ján Kvasnička
                        
                     
            
                     
                         Ďalšie články z rubriky spoločnosť 
                         
                                                             
                                    
                                                            	                                                                                        

                                                                                                
                                    
                                        Mária Levočská 
                                        
                                            Ďalšia obeť pomsty monsignora Jaraba
                                        
                                    
                                 
                                                             
                                    
                                                            	                                                                                        

                                                                                                
                                    
                                        Kristián Straka 
                                        
                                            Nebite ma, doktor Plzák... alebo POZVANIE NA VEČERU
                                        
                                    
                                 
                                                             
                                    
                                                            	                                                                                        

                                                                                                
                                    
                                        Kristián Straka 
                                        
                                            Oklamaní Ježiškom ?
                                        
                                    
                                 
                                                             
                                    
                                                            	                                                                                        

                                                                                                
                                    
                                        Milan Buno 
                                        
                                            Šup, šup, najesť sa. A utekať!
                                        
                                    
                                 
                                                             
                                    
                                                            	                                                                                        

                                                                                                
                                    
                                        Katarína Lorenčíková 
                                        
                                            Par uprimnych oslobodzujucich riadkov...
                                        
                                    
                                 
                                                     
                        
                            Ďalšie články z rubriky spoločnosť
                        
                     
                 
            
                    
 
     Hlavné správy 
         
        
                                

        
         
            KOMENTÁR PETRA SCHUTZA
             Len korupčné škandály preferencie Smeru nepotopia 
             Ak chce opozícia vo voľbách zvrhnúť Smer, bez rozšírenia repertoáru si neporadí. 
         
     
         
        
                                

        
         
            AKTUALIZOVANÉ O 21:30
             Rubeľ pocítil pád na dno, Rusko je vo finančnej kríze 
             Dolár v utorok stál už takmer 80 rubľov, pod hladinu ho tlačia najmä nízke ceny ropy. 
         
     
         
        
                                

        
         
            AKTUALIZOVANÉ 23:50
             Taliban zabil v škole v Pakistane 132 detí 
             Pakistan až teraz poriadne zatlačil na islamistov. Odplatou je útok na deti vojakov. 
         
     
     

                 
     
    
     
        
 

     
                
                            
                    



         
            
                Ján Kvasnička
            
         
        jankvasnicka.blog.sme.sk (rss)
         
                                     
     
        Ján Kvasnička
zakladajúci člen strany Sloboda a Solidarita
        
     
     
                     
                             
             

     
        
            
                
                    Počet článkov
                    11
                
                
                    Celková karma
                    
                                                0.00
                    
                
                
                    Priemerná čítanosť
                    579
                
            
        
     

             

             Zoznam rubrík 
            
             
                                     
                        
                            Nezaradené
                        
                     
                                     
                        
                            Súkromné
                        
                     
                             
         
    

                     
                        
                                                            
                     Čo práve počúvam 
                    
                     
                                                 
                                            slobodná európa -nikdy to tak nebude
                                     
                                                                   
                     Obľúbené stránky 
                    
                     
                                                 
                                            palmeiro.wbl.sk
                                     
                            
             
         
            

           
     Pošlite odkaz blogerovi 
    
         
            
         

         
         
         
         

         
         
Odosielateľ (e-mail)
 
         
Text
 
         
             
Protispamová ochrana 
 
 Zle. Skúste znova. 
Opíšte slová z obrázku: Načítať iné slová 
 Get an image CAPTCHA 
 
 
         
                 
            
         
    
  


 

     






            
    
        
    
 

        
         
         
             Už ste čítali? 
         
         
 

 kultura.sme.sk 
 Margaréta sa spriahla s diablom, no mala Kristovu pravdu 
 
 

 www.sme.sk 
 Pútnické miesta The Beatles alebo ako ľudia kráčajú po zebre 
 
 

 cestovanie.sme.sk 
 Lovia za svitania a v hmle 
 
 

 www.sme.sk 
 Ako sa valila lavína slobody. Ako padal komunizmus 
 
 

 kultura.sme.sk 
 Žiadne retro, poriadny biznis. Takto sa lisuje platňa 
 
	   
 


        
         
            
         

     

    
     
 
 
	 

		Kontakty
		Predplatné
		Etický kódex
		Pomoc
		Mapa stránky
		
	 
 
 
	 
		 
			Widget
			RSS
			Newsletter
		 
		 
			Mobil
			Smartphone
			Kindle
			Televízor
		 
		 
			Facebook
			Twitter
			Google+
		 
	 
	 
		
	 
	 
		Ďalšie weby skupiny: Prihlásenie do Post.sk
		Új Szó Slovak Spectator
		Agentúrne správy 
		Vydavateľstvo
		Inzercia
		Osobné údaje
		Návštevnosť webu
		Predajnosť tlače
		Petit Academy
		SME v škole 		© Copyright 1997-2014 Petit Press, a.s. 
	 
 
 
 


          
        
            
            

        
    

    
    


    


    
        
        
        
        
        
        
        
            
            
        
        
        
        
         
                                
               





 

 



        

 




