
      
    
    

     
	 
	 
 SME.sk 
 Zľavy 
 Zoznámenie 
 Reality 
 Dovolenky 
 Pizza 
 Reštaurácie 
 Recenzie 
 Inzeráty 
 Naničmama 	 
Nákupy 
		 
 Filmy na DVD 
 Hodinky 
 Parfémy 
 SME knihy a DVD 
 Superhosting 
 Tlačiareň 
 Víno 
 Tvorba webov 
 Predplatné SME 
 ProSenior 		 
	 
	 
 
	 
 


    
    
        
        
         
          
         
    

    
      
         
            
             
     
        
        
     
    Blog.SME.sk
 

    

         
        
                 
     
         
            Sme.sk
         
         
            Domov
         
         
            Regióny
         
         
            Ekonomika
         
         
            Svet
         
         
            Komentáre
         
         
            Kultúra
         
         
            Šport
         
         
            TV
         
         
            Auto
         
         
            Tech
         
         
            Poradňa
         
         
            Žena
         
         
            Bývanie
         
         
            Zdravie
         
         
            Blog
         
     
 

         
            
     
                                                         Politika 
                                                                                     Spoločnosť 
                                                                                     Cestovanie 
                                                                                     Ekonomika 
                                                                                     Fotografie 
                                                                                     Jedlo 
                                                                                     Kultúra 
                                                                                             
Ďalšie
                             
                                                                                         Lifestyle 
                                                                                                                                                                             Médiá 
                                                                                                                                                                             Nezaradené 
                                                                                                                                                                             Súkromné 
                                                                                                                                                                             Šport 
                                                                                                                                                                             Veda a technika 
                                                                                                                                                                             Zábava 
                                                                                                                                                                             Poézia 
                                                                                                                                                                             Próza 
                                                                                                                                                                             Kódex blogera 
                                                                                 
                         
                                                 
            Blogeri
         
     


            

    
    Prihlásiť sa


    
    Založte si blog



    
    Odhlásiť sa


    
    




         

        
        
         
            
         
         
                
     
                 
            SME.sk &gt;
            Blog.SME.sk &gt;
                            Juraj Lisický
                                        &gt;
                Oldgames News
                     
                 S NHL naveky 

        
            
                                    12.10.2008
            o
            13:43
                        |
            Karma článku:
                10.19
            |
            Prečítané 
            6477-krát
                    
         
     
         
             

                 
                    Je všeobecne známe, že najziskovejšie hry sú športové a gigant v produkcii športových hier je jednoznačne EA Sports. Ich NHL, NBA a FIFA sú najpredávanejšie športové hry pod Slnokom. A keďže NBA ani FIFA ma veľmi nebaví, ale zato zbožňujem NHL, pozrieme sa na jej históriu.
                 

                  Ako prvá NHL uzrela svetlo sveta v roku 93, NHL Hockey. Pekná grafika a výborná hrateľnosť nemala v tej dobe konkurenciu. Začal sa kolotoč každoročného vydávania novej NHLky.      NHL 95. V podstate sa oproti predchádzajúcej NHL sa nezmenilo nič, okrem menu ktoré bolo teraz v SVGA a hra bola vydaná na CD.      NHL 96. Obrovská zmena. Logický pomalý prechod na 3D zobrazenie. Už nestačí na spustenie 386ka. Ale ani v tejto dobe nemala hra veľké nároky na PC, stačila obyčajná P 133MHz.      NHL 97. 97čka bola medzi zastávka v ktorej bola vylepšená grafika a hrateľnosť. Pridaná plná podpora 3D kariet. Čakalo sa čo prinesie NHL 98.      NHL 98. Podľa mňa jedna z najlepších. S 3D kartami hra vyzerala výborne a už sa pomaly začal klásť dôraz aj na xichtíky hráčov. Perfektné úvodné demo, ktoré sa dalo pozerať aj keď sa vám hru hrať nechcelo.      NHL 99. Po prvý krát pridaný mód kariéra. Vylepšená grafika a AI spoluhráčov a protihráčov.      NHL 2000. Miléniová NHL bola skôr arkáda ako vážny hokej. Priniesla jednu výbornú vec a to zbieranie kartičiek hráčov, ktoré na určitý čas vylepšili hráčske schopnosti.      NHL 2001 - 2009. Každoročne vylepšená grafika a hrateľnosť. Zápasi začínajú pomaly vyzerať ako prenosy z televízie.      NHL 2009 určite nieje posledná v tejto nekonečnej sérii. Netrúfam si povedať, kedy sa séria skončí, ale myslím že pokiaľ bude stúpať výkonnosť PC, bude stúpať aj grafická stránka hry a o niekoľko rokov si nebudete istý tým či pozeráte priamy prenos, alebo hráte hru. 

                 
                                        
                        
                        Zdieľať
                    

                    
                            
                                    
                                    Zdieľať na
                            
                             
                                    
                             
                    

                                                                                                                        
                            
                            Diskusia: (3)
                        
                    
                    
                        
                        Zvýšte karmu
                    
                 
             

                             
            
                     
                         Ďalšie články blogera 
                         
                                                             
                                    
                    	                                                                                        

                                                                        
                                    
                                        Juraj Lisický 
                                        
                                            Po bankomatovú kartu si musíte prísť na pobočku!
                                        
                                    
                                 
                                                             
                                    
                    	                                                                                        

                                                                        
                                    
                                        Juraj Lisický 
                                        
                                            Problémy s diakritikou v titulkoch? Jednoduchá náprava!
                                        
                                    
                                 
                                                             
                                    
                    	                                                                                        

                                                                        
                                    
                                        Juraj Lisický 
                                        
                                            Čo robiť pri uhryznutí psom
                                        
                                    
                                 
                                                             
                                    
                    	                                                                                        

                                                                        
                                    
                                        Juraj Lisický 
                                        
                                            Tuším nám nejako zdraželo študentské cestovné...
                                        
                                    
                                 
                                                             
                                    
                    	                                                                                        

                                                                        
                                    
                                        Juraj Lisický 
                                        
                                            Výška pokuty za nedodržanie zmluvných podmienok je 331,9392 Eur.
                                        
                                    
                                 
                                                     
                        
                            Ďalšie články blogera: Juraj Lisický
                        
                     
            
                     
                         Ďalšie články z rubriky šport 
                         
                                                             
                                    
                                                            	                                                                                        

                                                                                                
                                    
                                        Jozef Fabian 
                                        
                                            Žreb Ligy Majstrov
                                        
                                    
                                 
                                                             
                                    
                                                            	                                                                                        

                                                                                                
                                    
                                        Martin Duda 
                                        
                                            Rozprávka o slávnom futbalovom kráľovstve
                                        
                                    
                                 
                                                             
                                    
                                                                                                                    

                                                                                                
                                    
                                        Marian Čapla 
                                        
                                            Za dvadsaťjeden tristoštyridsaťdva. Je to veľa alebo málo?
                                        
                                    
                                 
                                                             
                                    
                                                            	                                                                                        

                                                                                                
                                    
                                        Peter Jačiansky 
                                        
                                            Ako chutí dobrá francúzska polievka?
                                        
                                    
                                 
                                                             
                                    
                                                            	                                                                                        

                                                                                                
                                    
                                        Adrián Kocur 
                                        
                                            Halák hviezdou nových Islanders
                                        
                                    
                                 
                                                     
                        
                            Ďalšie články z rubriky šport
                        
                     
                 
            
                    
 
     Hlavné správy 
         
        
                                

        
         
            AKTUALIZOVANÉ 16:00
             Rubeľ kolabuje, ruská vláda má mimoriadne rokovať 
             Jeden dolár stál v utorok poobede už viac ako 78 rubľov, razantné zvýšenie úrokov nepomohlo. 
         
     
         
        
                                

        
         
            ZAHRANIČIE
             Taliban zabil v škole v Pakistane vyše sto ľudí, väčšinou deti 
             Militanti vtrhli do vojenskej školy v policajných rovnošatách. 
         
     
         
        
                                

        
         
            KOMENTARE.SME.SK
             Cynická obluda: Medzičasom na opustenom ostrove 
             Stroskotanci majú veľké šťastie, že sú dvaja. Lacné vtipy na úrovni ich autora. 
         
     
     

                 
     
    
     
        
 

     
                
                            
                    



         
            
                Juraj Lisický
            
         
        lisicky.blog.sme.sk (rss)
         
                                     
     
        
        
     
     
                     
                             
             

     
        
            
                
                    Počet článkov
                    67
                
                
                    Celková karma
                    
                                                0.00
                    
                
                
                    Priemerná čítanosť
                    969
                
            
        
     

             

             Zoznam rubrík 
            
             
                                     
                        
                            Oldgames News
                        
                     
                                     
                        
                            Zo života
                        
                     
                                     
                        
                            Oldgames Weby
                        
                     
                                     
                        
                            Časopisy
                        
                     
                                     
                        
                            Kvíz
                        
                     
                                     
                        
                            Súťaže
                        
                     
                                     
                        
                            Programy
                        
                     
                                     
                        
                            Rozhovory
                        
                     
                             
         
    

                     
                        
                                                            
                     Obľúbené stránky 
                    
                     
                                                 
                                            Starinky.net - Staré hry
                                     
                            
             
         
            

           
     Pošlite odkaz blogerovi 
    
         
            
         

         
         
         
         

         
         
Odosielateľ (e-mail)
 
         
Text
 
         
             
Protispamová ochrana 
 
 Zle. Skúste znova. 
Opíšte slová z obrázku: Načítať iné slová 
 Get an image CAPTCHA 
 
 
         
                 
            
         
    
  


 

     






            
    
        
    
 

        
         
         
             Už ste čítali? 
         
         
 

 kultura.sme.sk 
 Margaréta sa spriahla s diablom, no mala Kristovu pravdu 
 
 

 www.sme.sk 
 Pútnické miesta The Beatles alebo ako ľudia kráčajú po zebre 
 
 

 cestovanie.sme.sk 
 Lovia za svitania a v hmle 
 
 

 www.sme.sk 
 Ako sa valila lavína slobody. Ako padal komunizmus 
 
 

 kultura.sme.sk 
 Žiadne retro, poriadny biznis. Takto sa lisuje platňa 
 
	   
 


        
         
            
         

     

    
     
 
 
	 

		Kontakty
		Predplatné
		Etický kódex
		Pomoc
		Mapa stránky
		
	 
 
 
	 
		 
			Widget
			RSS
			Newsletter
		 
		 
			Mobil
			Smartphone
			Kindle
			Televízor
		 
		 
			Facebook
			Twitter
			Google+
		 
	 
	 
		
	 
	 
		Ďalšie weby skupiny: Prihlásenie do Post.sk
		Új Szó Slovak Spectator
		Agentúrne správy 
		Vydavateľstvo
		Inzercia
		Osobné údaje
		Návštevnosť webu
		Predajnosť tlače
		Petit Academy
		SME v škole 		© Copyright 1997-2014 Petit Press, a.s. 
	 
 
 
 


          
        
            
            

        
    

    
    


    


    
        
        
        
        
        
        
        
            
            
        
        
        
        
         
                                
               





 

 



        

 




