
      
    
    

     
	 
	 
 SME.sk 
 Zľavy 
 Zoznámenie 
 Reality 
 Dovolenky 
 Pizza 
 Reštaurácie 
 Recenzie 
 Inzeráty 
 Naničmama 	 
Nákupy 
		 
 Filmy na DVD 
 Hodinky 
 Parfémy 
 SME knihy a DVD 
 Superhosting 
 Tlačiareň 
 Víno 
 Tvorba webov 
 Predplatné SME 
 ProSenior 		 
	 
	 
 
	 
 


    
    
        
        
         
          
         
    

    
      
         
            
             
     
        
        
     
    Blog.SME.sk
 

    

         
        
                 
     
         
            Sme.sk
         
         
            Domov
         
         
            Regióny
         
         
            Ekonomika
         
         
            Svet
         
         
            Komentáre
         
         
            Kultúra
         
         
            Šport
         
         
            TV
         
         
            Auto
         
         
            Tech
         
         
            Poradňa
         
         
            Žena
         
         
            Bývanie
         
         
            Zdravie
         
         
            Blog
         
     
 

         
            
     
                                                         Politika 
                                                                                     Spoločnosť 
                                                                                     Cestovanie 
                                                                                     Ekonomika 
                                                                                     Fotografie 
                                                                                     Jedlo 
                                                                                     Kultúra 
                                                                                             
Ďalšie
                             
                                                                                         Lifestyle 
                                                                                                                                                                             Médiá 
                                                                                                                                                                             Nezaradené 
                                                                                                                                                                             Súkromné 
                                                                                                                                                                             Šport 
                                                                                                                                                                             Veda a technika 
                                                                                                                                                                             Zábava 
                                                                                                                                                                             Poézia 
                                                                                                                                                                             Próza 
                                                                                                                                                                             Kódex blogera 
                                                                                 
                         
                                                 
            Blogeri
         
     


            

    
    Prihlásiť sa


    
    Založte si blog



    
    Odhlásiť sa


    
    




         

        
        
         
            
         
         
                
     
                 
            SME.sk &gt;
            Blog.SME.sk &gt;
                            Sveťo Styk
                                        &gt;
                Politika
                     
                 Detská univerzita 

        
            
                                    28.6.2007
            o
            19:45
                        |
            Karma článku:
                12.21
            |
            Prečítané 
            3143-krát
                    
         
     
         
             

                 
                    Zaujala ma dnes informácia v novinách, že jednou z možností pre školopovinné decká, ako stráviť leto, je aj možnosť zapojiť sa do tzv. Detskej univerzity, ktorej už 5. ročník organizuje Univerzita Komenského. Chvályhodné. Otvárať ju má sám pán premiér Fico, a tu si dovolím oponovať diskutujúcim, ktorí si hneď z nášho vražedným tempom pracujúceho premiéra, ktorý za 100 dní spraví viac, ako iní za 8 rokov, začali robiť srandu, že to bude akože  pre tie deti za trest a podobne.
                 

                 
  
    Pcha, presne naopak!!     Ja navrhujem Univerzite Komenského, aby práveže rozšírila možnosť prednášok o celú plejádu významných osobností našej vládnej koalície. Skúseností majú mnoho, a naše detičky potrebujú svetlé vzory, aby sa uchytili v tomto hnusnom, kapitalistickom svete, kde je človek človeku vlkom. A kto iný by mal na ich cestu svietiť, ako národne cítiaci a sociálne mysliaci politici? Kto iný, ako tí, ktorí majú solidaritu priam v popise práce? Kto iný, ako tí, pre ktorých je svätá národná svojstojnosť? Kto iný, ako tí, ktorí zubami nechtami bránia posvätné symboly našej svojbytnosti a štátnosti, akou je napríklad naša Ústava?     Už vidím tie pozvánky, visiace na každom rohu našej domoviny, na každom stĺpe.....        Detská univerzita pozýva všetky deti na sériu seminárov za účasti prominentných hostí!!     Milé deti, prestaňte sa nudiť pri počítačoch a na plážach, a podučte sa od úspešných. Svojim rodičom nebudete visieť na krku donekonečna, takže je čas spoznať success story našich vrcholových predstaviteľov a elity národa.      Program je bohatý na osobnosti, aj na myšlienky. Stačí si len vybrať !!!      
Doc. JUDr Robert Fico, CSc     • Teória triedneho nepriateľa a jej pozitívny význam na vývoj preferencií  • Sociálna politika a hladové doliny - realistický pohľad z dvojmiliónového Volva  • Pisálkovia včera a dnes – analýza trendov úpadku slovenskejh novinárskej obce (prednáška je komerčne sponzorovaná majiteľmi nemenovaného bulvárneho denníka)  • Pudlíci a ich význam v zahraničnej politike Slovenskej republiky             
JUDr. Vladimír Mečiar, Dr. h .c.   • Bude to inak, a bude to lepšie, alebo Ako rozdať stovky miliárd za pár korún  • S pánom bohom, idem od vás.... (o umení odísť)   • Od presvedčeného federalistu k otcovi národa             
Ing. Ján Počiatek     • Stavba lacných sociálnych viliek v centre hlavného mesta              
Doc. Ing. Ľubomír Jahňátek, CSc     • Čo ste vždy chceli vedieť a bojíte sa spýtať – úloha úplatkov v štátnom biznise  • Kurz anglickej výslovnosti pre pokročilých              
Ing. Ján Slota     • Tolerancia ako základ slovenskej svojstojnosti, alkohol ako jej nepriateľ  • Teória krátkeho dvora a dlhého biča v optike európskej integrácie             
Anna Belousovová     • historická esej „Šialené kravy a kysucké nány alebo Ako to bolo naozaj“                 Ing. Viera Tomanová     • Úspechy v boji s chudobou, ohrozujúcou 60% obyvateľov bratislavskej Petržalky  • Etika a ekonomcká efektivita vo využívaní služobných prostriedkov v praxi (konzultantom minister Harabín)  • Workshop na tému Analýza lacno, rýchlo a transparentne           Využite jedineňú príležitosť, učte sa od tých, čo nás vedú, získajte vedomosti k nezaplateniu, ktoré Vám vie priniesť len samotný život!!       Uff, asi sa prihlásim na tú Detskú univerzitu aj ja!!  

                 
                                        
                        
                        Zdieľať
                    

                    
                            
                                    
                                    Zdieľať na
                            
                             
                                    
                             
                    

                                                                                                                        
                            
                            Diskusia: (15)
                        
                    
                    
                        
                        Zvýšte karmu
                    
                 
             

                             
            
                     
                         Ďalšie články blogera 
                         
                                                             
                                    
                    	                                                                                        

                                                                        
                                    
                                        Sveťo Styk 
                                        
                                            Zachovajme pokoru, prosím!
                                        
                                    
                                 
                                                             
                                    
                    	                                                                                        

                                                                        
                                    
                                        Sveťo Styk 
                                        
                                            Sklamanie!
                                        
                                    
                                 
                                                             
                                    
                    	                                                                                        

                                                                        
                                    
                                        Sveťo Styk 
                                        
                                            Na rovinu: to už nám vážne všetkým šibe?
                                        
                                    
                                 
                                                             
                                    
                    	                                                                                        

                                                                        
                                    
                                        Sveťo Styk 
                                        
                                            Kýbel špiny
                                        
                                    
                                 
                                                             
                                    
                    	                                                                                        

                                                                        
                                    
                                        Sveťo Styk 
                                        
                                            Mám dobrý pocit.
                                        
                                    
                                 
                                                     
                        
                            Ďalšie články blogera: Sveťo Styk
                        
                     
            
                     
                         Ďalšie články z rubriky politika 
                         
                                                             
                                    
                                                                                                                    

                                                                                                
                                    
                                        Lucia Švecová 
                                        
                                            Rovnosť alebo rovnakosť?
                                        
                                    
                                 
                                                             
                                    
                                                            	                                                                                        

                                                                                                
                                    
                                        Tomáš Hudec 
                                        
                                            Chceme zvýšiť účasť ľudí vo voľbách? Zaveďme eVoľby!
                                        
                                    
                                 
                                                             
                                    
                                                            	                                                                                        

                                                                                                
                                    
                                        Robert Bestro 
                                        
                                            Výmena vedenia parlamentu zjavne prospela
                                        
                                    
                                 
                                                             
                                    
                                                            	                                                                                        

                                                                                                
                                    
                                        Júlia Piraňa Mikolášiková 
                                        
                                            Obvinia ďalšiu novinárku z údajného ohovárania policajného šéfa Ševčíka?
                                        
                                    
                                 
                                                             
                                    
                                                            	                                                                                        

                                                                                                
                                    
                                        Stanislav Martinčko 
                                        
                                            Stužka z kvetinárstva za 16 centov a rozkradnuté milióny!!
                                        
                                    
                                 
                                                     
                        
                            Ďalšie články z rubriky politika
                        
                     
                 
            
                    
 
     Hlavné správy 
         
        
                                

        
         
            KOMENTÁR PETRA SCHUTZA
             Len korupčné škandály preferencie Smeru nepotopia 
             Ak chce opozícia vo voľbách zvrhnúť Smer, bez rozšírenia repertoáru si neporadí. 
         
     
         
        
                                

        
         
            ZAHRANIČIE
             Protestujúci v Maďarsku strácajú dych, Fidesz ich mätie novými návrhmi 
             Na demonštrácii proti Orbánovej vláde bolo v utorok už len niekoľko tisíc ľudí. 
         
     
         
        
                                

        
         
            AKTUALIZOVANÉ O 21:30
             Rubeľ pocítil pád na dno, Rusko je vo finančnej kríze 
             Dolár v utorok stál už takmer 80 rubľov, pod hladinu ho tlačia najmä nízke ceny ropy. 
         
     
     

                 
     
    
     
        
 

     
                
                            
                    



         
            
                Sveťo Styk
            
         
        styk.blog.sme.sk (rss)
         
                        VIP
                             
     
        Človek, ktorý sa snaží hľadať rovnováhu a mať oči otvorené...





        
     
     
                     
                             
             

     
        
            
                
                    Počet článkov
                    409
                
                
                    Celková karma
                    
                                                0.00
                    
                
                
                    Priemerná čítanosť
                    2905
                
            
        
     

             

             Zoznam rubrík 
            
             
                                     
                        
                            Hudba
                        
                     
                                     
                        
                            Fotky
                        
                     
                                     
                        
                            Knihy
                        
                     
                                     
                        
                            Koníčky
                        
                     
                                     
                        
                            Politika
                        
                     
                                     
                        
                            Od spriaznených duší
                        
                     
                                     
                        
                            Pudlíkoviny
                        
                     
                                     
                        
                            Postrehy
                        
                     
                                     
                        
                            Slotensko
                        
                     
                                     
                        
                            Súkromné
                        
                     
                                     
                        
                            Nezaradené
                        
                     
                             
         
    

                     
                        
                                                            
                     Obľúbené knihy 
                    
                     
                                                 
                                            Sapkowski - Svetlo večné
                                     
                                                                   
                     Čo práve počúvam 
                    
                     
                                                 
                                            King`s X - XV
                                     
                                                                             
                                            Steve Vai - all
                                     
                                                                             
                                            The Flower Kings - Instant Delivery
                                     
                                                                             
                                            Neal Morse - Sola Scriptura
                                     
                                                                             
                                            Avantasia
                                     
                                                                             
                                            Dream Theater - all
                                     
                                                                   
                     Obľúbené blogy 
                    
                     
                                                 
                                            Ivan Spacek
                                     
                                                                             
                                            Ross Hedvicek
                                     
                                                                             
                                            Ross Hedvíček - SME
                                     
                                                                             
                                            Majka Lazarová
                                     
                                                                             
                                            Pavel Škoda
                                     
                                                                             
                                            Marianna  Varjanová
                                     
                                                                             
                                            Ďuri Balucha
                                     
                                                                             
                                            Peťka Jankovičová
                                     
                                                                             
                                            Luplik
                                     
                                                                             
                                            Peťo Lehotský
                                     
                                                                   
                     Obľúbené stránky 
                    
                     
                                                 
                                            O našich cicuškách
                                     
                                                                             
                                            Rock jam radio
                                     
                                                                             
                                            Moje fotky
                                     
                                                                             
                                            SME
                                     
                                                                             
                                            Zive
                                     
                            
             
         
            

             
             Čo ma zaujalo 
            Týmto článkom bloger klikol/klikla na karmu.
             
                                                         
                       Niečo je zhnité v slovenskej pošte (porovnanie s rakúskou)
                     
                                                         
                       Prihlásenie vozidla na dopravnom inšpektoráte? Katastrofa
                     
                                                         
                       Kontroverzný plot pred americkou ambasádou ostáva aj neostáva
                     
                                                         
                       Zachovajme pokoru, prosím!
                     
                                                         
                       Prosím, nevoľte Fica
                     
                                                         
                       Ak Fico chce refendum, tak mu ho dajme
                     
                                                         
                       Sklamanie!
                     
                                                         
                       Andrej Kiska - prvý krok pre lepšie Slovensko?
                     
                                                         
                       Na rovinu: to už nám vážne všetkým šibe?
                     
                                                         
                       Riziká pred druhým kolom prezidentských volieb
                     
                             
         
           
     Pošlite odkaz blogerovi 
    
         
            
         

         
         
         
         

         
         
Odosielateľ (e-mail)
 
         
Text
 
         
             
Protispamová ochrana 
 
 Zle. Skúste znova. 
Opíšte slová z obrázku: Načítať iné slová 
 Get an image CAPTCHA 
 
 
         
                 
            
         
    
  


 

     






            
    
        
    
 

        
         
         
             Už ste čítali? 
         
         
 

 kultura.sme.sk 
 Margaréta sa spriahla s diablom, no mala Kristovu pravdu 
 
 

 www.sme.sk 
 Pútnické miesta The Beatles alebo ako ľudia kráčajú po zebre 
 
 

 cestovanie.sme.sk 
 Lovia za svitania a v hmle 
 
 

 www.sme.sk 
 Ako sa valila lavína slobody. Ako padal komunizmus 
 
 

 kultura.sme.sk 
 Žiadne retro, poriadny biznis. Takto sa lisuje platňa 
 
	   
 


        
         
            
         

     

    
     
 
 
	 

		Kontakty
		Predplatné
		Etický kódex
		Pomoc
		Mapa stránky
		
	 
 
 
	 
		 
			Widget
			RSS
			Newsletter
		 
		 
			Mobil
			Smartphone
			Kindle
			Televízor
		 
		 
			Facebook
			Twitter
			Google+
		 
	 
	 
		
	 
	 
		Ďalšie weby skupiny: Prihlásenie do Post.sk
		Új Szó Slovak Spectator
		Agentúrne správy 
		Vydavateľstvo
		Inzercia
		Osobné údaje
		Návštevnosť webu
		Predajnosť tlače
		Petit Academy
		SME v škole 		© Copyright 1997-2014 Petit Press, a.s. 
	 
 
 
 


          
        
            
            

        
    

    
    


    


    
        
        
        
        
        
        
        
            
            
        
        
        
        
         
                                
               





 

 



        

 




