
      
    
    

     
	 
	 
 SME.sk 
 Zľavy 
 Zoznámenie 
 Reality 
 Dovolenky 
 Pizza 
 Reštaurácie 
 Recenzie 
 Inzeráty 
 Naničmama 	 
Nákupy 
		 
 Filmy na DVD 
 Hodinky 
 Parfémy 
 SME knihy a DVD 
 Superhosting 
 Tlačiareň 
 Víno 
 Tvorba webov 
 Predplatné SME 
 ProSenior 		 
	 
	 
 
	 
 


    
    
        
        
         
          
         
    

    
      
         
            
             
     
        
        
     
    Blog.SME.sk
 

    

         
        
                 
     
         
            Sme.sk
         
         
            Domov
         
         
            Regióny
         
         
            Ekonomika
         
         
            Svet
         
         
            Komentáre
         
         
            Kultúra
         
         
            Šport
         
         
            TV
         
         
            Auto
         
         
            Tech
         
         
            Poradňa
         
         
            Žena
         
         
            Bývanie
         
         
            Zdravie
         
         
            Blog
         
     
 

         
            
     
                                                         Politika 
                                                                                     Spoločnosť 
                                                                                     Cestovanie 
                                                                                     Ekonomika 
                                                                                     Fotografie 
                                                                                     Jedlo 
                                                                                     Kultúra 
                                                                                             
Ďalšie
                             
                                                                                         Lifestyle 
                                                                                                                                                                             Médiá 
                                                                                                                                                                             Nezaradené 
                                                                                                                                                                             Súkromné 
                                                                                                                                                                             Šport 
                                                                                                                                                                             Veda a technika 
                                                                                                                                                                             Zábava 
                                                                                                                                                                             Poézia 
                                                                                                                                                                             Próza 
                                                                                                                                                                             Kódex blogera 
                                                                                 
                         
                                                 
            Blogeri
         
     


            

    
    Prihlásiť sa


    
    Založte si blog



    
    Odhlásiť sa


    
    




         

        
        
         
            
         
         
                
     
                 
            SME.sk &gt;
            Blog.SME.sk &gt;
                            Pavel Baričák
                                        &gt;
                NEVERŠOVAČKY (Básne)
                     
                 Pripáľ mi nahým telom srdce 

        
            
                                    14.1.2010
            o
            20:15
                        (upravené
                19.1.2010
                o
                21:07)
                        |
            Karma článku:
                0.00
            |
            Prečítané 
            1832-krát
                    
         
     
         
             

                 
                    
                 

                 
  
   vyhladkaj dušu úsmevom čistých očí,   ukrižuj pery vlhkou nehou,   zažni vatru pekelnej vášne,   nech susedia uveria,   že žijeme.       Aj za nich.   Za celý panelák,   ulicu, mesto, krajinu,   kontinent, Zem, svet...       Nemáme čo stratiť.   Tým, že sme jedno,   môžeme len zapáliť.   Nehorľavé.       Láska, pripáľ mi dušu   a spoj tak vesmír.   Uvidíš, aj Boh začne vzdychať.   Od šťastia.               Buďte šťastní, Hirax                Najbližšie aktivity Hiraxa:   Štvrtok 11. 02. 2010 o 17:05 hod., Martin, Kaviareň Kamala. Rozprávanie a premietanie o mojich potulkách Mexikom. 17:05 chytenie flekov a pozvanie na poslednú kávu či čaj, 17:29 odlet do Mexika... Prílet na Slovač približne okolo 18:57. Vstupné: jeden úsmev.   Január - február 2010: Výstava mojich fotografií z Etiópie v martinskej kaviarničke Kamala. Pozor, nejedná sa o žiadnu "galériu". Jedná sa o 12 záberov, ktorými som sa snažil vystihnúť túto krajinu. Vstup samozrejme zdarma.    Piatok 19. 02. 2010 o 17:03 hod., Martin, Kocka Koncert Horárovi III. Vystúpia kapely LUNATIC GODS, PROTEST, EDITOR, ODPAD a RODDATES. Benefičný koncert organizovaný ako spomienka Jarkovi "Horárovi" Vavrovi, spevákovi skupín Protest a Lunatic Gods. Výťažok poputuje na konto martinského občianského združenia „RAKOVINA".   Nedeľa 21. 03. 2010 od 22:00 do 24:00, Rozhovor na rádiu Regina v relácii "Straty a nálezy".   Streda 10. 11. 2010 o 11:02 hod., Nitra, Krajská knižnica K. Kmeťka. Hirax - čítačka.                         

                 
                                        
                        
                        Zdieľať
                    

                    
                            
                                    
                                    Zdieľať na
                            
                             
                                    
                             
                    

                                                                                                                        
                            
                            Diskusia: (6)
                        
                    
                    
                        
                        Zvýšte karmu
                    
                 
             

                             
            
                     
                         Ďalšie články blogera 
                         
                                                             
                                    
                                                                                                    

                                                                        
                                    
                                        Pavel Baričák 
                                        
                                            Ako urýchliť zámer? Obetou a pokorou
                                        
                                    
                                 
                                                             
                                    
                                                                                                    

                                                                        
                                    
                                        Pavel Baričák 
                                        
                                            Od zámeru k myšlienke: „Na čo myslíte, to násobíte“ (2.časť)
                                        
                                    
                                 
                                                             
                                    
                                                                                                    

                                                                        
                                    
                                        Pavel Baričák 
                                        
                                            Od zámeru k myšlienke: „Na čo myslíte, to násobíte“ (1.časť)
                                        
                                    
                                 
                                                             
                                    
                                                                                                    

                                                                        
                                    
                                        Pavel Baričák 
                                        
                                            Všetci sme mágovia
                                        
                                    
                                 
                                                             
                                    
                                                                                                    

                                                                        
                                    
                                        Pavel Baričák 
                                        
                                            Vnútorným dialógom k osobnému šťastiu
                                        
                                    
                                 
                                                     
                        
                            Ďalšie články blogera: Pavel Baričák
                        
                     
            
                     
                         Ďalšie články z rubriky poézia 
                         
                                                             
                                    
                                                            	                                                                                        

                                                                                                
                                    
                                        Filip Glejdura 
                                        
                                            Do mňa sa omáčaj
                                        
                                    
                                 
                                                             
                                    
                                                            	                                                                                        

                                                                                                
                                    
                                        Filip Glejdura 
                                        
                                            Nežná
                                        
                                    
                                 
                                                             
                                    
                                                            	                                                                                        

                                                                                                
                                    
                                        Maťo Chudík 
                                        
                                            Niečo sa stalo
                                        
                                    
                                 
                                                             
                                    
                                                            	                                                                                        

                                                                                                
                                    
                                        Tomáš Fuček 
                                        
                                            Posúvam sa dozadu
                                        
                                    
                                 
                                                             
                                    
                                                            	                                                                                        

                                                                                                
                                    
                                        Filip Glejdura 
                                        
                                            . . .  a bolo mu to aj tak jedno
                                        
                                    
                                 
                                                     
                        
                            Ďalšie články z rubriky poézia
                        
                     
                 
            
                    
 
     Hlavné správy 
         
        
                                

        
         
            ZAHRANIČIE
             Protestujúci v Maďarsku strácajú dych, Fidesz ich mätie novými návrhmi 
             Na demonštrácii proti Orbánovej vláde bolo v utorok už len niekoľko tisíc ľudí. 
         
     
         
        
                                

        
         
            AKTUALIZOVANÉ 20:22
             Slovenky v hlavnej skupine nebodovali, Švédky vyhrali o 9 gólov 
             Naše hádzanárky hrali na ME piaty zápas. V Záhrebe proti Švédkam. 
         
     
         
        
                                

        
         
            AKTUALIZOVANÉ O 21:30
             Rubeľ pocítil pád na dno, Rusko je vo finančnej kríze 
             Dolár včera stál už takmer 80 rubľov, pod hladinu ho tlačia najmä nízke ceny ropy. 
         
     
     

                 
     
    
     
        
 

     
                
                            
                    



         
            
                Pavel Baričák
            
         
        baricak.blog.sme.sk (rss)
         
                        VIP
                             
     
         Ľudia majú neuveriteľnú schopnosť pripísať všetko, čo bolo napísané autorovi, že to na vlastnej koži aj sám prežil. Prehliadajú schopnosť vnímania, pozorovania sveta a pretransformovania ho do viet s úmyslom pomôcť druhým. Ale na druhej strane sa mi dobre zaspáva s pomyslením, že ostatok sveta na mňa myslí. Cudzí ľudia o mne vedia všetko, teda aj to, čo neviem ani ja sám. Ďakujem im teda za ich všemocnú starostlivosť! Buďte všetci šťastní, prajem Vám to z celého môjho srdca. Hirax &amp;amp;lt;a data-cke-saved-href="http://blueboard.cz/anketa_0.php?id=754643" href="http://blueboard.cz/anketa_0.php?id=754643"&amp;amp;gt;Anketa&amp;amp;lt;/a&amp;amp;gt; od &amp;amp;lt;a data-cke-saved-href="http://blueboard.cz/" href="http://blueboard.cz/"&amp;amp;gt;BlueBoard.cz&amp;amp;lt;/a&amp;amp;gt; 
        
     
     
                     
                             
             

     
        
            
                
                    Počet článkov
                    558
                
                
                    Celková karma
                    
                                                7.11
                    
                
                
                    Priemerná čítanosť
                    3665
                
            
        
     

             

             Zoznam rubrík 
            
             
                                     
                        
                            Šlabikár šťastia 1.
                        
                     
                                     
                        
                            Šlabikár šťastia 2.
                        
                     
                                     
                        
                            Vzťahy (Úvahy)
                        
                     
                                     
                        
                            Tak plače a smeje sa život
                        
                     
                                     
                        
                            Zachráňte malého Paľka!
                        
                     
                                     
                        
                            Po stopách komedianta
                        
                     
                                     
                        
                            Sárka Ráchel Baričáková
                        
                     
                                     
                        
                            Sex (Úvahy)
                        
                     
                                     
                        
                            NEVERŠOVAČKY (Básne)
                        
                     
                                     
                        
                            PRÍBEH MUŽA (Básne a piesne)
                        
                     
                                     
                        
                            SEKUNDU PRED ZBLÁZNENÍM (Román
                        
                     
                                     
                        
                            KÝM NÁS LÁSKA NEROZDELÍ (Román
                        
                     
                                     
                        
                            RAZ AJ V PEKLE VYJDE SLNKO/Rom
                        
                     
                                     
                        
                            ČESKÁ REPUBLIKA (CESTOPIS)
                        
                     
                                     
                        
                            EGYPT (Cestopis)
                        
                     
                                     
                        
                            Ekvádor (Cestopis)
                        
                     
                                     
                        
                            ETIÓPIA (Cestopis)
                        
                     
                                     
                        
                            FRANCÚZSKO (Cestopis)
                        
                     
                                     
                        
                            INDIA (Cestopis)
                        
                     
                                     
                        
                            JORDÁNSKO (CESTOPIS)
                        
                     
                                     
                        
                            KOSTARIKA (Cestopis)
                        
                     
                                     
                        
                            Mexiko (Cestopis)
                        
                     
                                     
                        
                            Nový Zéland (Cestopis)
                        
                     
                                     
                        
                            PANAMA (Cestopis)
                        
                     
                                     
                        
                            POĽSKO (Cestopis)
                        
                     
                                     
                        
                            SLOVENSKO (Cestopis)
                        
                     
                                     
                        
                            THAJSKO (Cestopis)
                        
                     
                                     
                        
                            USA (Cestopis)
                        
                     
                                     
                        
                            VIETNAM (CESTOPIS)
                        
                     
                             
         
    

                     
                        
                                                            
                     Obľúbené články 
                    
                     
                                                 
                                            Niečo o zrkadlení a učiteľoch
                                     
                                                                             
                                            Vlastné šťastie ide cez prítomnosť
                                     
                                                                             
                                            Áno, dá sa naraz milovať dvoch ľudí
                                     
                                                                             
                                            Chcete zmeniť vzťah? Zmeňte najprv seba.
                                     
                                                                             
                                            Chcete byť šťastnými? Prijmite sa.
                                     
                                                                             
                                            Ohovárajú vás? Zraňujú vás klebety? Staňte sa silnými!
                                     
                                                                   
                     Obľúbené knihy 
                    
                     
                                                 
                                            Liedloffová Jean - Koncept kontinua
                                     
                                                                             
                                            Alessandro Baricco - Barbari
                                     
                                                                             
                                            Christopher McDougall - Zrození k běhu (Born to run)
                                     
                                                                             
                                            Ingrid Bauerová - Bez plenky
                                     
                                                                   
                     Čo práve počúvam 
                    
                     
                                                 
                                            The Killers
                                     
                                                                             
                                            Brandom Flowers
                                     
                                                                             
                                            Sunrise Avenue
                                     
                                                                             
                                            Nothing
                                     
                                                                   
                     Obľúbené blogy 
                    
                     
                                                 
                                            Ľubomíra Romanová
                                     
                                                                             
                                            Martin Basila
                                     
                                                                             
                                            Spomíname:
                                     
                                                                             
                                            Moskaľ  Peter
                                     
                                                                             
                                            Miška Oli Procklová Olivieri
                                     
                                                                   
                     Obľúbené stránky 
                    
                     
                                                 
                                            HIRAX Shop
                                     
                            
             
         
            

             
             Čo ma zaujalo 
            Týmto článkom bloger klikol/klikla na karmu.
             
                                                         
                       Skutočná Anna Kareninová bola Puškinovou dcérou
                     
                                                         
                       Máte pocit, že komunisti zničili Bratislavu? Choďte do Bukurešti
                     
                                                         
                       Surinam - zabudnutá juhoamerická exotika
                     
                                                         
                       Hodvábna cesta - 56 dní z Pekingu do Teheránu 2.časť ( Uzbekistan, Turkménsko, Irán)
                     
                                                         
                       Detskí doktori, buďte detskí
                     
                                                         
                       Nemohli nič viac
                     
                                                         
                       Metalový Blog - Folk metal crusade
                     
                                                         
                       Veľká noc vzišla z pohanských sviatkov
                     
                                                         
                       Stačilo p. premiér, oblečte sa prosím
                     
                                                         
                       Jiřina Prekopová: Podmienečná láska je bezcenná
                     
                             
         
           
     Pošlite odkaz blogerovi 
    
         
            
         

         
         
         
         

         
         
Odosielateľ (e-mail)
 
         
Text
 
         
             
Protispamová ochrana 
 
 Zle. Skúste znova. 
Opíšte slová z obrázku: Načítať iné slová 
 Get an image CAPTCHA 
 
 
         
                 
            
         
    
  


 

     






            
    
        
    
 

        
         
         
             Už ste čítali? 
         
         
 

 kultura.sme.sk 
 Margaréta sa spriahla s diablom, no mala Kristovu pravdu 
 
 

 www.sme.sk 
 Pútnické miesta The Beatles alebo ako ľudia kráčajú po zebre 
 
 

 cestovanie.sme.sk 
 Lovia za svitania a v hmle 
 
 

 www.sme.sk 
 Ako sa valila lavína slobody. Ako padal komunizmus 
 
 

 kultura.sme.sk 
 Žiadne retro, poriadny biznis. Takto sa lisuje platňa 
 
	   
 


        
         
            
         

     

    
     
 
 
	 

		Kontakty
		Predplatné
		Etický kódex
		Pomoc
		Mapa stránky
		
	 
 
 
	 
		 
			Widget
			RSS
			Newsletter
		 
		 
			Mobil
			Smartphone
			Kindle
			Televízor
		 
		 
			Facebook
			Twitter
			Google+
		 
	 
	 
		
	 
	 
		Ďalšie weby skupiny: Prihlásenie do Post.sk
		Új Szó Slovak Spectator
		Agentúrne správy 
		Vydavateľstvo
		Inzercia
		Osobné údaje
		Návštevnosť webu
		Predajnosť tlače
		Petit Academy
		SME v škole 		© Copyright 1997-2014 Petit Press, a.s. 
	 
 
 
 


          
        
            
            

        
    

    
    


    


    
        
        
        
        
        
        
        
            
            
        
        
        
        
         
                                
               





 

 



        

 




