
      
    
    

     
	 
	 
 SME.sk 
 Zľavy 
 Zoznámenie 
 Reality 
 Dovolenky 
 Pizza 
 Reštaurácie 
 Recenzie 
 Inzeráty 
 Naničmama 	 
Nákupy 
		 
 Filmy na DVD 
 Hodinky 
 Parfémy 
 SME knihy a DVD 
 Superhosting 
 Tlačiareň 
 Víno 
 Tvorba webov 
 Predplatné SME 
 ProSenior 		 
	 
	 
 
	 
 


    
    
        
        
         
          
         
    

    
      
         
            
             
     
        
        
     
    Blog.SME.sk
 

    

         
        
                 
     
         
            Sme.sk
         
         
            Domov
         
         
            Regióny
         
         
            Ekonomika
         
         
            Svet
         
         
            Komentáre
         
         
            Kultúra
         
         
            Šport
         
         
            TV
         
         
            Auto
         
         
            Tech
         
         
            Poradňa
         
         
            Žena
         
         
            Bývanie
         
         
            Zdravie
         
         
            Blog
         
     
 

         
            
     
                                                         Politika 
                                                                                     Spoločnosť 
                                                                                     Cestovanie 
                                                                                     Ekonomika 
                                                                                     Fotografie 
                                                                                     Jedlo 
                                                                                     Kultúra 
                                                                                             
Ďalšie
                             
                                                                                         Lifestyle 
                                                                                                                                                                             Médiá 
                                                                                                                                                                             Nezaradené 
                                                                                                                                                                             Súkromné 
                                                                                                                                                                             Šport 
                                                                                                                                                                             Veda a technika 
                                                                                                                                                                             Zábava 
                                                                                                                                                                             Poézia 
                                                                                                                                                                             Próza 
                                                                                                                                                                             Kódex blogera 
                                                                                 
                         
                                                 
            Blogeri
         
     


            

    
    Prihlásiť sa


    
    Založte si blog



    
    Odhlásiť sa


    
    




         

        
        
         
            
         
         
                
     
                 
            SME.sk &gt;
            Blog.SME.sk &gt;
                            Hana Puváková
                                        &gt;
                gebuzinky mojej absurdity
                     
                 Nájdem si miesto 

        
            
                                    6.4.2010
            o
            22:22
                        |
            Karma článku:
                7.64
            |
            Prečítané 
            418-krát
                    
         
     
         
             

                 
                    ....
                 

                 Nájdem si miesto dolu pod slnkom,   kde bude číhať dobro z každej strany,   nájdem si miesto, kde so slzou   ma pozdraví dážď na svitaní.       Nájdem si miesto, kde bude dúha   lámať svoj závoj na prameni,   nájdem si miesto, kde druha   žiadny zlý človek neporaní.       Nájdem si miesto, kde baldachýn   z oblohy spustí hviezdy jas,   nájdem si miesto, kde spievaním   sa rozšíri dobro, čo je v nás.       Nájdem si miesto, kde visí kríž,   ten všetkému dá zmysel,   nájdem si miesto, kde miesto kríz   Tvoj dávny dar k nám prišiel. 

                 
                                        
                        
                        Zdieľať
                    

                    
                            
                                    
                                    Zdieľať na
                            
                             
                                    
                             
                    

                                                                                                                        
                            
                            Diskusia: (3)
                        
                    
                    
                        
                        Zvýšte karmu
                    
                 
             

                             
            
                     
                         Ďalšie články blogera 
                         
                                                             
                                    
                    	                                                                                        

                                                                        
                                    
                                        Hana Puváková 
                                        
                                            Kým sa nevysvetlí príčina odvolania Bezáka..
                                        
                                    
                                 
                                                             
                                    
                    	                                                                                        

                                                                        
                                    
                                        Hana Puváková 
                                        
                                            inzerát
                                        
                                    
                                 
                                                             
                                    
                    	                                                                                        

                                                                        
                                    
                                        Hana Puváková 
                                        
                                            koľaje
                                        
                                    
                                 
                                                             
                                    
                    	                                                                                        

                                                                        
                                    
                                        Hana Puváková 
                                        
                                            Minerály, Marilyn Manson a Mušky?
                                        
                                    
                                 
                                                             
                                    
                    	                                                                                        

                                                                        
                                    
                                        Hana Puváková 
                                        
                                            Sila priateľstva
                                        
                                    
                                 
                                                     
                        
                            Ďalšie články blogera: Hana Puváková
                        
                     
            
                     
                         Ďalšie články z rubriky poézia 
                         
                                                             
                                    
                                                            	                                                                                        

                                                                                                
                                    
                                        Tomáš Fuček 
                                        
                                            Posúvam sa dozadu
                                        
                                    
                                 
                                                             
                                    
                                                            	                                                                                        

                                                                                                
                                    
                                        Filip Glejdura 
                                        
                                            . . .  a bolo mu to aj tak jedno
                                        
                                    
                                 
                                                             
                                    
                                                            	                                                                                        

                                                                                                
                                    
                                        Drahoslav Mika 
                                        
                                            Chmúrava
                                        
                                    
                                 
                                                             
                                    
                                                            	                                                                                        

                                                                                                
                                    
                                        Janka Bernáthová 
                                        
                                            Iba dozrievam
                                        
                                    
                                 
                                                             
                                    
                                                            	                                                                                        

                                                                                                
                                    
                                        Filip Glejdura 
                                        
                                            Milujú sa
                                        
                                    
                                 
                                                     
                        
                            Ďalšie články z rubriky poézia
                        
                     
                 
            
                    
 
     Hlavné správy 
         
        
                                

        
         
            AKTUALIZOVANÉ 16:00
             Rubeľ kolabuje, ruská vláda má mimoriadne rokovať 
             Jeden dolár stál v utorok poobede už viac ako 78 rubľov, razantné zvýšenie úrokov nepomohlo. 
         
     
         
        
                                

        
         
            ZAHRANIČIE
             Taliban zabil v škole v Pakistane vyše sto ľudí, väčšinou deti 
             Militanti vtrhli do vojenskej školy v policajných rovnošatách. 
         
     
         
        
                                

        
         
            KOMENTARE.SME.SK
             Cynická obluda: Medzičasom na opustenom ostrove 
             Stroskotanci majú veľké šťastie, že sú dvaja. Lacné vtipy na úrovni ich autora. 
         
     
     

                 
     
    
     
        
 

     
                
                            
                    



         
            
                Hana Puváková
            
         
        puvakova.blog.sme.sk (rss)
         
                                     
     
        "Duša sa v prítomnosti detí uzdravuje", povedal Dostojevskij, tuším. rada sa nechám uzdravovať.
        
     
     
                     
                             
             

     
        
            
                
                    Počet článkov
                    89
                
                
                    Celková karma
                    
                                                0.00
                    
                
                
                    Priemerná čítanosť
                    1075
                
            
        
     

             

             Zoznam rubrík 
            
             
                                     
                        
                            gebuzinky mojej absurdity
                        
                     
                                     
                        
                            o deťoch
                        
                     
                                     
                        
                            Súkromné
                        
                     
                                     
                        
                            Nezaradené
                        
                     
                             
         
    

                     
                        
                                                            
                     Obľúbené knihy 
                    
                     
                                                 
                                            Hviezdoslav-Hájnikova žena
                                     
                                                                             
                                            Kukučín-Dies irae
                                     
                                                                             
                                            Timrava-Hrdinova
                                     
                                                                             
                                            Vajanský-Suchá ratolesť
                                     
                                                                             
                                            Biblia
                                     
                                                                   
                     Čo práve počúvam 
                    
                     
                                                 
                                            gorazdík
                                     
                                                                             
                                            živé kvety
                                     
                                                                             
                                            komajota
                                     
                                                                             
                                            desmod
                                     
                                                                             
                                            kapucíni
                                     
                                                                             
                                            polemic
                                     
                                                                   
                     Obľúbené blogy 
                    
                     
                                                 
                                            fotograf a výhodňar :)
                                     
                                                                             
                                            poetka a víla :)
                                     
                                                                             
                                            jurko alias tahac Doma je doma:D
                                     
                                                                             
                                            misulko, co secko vidi...
                                     
                                                                             
                                            moja miluwana:D
                                     
                                                                   
                     Obľúbené stránky 
                    
                     
                                                 
                                            a samo rada blogy mam..:)
                                     
                                                                             
                                            lumeeen
                                     
                                                                             
                                            kwecinky
                                     
                                                                             
                                            frantiskanske weci:D
                                     
                                                                             
                                            moje deturence kraaasne
                                     
                            
             
         
            

           
     Pošlite odkaz blogerovi 
    
         
            
         

         
         
         
         

         
         
Odosielateľ (e-mail)
 
         
Text
 
         
             
Protispamová ochrana 
 
 Zle. Skúste znova. 
Opíšte slová z obrázku: Načítať iné slová 
 Get an image CAPTCHA 
 
 
         
                 
            
         
    
  


 

     






            
    
        
    
 

        
         
         
             Už ste čítali? 
         
         
 

 kultura.sme.sk 
 Margaréta sa spriahla s diablom, no mala Kristovu pravdu 
 
 

 www.sme.sk 
 Pútnické miesta The Beatles alebo ako ľudia kráčajú po zebre 
 
 

 cestovanie.sme.sk 
 Lovia za svitania a v hmle 
 
 

 www.sme.sk 
 Ako sa valila lavína slobody. Ako padal komunizmus 
 
 

 kultura.sme.sk 
 Žiadne retro, poriadny biznis. Takto sa lisuje platňa 
 
	   
 


        
         
            
         

     

    
     
 
 
	 

		Kontakty
		Predplatné
		Etický kódex
		Pomoc
		Mapa stránky
		
	 
 
 
	 
		 
			Widget
			RSS
			Newsletter
		 
		 
			Mobil
			Smartphone
			Kindle
			Televízor
		 
		 
			Facebook
			Twitter
			Google+
		 
	 
	 
		
	 
	 
		Ďalšie weby skupiny: Prihlásenie do Post.sk
		Új Szó Slovak Spectator
		Agentúrne správy 
		Vydavateľstvo
		Inzercia
		Osobné údaje
		Návštevnosť webu
		Predajnosť tlače
		Petit Academy
		SME v škole 		© Copyright 1997-2014 Petit Press, a.s. 
	 
 
 
 


          
        
            
            

        
    

    
    


    


    
        
        
        
        
        
        
        
            
            
        
        
        
        
         
                                
               





 

 



        

 




