
      
    
    

     
	 
	 
 SME.sk 
 Zľavy 
 Zoznámenie 
 Reality 
 Dovolenky 
 Pizza 
 Reštaurácie 
 Recenzie 
 Inzeráty 
 Naničmama 	 
Nákupy 
		 
 Filmy na DVD 
 Hodinky 
 Parfémy 
 SME knihy a DVD 
 Superhosting 
 Tlačiareň 
 Víno 
 Tvorba webov 
 Predplatné SME 
 ProSenior 		 
	 
	 
 
	 
 


    
    
        
        
         
          
         
    

    
      
         
            
             
     
        
        
     
    Blog.SME.sk
 

    

         
        
                 
     
         
            Sme.sk
         
         
            Domov
         
         
            Regióny
         
         
            Ekonomika
         
         
            Svet
         
         
            Komentáre
         
         
            Kultúra
         
         
            Šport
         
         
            TV
         
         
            Auto
         
         
            Tech
         
         
            Poradňa
         
         
            Žena
         
         
            Bývanie
         
         
            Zdravie
         
         
            Blog
         
     
 

         
            
     
                                                         Politika 
                                                                                     Spoločnosť 
                                                                                     Cestovanie 
                                                                                     Ekonomika 
                                                                                     Fotografie 
                                                                                     Jedlo 
                                                                                     Kultúra 
                                                                                             
Ďalšie
                             
                                                                                         Lifestyle 
                                                                                                                                                                             Médiá 
                                                                                                                                                                             Nezaradené 
                                                                                                                                                                             Súkromné 
                                                                                                                                                                             Šport 
                                                                                                                                                                             Veda a technika 
                                                                                                                                                                             Zábava 
                                                                                                                                                                             Poézia 
                                                                                                                                                                             Próza 
                                                                                                                                                                             Kódex blogera 
                                                                                 
                         
                                                 
            Blogeri
         
     


            

    
    Prihlásiť sa


    
    Založte si blog



    
    Odhlásiť sa


    
    




         

        
        
         
            
         
         
                
     
                 
            SME.sk &gt;
            Blog.SME.sk &gt;
                            Pavol Haško
                                        &gt;
                Nezaradené
                     
                 Príbeh o malej zelenej žabke. 

        
            
                                    24.3.2010
            o
            18:59
                        (upravené
                24.3.2010
                o
                19:09)
                        |
            Karma článku:
                5.28
            |
            Prečítané 
            982-krát
                    
         
     
         
             

                 
                         Cieľ je dôležitá súčasť ľudského života. Nebojme sa stavať si latky čo najvyššie, aby bol náš život plnohodnotnejší a bohatší. Čím vyššie sa budeme chcieť dostať, tým vyššie sa dostaneme.
                 

                      Možno poznáte príbeh o niekoľkých zelených žabkách, ktoré sa zúčastnili pretekov v lezení na vysokú vežu. Hneď po štarte na nich začali pokrikovať diváci vety typu : „ To nezvládnete !“  „ To je nemožné vyliezť na takú vysokú vežu !“  „ Nemáte šancu to zvládnuť !“  a podobne.  Ako žabky liezli na vežu, postupne jedna po druhej padali na zem a vzdávali sa ďalšieho boja. Jedna žabka však bola vpredu s obrovským nádskokom.           Diváci sa čudovali,že jej to tak dobre ide a ešte viac na ňu kričali, že to nezvládne.    No žabka ďalej pokračovala v lezení a prekonávala prekážku za prekážkou. Nakoniec ostala na veži ako jediná a dostala sa na úplný vrchol. Všetci sa divili, ako je to možné,že to s takou ľahkosťou zvládla. Vypytovali sa jej na tajomstvo jej úspechu, no ona neodpovedala. Táto žabka, ktorá napriek zlým okolitým vplyvom preteky vyhrala bola totiš hluchá .                Každý z nás má nejaký cieľ. No väčšina z nás sa ho vzdá po prvom zlyhaní, alebo sa ani nepokúsi o jeho dosiahnutie. Vo väčšine prípadov nás odrádzajú reči ľudí, ktorí tak isto zlyhali a vytvorili si to známe motto :    „ To sa nedá“                  Skúsme si preto zobrať príklad od žabky z príbehu, ktorá nepočula tie hlúpe reči divákov a s ľahkosťou vyliezla na vysokú vežu a vyhrala preteky. Nepoddávajme sa rečiam neúspešných ľudí, ktorí už neveria sami v seba. Radšej sa poučme z ich zlyhania a lezme ďalej za svojim cieľom až na vrchol.  

                 
                                        
                        
                        Zdieľať
                    

                    
                            
                                    
                                    Zdieľať na
                            
                             
                                    
                             
                    

                                                                                                                        
                            
                            Diskusia: (5)
                        
                    
                    
                        
                        Zvýšte karmu
                    
                 
             

                             
            
                     
                         Ďalšie články blogera 
                         
                                                             
                                    
                    	                                                                                        

                                                                        
                                    
                                        Pavol Haško 
                                        
                                            Stratilo sa auto !!!
                                        
                                    
                                 
                                                             
                                    
                    	                                                                                        

                                                                        
                                    
                                        Pavol Haško 
                                        
                                            Zbohatnite za pár hodín !
                                        
                                    
                                 
                                                     
                        
                            Ďalšie články blogera: Pavol Haško
                        
                     
            
                     
                         Ďalšie články z rubriky spoločnosť 
                         
                                                             
                                    
                                                            	                                                                                        

                                                                                                
                                    
                                        Kristián Straka 
                                        
                                            Nebite ma, doktor Plzák... alebo POZVANIE NA VEČERU
                                        
                                    
                                 
                                                             
                                    
                                                            	                                                                                        

                                                                                                
                                    
                                        Kristián Straka 
                                        
                                            Oklamaní Ježiškom ?
                                        
                                    
                                 
                                                             
                                    
                                                            	                                                                                        

                                                                                                
                                    
                                        Milan Buno 
                                        
                                            Šup, šup, najesť sa. A utekať!
                                        
                                    
                                 
                                                             
                                    
                                                            	                                                                                        

                                                                                                
                                    
                                        Katarína Lorenčíková 
                                        
                                            Par uprimnych oslobodzujucich riadkov...
                                        
                                    
                                 
                                                             
                                    
                                                            	                                                                                        

                                                                                                
                                    
                                        Alžbeta Slováková Spáčilová 
                                        
                                            Selfie s nádychom hyenizmu a krutosti
                                        
                                    
                                 
                                                     
                        
                            Ďalšie články z rubriky spoločnosť
                        
                     
                 
            
                    
 
     Hlavné správy 
         
        
                                

        
         
            AKTUALIZOVANÉ 16:00
             Rubeľ kolabuje, ruská vláda má mimoriadne rokovať 
             Jeden dolár stál v utorok poobede už viac ako 78 rubľov, razantné zvýšenie úrokov nepomohlo. 
         
     
         
        
                                

        
         
            ZAHRANIČIE
             Taliban zabil v škole v Pakistane vyše sto ľudí, väčšinou deti 
             Militanti vtrhli do vojenskej školy v policajných rovnošatách. 
         
     
         
        
                                

        
         
            KOMENTARE.SME.SK
             Cynická obluda: Medzičasom na opustenom ostrove 
             Stroskotanci majú veľké šťastie, že sú dvaja. Lacné vtipy na úrovni ich autora. 
         
     
     

                 
     
    
     
        
 

     
                
                            
                    



         
            
                Pavol Haško
            
         
        pavolhasko.blog.sme.sk (rss)
         
                                     
     
        Myslím si,že napriek všetkému som pozitívne mysliaci človek :-)
        
     
     
                     
                             
             

     
        
            
                
                    Počet článkov
                    3
                
                
                    Celková karma
                    
                                                0.00
                    
                
                
                    Priemerná čítanosť
                    998
                
            
        
     

             

             Zoznam rubrík 
            
             
                                     
                        
                            Súkromné
                        
                     
                                     
                        
                            Nezaradené
                        
                     
                             
         
    

    

           
     Pošlite odkaz blogerovi 
    
         
            
         

         
         
         
         

         
         
Odosielateľ (e-mail)
 
         
Text
 
         
             
Protispamová ochrana 
 
 Zle. Skúste znova. 
Opíšte slová z obrázku: Načítať iné slová 
 Get an image CAPTCHA 
 
 
         
                 
            
         
    
  


 

     






            
    
        
    
 

        
         
         
             Už ste čítali? 
         
         
 

 kultura.sme.sk 
 Margaréta sa spriahla s diablom, no mala Kristovu pravdu 
 
 

 www.sme.sk 
 Pútnické miesta The Beatles alebo ako ľudia kráčajú po zebre 
 
 

 cestovanie.sme.sk 
 Lovia za svitania a v hmle 
 
 

 www.sme.sk 
 Ako sa valila lavína slobody. Ako padal komunizmus 
 
 

 kultura.sme.sk 
 Žiadne retro, poriadny biznis. Takto sa lisuje platňa 
 
	   
 


        
         
            
         

     

    
     
 
 
	 

		Kontakty
		Predplatné
		Etický kódex
		Pomoc
		Mapa stránky
		
	 
 
 
	 
		 
			Widget
			RSS
			Newsletter
		 
		 
			Mobil
			Smartphone
			Kindle
			Televízor
		 
		 
			Facebook
			Twitter
			Google+
		 
	 
	 
		
	 
	 
		Ďalšie weby skupiny: Prihlásenie do Post.sk
		Új Szó Slovak Spectator
		Agentúrne správy 
		Vydavateľstvo
		Inzercia
		Osobné údaje
		Návštevnosť webu
		Predajnosť tlače
		Petit Academy
		SME v škole 		© Copyright 1997-2014 Petit Press, a.s. 
	 
 
 
 


          
        
            
            

        
    

    
    


    


    
        
        
        
        
        
        
        
            
            
        
        
        
        
         
                                
               





 

 



        

 




