
      
    
    

     
	 
	 
 SME.sk 
 Zľavy 
 Zoznámenie 
 Reality 
 Dovolenky 
 Pizza 
 Reštaurácie 
 Recenzie 
 Inzeráty 
 Naničmama 	 
Nákupy 
		 
 Filmy na DVD 
 Hodinky 
 Parfémy 
 SME knihy a DVD 
 Superhosting 
 Tlačiareň 
 Víno 
 Tvorba webov 
 Predplatné SME 
 ProSenior 		 
	 
	 
 
	 
 


    
    
        
        
         
          
         
    

    
      
         
            
             
     
        
        
     
    Blog.SME.sk
 

    

         
        
                 
     
         
            Sme.sk
         
         
            Domov
         
         
            Regióny
         
         
            Ekonomika
         
         
            Svet
         
         
            Komentáre
         
         
            Kultúra
         
         
            Šport
         
         
            TV
         
         
            Auto
         
         
            Tech
         
         
            Poradňa
         
         
            Žena
         
         
            Bývanie
         
         
            Zdravie
         
         
            Blog
         
     
 

         
            
     
                                                         Politika 
                                                                                     Spoločnosť 
                                                                                     Cestovanie 
                                                                                     Ekonomika 
                                                                                     Fotografie 
                                                                                     Jedlo 
                                                                                     Kultúra 
                                                                                             
Ďalšie
                             
                                                                                         Lifestyle 
                                                                                                                                                                             Médiá 
                                                                                                                                                                             Nezaradené 
                                                                                                                                                                             Súkromné 
                                                                                                                                                                             Šport 
                                                                                                                                                                             Veda a technika 
                                                                                                                                                                             Zábava 
                                                                                                                                                                             Poézia 
                                                                                                                                                                             Próza 
                                                                                                                                                                             Kódex blogera 
                                                                                 
                         
                                                 
            Blogeri
         
     


            

    
    Prihlásiť sa


    
    Založte si blog



    
    Odhlásiť sa


    
    




         

        
        
         
            
         
         
                
     
                 
            SME.sk &gt;
            Blog.SME.sk &gt;
                            Jozef Drahovský
                                        &gt;
                Doprava
                     
                 Pílenie dopravných značiek v Žiline 

        
            
                                    28.5.2010
            o
            0:42
                        (upravené
                29.5.2010
                o
                18:02)
                        |
            Karma článku:
                8.77
            |
            Prečítané 
            2609-krát
                    
         
     
         
             

                 
                    Mesto Žilina, sa rozhodlo, že odstráni bilbordy postavene načierno, ale zašlo oveľa ďalej ako je zdravý rozum. Začalo píliť nielen bilbordy ale aj dopravné značky!
                 

                 
 Autor: Renáta Jaloviarová, Pravda
   Nechcem sa miešať medzi záujmové skupiny tvorené rôznymi reklamnými agentúrami, ktoré bojujú proti sebe. Je pravda, že každé mesto môže v medziach zákona regulovať umiestňovanie bilbordov. Taktiež je možne bilbord, ktorý bol postavený bez súhlasu vlastníka odstrániť.   Čitatelia, zrejme obyvatelia Žiliny, ma upozornili na článok v denníku Pravda z ktorého som použil fotografiu, že v Žiline nepília len bilbordy, ale aj dopravné značky, ak nenájdu od nich súhlas vlastníka a stavebné povolenie.   Musím upozorniť primátora Žiliny, že pílením dopravných značiek sa dopúšťa  priestupku a v prípade dopravnej nehody, ktorá by bola ako následok odpílenej dopravnej značky tak aj trestného činu všeobecného ohrozenia.   Pri umiestňovaní dopravných značiek je to inak ako pri bilbordoch, ktoré môže regulovať mesto. Tu platí zákon 8/2009 Z.z., konkrétne §60:   (1) V cestnej premávke sa používajú   a) zvislé dopravné značky,   b) vodorovné dopravné značky,   c) dopravné zariadenia.   (6) Vlastník nehnuteľnosti je povinný za primeranú náhradu strpieť umiestnenie dopravnej značky alebo dopravného zariadenia a ich nosnej konštrukcie na svojej nehnuteľnosti.   Ako vidno na fotografii, bola odpílená nosná konštrukcia aj s dopravnými značkami  IS 22a. (9/2009 Z.z. K značke č. IS 22a: Značka Smerová tabuľa k inému cieľu (č. IS 22a) vyznačeným vhodným nápisom, symbolom, piktogramom informuje o smere, prípadne o vzdialenosti k inému významnému cieľu ako k obci alebo k jej časti, ktorý má dopravný význam pre účastníkov cestnej premávky napríklad k letisku, k autobusovej alebo železničnej stanici, k prístavu alebo k stanici technickej alebo emisnej kontroly a podobne.)   Za odpílenie hrozí páchateľovi a zvlášť v organizovanej skupine, okrem trestu aj pokuta podľa cestného zákona 135/1961 Zb.   § 22a Pokuty  Cestný správny orgán a obec v rozsahu svojej pôsobnosti uložia pokutu  do 33 190 eur právnickej osobe alebo fyzickej osobe oprávnenej na podnikanie podľa osobitných predpisov, 9) ak  ...  6. zamení, pozmení, premiestni,  odstráni, umiestni alebo zakryje dopravnú značku alebo iné zariadenie, ktoré je súčasťou pozemnej komunikácie,   Záver:  Dúfam, že Cestný správny orgán bude postupovať rovnako prísne ako u neplatných technických a emisných kontrolách a udelí pokutu kompetentnej osobe v plnej výške. 

                 
                                        
                        
                        Zdieľať
                    

                    
                            
                                    
                                    Zdieľať na
                            
                             
                                    
                             
                    

                                                                                                                        
                            
                            Diskusia: (21)
                        
                    
                    
                        
                        Zvýšte karmu
                    
                 
             

                             
            
                     
                         Ďalšie články blogera 
                         
                                                             
                                    
                    	                                                                                        

                                                                        
                                    
                                        Jozef Drahovský 
                                        
                                            Zneužívanie dopravného značenia a podnet na prokuratúru
                                        
                                    
                                 
                                                             
                                    
                    	                                                                                        

                                                                        
                                    
                                        Jozef Drahovský 
                                        
                                            Akou rýchlosťou sa smie a je vhodné ísť v danom mieste?
                                        
                                    
                                 
                                                             
                                    
                    	                                                                                        

                                                                        
                                    
                                        Jozef Drahovský 
                                        
                                            Poznáte dopravné značky súvisiace s parkovaním?
                                        
                                    
                                 
                                                             
                                    
                    	                                                                                        

                                                                        
                                    
                                        Jozef Drahovský 
                                        
                                            Darwinova cena za súkromné dopravné značenie
                                        
                                    
                                 
                                                             
                                    
                    	                                                                                        

                                                                        
                                    
                                        Jozef Drahovský 
                                        
                                            Aký vek a aké oprávnenie je potrebné na motorku?
                                        
                                    
                                 
                                                     
                        
                            Ďalšie články blogera: Jozef Drahovský
                        
                     
            
                     
                         Ďalšie články z rubriky politika 
                         
                                                             
                                    
                                                            	                                                                                        

                                                                                                
                                    
                                        Tomáš Hudec 
                                        
                                            Chceme zvýšiť účasť ľudí vo voľbách? Zaveďme eVoľby!
                                        
                                    
                                 
                                                             
                                    
                                                            	                                                                                        

                                                                                                
                                    
                                        Robert Bestro 
                                        
                                            Výmena vedenia parlamentu zjavne prospela
                                        
                                    
                                 
                                                             
                                    
                                                            	                                                                                        

                                                                                                
                                    
                                        Júlia Piraňa Mikolášiková 
                                        
                                            Obvinia ďalšiu novinárku z údajného ohovárania policajného šéfa Ševčíka?
                                        
                                    
                                 
                                                             
                                    
                                                            	                                                                                        

                                                                                                
                                    
                                        Stanislav Martinčko 
                                        
                                            Stužka z kvetinárstva za 16 centov a rozkradnuté milióny!!
                                        
                                    
                                 
                                                             
                                    
                                                            	                                                                                        

                                                                                                
                                    
                                        Veronika Remisova 
                                        
                                            Elektronické mýto podľa Ficovej vlády – prehľadnejšie sa to skrátka nedá
                                        
                                    
                                 
                                                     
                        
                            Ďalšie články z rubriky politika
                        
                     
                 
            
                    
 
     Hlavné správy 
         
        
                                

        
         
            AKTUALIZOVANÉ 20:22
             Slovenky v hlavnej skupine nebodovali, Švédky vyhrali o 9 gólov 
             Naše hádzanárky hrali na ME piaty zápas. V Záhrebe proti Švédkam. 
         
     
         
        
                                

        
         
            AKTUALIZOVANÉ O 20:00
             Rubeľ pocítil pád na dno, Rusko je vo finančnej kríze 
             Dolár včera stál už takmer 80 rubľov, pod hladinu ho tlačia najmä nízke ceny ropy. 
         
     
         
        
                                

        
         
            ZAHRANIČIE
             Taliban zaútočil na citlivé miesto Pakistanu. Na deti 
             Taliban zabil v škole v Pakistane najmenej 141 ľudí, väčšinou deti. 
         
     
     

                 
     
    
     
        
 

     
                
                            
                    



         
            
                Jozef Drahovský
            
         
        drahovsky.blog.sme.sk (rss)
         
                        VIP
                             
     
        Pracuje v oblasti informačných technológií a elektroniky.  Rád jazdí autom a venuje sa analýzam v doprave, najmä z pohľadu plynulosti a bezpečnosti.
  
Facebook
  
  
        
     
     
                     
                             
             

     
        
            
                
                    Počet článkov
                    1036
                
                
                    Celková karma
                    
                                                8.45
                    
                
                
                    Priemerná čítanosť
                    5398
                
            
        
     

             

             Zoznam rubrík 
            
             
                                     
                        
                            Doprava
                        
                     
                                     
                        
                            Rôzne
                        
                     
                                     
                        
                            Zoznam článkov
                        
                     
                             
         
    

                     
                        
                                                            
                     Obľúbené blogy 
                    
                     
                                                 
                                            blog.sme.sk/*
                                     
                                                                             
                                            spravodaj.madaj.net
                                     
                                                                             
                                            4m.pilnik.sk
                                     
                                                                   
                     Obľúbené stránky 
                    
                     
                                                 
                                            JASPI
                                     
                                                                             
                                            profivodic.sk
                                     
                                                                             
                                            Pripomienkové konanie
                                     
                                                                             
                                            GeoInformatika.sk
                                     
                                                                             
                                            OpenStreetMap
                                     
                                                                             
                                            osel.cz
                                     
                            
             
         
            

           
     Pošlite odkaz blogerovi 
    
         
            
         

         
         
         
         

         
         
Odosielateľ (e-mail)
 
         
Text
 
         
             
Protispamová ochrana 
 
 Zle. Skúste znova. 
Opíšte slová z obrázku: Načítať iné slová 
 Get an image CAPTCHA 
 
 
         
                 
            
         
    
  


 

     






            
    
        
    
 

        
         
         
             Už ste čítali? 
         
         
 

 kultura.sme.sk 
 Margaréta sa spriahla s diablom, no mala Kristovu pravdu 
 
 

 www.sme.sk 
 Pútnické miesta The Beatles alebo ako ľudia kráčajú po zebre 
 
 

 cestovanie.sme.sk 
 Lovia za svitania a v hmle 
 
 

 www.sme.sk 
 Ako sa valila lavína slobody. Ako padal komunizmus 
 
 

 kultura.sme.sk 
 Žiadne retro, poriadny biznis. Takto sa lisuje platňa 
 
	   
 


        
         
            
         

     

    
     
 
 
	 

		Kontakty
		Predplatné
		Etický kódex
		Pomoc
		Mapa stránky
		
	 
 
 
	 
		 
			Widget
			RSS
			Newsletter
		 
		 
			Mobil
			Smartphone
			Kindle
			Televízor
		 
		 
			Facebook
			Twitter
			Google+
		 
	 
	 
		
	 
	 
		Ďalšie weby skupiny: Prihlásenie do Post.sk
		Új Szó Slovak Spectator
		Agentúrne správy 
		Vydavateľstvo
		Inzercia
		Osobné údaje
		Návštevnosť webu
		Predajnosť tlače
		Petit Academy
		SME v škole 		© Copyright 1997-2014 Petit Press, a.s. 
	 
 
 
 


          
        
            
            

        
    

    
    


    


    
        
        
        
        
        
        
        
            
            
        
        
        
        
         
                                
               





 

 



        

 




