
      
    
    

     
	 
	 
 SME.sk 
 Zľavy 
 Zoznámenie 
 Reality 
 Dovolenky 
 Pizza 
 Reštaurácie 
 Recenzie 
 Inzeráty 
 Naničmama 	 
Nákupy 
		 
 Filmy na DVD 
 Hodinky 
 Parfémy 
 SME knihy a DVD 
 Superhosting 
 Tlačiareň 
 Víno 
 Tvorba webov 
 Predplatné SME 
 ProSenior 		 
	 
	 
 
	 
 


    
    
        
        
         
          
         
    

    
      
         
            
             
     
        
        
     
    Blog.SME.sk
 

    

         
        
                 
     
         
            Sme.sk
         
         
            Domov
         
         
            Regióny
         
         
            Ekonomika
         
         
            Svet
         
         
            Komentáre
         
         
            Kultúra
         
         
            Šport
         
         
            TV
         
         
            Auto
         
         
            Tech
         
         
            Poradňa
         
         
            Žena
         
         
            Bývanie
         
         
            Zdravie
         
         
            Blog
         
     
 

         
            
     
                                                         Politika 
                                                                                     Spoločnosť 
                                                                                     Cestovanie 
                                                                                     Ekonomika 
                                                                                     Fotografie 
                                                                                     Jedlo 
                                                                                     Kultúra 
                                                                                             
Ďalšie
                             
                                                                                         Lifestyle 
                                                                                                                                                                             Médiá 
                                                                                                                                                                             Nezaradené 
                                                                                                                                                                             Súkromné 
                                                                                                                                                                             Šport 
                                                                                                                                                                             Veda a technika 
                                                                                                                                                                             Zábava 
                                                                                                                                                                             Poézia 
                                                                                                                                                                             Próza 
                                                                                                                                                                             Kódex blogera 
                                                                                 
                         
                                                 
            Blogeri
         
     


            

    
    Prihlásiť sa


    
    Založte si blog



    
    Odhlásiť sa


    
    




         

        
        
         
            
         
         
                
     
                 
            SME.sk &gt;
            Blog.SME.sk &gt;
                            Dominik Marko
                                        &gt;
                Nezaradené
                     
                 Cirkev a satanizmus 

        
            
                                    22.4.2010
            o
            21:19
                        (upravené
                1.6.2010
                o
                15:23)
                        |
            Karma článku:
                3.14
            |
            Prečítané 
            1016-krát
                    
         
     
         
             

                 
                    Nedávno som sa dostal k staršiemu článku z talianskeho periodika 30 Giorni. Autorom článku je Giovanni Riccardi a je z jeho 5 čísla z roku 1996. Autor v ňom opisuje vzťah cirkvi k satanistickému kultu a chcel by som sa k nemu vrátiť malou reflexiou.
                 

                 Konsekrovaná hostia t.j. premenené Kristovo telo v hostii, sa cenovo na „trhu“ pohybuje medzi 50-300 €. Je nesporné, že mnoho kupujúcich patrí medzi účastníkov obradov so satanským pozadím. To bol prípad, ktorý sa stal v Katánii v Taliansku, kde v krypte opátstva sv. Mikuláša došlo k zhanobeniu hrobov mníchov a poriadali sa tam čierne omše a orgie. V pozadí prípadu boli zapojení i cirkevní činitelia. Fenomén bol väčšieho rozsahu, ako by sa na prvý pohľad zdalo.    Zločin znesvätenia Eucharistie sa nazýva reálna svätokrádež, pretože podľa cirkevnej tradície, je po konsekrácii v hostii skutočne sprítomnený Kristus so svojím telom, dušou a božstvom. Stúpajúca záplava rôznych siekt a skupín so svojimi obradmi sa obracia proti reálnej božskej skutočnosti. Pri ich obradoch je profanácia, zneuctenie premenených hostií podstatnou časťou a cieľom. Príznačné je v tomto smere konštatovanie niektorých vodcov, ako Efrema del Gatto, charizmatického vodcu známej rímskej satanskej „cirkvi“ Luciferovo bratstvo, ktorý tvrdí, že dostávajú konsekrované hostie od katolíckych kňazov, ktorí sa k týmto službám sami ponúkli. Tieto hostie teda neboli ukradnuté, ako bratstvo tvrdilo.   Nesporne nie sú aktivity satanských siekt žiadnou novinkou. Ale až po osudovom roku 1989 vystúpili z obmedzeného okruhu buržoáznych elít a stali sa masovým fenoménom medzi širokou verejnosťou a patria medzi nich aj katolícki veriaci, a to ako laici, tak aj klérus. Sociológ Massimo Introvigne vo svojej knihe Indagine sul satanismo (Výskum satanizmu) konštatuje, že aj po minulé storočia existovali rôzne satanské kulty a sekty. Potom sa v dvadsiatom storočí zdalo, že na základe nesmierneho rozšírenia tlačovín poznamenaných materialistickou ideológiou marxizmu tento jav vymizol. Avšak na konci sedemdesiatych rokov sa v USA, ako explózia rozšírili znovu tieto sekty súčasne s krízou komunistickej ideológie. V neposlednej rade preto, že USA nemali záujem podporovať ďalej organizácie, ktoré dovtedy fungovali ako hrádza proti červenému nebezpečiu a preto venovali finančnú podporu iným prúdom. 

                 
                                        
                        
                        Zdieľať
                    

                    
                            
                                    
                                    Zdieľať na
                            
                             
                                    
                             
                    

                                                                                                                        
                            
                            Diskusia: (6)
                        
                    
                    
                        
                        Zvýšte karmu
                    
                 
             

                             
            
                     
                         Ďalšie články blogera 
                         
                                                             
                                    
                    	                                                                                        

                                                                        
                                    
                                        Dominik Marko 
                                        
                                            Zomrel autor najsmutnejšej symfónie
                                        
                                    
                                 
                                                             
                                    
                    	                                                                                        

                                                                        
                                    
                                        Dominik Marko 
                                        
                                            Primitívna antikampaň
                                        
                                    
                                 
                                                             
                                    
                    	                                                                                        

                                                                        
                                    
                                        Dominik Marko 
                                        
                                            Vyliečená mŕtvola
                                        
                                    
                                 
                                                             
                                    
                    	                                                                                        

                                                                        
                                    
                                        Dominik Marko 
                                        
                                            Diametrálny pohľad na náboženstvo a cirkev cez prizmu Chatrče
                                        
                                    
                                 
                                                             
                                    
                    	                                                                                        

                                                                        
                                    
                                        Dominik Marko 
                                        
                                            Bola Devínska Nová Ves obeťou masakru?
                                        
                                    
                                 
                                                     
                        
                            Ďalšie články blogera: Dominik Marko
                        
                     
            
                     
                         Ďalšie články z rubriky spoločnosť 
                         
                                                             
                                    
                                                            	                                                                                        

                                                                                                
                                    
                                        Mária Levočská 
                                        
                                            Ďalšia obeť pomsty monsignora Jaraba
                                        
                                    
                                 
                                                             
                                    
                                                            	                                                                                        

                                                                                                
                                    
                                        Kristián Straka 
                                        
                                            Nebite ma, doktor Plzák... alebo POZVANIE NA VEČERU
                                        
                                    
                                 
                                                             
                                    
                                                            	                                                                                        

                                                                                                
                                    
                                        Kristián Straka 
                                        
                                            Oklamaní Ježiškom ?
                                        
                                    
                                 
                                                             
                                    
                                                            	                                                                                        

                                                                                                
                                    
                                        Milan Buno 
                                        
                                            Šup, šup, najesť sa. A utekať!
                                        
                                    
                                 
                                                             
                                    
                                                            	                                                                                        

                                                                                                
                                    
                                        Katarína Lorenčíková 
                                        
                                            Par uprimnych oslobodzujucich riadkov...
                                        
                                    
                                 
                                                     
                        
                            Ďalšie články z rubriky spoločnosť
                        
                     
                 
            
                    
 
     Hlavné správy 
         
        
                                

        
         
            AKTUALIZOVANÉ 16:00
             Rubeľ kolabuje, ruská vláda má mimoriadne rokovať 
             Jeden dolár stál v utorok poobede už viac ako 78 rubľov, razantné zvýšenie úrokov nepomohlo. 
         
     
         
        
                                

        
         
            ZAHRANIČIE
             Taliban zaútočil na citlivé miesto Pakistanu. Na deti 
             Taliban zabil v škole v Pakistane najmenej 141 ľudí, väčšinou deti. 
         
     
         
        
                                

        
         
            KOMENTARE.SME.SK
             Cynická obluda: Medzičasom na opustenom ostrove 
             Stroskotanci majú veľké šťastie, že sú dvaja. Lacné vtipy na úrovni ich autora. 
         
     
     

                 
     
    
     
        
 

     
                
                            
                    



         
            
                Dominik Marko
            
         
        dominikmarko.blog.sme.sk (rss)
         
                                     
     
        V podstate som človek z ľudu, teda jeden z mnohých.
        
     
     
                     
                             
             

     
        
            
                
                    Počet článkov
                    17
                
                
                    Celková karma
                    
                                                0.00
                    
                
                
                    Priemerná čítanosť
                    1051
                
            
        
     

             

             Zoznam rubrík 
            
             
                                     
                        
                            Súkromné
                        
                     
                                     
                        
                            Nezaradené
                        
                     
                             
         
    

                     
                        
                                                            
                     Obľúbené knihy 
                    
                     
                                                 
                                            Winston Groom - Forrest Gump
                                     
                                                                   
                     Čo práve počúvam 
                    
                     
                                                 
                                            Bob Dylan
                                     
                                                                             
                                            Leonard Cohen
                                     
                                                                             
                                            Tom Waits
                                     
                                                                             
                                            Bruce Springsteen
                                     
                                                                             
                                            Lou Reed
                                     
                                                                             
                                            Cat Stevens
                                     
                                                                             
                                            Nick Cave &amp; The Bad Seeds
                                     
                            
             
         
            

             
             Čo ma zaujalo 
            Týmto článkom bloger klikol/klikla na karmu.
             
                                                         
                       Internetové diskusie zaplavili proruskí trollovia, píše Guardian
                     
                             
         
           
     Pošlite odkaz blogerovi 
    
         
            
         

         
         
         
         

         
         
Odosielateľ (e-mail)
 
         
Text
 
         
             
Protispamová ochrana 
 
 Zle. Skúste znova. 
Opíšte slová z obrázku: Načítať iné slová 
 Get an image CAPTCHA 
 
 
         
                 
            
         
    
  


 

     






            
    
        
    
 

        
         
         
             Už ste čítali? 
         
         
 

 kultura.sme.sk 
 Margaréta sa spriahla s diablom, no mala Kristovu pravdu 
 
 

 www.sme.sk 
 Pútnické miesta The Beatles alebo ako ľudia kráčajú po zebre 
 
 

 cestovanie.sme.sk 
 Lovia za svitania a v hmle 
 
 

 www.sme.sk 
 Ako sa valila lavína slobody. Ako padal komunizmus 
 
 

 kultura.sme.sk 
 Žiadne retro, poriadny biznis. Takto sa lisuje platňa 
 
	   
 


        
         
            
         

     

    
     
 
 
	 

		Kontakty
		Predplatné
		Etický kódex
		Pomoc
		Mapa stránky
		
	 
 
 
	 
		 
			Widget
			RSS
			Newsletter
		 
		 
			Mobil
			Smartphone
			Kindle
			Televízor
		 
		 
			Facebook
			Twitter
			Google+
		 
	 
	 
		
	 
	 
		Ďalšie weby skupiny: Prihlásenie do Post.sk
		Új Szó Slovak Spectator
		Agentúrne správy 
		Vydavateľstvo
		Inzercia
		Osobné údaje
		Návštevnosť webu
		Predajnosť tlače
		Petit Academy
		SME v škole 		© Copyright 1997-2014 Petit Press, a.s. 
	 
 
 
 


          
        
            
            

        
    

    
    


    


    
        
        
        
        
        
        
        
            
            
        
        
        
        
         
                                
               





 

 



        

 




