
      
    
    

     
	 
	 
 SME.sk 
 Zľavy 
 Zoznámenie 
 Reality 
 Dovolenky 
 Pizza 
 Reštaurácie 
 Recenzie 
 Inzeráty 
 Naničmama 	 
Nákupy 
		 
 Filmy na DVD 
 Hodinky 
 Parfémy 
 SME knihy a DVD 
 Superhosting 
 Tlačiareň 
 Víno 
 Tvorba webov 
 Predplatné SME 
 ProSenior 		 
	 
	 
 
	 
 


    
    
        
        
         
          
         
    

    
      
         
            
             
     
        
        
     
    Blog.SME.sk
 

    

         
        
                 
     
         
            Sme.sk
         
         
            Domov
         
         
            Regióny
         
         
            Ekonomika
         
         
            Svet
         
         
            Komentáre
         
         
            Kultúra
         
         
            Šport
         
         
            TV
         
         
            Auto
         
         
            Tech
         
         
            Poradňa
         
         
            Žena
         
         
            Bývanie
         
         
            Zdravie
         
         
            Blog
         
     
 

         
            
     
                                                         Politika 
                                                                                     Spoločnosť 
                                                                                     Cestovanie 
                                                                                     Ekonomika 
                                                                                     Fotografie 
                                                                                     Jedlo 
                                                                                     Kultúra 
                                                                                             
Ďalšie
                             
                                                                                         Lifestyle 
                                                                                                                                                                             Médiá 
                                                                                                                                                                             Nezaradené 
                                                                                                                                                                             Súkromné 
                                                                                                                                                                             Šport 
                                                                                                                                                                             Veda a technika 
                                                                                                                                                                             Zábava 
                                                                                                                                                                             Poézia 
                                                                                                                                                                             Próza 
                                                                                                                                                                             Kódex blogera 
                                                                                 
                         
                                                 
            Blogeri
         
     


            

    
    Prihlásiť sa


    
    Založte si blog



    
    Odhlásiť sa


    
    




         

        
        
         
            
         
         
                
     
                 
            SME.sk &gt;
            Blog.SME.sk &gt;
                            Roman Daniel Baranek
                                        &gt;
                Varíme s medveďom
                     
                 Varíme s Medveďom - Plnené zapečené baklažány 

        
            
                                    24.5.2009
            o
            12:00
                        |
            Karma článku:
                10.85
            |
            Prečítané 
            16658-krát
                    
         
     
         
             

                 
                    Baklažány patria u nás doma k obľúbeným jedám. Pripravujeme ich na veľké množstvo spôsobov a všetky nám chutia. Dnešné plnené baklažány sú inšpirované arabským fast foodom na Obchodnej ulici v Bratislave, kde niekoľko starších dám a pánov pripravuje jedlá rovankým spôsobom, ako si ich pripravujú  u seba doma. Skvelý plnený baklažán je pochúťka, ktorú by ste mali vyskúšať. Môj recept je inšpirovaný len celkom voľne. Vlastne len technológiou, ktorou tu pripravujú celé baklážany.
                 

                 Čo budeme potrebovať   Na jednu porciu pre každú osobu jeden stredne veľký baklažán, pol balíčka šampiňónov, dve paradajky, lyžicu bazalky, lyžičku drveného kmínu, kúsok tvrdého syra (použili sme skvelý ovčí z trhu na Žilinskej), lyžicu olivového oleja, cesnak a soľ.      Čo s tým urobíme   Baklažány po dĺžke nakrojíme, ale nedokrojíme do konca, takže stále sú pokope v jednom kuse. Štrbinu opatrne zväčšíme prstami a votrieme do nej soľ.   Necháme pätnásť minút odstáť, uložíme na plech a dáme piecť do rúry rozohriatej na 200 stupňov celzia. Pečieme asi dvadsať minút, ak sú baklažány menšie, tak kratšie.      Na panvicu dáme lyžicu olivového oleja a rozohrejeme. Pridáme očistené a nasekané šampiňóny a restujeme, kým sa z hríbov neodparí všetka tekutina a nezačnú sa pražiť.      Pridáme nakrájané paradajky, bazalku, kmín a všetko dusíme do hustej kašovitej konzistencie.      Plnku ešte jemne prisolíme a máme ju hotovú. Vonia úžasne a za skvelý nápad spojenia bazalky s hríbmi patrí nekonečná vďaka elisabeth.      Z rúry vytiahneme baklažány. Zmäkli a krásne sa otvorili. Každý baklažán ešte upravíme, aby sa dal ľahko naplniť. Polejeme ho lyžicou olivového oleja, jemne posolíme a potrieme roztlačeným cesnakom.      Naplníme plnkou, posypeme strúhaným syrom a ešte na pätnásť minút vrátime zapiecť do rúry.      Zapečený plnený baklažán nádherne vonia a je to celkovo diétne jedlo, ktoré si pokojne môžete dopriať bez výčitiek svedomia.      Podávali sme k nemu grilované kuracie prsia, jemne namarinované olivovým olejom, cesnakom, soľou a čiernym korením. A samozrejme surovú zeleninu.      Dobrú chuť!        

                 
                                        
                        
                        Zdieľať
                    

                    
                            
                                    
                                    Zdieľať na
                            
                             
                                    
                             
                    

                                                                                                                        
                            
                            Diskusia: (53)
                        
                    
                    
                        
                        Zvýšte karmu
                    
                 
             

                             
            
                     
                         Ďalšie články blogera 
                         
                                                             
                                    
                                                                                                    

                                                                        
                                    
                                        Roman Daniel Baranek 
                                        
                                            Varíme s medveďom - Rok v kuchyni
                                        
                                    
                                 
                                                             
                                    
                                                                                                    

                                                                        
                                    
                                        Roman Daniel Baranek 
                                        
                                            Adriana Macháčová, Róbert Dyda: Vieme prví
                                        
                                    
                                 
                                                             
                                    
                                                                                                    

                                                                        
                                    
                                        Roman Daniel Baranek 
                                        
                                            Varíme s medveďom - Oškvarkové pagáče
                                        
                                    
                                 
                                                             
                                    
                                                                                                    

                                                                        
                                    
                                        Roman Daniel Baranek 
                                        
                                            Varíme s medveďom - Rýchlovka - Hruškové tartelky
                                        
                                    
                                 
                                                             
                                    
                                                                                                    

                                                                        
                                    
                                        Roman Daniel Baranek 
                                        
                                            Varíme s medveďom - Plnené kura
                                        
                                    
                                 
                                                     
                        
                            Ďalšie články blogera: Roman Daniel Baranek
                        
                     
            
                     
                         Ďalšie články z rubriky jedlo 
                         
                                                             
                                    
                                                            	                                                                                        

                                                                                                
                                    
                                        Radovan Bránik 
                                        
                                            Kúpte si chladničku na webe, bude vám bez nej HEJ.SK!
                                        
                                    
                                 
                                                             
                                    
                                                            	                                                                                        

                                                                                                
                                    
                                        Carlos Arturo Sotelo Zumarán 
                                        
                                            Je banán ovocie, alebo zelenina?
                                        
                                    
                                 
                                                             
                                    
                                                            	                                                                                        

                                                                                                
                                    
                                        MUDr. Peter Žiak, PhD. 
                                        
                                            Multivitamíny znižujú riziko vzniku sivého zákalu
                                        
                                    
                                 
                                                             
                                    
                                                                                                                    

                                                                                                
                                    
                                        Peter Krško 
                                        
                                            Výživa podľa piatich elementov - tepelné pôsobenie potravín na organizmus
                                        
                                    
                                 
                                                             
                                    
                                                            	                                                                                        

                                                                                                
                                    
                                        Larisa Adámková 
                                        
                                            Bylinky a korenie v kuchyni dokážu liečiť
                                        
                                    
                                 
                                                     
                        
                            Ďalšie články z rubriky jedlo
                        
                     
                 
            
                    
 
     Hlavné správy 
         
        
                                

        
         
            AKTUALIZOVANÉ 16:00
             Rubeľ kolabuje, ruská vláda má mimoriadne rokovať 
             Jeden dolár stál v utorok poobede už viac ako 78 rubľov, razantné zvýšenie úrokov nepomohlo. 
         
     
         
        
                                

        
         
            ZAHRANIČIE
             Taliban zabil v škole v Pakistane vyše sto ľudí, väčšinou deti 
             Militanti vtrhli do vojenskej školy v policajných rovnošatách. 
         
     
         
        
                                

        
         
            KOMENTARE.SME.SK
             Cynická obluda: Medzičasom na opustenom ostrove 
             Stroskotanci majú veľké šťastie, že sú dvaja. Lacné vtipy na úrovni ich autora. 
         
     
     

                 
     
    
     
        
 

     
                
                            
                    



         
            
                Roman Daniel Baranek
            
         
        baranek.blog.sme.sk (rss)
         
                                     
     
         Som chlap odvedľa. 
        
     
     
                     
                             
             

     
        
            
                
                    Počet článkov
                    612
                
                
                    Celková karma
                    
                                                10.28
                    
                
                
                    Priemerná čítanosť
                    6507
                
            
        
     

             

             Zoznam rubrík 
            
             
                                     
                        
                            Zápisky medveďa
                        
                     
                                     
                        
                            Varíme s medveďom
                        
                     
                                     
                        
                            Medveď mudruje
                        
                     
                                     
                        
                            Kapitolky z tanca a baletu
                        
                     
                                     
                        
                            Neďeľná chvíľka poézie
                        
                     
                                     
                        
                            Poviedka na Nedeľu
                        
                     
                                     
                        
                            Súkromné
                        
                     
                                     
                        
                            Nezaradené
                        
                     
                             
         
    

                     
                        
                                                            
                     Obľúbené články 
                    
                     
                                                 
                                            Vylepšovač nálady
                                     
                                                                   
                     Čo práve počúvam 
                    
                     
                                                 
                                            Zuzana Navarova
                                     
                                                                             
                                            Jaromír Nohavica
                                     
                                                                             
                                            Mari Boine
                                     
                                                                   
                     Obľúbené blogy 
                    
                     
                                                 
                                            Marek - psovitá šelma na SME
                                     
                                                                             
                                            Marian - skvele od skoromenovca
                                     
                                                                             
                                            Helena - si ma prekvapila, príjemne
                                     
                                                                             
                                            Intoni - vnímavé až éterické
                                     
                                                                             
                                            Janka - ľudské a dýchajúce
                                     
                                                                             
                                            Ivana - o ľuďoch a neľuďoch
                                     
                                                                             
                                            Andrea - písanie numero uno
                                     
                                                                             
                                            Natalia - múdre a citlivé
                                     
                                                                             
                                            Veronika - srdiečko a príroda
                                     
                                                                             
                                            Dušan - básničky ako hrom
                                     
                                                                             
                                            Karol - ako to, ze som ta zabudol
                                     
                                                                             
                                            Katarina - velmi nezne
                                     
                                                                             
                                            Iviatko - paradne fotky
                                     
                                                                             
                                            Zuzibeth  - nasa krvna skupina
                                     
                                                                             
                                            Boris - velmi silne citanie
                                     
                                                                             
                                            David - tesim sa vždy na všetkých
                                     
                                                                   
                     Obľúbené stránky 
                    
                     
                                                 
                                            Chlieb nas kazdodenny
                                     
                                                                             
                                            VEGETARIÁNI POZOR!!!
                                     
                                                                             
                                            Recepty na Netcabinet.sk
                                     
                                                                             
                                            Recepty na Objav.sk
                                     
                                                                             
                                            Kuchár len tak z pasie...
                                     
                                                                             
                                            Recepty od GABRIELA
                                     
                                                                             
                                            Malomestský gurmán - dalsi skvely o vareni
                                     
                                                                             
                                            delikatesy.sk - este nieco o vareni
                                     
                                                                             
                                            Lepsiu o vareni nepoznam
                                     
                            
             
         
            

             
             Čo ma zaujalo 
            Týmto článkom bloger klikol/klikla na karmu.
             
                                                         
                       Nehaňte hipstera môjho
                     
                                                         
                       Milujú katolíci len tých, ktorí sú na kolenách?
                     
                                                         
                       Varíme s medveďom - Opité kuracie závitky
                     
                                                         
                       Byť ženou je úžasné...
                     
                                                         
                       Čo ešte mi chcete vziať?
                     
                                                         
                       Novodobý hon na čarodejnice alebo upaľovanie homosexuálov na hranici
                     
                                                         
                       Jozef Bednárik. Niet čo dodať.
                     
                                                         
                       Toto nie je diskriminácia, to len nefunguje
                     
                                                         
                       Z politiky sa vytratila česť?
                     
                                                         
                       Geeky coffee post
                     
                             
         
        

     






            
    
        
    
 

        
         
         
             Už ste čítali? 
         
         
 

 kultura.sme.sk 
 Margaréta sa spriahla s diablom, no mala Kristovu pravdu 
 
 

 www.sme.sk 
 Pútnické miesta The Beatles alebo ako ľudia kráčajú po zebre 
 
 

 cestovanie.sme.sk 
 Lovia za svitania a v hmle 
 
 

 www.sme.sk 
 Ako sa valila lavína slobody. Ako padal komunizmus 
 
 

 kultura.sme.sk 
 Žiadne retro, poriadny biznis. Takto sa lisuje platňa 
 
	   
 


        
         
            
         

     

    
     
 
 
	 

		Kontakty
		Predplatné
		Etický kódex
		Pomoc
		Mapa stránky
		
	 
 
 
	 
		 
			Widget
			RSS
			Newsletter
		 
		 
			Mobil
			Smartphone
			Kindle
			Televízor
		 
		 
			Facebook
			Twitter
			Google+
		 
	 
	 
		
	 
	 
		Ďalšie weby skupiny: Prihlásenie do Post.sk
		Új Szó Slovak Spectator
		Agentúrne správy 
		Vydavateľstvo
		Inzercia
		Osobné údaje
		Návštevnosť webu
		Predajnosť tlače
		Petit Academy
		SME v škole 		© Copyright 1997-2014 Petit Press, a.s. 
	 
 
 
 


          
        
            
            

        
    

    
    


    


    
        
        
        
        
        
        
        
            
            
        
        
        
        
         
                                
               





 

 



        

 




