
      
    
    

     
	 
	 
 SME.sk 
 Zľavy 
 Zoznámenie 
 Reality 
 Dovolenky 
 Pizza 
 Reštaurácie 
 Recenzie 
 Inzeráty 
 Naničmama 	 
Nákupy 
		 
 Filmy na DVD 
 Hodinky 
 Parfémy 
 SME knihy a DVD 
 Superhosting 
 Tlačiareň 
 Víno 
 Tvorba webov 
 Predplatné SME 
 ProSenior 		 
	 
	 
 
	 
 


    
    
        
        
         
          
         
    

    
      
         
            
             
     
        
        
     
    Blog.SME.sk
 

    

         
        
                 
     
         
            Sme.sk
         
         
            Domov
         
         
            Regióny
         
         
            Ekonomika
         
         
            Svet
         
         
            Komentáre
         
         
            Kultúra
         
         
            Šport
         
         
            TV
         
         
            Auto
         
         
            Tech
         
         
            Poradňa
         
         
            Žena
         
         
            Bývanie
         
         
            Zdravie
         
         
            Blog
         
     
 

         
            
     
                                                         Politika 
                                                                                     Spoločnosť 
                                                                                     Cestovanie 
                                                                                     Ekonomika 
                                                                                     Fotografie 
                                                                                     Jedlo 
                                                                                     Kultúra 
                                                                                             
Ďalšie
                             
                                                                                         Lifestyle 
                                                                                                                                                                             Médiá 
                                                                                                                                                                             Nezaradené 
                                                                                                                                                                             Súkromné 
                                                                                                                                                                             Šport 
                                                                                                                                                                             Veda a technika 
                                                                                                                                                                             Zábava 
                                                                                                                                                                             Poézia 
                                                                                                                                                                             Próza 
                                                                                                                                                                             Kódex blogera 
                                                                                 
                         
                                                 
            Blogeri
         
     


            

    
    Prihlásiť sa


    
    Založte si blog



    
    Odhlásiť sa


    
    




         

        
        
         
            
         
         
                
     
                 
            SME.sk &gt;
            Blog.SME.sk &gt;
                            Alojz Hlina
                                        &gt;
                Nezaradené
                     
                 List V.Orbánovi 

        
            
                                    26.5.2010
            o
            12:14
                        (upravené
                26.5.2010
                o
                16:15)
                        |
            Karma článku:
                12.42
            |
            Prečítané 
            2830-krát
                    
         
     
         
             

                 
                    Dnes som odoslal list nasledujúceho znenia V.Orbánovi.
                 

                 Vážený pán Orbán,   Dovoľte, aby som sa na Vás obrátil s nasledovným listom.   Venujem sa občianskemu aktivizmu a snažím sa upozorňovať na viaceré zlé skutočnosti, ktoré sú v našej krajine. Špeciálnu "pozornosť"  venujem politikom, ktorí si pomýlili obdobie a svojim politickým pôsobením poškodzujú našu krajinu, ale aj naše vzájomné vzťahy. Urobil som veľa akcií, v ktorých som v rámci možností poukázal na to, že politika nenávisti, fóbie a podnecovania vážne škodí našej krajine.   Sme odsúdení žiť spolu a vedľa seba. To, ako tu budeme žiť, záleží na nás občanoch, a najmä na Vás - politikoch. Na Slovensku máme potenciál na to, aby sme sa vysporiadali s politikmi, ktorí škodia spoločnému spolužitiu. Pevne verím aj v potenciál Vašej krajiny, Vašich občanov, že extrémizmus nie je chápaný ako perspektívna budúcnosť.   Oživovanie rôznych, mýtov a legiend neprospieva. Deklarácia, že niečo je od Boha, je silným anachronizmom. Budenie vášní je nebezpečné. Mám pocit,  že sme dospeli do hranice, ktorá má veľmi blízko ku veľkým problémom a hranice, ktoré končia tragicky.   Prídem Vám vrátiť symbolicky koňa. Toho koňa, na ktorého sa niektorí nezodpovední politici odvolávajú pri svojich úvahách. Vrátiť koňa v  deň, ktorý Vaša krajina vníma tak silno a bolestne. V  deň, ktorý však iné národy vnímajú radostne preto, lebo im priniesol slobodu. Tú slobodu, ktorú ako vnímam, predstavuje pre Vás vysokú hodnotu. Sloboda je v živote človeka veľmi dôležitá a treba si ju chrániť.   V piatok o 14,00 hod. prídem pred Váš Úrad vlády. Ak ma prijmete, budem mimoriadne potešený. Ak by Vám to časové  alebo iné okolnosti nedovolili, tak symbolický význam akcie napriek tomu ostane.       Pred rokom som J. Slotovi strhol našu vlajku z jeho sídla, lebo mu nepatrí. Minulý týždeň , skoro presne po roku, som našu vlajku v Komárne osadil do koryta rieky Váh pri sútoku s Dunajom, lebo tam patrí. A 4.júna 2010 chcem prísť ku Vám na návštevu a urobiť symbolickú akciu, lebo to je dôležité pre naše ďalšie vzájomné spolunažívanie.                                     

                 
                                        
                        
                        Zdieľať
                    

                    
                            
                                    
                                    Zdieľať na
                            
                             
                                    
                             
                    

                                                                                                                        
                            
                            Diskusia: (22)
                        
                    
                    
                        
                        Zvýšte karmu
                    
                 
             

                             
            
                     
                         Ďalšie články blogera 
                         
                                                             
                                    
                    	                                                                                        

                                                                        
                                    
                                        Alojz Hlina 
                                        
                                            Čo sa Penta v Číne nenaučila
                                        
                                    
                                 
                                                             
                                    
                    	                                                                                        

                                                                        
                                    
                                        Alojz Hlina 
                                        
                                            Zrušiť zdravotné odvody je nebotyčná hlúposť!
                                        
                                    
                                 
                                                             
                                    
                    	                                                                                        

                                                                        
                                    
                                        Alojz Hlina 
                                        
                                            Nočné rokovanie bude aj pred Paškovou vilou
                                        
                                    
                                 
                                                             
                                    
                    	                                                                                        

                                                                        
                                    
                                        Alojz Hlina 
                                        
                                            Smer zlegalizoval nezákonné billboardy
                                        
                                    
                                 
                                                             
                                    
                    	                                                                                        

                                                                        
                                    
                                        Alojz Hlina 
                                        
                                            O slovenskej žurnalistike rozhodne Shooty
                                        
                                    
                                 
                                                     
                        
                            Ďalšie články blogera: Alojz Hlina
                        
                     
            
                     
                         Ďalšie články z rubriky politika 
                         
                                                             
                                    
                                                            	                                                                                        

                                                                                                
                                    
                                        Tomáš Hudec 
                                        
                                            Chceme zvýšiť účasť ľudí vo voľbách? Zaveďme eVoľby!
                                        
                                    
                                 
                                                             
                                    
                                                            	                                                                                        

                                                                                                
                                    
                                        Robert Bestro 
                                        
                                            Výmena vedenia parlamentu zjavne prospela
                                        
                                    
                                 
                                                             
                                    
                                                            	                                                                                        

                                                                                                
                                    
                                        Júlia Piraňa Mikolášiková 
                                        
                                            Obvinia ďalšiu novinárku z údajného ohovárania policajného šéfa Ševčíka?
                                        
                                    
                                 
                                                             
                                    
                                                            	                                                                                        

                                                                                                
                                    
                                        Stanislav Martinčko 
                                        
                                            Stužka z kvetinárstva za 16 centov a rozkradnuté milióny!!
                                        
                                    
                                 
                                                             
                                    
                                                            	                                                                                        

                                                                                                
                                    
                                        Veronika Remisova 
                                        
                                            Elektronické mýto podľa Ficovej vlády – prehľadnejšie sa to skrátka nedá
                                        
                                    
                                 
                                                     
                        
                            Ďalšie články z rubriky politika
                        
                     
                 
            
                    
 
     Hlavné správy 
         
        
                                

        
         
            AKTUALIZOVANÉ 20:22
             Slovenky v hlavnej skupine nebodovali, Švédky vyhrali o 9 gólov 
             Naše hádzanárky hrali na ME piaty zápas. V Záhrebe proti Švédkam. 
         
     
         
        
                                

        
         
            AKTUALIZOVANÉ O 20:00
             Rubeľ pocítil pád na dno, Rusko je vo finančnej kríze 
             Dolár včera stál už takmer 80 rubľov, pod hladinu ho tlačia najmä nízke ceny ropy. 
         
     
         
        
                                

        
         
            ZAHRANIČIE
             Taliban zaútočil na citlivé miesto Pakistanu. Na deti 
             Taliban zabil v škole v Pakistane najmenej 141 ľudí, väčšinou deti. 
         
     
     

                 
     
    
     
        
 

     
                
                            
                    



         
            
                Alojz Hlina
            
         
        alojzhlina.blog.sme.sk (rss)
         
                                     
     
        Alojz Hlina - nezávislý poslanec NR SR, občan Slovenska, občan mesta Bratislava, oravský bača. www.alojzhlina.sk
        
     
     
                     
                             
             

     
        
            
                
                    Počet článkov
                    518
                
                
                    Celková karma
                    
                                                8.94
                    
                
                
                    Priemerná čítanosť
                    3789
                
            
        
     

             

             Zoznam rubrík 
            
             
                                     
                        
                            Súkromné
                        
                     
                                     
                        
                            Nezaradené
                        
                     
                             
         
    

    

             
             Čo ma zaujalo 
            Týmto článkom bloger klikol/klikla na karmu.
             
                                                         
                       Tak kvôli tomu vyhodili Čaploviča?
                     
                                                         
                       Politický nekorektné úvahy k Dňu Európy a Dňu víťazstva
                     
                                                         
                       Hanebná nominácia na ústavného sudcu
                     
                                                         
                       Stane sa  SMER chrapúňom  roka?
                     
                                                         
                       Košičania, budete svietiť ako baterky?
                     
                                                         
                       Simpsonovci a Hlinovo hrdinstvo
                     
                                                         
                       Ako udržiavajú P.Paška a R.Kaliňák krehkú rovnováhu?
                     
                                                         
                       Môžete ísť do kostola, ale omša nebude
                     
                                                         
                       Keď SMER zabezpečuje koledy
                     
                                                         
                       Študenti, ako chutila držková u premiéra?
                     
                             
         
           
     Pošlite odkaz blogerovi 
    
         
            
         

         
         
         
         

         
         
Odosielateľ (e-mail)
 
         
Text
 
         
             
Protispamová ochrana 
 
 Zle. Skúste znova. 
Opíšte slová z obrázku: Načítať iné slová 
 Get an image CAPTCHA 
 
 
         
                 
            
         
    
  


 

     






            
    
        
    
 

        
         
         
             Už ste čítali? 
         
         
 

 kultura.sme.sk 
 Margaréta sa spriahla s diablom, no mala Kristovu pravdu 
 
 

 www.sme.sk 
 Pútnické miesta The Beatles alebo ako ľudia kráčajú po zebre 
 
 

 cestovanie.sme.sk 
 Lovia za svitania a v hmle 
 
 

 www.sme.sk 
 Ako sa valila lavína slobody. Ako padal komunizmus 
 
 

 kultura.sme.sk 
 Žiadne retro, poriadny biznis. Takto sa lisuje platňa 
 
	   
 


        
         
            
         

     

    
     
 
 
	 

		Kontakty
		Predplatné
		Etický kódex
		Pomoc
		Mapa stránky
		
	 
 
 
	 
		 
			Widget
			RSS
			Newsletter
		 
		 
			Mobil
			Smartphone
			Kindle
			Televízor
		 
		 
			Facebook
			Twitter
			Google+
		 
	 
	 
		
	 
	 
		Ďalšie weby skupiny: Prihlásenie do Post.sk
		Új Szó Slovak Spectator
		Agentúrne správy 
		Vydavateľstvo
		Inzercia
		Osobné údaje
		Návštevnosť webu
		Predajnosť tlače
		Petit Academy
		SME v škole 		© Copyright 1997-2014 Petit Press, a.s. 
	 
 
 
 


          
        
            
            

        
    

    
    


    


    
        
        
        
        
        
        
        
            
            
        
        
        
        
         
                                
               





 

 



        

 




