
      
    
    

     
	 
	 
 SME.sk 
 Zľavy 
 Zoznámenie 
 Reality 
 Dovolenky 
 Pizza 
 Reštaurácie 
 Recenzie 
 Inzeráty 
 Naničmama 	 
Nákupy 
		 
 Filmy na DVD 
 Hodinky 
 Parfémy 
 SME knihy a DVD 
 Superhosting 
 Tlačiareň 
 Víno 
 Tvorba webov 
 Predplatné SME 
 ProSenior 		 
	 
	 
 
	 
 


    
    
        
        
         
          
         
    

    
      
         
            
             
     
        
        
     
    Blog.SME.sk
 

    

         
        
                 
     
         
            Sme.sk
         
         
            Domov
         
         
            Regióny
         
         
            Ekonomika
         
         
            Svet
         
         
            Komentáre
         
         
            Kultúra
         
         
            Šport
         
         
            TV
         
         
            Auto
         
         
            Tech
         
         
            Poradňa
         
         
            Žena
         
         
            Bývanie
         
         
            Zdravie
         
         
            Blog
         
     
 

         
            
     
                                                         Politika 
                                                                                     Spoločnosť 
                                                                                     Cestovanie 
                                                                                     Ekonomika 
                                                                                     Fotografie 
                                                                                     Jedlo 
                                                                                     Kultúra 
                                                                                             
Ďalšie
                             
                                                                                         Lifestyle 
                                                                                                                                                                             Médiá 
                                                                                                                                                                             Nezaradené 
                                                                                                                                                                             Súkromné 
                                                                                                                                                                             Šport 
                                                                                                                                                                             Veda a technika 
                                                                                                                                                                             Zábava 
                                                                                                                                                                             Poézia 
                                                                                                                                                                             Próza 
                                                                                                                                                                             Kódex blogera 
                                                                                 
                         
                                                 
            Blogeri
         
     


            

    
    Prihlásiť sa


    
    Založte si blog



    
    Odhlásiť sa


    
    




         

        
        
         
            
         
         
                
     
                 
            SME.sk &gt;
            Blog.SME.sk &gt;
                            Milan Hraško
                                        &gt;
                Ochrana prírody
                     
                 Tichá dolina opäť v ohrození 

        
            
                                    11.3.2010
            o
            20:02
                        |
            Karma článku:
                10.72
            |
            Prečítané 
            2009-krát
                    
         
     
         
             

                 
                    Alebo, ako asi bude vyzerať ústie Tichej doliny po schválení novej zonácie TANAP-u.
                 

                 Ústie Tichej doliny minulú jeseň:    Zobraziť veľký obrázok   Všimnite si, že v podraste vyschnutých, lykožrútom napadnutých stromov, rastie bujná vegetácia tzv. pionierskych drevín. O takúto obnovu lesa sa po kalamite postarala sama príroda, naviac zadarmo.    Zobraziť veľký obrázok   Pred pár dňami som sa náhodou dostal ku fotografii z ochranného pásma Národného parku Muránska planina a tak sa mi hneď vybavilo pred očami, ako asi bude vyzerať ústie Tichej doliny, ak prejde schválením súčasný návrh zonácie TANAP-u.    Zobraziť veľký obrázok   Je až zarážajúce k akej devastácii prírody môže dôjsť beztrestne pod zámienkou "ochrany" prírody pred lykožrútom.    Zobraziť veľký obrázok   Napadnuté stromy v okolí nasvedčujú tomu, že ani takáto masívna ťažba nezabránila lykožrútovi v šírení sa do okolia:    Zobraziť veľký obrázok   Ak chcete i Vy prispieť svojím hlasom k tomu, aby si nielen Tichá dolina zachovala svoju tvár prírody nezdevastovanej ťažbou, príďte prejaviť svoj nesúhlas s novou zonáciou na  Námestie SNP v Bratislave dňa 14.3.2010 (nedeľa) o 15-tej hodine. 

                 
                                        
                        
                        Zdieľať
                    

                    
                            
                                    
                                    Zdieľať na
                            
                             
                                    
                             
                    

                                                                                                                        
                            
                            Diskusia: (28)
                        
                    
                    
                        
                        Zvýšte karmu
                    
                 
             

                             
            
                     
                         Ďalšie články blogera 
                         
                                                             
                                    
                    	                                                                                        

                                                                        
                                    
                                        Milan Hraško 
                                        
                                            Som z toho jeleň
                                        
                                    
                                 
                                                             
                                    
                    	                                                                                        

                                                                        
                                    
                                        Milan Hraško 
                                        
                                            Sčítanie obyvateľov 2011 v podozrení.
                                        
                                    
                                 
                                                             
                                    
                    	                                                                                        

                                                                        
                                    
                                        Milan Hraško 
                                        
                                            Ako sa mi vysávať nechcelo
                                        
                                    
                                 
                                                             
                                    
                    	                                                                                        

                                                                        
                                    
                                        Milan Hraško 
                                        
                                            Chcete mať domáceho medveďa? Vychovajte si ho!
                                        
                                    
                                 
                                                             
                                    
                    	                                                                                        

                                                                        
                                    
                                        Milan Hraško 
                                        
                                            Ako sme bobry "lovili"
                                        
                                    
                                 
                                                     
                        
                            Ďalšie články blogera: Milan Hraško
                        
                     
            
                     
                         Ďalšie články z rubriky fotografie 
                         
                                                             
                                    
                                                                                                                    

                                                                                                
                                    
                                        Miroslav Lisinovič 
                                        
                                            Motorový rušeň 754.045 ČD "Brejlovec"
                                        
                                    
                                 
                                                             
                                    
                                                                                                                    

                                                                                                
                                    
                                        Jan Pražák 
                                        
                                            Jeníček v zemi divů - Lurdy
                                        
                                    
                                 
                                                             
                                    
                                                                                                                    

                                                                                                
                                    
                                        Anton Lisinovič 
                                        
                                            Detaily života v lese.....
                                        
                                    
                                 
                                                             
                                    
                                                                                                                    

                                                                                                
                                    
                                        Jaromír Šiša 
                                        
                                            Porazit Rusy? Šlo to jedině roku 1805 u Slavkova.
                                        
                                    
                                 
                                                             
                                    
                                                            	                                                                                        

                                                                                                
                                    
                                        Gabriela Szabová 
                                        
                                            Nezabudnuteľní
                                        
                                    
                                 
                                                     
                        
                            Ďalšie články z rubriky fotografie
                        
                     
                 
            
                    
 
     Hlavné správy 
         
        
                                

        
         
            AKTUALIZOVANÉ 16:00
             Rubeľ kolabuje, ruská vláda má mimoriadne rokovať 
             Jeden dolár stál v utorok poobede už viac ako 78 rubľov, razantné zvýšenie úrokov nepomohlo. 
         
     
         
        
                                

        
         
            ZAHRANIČIE
             Taliban zabil v škole v Pakistane vyše sto ľudí, väčšinou deti 
             Militanti vtrhli do vojenskej školy v policajných rovnošatách. 
         
     
         
        
                                

        
         
            KOMENTARE.SME.SK
             Cynická obluda: Medzičasom na opustenom ostrove 
             Stroskotanci majú veľké šťastie, že sú dvaja. Lacné vtipy na úrovni ich autora. 
         
     
     

                 
     
    
     
        
 

     
                
                            
                    



         
            
                Milan Hraško
            
         
        milanhrasko.blog.sme.sk (rss)
         
                                     
     
        Tulák túlajúci sa prírodou obťažkaný fotoaparátom.
  


&lt;a href="http://blueboard.cz/anketa_0.php?id=716682"&gt;Anketa&lt;/a&gt; od &lt;a href="http://blueboard.cz/"&gt;BlueBoard.cz&lt;/a&gt;


        
     
     
                     
                             
             

     
        
            
                
                    Počet článkov
                    69
                
                
                    Celková karma
                    
                                                0.00
                    
                
                
                    Priemerná čítanosť
                    2680
                
            
        
     

             

             Zoznam rubrík 
            
             
                                     
                        
                            Príroda
                        
                     
                                     
                        
                            Fotografie
                        
                     
                                     
                        
                            Ochrana prírody
                        
                     
                                     
                        
                            Fretky
                        
                     
                                     
                        
                            Cestovanie
                        
                     
                                     
                        
                            Zo života
                        
                     
                                     
                        
                            Technika
                        
                     
                             
         
    

                     
                        
                                                            
                     Obľúbené blogy 
                    
                     
                                                 
                                            Karol Kaliský
                                     
                                                                             
                                            Michal Čorný
                                     
                                                                             
                                            Michal Wiezik
                                     
                                                                             
                                            Rastislav Jakuš
                                     
                                                                             
                                            Martin Marušic
                                     
                                                                             
                                            Erik Baláž
                                     
                                                                             
                                            Róbert Oružinský
                                     
                                                                             
                                            Ivka Vrablanská
                                     
                                                                             
                                            Juraj Smatana
                                     
                                                                             
                                            Katarína Grichová
                                     
                                                                             
                                            Juraj Lukáč
                                     
                                                                             
                                            Milan Barlog
                                     
                                                                   
                     Obľúbené stránky 
                    
                     
                                                 
                                            VLK - Lesoochranárske zoskupenie
                                     
                                                                             
                                            Čergov (www.cergov.sk)
                                     
                                                                             
                                            Ticha wilderness
                                     
                                                                             
                                            www.wildlife.sk
                                     
                                                                             
                                            www.vlci.sk - diskusné fórum o prírode
                                     
                            
             
         
            

           
     Pošlite odkaz blogerovi 
    
         
            
         

         
         
         
         

         
         
Odosielateľ (e-mail)
 
         
Text
 
         
             
Protispamová ochrana 
 
 Zle. Skúste znova. 
Opíšte slová z obrázku: Načítať iné slová 
 Get an image CAPTCHA 
 
 
         
                 
            
         
    
  


 

     






            
    
        
    
 

        
         
         
             Už ste čítali? 
         
         
 

 kultura.sme.sk 
 Margaréta sa spriahla s diablom, no mala Kristovu pravdu 
 
 

 www.sme.sk 
 Pútnické miesta The Beatles alebo ako ľudia kráčajú po zebre 
 
 

 cestovanie.sme.sk 
 Lovia za svitania a v hmle 
 
 

 www.sme.sk 
 Ako sa valila lavína slobody. Ako padal komunizmus 
 
 

 kultura.sme.sk 
 Žiadne retro, poriadny biznis. Takto sa lisuje platňa 
 
	   
 


        
         
            
         

     

    
     
 
 
	 

		Kontakty
		Predplatné
		Etický kódex
		Pomoc
		Mapa stránky
		
	 
 
 
	 
		 
			Widget
			RSS
			Newsletter
		 
		 
			Mobil
			Smartphone
			Kindle
			Televízor
		 
		 
			Facebook
			Twitter
			Google+
		 
	 
	 
		
	 
	 
		Ďalšie weby skupiny: Prihlásenie do Post.sk
		Új Szó Slovak Spectator
		Agentúrne správy 
		Vydavateľstvo
		Inzercia
		Osobné údaje
		Návštevnosť webu
		Predajnosť tlače
		Petit Academy
		SME v škole 		© Copyright 1997-2014 Petit Press, a.s. 
	 
 
 
 


          
        
            
            

        
    

    
    


    


    
        
        
        
        
        
        
        
            
            
        
        
        
        
         
                                
               





 

 



        

 




