
      
    
    

     
	 
	 
 SME.sk 
 Zľavy 
 Zoznámenie 
 Reality 
 Dovolenky 
 Pizza 
 Reštaurácie 
 Recenzie 
 Inzeráty 
 Naničmama 	 
Nákupy 
		 
 Filmy na DVD 
 Hodinky 
 Parfémy 
 SME knihy a DVD 
 Superhosting 
 Tlačiareň 
 Víno 
 Tvorba webov 
 Predplatné SME 
 ProSenior 		 
	 
	 
 
	 
 


    
    
        
        
         
          
         
    

    
      
         
            
             
     
        
        
     
    Blog.SME.sk
 

    

         
        
                 
     
         
            Sme.sk
         
         
            Domov
         
         
            Regióny
         
         
            Ekonomika
         
         
            Svet
         
         
            Komentáre
         
         
            Kultúra
         
         
            Šport
         
         
            TV
         
         
            Auto
         
         
            Tech
         
         
            Poradňa
         
         
            Žena
         
         
            Bývanie
         
         
            Zdravie
         
         
            Blog
         
     
 

         
            
     
                                                         Politika 
                                                                                     Spoločnosť 
                                                                                     Cestovanie 
                                                                                     Ekonomika 
                                                                                     Fotografie 
                                                                                     Jedlo 
                                                                                     Kultúra 
                                                                                             
Ďalšie
                             
                                                                                         Lifestyle 
                                                                                                                                                                             Médiá 
                                                                                                                                                                             Nezaradené 
                                                                                                                                                                             Súkromné 
                                                                                                                                                                             Šport 
                                                                                                                                                                             Veda a technika 
                                                                                                                                                                             Zábava 
                                                                                                                                                                             Poézia 
                                                                                                                                                                             Próza 
                                                                                                                                                                             Kódex blogera 
                                                                                 
                         
                                                 
            Blogeri
         
     


            

    
    Prihlásiť sa


    
    Založte si blog



    
    Odhlásiť sa


    
    




         

        
        
         
            
         
         
                
     
                 
            SME.sk &gt;
            Blog.SME.sk &gt;
                            Sergej Danilov
                                        &gt;
                Extrem
                     
                 Budú v rómskych osadách kukláči opäť "hľadať" ukradnuté videá? 

        
            
                                    25.3.2010
            o
            22:51
                        (upravené
                25.3.2010
                o
                23:11)
                        |
            Karma článku:
                8.52
            |
            Prečítané 
            2990-krát
                    
         
     
         
             

                 
                    Ak obyvateľ osady spácha trestný čin, je logické, že policajti si poňho prídu priamo tam. Ak sa tam skryje. A je tiež v poriadku, ak tam prídu kukláči, keď si to situácia vyžaduje. Z výzvy člena SNS na represie kukláčov okorenenú výrokom pre masy "nech cigáni vedia, že ruka zákona na nich dolieha," však oveľa viac cítiť volanie po demonštrácii sily, po estráde a show pre ľudí z okolia osád, ktorí sú zúfalí zo svojej situácie.
                 

                 Otázka čo urobila SNS za štyri roky pre riešenie problému je pri pohľade nato čo sledujeme okolo emisií (aj keď na ne zrejme neboli sami), alebo nato, čo sme sledovali pri nástenkovom tendri, zbytočná.   SNS prichádza o voliča a snaží sa prebrať témy skupinám okolo Kotlebu. Kotleba zlyhávanie polície "v chránení slušných ľudí" kritizuje už dávno a celkom otvorene. Naposledy vo februári v Jelšave sa podstatná časť jeho prejavu venovala práve vytváraniu obrazu, že tamojšia polícia chráni Rómov a policajti paktujú s rómskymi bossmi. Ľudia na mítingu pred futbalovým štadiónom Jelšavy súhlasne pritakávali...   Kotleba sa však v šírení obrazu o zlyhávajúcej polícii spolieha na Youtube, svoje spriaznené weby či Facebook. Za Packom ako poslanci SNS určite nepôjde a tlačovku zatiaľ nezvolal.   Represia (po ktorej volá SNS ako po najlepšej prevencii) je napríklad to, čo Inštitút pre občianske vzdelávanie vyčítal vo svojej Správe z roku 2008 polícii pri zrazoch krajnej pravice. (v prípade záujmu si pozrite odporúčania v záverečnej tabuľke).   Vyhlásenie "najlepšia prevencia v rómskych osadách je represia" môže znieť aj ako oživovanie polovice 90. rokov, kedy na rómske osady, ale nielen na ne útočili tlupy neonacistických skínov a policajtov nie vždy bolo vidieť, prípadne represiu robili sami pod rôznymi "oficiálnymi dôvodmi" ospravedlnenými z vyšších miest.   Vtedy bola SNS v Mečiarovej vláde a namiesto riešenia rómskej problematiky prichádzali sťažnosti EÚ i zahraničných mimovládok na správanie sa policajných orgánov v prístupe k Rómom. Ani dnes to zrejme nie je ideálne, ale na základe potrestania košických policajtov fackajúcich malých rómskych delikventov však usudzujem, že poprieť nos medzi očami už dnes nie je úplne vždy možné. A verím, že v súčasnosti policajti len tak pre nič za nič do osady neprídu, a ani len tak "preventívne" pre nič za nič niekomu nenaložia.   Vtedy však neboli mobily, kam sa dali nahrávať videá. EÚ bola v nedohľadne. Privatizácia v plnom prúde, ľudáci a ex-súdruhovia rozkrádali túto krajinu a menšiny boli aj vtedy ideálnou potravou pre hladné masy. Útoky boli celkom bežné a vždy nejako vysvetlené a zdôvodnené štátnymi orgánmi. Aspoň tak v tom čase vnímali situáciu na Slovensku pozorovatelia z Európskeho centra pre práva Rómov (European Roma Rights Center), ktorí svoje skúsenosti opísali v Správe Čas skinheadov z roku 1997.   ERRC: Rozporuplná represívna akcia v Jarovniciach 1995   Populistická predvolebná iniciatíva SNS zaváňa sentimentom práve po tomto období. Podkapitola 3.5 nazvaná Mozaika popierania práv Rómov : Oficiálne prehlásenia o policajnej razii v obci Jarovnice sa viaže k represívnej akcii polície z 20. júna 1995.   Ani jeden z jej rómskych obyvateľov, ktorých správa cituje zrejme nezabudne ako naňho medzi piatou a šiestou ráno "doľahla ruka zákona". V nasledujúcich odsekoch zverejním výpovede svedkov, ktoré zhromaždili mimovládne organizácie (nielen ERRC, ale napr. aj Nevipe foundation) v tejto Správe. Ďalej sa môžete začítať do vyjadrení starostu ako aj protichodných vyjadrení štátnych orgánov pri zdôvodňovaní tejto čudnej razie.   PODKAPITOLA 3.5 O POLICAJNEJ RAZII V OBCI JAROVNICE:   Svedkovia v Správe ERRC hovoria o násilnom vniknutí skupiny vyše stovky maskovaných a nemaskovaných príslušníkov polície. "Bez preukázania sa akýmkoľvek úradným povolením k domovým prehliadkam postupovali s úmyslom napadnúť miestnych Rómov, pričom ich častovali rasistickými pokrikmi. Rómovia boli vyvlečení zo svojich obydlí a bez výnimky pobití. Jednu staršiu ženu policajti udreli do hrude a údajne jej skonfiškovali zlatý zub."   15-ročný Ján B. mal ešte po 8 mesiacoch jazvu na lebke. Incident pre ERRC opísal nasledovne (uvadzam bez diakritiky)   "Bolo asi pat hodin rano a moja rodina  este spala. Boli sme velmi prekvapeni, ked sme videli prichadzat asi sto policajtov. Ja som musel i tak skoro rano vstavat, pretoze som si mal ist vybavit OP do Presova. Uz som vstal z postele a isiel som na WC, ked sest policajtov prislo do nasho domu. Na prekvapenie si vybrali mna a napadli mna. Boli zamaskovani, takze som im nemohol vidiet do tvare. Jeden z policajtov ma bil po hlave obuskom a druhy pouzil elektricku vidlicu."   Ďalší svedok, žena nerómskeho pôvodu (bez diakritiky)   "Policajti bili ludi. V dome oproti niekolki Romovia spali na streche. Jeden z policajtov ich posotil dole zo strechy a ostatni ich dolu pozduchovali vidlami. Ked som vysla von, aby som co najviac videla, jeden z policajtov na mna namieril zbran a naznacil mi, ze sa mam vratit spat do domu. Zastrasovali ludi s gulometmi a pouzivali obusky. Strasne sme sa bali. Cela akcia trvala najmenej tri hodiny."    Podľa ERRC svedkovia tvrdili, že policajti hľadali zlodeja, ktorý údajne ukradol videotechniku z miestnej školy.  Ukázalo sa, že toto bola len prvá verzia vysvetlenia policajnej razie.   Ďalší svedok, 27-ročný Róm Vaclav K., sa ku skutočnosti vyjadril nasledovne (bez diakritiky):   "Moj otec spal vonku. Znenazdajky sa k nemu priblizili styria muzi a zacali ho udierat palicami. Okrem toho mali aj nejaky sprej. Povedal som im: " Co chcete, my spime!". Okamzite ma zacali bit a zobrali ma do policajneho vozidla. Nemal som topanky a oni ma bili po chrbate. Potom mi nasadili puta a bili ma po chodidlach palicami. Potom ma zobrali do suterenu policajnej stanice a tam ma zbili este viac. Ked som sa ich pytal preco ma biju, povedali mi len, ze mam drzat hubu. Nakoniec nas okolo obeda prepustili."   23-ročný Jan R. bol taktiez odvleceny na policajnu stanicu v Sabinove (bez diakritiky):   "Okolo 5:00 hod. prislo do mojho domu niekolko policajtov. Zacali ma bit a ked som sa ich spytal, preco ma biju, neodpovedali mi. Nedovolili mi nic sa vypytovat, len ma bili. Zobrali ma do policajneho auta do Sabinova, kde ma vypocuvali. Pytali sa ma, kto je zlodej a ja som im povedal, ze neviem, a ze ma predsa nemozu len tak bezdovodne mlatit. Nakoniec nas policia nazvala zlodejmi."   Ján R. pre ERRC tvrdil, že spoznal aj niekoľko miestnych príslušníkov polície, ktorých videl ako ukazujú na rozličné rómske príbytky.   21-ročný Aladdin K. ERRC tvrdil, že sa mu vyhrážal policajt smrťou (bez diakritiky):   "Bolo ich asi sedem ( policajtov ) a vsetci boli maskovani. Zobrali nas, ale ja som nic neukradol. Povedal som im, ze som nic neurobil. Udreli ma pastou a vzapati na to mi z ust zacala tiect krv. Bili ma skutocne silno na chrbat a na chodidla. Pouzili aj elektricke soky. Jeden z prislusnikov dokonca zobral lano a chcel ma obesit. Vonku bola zima a policia nas brutalne bila. Moj bratranec videl ako ma policia chcela obesit. Nakoniec ma neobesili, ale neustale sa mi vyhrazali, ze to urobia."   16 ročný Marek K., utrpel rezné rany od príslušníka polície. Pre ERRC vypovedal, že rovnako zbili aj ženy a deti. Jeho tiež spútali a zobrali na policajnú stanicu, kde ho podrobili bitke a zastrašovali ho. Okolo poludnia toho dňa boli zadržaní Rómovia po jednom prepustení z policajnej stanice v Sabinove.   Miestny rómsky vodca, 47-ročný Vojtech Červeňák, opísal ERRC útok polície nasledovne (bez diakritiky):   "Bolo to ako hororovy film v televizii. Vlastne televizia je nic v porovnani s realnou prihodou, ktora sa tu udiala. Mojho syna zbili , mna zbili, a dokonca aj osem deti mojho syna zbili. Jedno rocne dievcatko v nasej rodine bolo tak hrozne zbite, ze som mal pocit, ze zomrie. Policajti ju bili po chodidlach, prikryli jej tvar pokryvkou a snazili sa ju zadusit. chuda dieta uz prekonalo jednu operaciu a ked sme ju vyniesli z domu, stratila vedomie. Potom ju policajti zviazali, uchopili za vlasy a sklbli jej hlavou smerom dole."   ERRC prezrelo toto dievčatko v marci a potom znova v auguste 1996 a poukázalo na jej veľmi slabý zdravotný stav.   Červeňák ďalej povedal (bez diakritiky)   "V dedine zavladol velky strach. Policia mi zobrala nabytok, fotoaparat a video kameru tvrdiac, ze som to ukradol. Rozpravka o ukradnutom videozariadeni nie je pravdiva, bola to pre policiu iba zamienka. Clen mestskeho uradu v Jarovniciach prisiel presetrit celu udalost. Okrem neho prisiel aj zastupca miestnej policie, ako aj vysetrovastef z OU PZ v Presove. Avsak tito nikdy nic nevyriesili . Neexistoval ziaden dovod na takyto policajny zasah. Pisal som do Bratislavy na Kancelariu prezidenta Michala Kovaca a na Ministerstvo vnutra, napisal som  vsetko o tom, ako ma policajti zbili a okradli, ale nic sa neudialo."    Hoci bol majetok p. Červeňákovi políciou vrátený, jeho písomne žiadosti skončili veľmi ďaleko od nejakých disciplinárnych opatrení voči polícii. Okrem toho p. Čer­veňák prehlásil, že videl starostu obce Jarovnice Milana Kropucha ako ukazoval policajtom niekoľko rómskych domov tesne pred policajným útokom.   23.augusta 1995 v rozhovore pre Prešovský Večerník starosta Kropuch vyhlásil, že bol spokojný s prevedenou akciou (bez diakritiky):   "Jedna taka akcia kazde dva alebo tri roky nie je dost, ak si uvedomime, co takato romska usadlost znamena pre okolie. Nasi obyvatelia reagovali velmi pozitivne na tuto akciu."    Ked sa ERRC informovalo u starostu obce p. Kropucha na tento zásah, poskytol druhé oficiálne vysvetlenie. Nespomenul nijakého zlodeja videa, a namiesto toho prehlásil, že policajná akcia bola výsledkom údajného útoku Róma na policiu. K tomu dodal (bez diakritiky):   "Neexistovala nijaka ina moznost. Museli sme zorganizovat taku akciu. V kazdej rodine mate deti, a niektore su dobre a niektore zle. Podobne mame dobrych a zlych Romov. Co sa tyka tych zlych, nemame ziadnu inu moznost, ako ich kontrolovat. Musime udrziavat poriadok v obci a zachovat stabilnu situaciu."   "ERRC verí, že útok bol zameraný na hromadný postih Rómov a mal poslúžiť ako "show" v prospech nerómskej časti obyvateľstva. Dôkazy naznačujú, že útok na rómsku časť obyvateľov bol zorganizovaný miestnou políciou v spolupráci s OU PZ v Prešove a špeciálnej jednotky z Košíc. Znamená to teda, že táto akcia bola povolená z vysokých miest."   Vyjadrenia štátnych orgánov a starostu obce (vsetko nasledujúce je citované zo Správy Čas skinheadov bez diakritiky. Boldom som vyznačil časti pojednávajúce o dôvode razie, ktoré sa z pôvodnej verzie o krádeži videa opäť zmenili).   "V auguste 1996 ERRC poslalo protestny list Generalnemu prokuratorovi SR vo veci nezverejnenia vysledkov vysetrovania v obdobi jedneho roka od udalosti a naliehalo, aby sa uskutocnilo zverejnenie. V liste sa okrem toho pozadovalo aj presetrenie pravomoci starostu Krompucha.   12. septembra 1996 poslal JUDr. Roman Matasovsky z Generalnej prokuratury SR centru list, v ktorom oznamil, ze ziadost bola poslana na Ministerstvo vnutra SR. Nezavisle od tejto odpovedi dostalo ERRC dna 5. septembra 1996 fax od Prezidenta policajneho zboru SR Jozefa Holdosa, v ktorom urady SR potvrdzuju, ze policajna akcia bola vykonana v sulade so znenim §73 zakona 171/1993, ktory pojednava o pravomociach policie, a ze kroky uskutocnene policiou v Jarovniciach boli z pravneho hfadiska v poriadku.   Na rozdiel od prvej verzie oficialneho vysvetlenia policajneho utoku Prezident policajneho zboru SR Jozef Holdos rozhodol, ze akcia sa v ziadnom pripade nekonala za ucelom ziskat informacie o neznamom pachatefovi kradeze videotechniku, ani ako bezprostredna reakcia policie na utok Romov, ale bola vykonana za ucelom zatknutia identifikovanych kriminalnych zivlov v obci.    Podobne vysvetlenie asi o tyzden po udalosti ponukla nadacia Nevipe Foundation prostrednictvom zastupcu starostu obce Jarovnice. Podla jeho vysvetlenia kriminalnymi zivlami, ktore mali byt pocas policajneho zasahu zatknute, neboli zlodeji videozariadenia, ale Romovia, ktori sa po uplynuti doby vazenskej priepustky nevratili spat do vykonu trestu. Zastupca starostu okrem toho pre Nevipe Foundation dodal, ze starosta Kropuch isiel osobne spolu s dalsimi predstavilelmi obce a policiou do tych  romskych domov, ktore mali byt prehladane.    Nezavisle zdroje, ktore maju pristup k policajnym informaciam, pre ERRC uviedli, ze starosta Milan Kropuch sam pozadoval takuto raziu v obci na "udrzanie pokoja".   Ministerstvo vnutra SR poslalo na adresu ERRC dva navzajom nezavisle listy, prvy dna 11. septembra 1996 a druhy 1.oktobra 1996. Minister vnutra Gustav Krajci v nich uviedol, ze ucelom "bezpecnostnej akcie" v Jarovniciach bolo uvaznit tie osoby, na ktore bol vydany zatykac, a tie podozrive osoby, na ktorych obydlia boli vydane opravnenia k domovej prehliadke. Minister Krajci dalej uviedol, ze akcia bola uspesna a obcania obce ako aj okolitych oblasti  na nu pozitivne reagovali.    ERRC sa skepticky pozera na posudenie udalosti ministrom vnutra Krajcim; nie je zrejme, ake kriteria boli v tomto pripade pouzite na zmeranie uspesnosti alebo neuspesnosti akcie. Je taktiez pochybne, ci by taketo kriteria i v pripade explicitneho vyjadrenia vyhovovali medzinarodnym normam o postupoch policie a rozsahu jej pravomoci, ktorych znenie je obsiahnute v Zakladnych principoch OSN o pouziti sily a strelnych zbrani verejnopravnymi cinitelmi, a v Kodexe OSN o postupoch verejnopravnych cinitelov. Pocinanie si policie okrem ineho naznacuje prehliadanie Kapitoly o zakladnych ludskych pravach a slobodach, ktora je zakotvena v Ustave SR.   I napriek tomu, ze ERRC ocenuje rychlu odpoved slovenskych predstavitelov tykajucu sa informacii o pripade policajneho utoku v Jarovniciach, i nadalej naliehame na Generalnu prokuraturu SR, aby bol pripad nezavisle presetreny, pretoze dokazy nabadaju k myslienke, ze ide o policajne tyranie a zneuzitie pravomoci.   Ak sa na udalosti pozrieme z globalneho hladiska, vsetky vysvetlenia podane verejnopravnymi cinitelmi vo veci spominaneho policajneho utoku su viac alebo menej zhodne vo svojej obsahovej podsate a privadzaju k ciastocnemu zaveru, ze bolo pouzite zmyslanie post factum. Zda sa, ze opisanej udalosti predchadzal pravne podporeny zamer. Sumarnym vysledkom podanych vysvetleni je ich nespojitelnost. Aby sa dospelo k doveryhodnosti, je potrebne podat komplexny obraz mytov o romskej kriminalite. Oficialnym zaverom je retrospektivna mozaika, opis dominancie podporenej racistickymi predsudkami o Romoch."       PS: Dnes by zrejme "hľadali" DVD prehrávače, ak by sa mal svet riadiť predvolebnými vyhláseniami SNS.                     

                 
                                        
                        
                        Zdieľať
                    

                    
                            
                                    
                                    Zdieľať na
                            
                             
                                    
                             
                    

                                                                                                                        
                            
                            Diskusia: (80)
                        
                    
                    
                        
                        Zvýšte karmu
                    
                 
             

                             
            
                     
                         Ďalšie články blogera 
                         
                                                             
                                    
                    	                                                                                        

                                                                        
                                    
                                        Sergej Danilov 
                                        
                                            Maternica nie je výrobný prostriedok, ale útek z reality
                                        
                                    
                                 
                                                             
                                    
                    	                                                                                        

                                                                        
                                    
                                        Sergej Danilov 
                                        
                                            Pálffy za Slovan vo finále European Trophy v Bratislave
                                        
                                    
                                 
                                                             
                                    
                    	                                                                                        

                                                                        
                                    
                                        Sergej Danilov 
                                        
                                            Niekoľko poznámok k vyšetrovaniu SFZ v kauze Soumah
                                        
                                    
                                 
                                                             
                                    
                    	                                                                                        

                                                                        
                                    
                                        Sergej Danilov 
                                        
                                            Prípad Soumah by mala vyšetriť aj polícia
                                        
                                    
                                 
                                                             
                                    
                    	                                                                                        

                                                                        
                                    
                                        Sergej Danilov 
                                        
                                            Kauza Soumah: prvý prezident a prvý "whistleblowing"
                                        
                                    
                                 
                                                     
                        
                            Ďalšie články blogera: Sergej Danilov
                        
                     
            
                     
                         Ďalšie články z rubriky spoločnosť 
                         
                                                             
                                    
                                                            	                                                                                        

                                                                                                
                                    
                                        Kristián Straka 
                                        
                                            Nebite ma, doktor Plzák... alebo POZVANIE NA VEČERU
                                        
                                    
                                 
                                                             
                                    
                                                            	                                                                                        

                                                                                                
                                    
                                        Kristián Straka 
                                        
                                            Oklamaní Ježiškom ?
                                        
                                    
                                 
                                                             
                                    
                                                            	                                                                                        

                                                                                                
                                    
                                        Milan Buno 
                                        
                                            Šup, šup, najesť sa. A utekať!
                                        
                                    
                                 
                                                             
                                    
                                                            	                                                                                        

                                                                                                
                                    
                                        Katarína Lorenčíková 
                                        
                                            Par uprimnych oslobodzujucich riadkov...
                                        
                                    
                                 
                                                             
                                    
                                                            	                                                                                        

                                                                                                
                                    
                                        Alžbeta Slováková Spáčilová 
                                        
                                            Selfie s nádychom hyenizmu a krutosti
                                        
                                    
                                 
                                                     
                        
                            Ďalšie články z rubriky spoločnosť
                        
                     
                 
            
                    
 
     Hlavné správy 
         
        
                                

        
         
            AKTUALIZOVANÉ 16:00
             Rubeľ kolabuje, ruská vláda má mimoriadne rokovať 
             Jeden dolár stál v utorok poobede už viac ako 78 rubľov, razantné zvýšenie úrokov nepomohlo. 
         
     
         
        
                                

        
         
            ZAHRANIČIE
             Taliban zabil v škole v Pakistane vyše sto ľudí, väčšinou deti 
             Militanti vtrhli do vojenskej školy v policajných rovnošatách. 
         
     
         
        
                                

        
         
            KOMENTARE.SME.SK
             Cynická obluda: Medzičasom na opustenom ostrove 
             Stroskotanci majú veľké šťastie, že sú dvaja. Lacné vtipy na úrovni ich autora. 
         
     
     

                 
     
    
     
        
 

     
                
                            
                    



         
            
                Sergej Danilov
            
         
        danilov.blog.sme.sk (rss)
         
                        VIP
                             
     
        Páči sa mi interakcia s vami a citát, že blogovanie je crackom novinára. Alebo novinársky crack?:-)





POPULÁRNE ČLÁNKY: 
Reporting on extremist politicians 

        
     
     
                     
                             
             

     
        
            
                
                    Počet článkov
                    183
                
                
                    Celková karma
                    
                                                0.00
                    
                
                
                    Priemerná čítanosť
                    3789
                
            
        
     

             

             Zoznam rubrík 
            
             
                                     
                        
                            Futbal
                        
                     
                                     
                        
                            Politika
                        
                     
                                     
                        
                            Extrem
                        
                     
                                     
                        
                            Internet
                        
                     
                                     
                        
                            Showbiz
                        
                     
                                     
                        
                            Súkromné
                        
                     
                                     
                        
                            Nezaradené
                        
                     
                             
         
    

                     
                        
                                                            
                     Obľúbené články 
                    
                     
                                                 
                                            Názor: Holokaust zneužívaný na propagandu
                                     
                                                                             
                                            Židovskú hrobku postriekali hákovými krížmi
                                     
                                                                             
                                            Švec z SHO chce viac sôch Tisa po Slovensku
                                     
                                                                             
                                            Dom Jozefa Tisa chcú kúpiť Pánisovci
                                     
                                                                             
                                            Maďarská karta, zolik pre podvodnikov, Solyom má pravdu
                                     
                                                                             
                                            Vlastenecký zákon, ďalšia schválnosť Maďarom
                                     
                                                                             
                                            Na stráž políciu nedráždilo, extrémistov pustila mestom
                                     
                                                                             
                                            Komentár: SNS 14. marca
                                     
                                                                             
                                            Komentár: Slovakštát
                                     
                                                                             
                                            Stalin vo verzii 3D
                                     
                                                                             
                                            II. ročník turnaja BLMF proti rasizmu a intolerancii
                                     
                                                                             
                                            Trnka podal návrh na rozpustenie SLS
                                     
                                                                             
                                            Ako sa na Slovensku bojuje proti extrémizmu
                                     
                                                                             
                                            Machala a Kučera na Mikolajovej konferencii
                                     
                                                                             
                                            Útočník na americkú basketbalistku opäť hajloval
                                     
                                                                             
                                            Koment.: Pospolitosť - Kaliňák 2:0
                                     
                                                                             
                                            Kaliňákovi chýbajú dôkazy
                                     
                                                                             
                                            Poľsko otvorilo antirasistické centrum
                                     
                                                                             
                                            O podivnej vlastivede
                                     
                                                                             
                                            Ultras DAC nechápu kráľa Štefana
                                     
                                                                             
                                            Markíza: Hedviga a Lexa
                                     
                                                                             
                                            Na neonacistu u premiéra si posvieti polícia
                                     
                                                                             
                                            K Ficovi sa dostal aj neonacista
                                     
                                                                             
                                            Premiér ďakoval neonacistovi, minister vnútra bol pritom
                                     
                                                                             
                                            Mečiar využíval materiály ŠTB, tvrdí český "UPN"
                                     
                                                                             
                                            Majiteľ kaviarne sa za diskrimináciu ospravedlnil
                                     
                                                                             
                                            SP hrozí rozpustenie
                                     
                                                                             
                                            Kotleba chce byť županom v BB kraji
                                     
                                                                             
                                            Českí robotníci a náckovia spolupracujú
                                     
                                                                             
                                            Ach, gubernia neobmedzených možností
                                     
                                                                             
                                            Maďarič: Seminár o Maďaroch bez Maďarov
                                     
                                                                             
                                            Obnova v prípade vraždy Tupého zostáva otázna
                                     
                                                                             
                                            Vyhostenie fanúšikov futbalového Hajduku Split zrušili
                                     
                                                                             
                                            Fanúšik Spartaka Moskva kopol penaltu, potom zahajloval
                                     
                                                                             
                                            Výtržníci zo štadiónov priamo do väzenia?
                                     
                                                                             
                                            Maďarka predala otca rómskej rodine
                                     
                                                                             
                                            Jobbik už má v maďarskom parlamente slovo
                                     
                                                                             
                                            Mareš: Autonómní nacionalisté-Myšlenkové zázemí žhářů z Vítkova
                                     
                                                                             
                                            Kotleba Košičanov nezaujal
                                     
                                                                             
                                            Kontexty letnej mobilizácie extrémistov
                                     
                                                                             
                                            VIDEO: Kotleba nezaujal
                                     
                                                                             
                                            Pochod nacionalistov sa zmenil na agitáciu
                                     
                                                                             
                                            Rusi nedobijú Česko tankami, ale peniazmi
                                     
                                                                             
                                            Kauza Sendrei: expolicajti za mrežami
                                     
                                                                             
                                            Chelemendik pre TASR aj o etnickom konflikte
                                     
                                                                             
                                            Bývalý nácek v čele poľskej TV
                                     
                                                                             
                                            O extremismu s Janem Charvatem
                                     
                                                                             
                                            Čo posilňuje sebavedomie českých neonacistov
                                     
                                                                             
                                            Komentár: Korupcia
                                     
                                                                             
                                            Carter obvinil Obamových kritikov z rasizmu
                                     
                                                                             
                                            BIS varuje politikov pred stykmi s Rusmi
                                     
                                                                             
                                            DAC nesúhlasí s preložením duelu so Slovanom
                                     
                                                                             
                                            Cirkus Futbal - o odložení zápasu DAC-Slovan
                                     
                                                                             
                                            Klamanie o Malinovej
                                     
                                                                             
                                            Keď tvoje židovské meno nie je ono
                                     
                                                                             
                                            Slovák, ktorý ušiel z Osvienčimu
                                     
                                                                             
                                            Maďari, prepáčte
                                     
                                                                             
                                            Čo Dante nevidel, Slováci ušli z Osvienčimu
                                     
                                                                             
                                            Dalajláma u nás: rasizmus pramení z nedostatku informácií
                                     
                                                                             
                                            Deti z fotografie v Osvienčime sa stretli v Bratislave
                                     
                                                                             
                                            Fico: Extrémizmus k nám prichádza z Maďarska
                                     
                                                                             
                                            MŠK Žilina zverejnila mená chuligánov
                                     
                                                                             
                                            Obvinili futbalového výtržníka
                                     
                                                                             
                                            Za organizovanie neonacistického koncertu dostal podmienku
                                     
                                                                             
                                            Únia Rómov: Majorita by sa mala hanbiť
                                     
                                                                             
                                            STV, reportéri, Michalany
                                     
                                                                             
                                            Kriminalita etnickej skupiny neexistuje
                                     
                                                                             
                                            Len pre Maďarov
                                     
                                                                             
                                            Kotlebu obvinili
                                     
                                                                             
                                            Adauto: Rasisti neublížia mne, ale svojmu klubu
                                     
                                                                             
                                            Maďari majú podozrivých rómskych vrážd
                                     
                                                                             
                                            Slovenská pospolitosť: Zakladajú "Naše Slovensko"
                                     
                                                                             
                                            UPN: Rómov masovo zabíjali
                                     
                                                                             
                                            Za hajlovanie dostal 1,5 roka
                                     
                                                                             
                                            Koment.:Žijeme v Starom dome
                                     
                                                                             
                                            Koment.: Ako písať o extrémizme
                                     
                                                                             
                                            Nepovolené zhromaždenie neexistuje
                                     
                                                                             
                                            Koment.:Všetci sme Cigáni
                                     
                                                                             
                                            Uraziť Róma je populárne i na webe
                                     
                                                                             
                                            Kotleba a Belousovová
                                     
                                                                             
                                            Etnické spory nemajú mediátorov
                                     
                                                                             
                                            Judr. Kaliňák, už je toho priveľa
                                     
                                                                             
                                            Hasiča bude preverovať ministerstvo
                                     
                                                                             
                                            Čaplovič aj Pospolitosť v Krompachoch
                                     
                                                                             
                                            Internátne školy pre Rómov chce aj Čaplovič
                                     
                                                                             
                                            Palko: Nepozná ústavu, navrhuje nezmysly
                                     
                                                                             
                                            Paroubek nechce dávať robotu iným kultúram
                                     
                                                                             
                                            Kaliňák: Pán Kotleba...
                                     
                                                                             
                                            Krajnú pravicu zvoláva hasič
                                     
                                                                             
                                            Rešpekt za nerešpektovanie rasizmu pre komentátora Huste.sk
                                     
                                                                             
                                            Pospolitosť nedostala čas ani dôvody
                                     
                                                                             
                                            SP funguje slobodne ďalej, vďaka chybám MV SR
                                     
                                                                             
                                            Nesnášim cikány v Brne
                                     
                                                                             
                                            Rómsky docent sa ospravedlnil Palkovi
                                     
                                                                             
                                            Nacionalisti zvolávajú do Prešova zhromaždenie
                                     
                                                                             
                                            Pospolitosť chce novú stranu aj akcie
                                     
                                                                             
                                            Mementá zo Šariša
                                     
                                                                             
                                            V Michaľanoch to po zásahu polície vrie
                                     
                                                                             
                                            Sulík: Kotleba hrdinom dňa
                                     
                                                                             
                                            Oko za oko v Šarišských Michaľanoch
                                     
                                                                             
                                            Pospolitosť chce zopakovať akciu v Šarišských Michaľanoch
                                     
                                                                             
                                            Róm zbil poslanca SNS, zhorelo mu auto
                                     
                                                                             
                                            Buďme normálni - reakcia Palka
                                     
                                                                             
                                            Svätopluk Fico
                                     
                                                                             
                                            Rómska štatistika
                                     
                                                                             
                                            Hrubý omyl, zlý návrh. Šebej o Palkovi
                                     
                                                                             
                                            Kotlebov protest 8.8. Maskovaná oslava Hitlera
                                     
                                                                             
                                            Rasistické pokriky na Adauta
                                     
                                                                             
                                            Vláda o Rómoch najmä reční
                                     
                                                                             
                                            Zásah polície v Michalanoch rozdelil aj politikov
                                     
                                                                             
                                            Kotleba na Hrad
                                     
                                                                             
                                            Neonacisti chcú pochodovať Budapešťou
                                     
                                                                             
                                            Na kamene extrémistov odpovedalo vodné delo
                                     
                                                                             
                                            Polícia rozohnala protest extrémistov, Kotlebu zadržala
                                     
                                                                             
                                            Palkovci chcú zverejňovať štatistiky kriminality Rómov
                                     
                                                                             
                                            Komentár: Návrh hodný holohlavých
                                     
                                                                             
                                            Rómovia nemajú splnomocnenca ani fondy
                                     
                                                                             
                                            Demonštrovať ide Pospolitosť aj Rómovia
                                     
                                                                             
                                            (V)zrušení zacítili šancu
                                     
                                                                             
                                            Súd potrebuje v kauze Tupého viac času
                                     
                                                                             
                                            HZDS: Kaliňák by mal odísť
                                     
                                                                             
                                            Pospolitosť volá neonacistov proti Rómom
                                     
                                                                             
                                            Spomínali na zavraždenú Rómku
                                     
                                                                             
                                            Pospolitosť ide protestovať
                                     
                                                                             
                                            Osadníci dobili muža, prišiel o oko
                                     
                                                                             
                                            DK SFZ a Slovan
                                     
                                                                             
                                            Maďarsko: Zavraždená Rómka, dcéru jej zranili
                                     
                                                                             
                                            Tváre zradcov
                                     
                                                                             
                                            Riaditeľ STV sa odvolal na článok radikálov
                                     
                                                                             
                                            Rasistom pribúdajú terče
                                     
                                                                             
                                            Packa chce, aby sa starali o chuligánov  kluby
                                     
                                                                             
                                            Obama rieši rasizmus pivom
                                     
                                                                             
                                            Komentár: Do p... a Na stráž..
                                     
                                                                             
                                            Ministerstvo vnútra odporúča pospolitosť
                                     
                                                                             
                                            Uniforma maďarskej gardy v EP
                                     
                                                                             
                                            Šéf lekárov hovorí o nátlaku v kauze Malinová
                                     
                                                                             
                                            Jobbik obnovil Maďarskú gardu
                                     
                                                                             
                                            Maďarsko: Protest  proti Jobbiku
                                     
                                                                             
                                            Komentár:Svet, čo vyzerá ako ťažký kváder
                                     
                                                                             
                                            Bulharská mafia do parlamentu
                                     
                                                                             
                                            Jobbik a Jebbíci
                                     
                                                                             
                                            Pán Bosny poskokom nacionalistov
                                     
                                                                             
                                            Filo bloguje: Kaliňák posadil neonacistov na koňa
                                     
                                                                             
                                            Maďarské gardy zakázali
                                     
                                                                             
                                            Komentár k MG a SP: Vyzliekanie
                                     
                                                                             
                                            Neonacista posprejoval tank v múzeu v Banskej Bystrici
                                     
                                                                             
                                            Komentár: Facka cez Dunaj
                                     
                                                                             
                                            Recenzia: Vlasť máme milovať menej ako človeka
                                     
                                                                             
                                            Chyba ministerstva vnútra, pospolitosť pokračuje
                                     
                                                                             
                                            OZ Slovenská pospolitosť ide ďalej, súd zrušil jej rozpustenie
                                     
                                                                             
                                            Čaplovič: nie som rasista
                                     
                                                                             
                                            Rasista sedel za basketbalistku 2 mesiace
                                     
                                                                             
                                            Bili ich a revali, čierne opice vypadnite
                                     
                                                                             
                                            VIDEO: policajti brutálne kopali mladík z DNS
                                     
                                                                             
                                            Putin a Zjuganov si prečítajú Marxa a Engelsa
                                     
                                                                             
                                            Čaplovič urazil ženy
                                     
                                                                             
                                            Kotlebu nestíhajú
                                     
                                                                             
                                            Kotleba voľný
                                     
                                                                             
                                            Leško: Vraj to musí byť muž
                                     
                                                                             
                                            Jerofejev: Tajná spomienka na sladký život
                                     
                                                                             
                                            Rozhovor s ministrom Kaliňákom, aj o kauze Tupý
                                     
                                                                             
                                            Komentár: Čoho sa bojíme
                                     
                                                                             
                                            Zákon v Devínskej bol neoprávnený, odvolali policajtov
                                     
                                                                             
                                            Správa SNSLP o ľudských právach 2008 + extremizmus
                                     
                                                                             
                                            Kaliňák: Tupý potrebuje odvahu svedkov
                                     
                                                                             
                                            V Košiciach zbili dvoch študentov z Čadu
                                     
                                                                             
                                            Rozhovor s obžalovaným z vraždy Tupého
                                     
                                                                             
                                            SME: Rómov v Sabinove segregovali
                                     
                                                                             
                                            Kto tlieska Tisovi II...
                                     
                                                                             
                                            Rasista, ktorý napadol doktora, dostal podmienku
                                     
                                                                   
                     Obľúbené knihy 
                    
                     
                                                 
                                            Bastl o Antife pre Rexter
                                     
                                                                             
                                            Sme draví, ale druholigisti
                                     
                                                                             
                                            Nebezpečné známosti - ČR-GER pravic. extrémisti
                                     
                                                                             
                                            20 rokov po: Sme slobodní, ale nie lepší
                                     
                                                                             
                                            Mareš: Autonómní nacionalisté-Myšlenkové zázemí žhářů z Vítkova
                                     
                                                                             
                                            Čo posilňuje sebavedomie českých neonacistov
                                     
                                                                             
                                            HBS Praha: Analýza spolupráce českých a nemeckých náckov
                                     
                                                                             
                                            Bratislava ako mafiánsky kotol
                                     
                                                                             
                                            Komentár: Svätopluk Fico
                                     
                                                                             
                                            Komentár: Najhoršia stránka
                                     
                                                                             
                                            Komentár: Keby bol Tupý vrah
                                     
                                                                             
                                            Komentár: Obvinenie
                                     
                                                                             
                                            1993: BNP, Combat 18, Chelsea Headhunters
                                     
                                                                             
                                            Rómske otázky bez odpovedí
                                     
                                                                             
                                            AUTONÓMNI NACIONALISTI očami politológa Nociara
                                     
                                                                             
                                            Prejudices and Extreme right in Hungary 2008
                                     
                                                                             
                                            Správa maďarského NBU o extrémizme 2008
                                     
                                                                             
                                            Stiahnite PDF: Stratégia ČR v boji proti extrémizmu 2008
                                     
                                                                             
                                            AUTONÓMNI NACIONALISTI
                                     
                                                                             
                                            Koncepcia boja proti extrémizmu sa nenapĺňa
                                     
                                                                             
                                            Večne zlostný mariáš
                                     
                                                                             
                                            Na niekoho to musíme hodiť
                                     
                                                                             
                                            Rusko: Radikálny nacionalizmus 2008 - takmer 100 zavraždených
                                     
                                                                             
                                            Zlyhanie Elít
                                     
                                                                             
                                            Akčný plán na predchádzanie rasizmu a diskriminácie 2009-2011
                                     
                                                                             
                                            Kto je za násilím na štadónoch?
                                     
                                                                             
                                            Rómovia: Etnikum neprispôsobivé
                                     
                                                                             
                                            Krivošík: Inkluzívne chápanie národa
                                     
                                                                             
                                            Krivošík: Vzrušujúci príbeh slovenských dejín
                                     
                                                                             
                                            How England tackled soccer racism
                                     
                                                                             
                                            štatistika RMTČ v 2008
                                     
                                                                             
                                            Rozbor štatistiky extrémizmu
                                     
                                                                             
                                            Existuje rasa?
                                     
                                                                             
                                            Veda o antirasizme
                                     
                                                                             
                                            veda o rasizme
                                     
                                                                             
                                            Euro neonacizmus
                                     
                                                                             
                                            Národný populizmus na Slovensku
                                     
                                                                             
                                            JK BALÁZS: SKINHEADS
                                     
                                                                             
                                            ULTRAS 2007, ENOUGH/ĽPR
                                     
                                                                             
                                            Rasistický extrémizmus
                                     
                                                                             
                                            Futbaloví chuligáni na Slovensku (2005)
                                     
                                                                             
                                            Kto sú neonacisti 1? Prvá časť psychologickej štúdie F.Šebeja
                                     
                                                                             
                                            Kto sú neonacisti 2? Nesvätá aliancia podľa F. Šebeja
                                     
                                                                   
                     Obľúbené blogy 
                    
                     
                                                 
                                            SMEblog Jozefa Kurica
                                     
                                                                             
                                            Bibliografia k štúdiu fašizmu
                                     
                                                                             
                                            SMEblog Števa Šantu
                                     
                                                                             
                                            SMEblog Hany Klamkovej
                                     
                                                                             
                                            Nepriatelia Demokracie
                                     
                                                                             
                                            SMEblog dizajnéra Viktora Klima
                                     
                                                                             
                                            SMEblog o softvéri Petra Mikšíka
                                     
                                                                             
                                            blog o mobile
                                     
                                                                             
                                            profiblog Jara Spišáka
                                     
                                                                             
                                            Dusoftov Ambience blog
                                     
                                                                             
                                            ako sa zaľúbiť napísala
                                     
                                                                   
                     Obľúbené stránky 
                    
                     
                                                 
                                            9 statočných z Little Rock
                                     
                                                                             
                                            Holokaust História
                                     
                                                                             
                                            Sviečka o Holokauste
                                     
                                                                             
                                            Oficiálna stránka fanúšikov EURO 2008
                                     
                                                                             
                                            portál o dávaní DAKUJEME.SK
                                     
                                                                             
                                            Futbal proti rasizmu (SVK)
                                     
                                                                             
                                            Odkopni rasizmus (Projekt Premier league)
                                     
                                                                             
                                            Veľa farieb, jedna hra
                                     
                                                                             
                                            Futbal proti rasizmu (FARE)
                                     
                                                                             
                                            ShOOty
                                     
                                                                             
                                            Security-Society (bezpečnosť spoločnosti)
                                     
                                                                             
                                            Ľudia proti rasizmu
                                     
                            
             
         
            

             
             Čo ma zaujalo 
            Týmto článkom bloger klikol/klikla na karmu.
             
                                                         
                       Čitateľský denník: 11 mojich najlepších non-fiction kníh roka
                     
                                                         
                       Podliehame ilúziám
                     
                                                         
                       Paškova "fabrika"
                     
                                                         
                       Páni, správcovia, lokaji a nuly
                     
                                                         
                       Muž vo výťahu
                     
                                                         
                       Národ piťovcov
                     
                                                         
                       Manuál mladého konšpirátora
                     
                                                         
                       List Karolovi: Minule, keď som šiel okolo policajnej stanice
                     
                                                         
                       Ako Mesežnikov antisemitov hľadal (a našiel)
                     
                                                         
                       Prečo gayovia zvyšujú nájomné a istoty sú drahé
                     
                             
         
           
     Pošlite odkaz blogerovi 
    
         
            
         

         
         
         
         

         
         
Odosielateľ (e-mail)
 
         
Text
 
         
             
Protispamová ochrana 
 
 Zle. Skúste znova. 
Opíšte slová z obrázku: Načítať iné slová 
 Get an image CAPTCHA 
 
 
         
                 
            
         
    
  


 

     






            
    
        
    
 

        
         
         
             Už ste čítali? 
         
         
 

 kultura.sme.sk 
 Margaréta sa spriahla s diablom, no mala Kristovu pravdu 
 
 

 www.sme.sk 
 Pútnické miesta The Beatles alebo ako ľudia kráčajú po zebre 
 
 

 cestovanie.sme.sk 
 Lovia za svitania a v hmle 
 
 

 www.sme.sk 
 Ako sa valila lavína slobody. Ako padal komunizmus 
 
 

 kultura.sme.sk 
 Žiadne retro, poriadny biznis. Takto sa lisuje platňa 
 
	   
 


        
         
            
         

     

    
     
 
 
	 

		Kontakty
		Predplatné
		Etický kódex
		Pomoc
		Mapa stránky
		
	 
 
 
	 
		 
			Widget
			RSS
			Newsletter
		 
		 
			Mobil
			Smartphone
			Kindle
			Televízor
		 
		 
			Facebook
			Twitter
			Google+
		 
	 
	 
		
	 
	 
		Ďalšie weby skupiny: Prihlásenie do Post.sk
		Új Szó Slovak Spectator
		Agentúrne správy 
		Vydavateľstvo
		Inzercia
		Osobné údaje
		Návštevnosť webu
		Predajnosť tlače
		Petit Academy
		SME v škole 		© Copyright 1997-2014 Petit Press, a.s. 
	 
 
 
 


          
        
            
            

        
    

    
    


    


    
        
        
        
        
        
        
        
            
            
        
        
        
        
         
                                
               





 

 



        

 




