
      
    
    

     
	 
	 
 SME.sk 
 Zľavy 
 Zoznámenie 
 Reality 
 Dovolenky 
 Pizza 
 Reštaurácie 
 Recenzie 
 Inzeráty 
 Naničmama 	 
Nákupy 
		 
 Filmy na DVD 
 Hodinky 
 Parfémy 
 SME knihy a DVD 
 Superhosting 
 Tlačiareň 
 Víno 
 Tvorba webov 
 Predplatné SME 
 ProSenior 		 
	 
	 
 
	 
 


    
    
        
        
         
          
         
    

    
      
         
            
             
     
        
        
     
    Blog.SME.sk
 

    

         
        
                 
     
         
            Sme.sk
         
         
            Domov
         
         
            Regióny
         
         
            Ekonomika
         
         
            Svet
         
         
            Komentáre
         
         
            Kultúra
         
         
            Šport
         
         
            TV
         
         
            Auto
         
         
            Tech
         
         
            Poradňa
         
         
            Žena
         
         
            Bývanie
         
         
            Zdravie
         
         
            Blog
         
     
 

         
            
     
                                                         Politika 
                                                                                     Spoločnosť 
                                                                                     Cestovanie 
                                                                                     Ekonomika 
                                                                                     Fotografie 
                                                                                     Jedlo 
                                                                                     Kultúra 
                                                                                             
Ďalšie
                             
                                                                                         Lifestyle 
                                                                                                                                                                             Médiá 
                                                                                                                                                                             Nezaradené 
                                                                                                                                                                             Súkromné 
                                                                                                                                                                             Šport 
                                                                                                                                                                             Veda a technika 
                                                                                                                                                                             Zábava 
                                                                                                                                                                             Poézia 
                                                                                                                                                                             Próza 
                                                                                                                                                                             Kódex blogera 
                                                                                 
                         
                                                 
            Blogeri
         
     


            

    
    Prihlásiť sa


    
    Založte si blog



    
    Odhlásiť sa


    
    




         

        
        
         
            
         
         
                
     
                 
            SME.sk &gt;
            Blog.SME.sk &gt;
                            Alexander Ač
                                        &gt;
                Klimatická zmena
                     
                 Globálne otepľovanie má svoje výhody. Aké? 

        
            
                                    28.10.2007
            o
            10:29
                        |
            Karma článku:
                5.76
            |
            Prečítané 
            5164-krát
                    
         
     
         
             

                 
                    "...dajú sa o ňom nakrúcať dobré filmy." To bol názov diskusie v rámci minulo- týždňového EkoTopFilmu, na ktorej sa zúčastnili klimatológ prof. Milan Lapin, Rado Kazda, geológ Ľ. Kucharič, hydrologička Pekárová a novinár František Šebej (tak nie, vraj Martin Hanus). Sú ľudia, ktorí nám vravia, že netreba s emisiami CO2 robiť NIČ. Naozaj nič? Posúďte sami...
                 

                  V diskusii odznelo veľa nezmyslov. Jedným z nich bol ten, že "slávna Mannova hokejka" bola vyvrátená (Ferantišek Šebej (Martin Hanus)).     Áno, kanadský štatistik S. McIntyre (www.climateaudit.org) sa o to pokúsil, ale neúspešne. Mannova rekonštrukcia priemerných teplôt na Severnej poľoguli je aj v poslednej správe IPCC, spolu s ďalšími 11 ďalšími štúdiami. (pozri prvý obrázok).      Samozrejme, ak by bola vyvrátená a jej údaje skreslujúce alebo zásadne zle spracované, nemôže sa v správe IPCC objaviť.     Tu by som sa vyjadril k dvom (podľa mňa) zaujímavým poznámkam v diskusii - jednej o požiaroch a jednej o záplavách.      Jedna z prominentných diskutujúcich (išlo o víťazku z Olympiády v Melbeurne v roku 1956), teraz už staršia pani, poznamenala, že v Kalifornii sú teraz veľké požiare, a že by sme sa mali baviť radšej o tom.     Na to Radovan Kazda zareagoval, že Luboš Motl , český klimaskeptik na svojom blogu uvádza, že počet požiarov nemá s globálnym otepľovaním nič spoločné.     Potom prišla reč na záplavy. Paní hydrologička Pekárová uviedla, že na Slovensku v dlhodobom hľadisku nedochádza k zvyšovaniu počtu (intenzity?) záplav.     i) požiare - Kanada     štúdia publikovaná v roku 2004 (Gillett et al. 2004, Geophys. Res. Lett. 31, L18211) preukázala zvýšenie plochy lesných požiarov v Kanade od roku 1920 a to v dôsledku zvyšovania priemerných teplôt (Obr. 1)                        Popis k obrázku: Čierna línia zobrazuje odchýlku plochy lesných požiarov v 105 km2, červená línia zobrazuje odchýlku priemernej teploty °K (podľa Moberg a Jones, 2003) váženej plochou lesných požiarov a zelená línia je modelovaná plocha požiarov vážená plochou požiarov za použitia klimatického modelu CGCM2 so zahrnutím vplyvu CO2 a aerosólov. Všetky údaje sú priemery za 5 rokov. Vertikálne línie sú 5-95% intervaly prirodzenej variability plochy požiarov. Odchýlky plochy požiarov a teploty sú vztiahnuté k priemeru za obdobie 1920-1999.         Takže vplyv globálneho otepľovania na požiare v Kanade je preukázaný už najmenej od roku 2004.     i) požiare - USA     Štúdia publikovaná v roku 2006 (Westerling et al, Science, 2006) preukázala vplyv skoršieho topenia snehu a vyšších priemerných teplôt na plochu požiarov na Západe USA. Zrejmý trend narastania v ploche požiarov možno pozorovať aj v štatistike prevzatej z National Interagency Fire Center, pre územie celého územia USA a Aljašky (Obr. 2). Pozri aj článok na Neviditeľnom psovi +diskusia                  Popis k obrázku: Plocha lesov, ktorú každoročne pohltia požiare v USA od roku 1960. Je možné, že pred rokom 1960 mohla byť plocha požiarov aj vyššia, pretože v 30-tych rokoch minulého storočia postihlo západ USA veľké sucho (tzv Dust Bowl). Trend nárastu plochy požiarov v posledných rokov však s veľkou pravdepodobnosťou vylučuje vplyv ľudského faktoru čí prirodzenej variability (skúste si urobiť napr. 5-ročné priemery...). Navyše, počet požiarov sa nezvyšuje, čo tiež vylučuje vplyv ľudského faktoru (podpaľačstvo). Požiarov nie je viac, ale keď už vzniknú, tak sú intenzívnejšie.     Niektorí diskutujúci ma obvinili na Neviditeľnom psovi zo "zneužívania štatistiky" či zeleného mozgu:-). Pritom som údaje nijak neupravoval (žiadne kĺzavé priemery), a preložiť si ich môžete akou funkciou chcete, tak vždy budú posledné 4 roky rekordné (minimálne) od roku 1960.           ii) záplavy           je možné, že na Slovensku nedošlo k štatisticky významnému nárastu vo výskyte záplav, avšak z hľadiske teórie globálneho otepľovania nás viac zaujíma globálny výskyt záplav. Aj keď sú kvalitné údaje dostupné len od roku 1985, napovedajú nám dosť veľa. (Obr. 3)                        Popis k obrázku: Údaje sú prevzaté z Dartmouth Flood Observatory . Rovnako ako požiare, aj záplavy majú mnoho príčin. Rovnako ako v prípade požiarov, dlhodobý trend je možné pripísať vplyvu globálneho otepľovania. Je to v súhlase so základnými fyzikálnymi zákonmi chovania atmosféry a takéto trendy (t.j. nárast výskytu intenzívnych zrážok (a teda aj záplav) a sucha (a teda aj (plochy) požiarov) ) sú v súlade s predpoveďami klimatických modelov. Poznámka ku grafu - posledný rok 2007 obsahuje počet záplav do konca októbra 2007 (200).           Je len iróniou, že sa prevažne ľudia mimo obce klimatológov ešte stále dohadujú, či je vôbec vhodné a potrebné znižovať emisie CO2. Dívajú sa títo ľudia na grafy a na vedeckú literatúru? Alebo sledujú niečo iné?     Čím viac budeme odďalovať znižovanie emisií CO2, tým viac a závažnejších problémov budú musieť riešiť nasledujúce generácie a možno už aj my...                    

                 
                                        
                        
                        Zdieľať
                    

                    
                            
                                    
                                    Zdieľať na
                            
                             
                                    
                             
                    

                                                                                                                        
                            
                            Diskusia: (99)
                        
                    
                    
                        
                        Zvýšte karmu
                    
                 
             

                             
            
                     
                         Ďalšie články blogera 
                         
                                                             
                                    
                    	                                                                                        

                                                                        
                                    
                                        Alexander Ač 
                                        
                                            Nečakaný ropný šok
                                        
                                    
                                 
                                                             
                                    
                    	                                                                                        

                                                                        
                                    
                                        Alexander Ač 
                                        
                                            Svet sa od riešenia klimatickej zmeny rýchlo vzďaľuje
                                        
                                    
                                 
                                                             
                                    
                    	                                                                                        

                                                                        
                                    
                                        Alexander Ač 
                                        
                                            Homo sapiens v akcii
                                        
                                    
                                 
                                                             
                                    
                    	                                                                                        

                                                                        
                                    
                                        Alexander Ač 
                                        
                                            Zmena vizáže
                                        
                                    
                                 
                                                             
                                    
                    	                                                                                        

                                                                        
                                    
                                        Alexander Ač 
                                        
                                            Ťažba nekonvenčnej ropy v kontexte ropného zlomu
                                        
                                    
                                 
                                                     
                        
                            Ďalšie články blogera: Alexander Ač
                        
                     
            
                     
                         Ďalšie články z rubriky veda a technika 
                         
                                                             
                                    
                                                            	                                                                                        

                                                                                                
                                    
                                        Mária Džunková 
                                        
                                            Prečo vôbec nevadí, ak nemáte DNA sekvenátor
                                        
                                    
                                 
                                                             
                                    
                                                            	                                                                                        

                                                                                                
                                    
                                        Jana K. Jones 
                                        
                                            Filozofia vedy - Čo, podľa Poppera, veda dokazuje?
                                        
                                    
                                 
                                                             
                                    
                                                            	                                                                                        

                                                                                                
                                    
                                        MUDr. Peter Žiak, PhD. 
                                        
                                            Prečo si niekedy nevšimneme červenú?
                                        
                                    
                                 
                                                             
                                    
                                                            	                                                                                        

                                                                                                
                                    
                                        Jana K. Jones 
                                        
                                            Filozofia vedy - kritérium falzifikovateľnosti podľa Karla Poppera
                                        
                                    
                                 
                                                             
                                    
                                                                                                                    

                                                                                                
                                    
                                        Miroslav Lisinovič 
                                        
                                            Tatra 87
                                        
                                    
                                 
                                                     
                        
                            Ďalšie články z rubriky veda a technika
                        
                     
                 
            
                    
 
     Hlavné správy 
         
        
                                

        
         
            ZAHRANIČIE
             Protestujúci v Maďarsku strácajú dych, Fidesz ich mätie novými návrhmi 
             Na demonštrácii proti Orbánovej vláde bolo v utorok už len niekoľko tisíc ľudí. 
         
     
         
        
                                

        
         
            AKTUALIZOVANÉ 20:22
             Slovenky v hlavnej skupine nebodovali, Švédky vyhrali o 9 gólov 
             Naše hádzanárky hrali na ME piaty zápas. V Záhrebe proti Švédkam. 
         
     
         
        
                                

        
         
            AKTUALIZOVANÉ O 21:30
             Rubeľ pocítil pád na dno, Rusko je vo finančnej kríze 
             Dolár včera stál už takmer 80 rubľov, pod hladinu ho tlačia najmä nízke ceny ropy. 
         
     
     

                 
     
    
     
        
 

     
                
                            
                    



         
            
                Alexander Ač
            
         
        ac.blog.sme.sk (rss)
         
                        VIP
                             
     
        Pracujem v Brne.

        
     
     
                     
                             
             

     
        
            
                
                    Počet článkov
                    630
                
                
                    Celková karma
                    
                                                0.00
                    
                
                
                    Priemerná čítanosť
                    1655
                
            
        
     

             

             Zoznam rubrík 
            
             
                                     
                        
                            Vzťahy
                        
                     
                                     
                        
                            Klimatická zmena
                        
                     
                                     
                        
                            Ropný zlom
                        
                     
                                     
                        
                            Finančná kríza
                        
                     
                                     
                        
                            Jadrová energia
                        
                     
                                     
                        
                            Egypt
                        
                     
                                     
                        
                            Argentína
                        
                     
                                     
                        
                            Súkromné
                        
                     
                                     
                        
                            Nezaradené
                        
                     
                             
         
    

                     
                        
                                                            
                     Obľúbené články 
                    
                     
                                                 
                                            Reaching the outer limits
                                     
                                                                             
                                            Juro Mesík - List buducej generácii
                                     
                                                                             
                                            Hans J. Schellnhuber - CO2 Insolvency
                                     
                                                                             
                                            Dave Cohen - Next Oil Shock
                                     
                                                                             
                                            Juraj Mesík: Źivot po zrútení USA
                                     
                                                                             
                                            Orlov: Social collapse - best practices
                                     
                                                                             
                                            Hansen:Coal-fired power stations are death factories. Close them
                                     
                                                                             
                                            Five stages of collapse - Dmitrij Orlov
                                     
                                                                             
                                            Asia and Africa - living on the edge
                                     
                                                                             
                                            Clean coal illusion
                                     
                                                                             
                                            Carbon capping: A citizen's guide
                                     
                                                                             
                                            Rozpad Wilkinsovho ľadovcového štítu - 8. Marca 2008
                                     
                                                                             
                                            Rekordne teplá zima v Severnej Európe
                                     
                                                                             
                                            Globálne otepľovanie môže zvýšiť škodu spôsobenú chladom
                                     
                                                                             
                                            Jadroví kanibali
                                     
                                                                             
                                            Odčerpávanie CO2 zo vzduchu
                                     
                                                                             
                                            Búrka na obzore: Prichádzajúca ropná kríza
                                     
                                                                             
                                            Elektromobily - na dosah?
                                     
                                                                             
                                            Potrebujeme biopalivá?
                                     
                                                                             
                                            Ropny zlom - RL Hirsch, 2005 (PDF)
                                     
                                                                             
                                            Cap-and-trade: more effective than a carbon tax
                                     
                                                                             
                                            Globálne stmievanie
                                     
                                                                             
                                            Poster od tvorcov blogu REALCLIMATE na AGU, 2006 Have a look ;-)
                                     
                                                                             
                                            BBC news - Globálne stmievanie - video
                                     
                                                                             
                                            ABC News on GW - video
                                     
                                                                             
                                            Sucho vo východnej Ázii
                                     
                                                                             
                                            Ako schne Amazon - video (Greenpeace)
                                     
                                                                             
                                            60 minut globalne otepľovanie - video super!!!
                                     
                                                                             
                                            Ladove medvede a globalne otepľovanie - video
                                     
                                                                             
                                            Ladovce, boli - uz nie su
                                     
                                                                             
                                            Pre ekológov
                                     
                                                                             
                                            O klimatickej zmene - zaujímavé
                                     
                                                                   
                     Obľúbené knihy 
                    
                     
                                                 
                                            Beyond Oil: The Threat to food and fuel in the coming decades
                                     
                                                                             
                                            Bud Ward - Communicating on Climate Change
                                     
                                                                             
                                            Spencer Weart - The discovery of global warming
                                     
                                                                             
                                            Helm D. a kol. - Príliš dobré aby to bola pravda?
                                     
                                                                             
                                            D.J.C. MacKay - Obnoviteľné zdroje energie s chladnou hlavou-SK
                                     
                                                                             
                                            Frans de Waal - Dobráci od přírody
                                     
                                                                             
                                            IPCC - 2007
                                     
                                                                             
                                            Lester Brown - Plan B 3.0 - Mobilizing to save the civilization
                                     
                                                                   
                     Čo práve počúvam 
                    
                     
                                                 
                                            ===filmy===
                                     
                                                                             
                                            Project Home
                                     
                                                                             
                                            An Inconvenienth truth
                                     
                                                                             
                                            The age of stupid
                                     
                                                                             
                                            The great squeeze - Surviving the human project
                                     
                                                                             
                                            Blind spot
                                     
                                                                             
                                            A crude awakening - The Oil crash
                                     
                                                                             
                                            Sizzle: A global warming commedy
                                     
                                                                   
                     Obľúbené blogy 
                    
                     
                                                 
                                            Dušan Doliak - blog o ekonomike, financiách a spoločnosti
                                     
                                                                             
                                            Jožo Pecho - blog
                                     
                                                                             
                                            ===ropný zlom===
                                     
                                                                             
                                            Early Warning (Stuart Staniford)
                                     
                                                                             
                                            Energetický bulletín
                                     
                                                                             
                                            Thon Taddeo
                                     
                                                                             
                                            Big Gav (Peak Energy)
                                     
                                                                             
                                            Robert Rapier
                                     
                                                                             
                                            Matt Savinar
                                     
                                                                             
                                            Matthew Simmons
                                     
                                                                             
                                            Dmitry Orlov
                                     
                                                                             
                                            John Michael Greer
                                     
                                                                             
                                            James Howard Kunstler
                                     
                                                                             
                                            EnergyBulletin
                                     
                                                                             
                                            TheOilDrum
                                     
                                                                             
                                            TheAutomaticEarth
                                     
                                                                             
                                            When Giants Fall (Michael Panzner)
                                     
                                                                             
                                            Global Trend Analysis (Mike Shedlock)
                                     
                                                                             
                                            Steve Ludlum (Economic Undertow)
                                     
                                                                             
                                            Ambrose Evans-Pritchard
                                     
                                                                             
                                            Doug Short
                                     
                                                                             
                                            Calculated Risk (Bill McBride)
                                     
                                                                             
                                            Steeve Keen (DebtWatch)
                                     
                                                                             
                                            Guy McPherson
                                     
                                                                             
                                            EconBrowser (James Hamilton)
                                     
                                                                             
                                            Gregor MacDonald
                                     
                                                                             
                                            Andrew Dessler
                                     
                                                                             
                                            Global warming watch
                                     
                                                                             
                                            A few things III Considered
                                     
                                                                             
                                            Climate spin
                                     
                                                                             
                                            DotEarth (Andy Rewkin)
                                     
                                                                             
                                            Andrew Dessler
                                     
                                                                             
                                            Mark Lynas
                                     
                                                                             
                                            Desdemona Despair
                                     
                                                                             
                                            James Annan
                                     
                                                                             
                                            William Connolley
                                     
                                                                             
                                            Tamino (OpenMind)
                                     
                                                                             
                                            Eli Rabett
                                     
                                                                   
                     Obľúbené stránky 
                    
                     
                                                 
                                            Top 25 finančných portálov
                                     
                                                                             
                                            ScienceNews
                                     
                                                                             
                                            Atlas of our changing environment
                                     
                                                                             
                                            Encyklopédia života - Edward O. Wilson
                                     
                                                                             
                                            Encyklopédia Zeme
                                     
                                                                             
                                            Renewable energy foundation
                                     
                                                                             
                                            www.Edge.org - Cutting edge science
                                     
                                                                             
                                            Vaša ekologická stopa!
                                     
                                                                             
                                            National Snow and Ice Data Center
                                     
                                                                             
                                            Climate Code Red
                                     
                                                                             
                                            E-quark
                                     
                                                                             
                                            Science Daily
                                     
                                                                             
                                            PhysOrg
                                     
                                                                             
                                            Ekologické správy
                                     
                                                                             
                                            Carma - mapovanie emisií skleníkových plynov
                                     
                                                                             
                                            EarthTrends
                                     
                                                                             
                                            World Watch Institute
                                     
                                                                             
                                            Klimatická etika
                                     
                                                                             
                                            Live Science
                                     
                                                                             
                                            Globálny uhlíkový cyklus
                                     
                                                                             
                                            The History of Global Warming
                                     
                                                                             
                                            A compendium of data on Global Change
                                     
                                                                             
                                            Interaktívne - vplyv stúpajúcej morskej hladiny na pobrežie
                                     
                                                                             
                                            Globálne otepľovanie - interaktívne
                                     
                                                                             
                                            Svet v štatistikách
                                     
                                                                             
                                            AAAS o klimatickej zmene - video, super
                                     
                                                                             
                                            Zem z pohľadu satelitov - NASA
                                     
                                                                             
                                            Britské listy
                                     
                                                                             
                                            Globálne otepľovanie v obrazoch
                                     
                                                                             
                                            Scientific American
                                     
                                                                             
                                            National Geographic
                                     
                                                                             
                                            New Scientist
                                     
                                                                             
                                            National Climatic Data Center
                                     
                                                                             
                                            Dartmouth Flood Observatory
                                     
                                                                             
                                            Správy o ekológii z celého sveta
                                     
                                                                             
                                            NOAA
                                     
                            
             
         
            

             
             Čo ma zaujalo 
            Týmto článkom bloger klikol/klikla na karmu.
             
                                                         
                       Desať rokov postkalamitného vývoja
                     
                                                         
                       Já Kazisvet, z vôle Fica minister
                     
                                                         
                       Som iný: zbieram odpad v prírode - normálne je zahadzovať ho.
                     
                                                         
                       Čaká nás trvalý ekonomický pokles
                     
                                                         
                       Firmy z daňových rajov bodujú aj v slovenských štátnych tendroch
                     
                                                         
                       Karma a čítanosť
                     
                                                         
                       Kedy bola Arktída naposledy v lete bez ľadu?
                     
                             
         
           
     Pošlite odkaz blogerovi 
    
         
            
         

         
         
         
         

         
         
Odosielateľ (e-mail)
 
         
Text
 
         
             
Protispamová ochrana 
 
 Zle. Skúste znova. 
Opíšte slová z obrázku: Načítať iné slová 
 Get an image CAPTCHA 
 
 
         
                 
            
         
    
  


 

     






            
    
        
    
 

        
         
         
             Už ste čítali? 
         
         
 

 kultura.sme.sk 
 Margaréta sa spriahla s diablom, no mala Kristovu pravdu 
 
 

 www.sme.sk 
 Pútnické miesta The Beatles alebo ako ľudia kráčajú po zebre 
 
 

 cestovanie.sme.sk 
 Lovia za svitania a v hmle 
 
 

 www.sme.sk 
 Ako sa valila lavína slobody. Ako padal komunizmus 
 
 

 kultura.sme.sk 
 Žiadne retro, poriadny biznis. Takto sa lisuje platňa 
 
	   
 


        
         
            
         

     

    
     
 
 
	 

		Kontakty
		Predplatné
		Etický kódex
		Pomoc
		Mapa stránky
		
	 
 
 
	 
		 
			Widget
			RSS
			Newsletter
		 
		 
			Mobil
			Smartphone
			Kindle
			Televízor
		 
		 
			Facebook
			Twitter
			Google+
		 
	 
	 
		
	 
	 
		Ďalšie weby skupiny: Prihlásenie do Post.sk
		Új Szó Slovak Spectator
		Agentúrne správy 
		Vydavateľstvo
		Inzercia
		Osobné údaje
		Návštevnosť webu
		Predajnosť tlače
		Petit Academy
		SME v škole 		© Copyright 1997-2014 Petit Press, a.s. 
	 
 
 
 


          
        
            
            

        
    

    
    


    


    
        
        
        
        
        
        
        
            
            
        
        
        
        
         
                                
               





 

 



        

 




