
      
    
    

     
	 
	 
 SME.sk 
 Zľavy 
 Zoznámenie 
 Reality 
 Dovolenky 
 Pizza 
 Reštaurácie 
 Recenzie 
 Inzeráty 
 Naničmama 	 
Nákupy 
		 
 Filmy na DVD 
 Hodinky 
 Parfémy 
 SME knihy a DVD 
 Superhosting 
 Tlačiareň 
 Víno 
 Tvorba webov 
 Predplatné SME 
 ProSenior 		 
	 
	 
 
	 
 


    
    
        
        
         
          
         
    

    
      
         
            
             
     
        
        
     
    Blog.SME.sk
 

    

         
        
                 
     
         
            Sme.sk
         
         
            Domov
         
         
            Regióny
         
         
            Ekonomika
         
         
            Svet
         
         
            Komentáre
         
         
            Kultúra
         
         
            Šport
         
         
            TV
         
         
            Auto
         
         
            Tech
         
         
            Poradňa
         
         
            Žena
         
         
            Bývanie
         
         
            Zdravie
         
         
            Blog
         
     
 

         
            
     
                                                         Politika 
                                                                                     Spoločnosť 
                                                                                     Cestovanie 
                                                                                     Ekonomika 
                                                                                     Fotografie 
                                                                                     Jedlo 
                                                                                     Kultúra 
                                                                                             
Ďalšie
                             
                                                                                         Lifestyle 
                                                                                                                                                                             Médiá 
                                                                                                                                                                             Nezaradené 
                                                                                                                                                                             Súkromné 
                                                                                                                                                                             Šport 
                                                                                                                                                                             Veda a technika 
                                                                                                                                                                             Zábava 
                                                                                                                                                                             Poézia 
                                                                                                                                                                             Próza 
                                                                                                                                                                             Kódex blogera 
                                                                                 
                         
                                                 
            Blogeri
         
     


            

    
    Prihlásiť sa


    
    Založte si blog



    
    Odhlásiť sa


    
    




         

        
        
         
            
         
         
                
     
                 
            SME.sk &gt;
            Blog.SME.sk &gt;
                            Peter 02 Novak
                                        &gt;
                Súkromné
                     
                 Arroy Mak Mak !!!  alebo – dokáž si, že si chlap! 

        
            
                                    21.6.2010
            o
            0:36
                        (upravené
                3.5.2011
                o
                1:50)
                        |
            Karma článku:
                6.45
            |
            Prečítané 
            712-krát
                    
         
     
         
             

                 
                    Uff, ale to boli!!!! Asi tak by mohol znieť voľný preklad bolestného thajského pokriku, ktorý sa z vás vyrúti v momente keď sa thajská masérka odviaže a „jemne“ pritlačí.
                 

                Píšem o thajskej masáži v kaviarni v Pressburg Cofee, čarovnom ostrove Slovákov uprostred thajskej divočiny zvanej Koh Samui. Thajská masáž bolí. Vlastne nie ona BOLÍ!!!. Keď ti jemné thajské masérky vykrútia rameno za hlavu, skočia pätou na chrbát alebo ti vytiahnu nohu z kĺbu, vtedy kričíš: „ARROY MAK MAK!“  Masérka sa vtedy na teba súcitne pozrie a opýta sa: „Ty si z Európy však?“ Počas nášho pobytu sme si pravidelne dopriali thajskú masáž, tradičnú, olejovú, aloe vera, foot masáž a podobne. Zo začiatku sme si mysleli ako silno nám dávajú plážové masérky zabrať, no až neskôr sme zistili, že to bolo iba „hladkanie turistov“. Skutočná masáž začala až neskôr. V kaviarni, v našom „domácom“ masážnom salóne sme sa od masérok dozvedeli, že existujú tri druhy tradičnej masáže. Rovnako ako existujú tri druhy štipľavej tradičnej polievky Tom Yam – pre turistov, pre odvážnych turistov a  pre Thajcov. Kým ti nepraští v kostiach nie je to masáž, kým ti z očí nestriekajú slzy nie je to polievka. Dali sme si teda thajskú masáž, tú tradičnú. Vypýtali sme si médium – pre odvážnych turistov. ... Keď hostia cez sklenené okno videli čo sa s nami robí s údivom v očiach na nás civeli. Raz nám dala ruku za hlavu, inokedy kľačala na slabinách, alebo si z úsmevom na perách užívala našu bolesť sprevádzanú známymi výkrikmi keď tlačila lakťom pod lopatkou. Nech už to vyzeralo akokoľvek dnes viem otočiť hlavou o 180 stupňov, ruky si spojím z chrbtom a dokonca si zaviažem šnúrku na topánke bez toho aby som si kľakol. Úplnou lahôdkou však je keď ti objaví miesto na nohe, kde ťa zabolí... Takú radosť v očiach má azda len thajský boxer, ktorý práve vyhral domáce majstrovstvá pred tisícovým publikom. Neprejde ten bod alibistickým konštatovaním typu: „Niečo máte so žalúdkom.“  Práve naopak! Zakúsne sa do boľavého miesta a masíruje pokiaľ bolesť úplne neodíde – ARROY MAK MAK!!!!  Skučíš od bolesti, cítiš, že sa ti v žalúdku krúti, v duchu si pripomenieš tie najhoršie nadávky ale vydržíš to....Cítiš, že ti to pomáha... Po hodine sa už len blažene usmievaš, zatváraš oči a zaspávaš. Takže vedz, že keď nezažiješ Arroy MAK MAK, nebol si na masáži. A nezabudni, tie na pláži to dokážu tiež, len si to musíš vypýtať.

                 
                                        
                        
                        Zdieľať
                    

                    
                            
                                    
                                    Zdieľať na
                            
                             
                                    
                             
                    

                                                                                                                        
                            
                            Diskusia: (3)
                        
                    
                    
                        
                        Zvýšte karmu
                    
                 
             

                             
            
                     
                         Ďalšie články blogera 
                         
                                                             
                                    
                    	                                                                                        

                                                                        
                                    
                                        Peter 02 Novak 
                                        
                                            Jedzme tabletky!
                                        
                                    
                                 
                                                             
                                    
                    	                                                                                        

                                                                        
                                    
                                        Peter 02 Novak 
                                        
                                            O vlcích...
                                        
                                    
                                 
                                                             
                                    
                    	                                                                                        

                                                                        
                                    
                                        Peter 02 Novak 
                                        
                                            5-mesačné odstupné poslancov - Grécko?
                                        
                                    
                                 
                                                             
                                    
                    	                                                                                        

                                                                        
                                    
                                        Peter 02 Novak 
                                        
                                            Až 33% voličov sa má veľmi dobre !!!
                                        
                                    
                                 
                                                             
                                    
                    	                                                                                        

                                                                        
                                    
                                        Peter 02 Novak 
                                        
                                            Ujo, Vy ste začiatočník?
                                        
                                    
                                 
                                                     
                        
                            Ďalšie články blogera: Peter 02 Novak
                        
                     
            
                     
                         Ďalšie články z rubriky cestovanie 
                         
                                                             
                                    
                                                                                                                    

                                                                                                
                                    
                                        Miroslav Lisinovič 
                                        
                                            Horná brána v Modre
                                        
                                    
                                 
                                                             
                                    
                                                                                                                    

                                                                                                
                                    
                                        Martina Rúčková 
                                        
                                            Z Európy na Kaukaz: Çanakkale a bájna Trója
                                        
                                    
                                 
                                                             
                                    
                                                            	                                                                                        

                                                                                                
                                    
                                        Andrea Grešová 
                                        
                                            To je moje Rumunsko
                                        
                                    
                                 
                                                             
                                    
                                                                                                                    

                                                                                                
                                    
                                        Ján Serbák 
                                        
                                            Pamätník čs. armády s vojnovým cintorínom na Dukle
                                        
                                    
                                 
                                                             
                                    
                                                            	                                                                                        

                                                                                                
                                    
                                        Peter Kover 
                                        
                                            22 krajín (miest), ktoré sa naozaj oplatí vidieť
                                        
                                    
                                 
                                                     
                        
                            Ďalšie články z rubriky cestovanie
                        
                     
                 
            
                    
 
     Hlavné správy 
         
        
                                

        
         
            ZAHRANIČIE
             Protestujúci v Maďarsku strácajú dych, Fidesz ich mätie novými návrhmi 
             Na demonštrácii proti Orbánovej vláde bolo v utorok už len niekoľko tisíc ľudí. 
         
     
         
        
                                

        
         
            AKTUALIZOVANÉ O 21:30
             Rubeľ pocítil pád na dno, Rusko je vo finančnej kríze 
             Dolár včera stál už takmer 80 rubľov, pod hladinu ho tlačia najmä nízke ceny ropy. 
         
     
         
        
                                

        
         
            AKTUALIZOVANÉ 21:50
             Taliban zabil v škole v Pakistane 132 detí 
             Pakistan až teraz poriadne zatlačil na islamistov. Odplatou je útok na deti vojakov. 
         
     
     

                 
     
    
     
        
 

     
                
                            
                    



         
            
                Peter 02 Novak
            
         
        peter02novak.blog.sme.sk (rss)
         
                                     
     
        Mám rád život, mám rád slobodu a voľnosť. Rád sa stretávam s ľuďmi, rád ich počúvam a pozorujem. Častokrát ma prekvapia príbehy jednoduchých ľudí. Fascinuje ma múdrosť v mnohých z nich ukrytá.  Popri mojej tvrdej technokratickej práci ma takýto druh spoločenského života nabíja. 
Je pre mňa Relaxom. Cez blog sa s Vami môžem o niektoré zážitky podeliť
        
     
     
                     
                             
             

     
        
            
                
                    Počet článkov
                    8
                
                
                    Celková karma
                    
                                                0.00
                    
                
                
                    Priemerná čítanosť
                    1241
                
            
        
     

             

             Zoznam rubrík 
            
             
                                     
                        
                            Súkromné
                        
                     
                                     
                        
                            Nezaradené
                        
                     
                             
         
    

    

        

     






            
    
        
    
 

        
         
         
             Už ste čítali? 
         
         
 

 kultura.sme.sk 
 Margaréta sa spriahla s diablom, no mala Kristovu pravdu 
 
 

 www.sme.sk 
 Pútnické miesta The Beatles alebo ako ľudia kráčajú po zebre 
 
 

 cestovanie.sme.sk 
 Lovia za svitania a v hmle 
 
 

 www.sme.sk 
 Ako sa valila lavína slobody. Ako padal komunizmus 
 
 

 kultura.sme.sk 
 Žiadne retro, poriadny biznis. Takto sa lisuje platňa 
 
	   
 


        
         
            
         

     

    
     
 
 
	 

		Kontakty
		Predplatné
		Etický kódex
		Pomoc
		Mapa stránky
		
	 
 
 
	 
		 
			Widget
			RSS
			Newsletter
		 
		 
			Mobil
			Smartphone
			Kindle
			Televízor
		 
		 
			Facebook
			Twitter
			Google+
		 
	 
	 
		
	 
	 
		Ďalšie weby skupiny: Prihlásenie do Post.sk
		Új Szó Slovak Spectator
		Agentúrne správy 
		Vydavateľstvo
		Inzercia
		Osobné údaje
		Návštevnosť webu
		Predajnosť tlače
		Petit Academy
		SME v škole 		© Copyright 1997-2014 Petit Press, a.s. 
	 
 
 
 


          
        
            
            

        
    

    
    


    


    
        
        
        
        
        
        
        
            
            
        
        
        
        
         
                                
               





 

 



        

 




