
      
    
    

     
	 
	 
 SME.sk 
 Zľavy 
 Zoznámenie 
 Reality 
 Dovolenky 
 Pizza 
 Reštaurácie 
 Recenzie 
 Inzeráty 
 Naničmama 	 
Nákupy 
		 
 Filmy na DVD 
 Hodinky 
 Parfémy 
 SME knihy a DVD 
 Superhosting 
 Tlačiareň 
 Víno 
 Tvorba webov 
 Predplatné SME 
 ProSenior 		 
	 
	 
 
	 
 


    
    
        
        
         
          
         
    

    
      
         
            
             
     
        
        
     
    Blog.SME.sk
 

    

         
        
                 
     
         
            Sme.sk
         
         
            Domov
         
         
            Regióny
         
         
            Ekonomika
         
         
            Svet
         
         
            Komentáre
         
         
            Kultúra
         
         
            Šport
         
         
            TV
         
         
            Auto
         
         
            Tech
         
         
            Poradňa
         
         
            Žena
         
         
            Bývanie
         
         
            Zdravie
         
         
            Blog
         
     
 

         
            
     
                                                         Politika 
                                                                                     Spoločnosť 
                                                                                     Cestovanie 
                                                                                     Ekonomika 
                                                                                     Fotografie 
                                                                                     Jedlo 
                                                                                     Kultúra 
                                                                                             
Ďalšie
                             
                                                                                         Lifestyle 
                                                                                                                                                                             Médiá 
                                                                                                                                                                             Nezaradené 
                                                                                                                                                                             Súkromné 
                                                                                                                                                                             Šport 
                                                                                                                                                                             Veda a technika 
                                                                                                                                                                             Zábava 
                                                                                                                                                                             Poézia 
                                                                                                                                                                             Próza 
                                                                                                                                                                             Kódex blogera 
                                                                                 
                         
                                                 
            Blogeri
         
     


            

    
    Prihlásiť sa


    
    Založte si blog



    
    Odhlásiť sa


    
    




         

        
        
         
            
         
         
                
     
                 
            SME.sk &gt;
            Blog.SME.sk &gt;
                            Peter Herman
                                        &gt;
                Fotografie
                     
                 Fotografie - Hornád v Košiciach, 02.06.2010 

        
            
                                    3.6.2010
            o
            7:43
                        (upravené
                3.6.2010
                o
                7:54)
                        |
            Karma článku:
                11.07
            |
            Prečítané 
            4003-krát
                    
         
     
         
             

                 
                    Vraj je to v Košiciach najhoršie od roku 1974, hladinu Hornádu už Ružín nedokáže(!) regulovať, je plný. A tak nám do mesta púšťa prietok slušných 420 m3/s. Ale pri aktuálnom prítoku 400 m3/s by to zrejme aj "prázdny" Ružín dlho nevydržal regulovať :)
                 

                     Obec Ťahanovce (most)    Obec Ťahanovce (pri súdkoch)      Obec Ťahanovce    Anička (most)     Anička (most)    Železničný most (za HM Testo)     Pri budove IS Košice    Pri budove IS Košice      Sídlisko Nad Jazerom    Sídlisko Nad Jazerom      Sídlisko Nad Jazerom    Sídlisko Nad Jazerom      Sídlisko Nad Jazerom    MČ Košice - Krásna      MČ Košice - Krásna    MČ Košice - Krásna   
  

                 
                                        
                        
                        Zdieľať
                    

                    
                            
                                    
                                    Zdieľať na
                            
                             
                                    
                             
                    

                                                                                                                        
                            
                            Diskusia: (8)
                        
                    
                    
                        
                        Zvýšte karmu
                    
                 
             

                             
            
                     
                         Ďalšie články blogera 
                         
                                                             
                                    
                    	                                                                                        

                                                                        
                                    
                                        Peter Herman 
                                        
                                            Fotografie - Hornád zlomil historické rekordy, 05.06.2010
                                        
                                    
                                 
                                                             
                                    
                    	                                                                                        

                                                                        
                                    
                                        Peter Herman 
                                        
                                            Tip na výlet - Betliar (fotografie)
                                        
                                    
                                 
                                                             
                                    
                    	                                                                                        

                                                                        
                                    
                                        Peter Herman 
                                        
                                            Fotopostrehy: Vysoké Tatry a ich aktuálna tvár...
                                        
                                    
                                 
                                                             
                                    
                    	                                                                                        

                                                                        
                                    
                                        Peter Herman 
                                        
                                            Dôchodková pomsta od ficovlády... No ďakujem pekne...
                                        
                                    
                                 
                                                             
                                    
                    	                                                                                        

                                                                        
                                    
                                        Peter Herman 
                                        
                                            Mŕtvolné "Noviny" TV JOJ
                                        
                                    
                                 
                                                     
                        
                            Ďalšie články blogera: Peter Herman
                        
                     
            
                     
                         Ďalšie články z rubriky fotografie 
                         
                                                             
                                    
                                                                                                                    

                                                                                                
                                    
                                        Miroslav Lisinovič 
                                        
                                            Motorový rušeň 754.045 ČD "Brejlovec"
                                        
                                    
                                 
                                                             
                                    
                                                                                                                    

                                                                                                
                                    
                                        Jan Pražák 
                                        
                                            Jeníček v zemi divů - Lurdy
                                        
                                    
                                 
                                                             
                                    
                                                                                                                    

                                                                                                
                                    
                                        Anton Lisinovič 
                                        
                                            Detaily života v lese.....
                                        
                                    
                                 
                                                             
                                    
                                                                                                                    

                                                                                                
                                    
                                        Jaromír Šiša 
                                        
                                            Porazit Rusy? Šlo to jedině roku 1805 u Slavkova.
                                        
                                    
                                 
                                                             
                                    
                                                            	                                                                                        

                                                                                                
                                    
                                        Gabriela Szabová 
                                        
                                            Nezabudnuteľní
                                        
                                    
                                 
                                                     
                        
                            Ďalšie články z rubriky fotografie
                        
                     
                 
            
                    
 
     Hlavné správy 
         
        
                                

        
         
            ZAHRANIČIE
             Protestujúci v Maďarsku strácajú dych, Fidesz ich mätie novými návrhmi 
             Na demonštrácii proti Orbánovej vláde bolo v utorok už len niekoľko tisíc ľudí. 
         
     
         
        
                                

        
         
            AKTUALIZOVANÉ 20:22
             Slovenky v hlavnej skupine nebodovali, Švédky vyhrali o 9 gólov 
             Naše hádzanárky hrali na ME piaty zápas. V Záhrebe proti Švédkam. 
         
     
         
        
                                

        
         
            AKTUALIZOVANÉ O 21:30
             Rubeľ pocítil pád na dno, Rusko je vo finančnej kríze 
             Dolár včera stál už takmer 80 rubľov, pod hladinu ho tlačia najmä nízke ceny ropy. 
         
     
     

                 
     
    
     
        
 

     
                
                            
                    



         
            
                Peter Herman
            
         
        peterherman.blog.sme.sk (rss)
         
                                     
     
         
Otec, manžel, muž, človek - ktorý na otázku: Si spokojný so životom aký žiješ? - odpovedá: Som! 
        
     
     
                     
                             
             

     
        
            
                
                    Počet článkov
                    15
                
                
                    Celková karma
                    
                                                0.00
                    
                
                
                    Priemerná čítanosť
                    2399
                
            
        
     

             

             Zoznam rubrík 
            
             
                                     
                        
                            Politika
                        
                     
                                     
                        
                            Fotografie
                        
                     
                                     
                        
                            Zo života
                        
                     
                                     
                        
                            Postrehy
                        
                     
                                     
                        
                            Ľudia
                        
                     
                                     
                        
                            Súkromné
                        
                     
                                     
                        
                            Nezaradené
                        
                     
                             
         
    

                     
                        
                                                            
                     Čo práve počúvam 
                    
                     
                                                 
                                            Joyce Cooling
                                     
                                                                             
                                            Zdenka Predná
                                     
                                                                             
                                            Richard Muller
                                     
                                                                             
                                            IMT Smile
                                     
                                                                             
                                            Paul Taylor
                                     
                                                                             
                                            Peter White
                                     
                                                                   
                     Obľúbené stránky 
                    
                     
                                                 
                                            http://www.google.com :)
                                     
                            
             
         
            

           
     Pošlite odkaz blogerovi 
    
         
            
         

         
         
         
         

         
         
Odosielateľ (e-mail)
 
         
Text
 
         
             
Protispamová ochrana 
 
 Zle. Skúste znova. 
Opíšte slová z obrázku: Načítať iné slová 
 Get an image CAPTCHA 
 
 
         
                 
            
         
    
  


 

     






            
    
        
    
 

        
         
         
             Už ste čítali? 
         
         
 

 kultura.sme.sk 
 Margaréta sa spriahla s diablom, no mala Kristovu pravdu 
 
 

 www.sme.sk 
 Pútnické miesta The Beatles alebo ako ľudia kráčajú po zebre 
 
 

 cestovanie.sme.sk 
 Lovia za svitania a v hmle 
 
 

 www.sme.sk 
 Ako sa valila lavína slobody. Ako padal komunizmus 
 
 

 kultura.sme.sk 
 Žiadne retro, poriadny biznis. Takto sa lisuje platňa 
 
	   
 


        
         
            
         

     

    
     
 
 
	 

		Kontakty
		Predplatné
		Etický kódex
		Pomoc
		Mapa stránky
		
	 
 
 
	 
		 
			Widget
			RSS
			Newsletter
		 
		 
			Mobil
			Smartphone
			Kindle
			Televízor
		 
		 
			Facebook
			Twitter
			Google+
		 
	 
	 
		
	 
	 
		Ďalšie weby skupiny: Prihlásenie do Post.sk
		Új Szó Slovak Spectator
		Agentúrne správy 
		Vydavateľstvo
		Inzercia
		Osobné údaje
		Návštevnosť webu
		Predajnosť tlače
		Petit Academy
		SME v škole 		© Copyright 1997-2014 Petit Press, a.s. 
	 
 
 
 


          
        
            
            

        
    

    
    


    


    
        
        
        
        
        
        
        
            
            
        
        
        
        
         
                                
               





 

 



        

 




