
      
    
    

     
	 
	 
 SME.sk 
 Zľavy 
 Zoznámenie 
 Reality 
 Dovolenky 
 Pizza 
 Reštaurácie 
 Recenzie 
 Inzeráty 
 Naničmama 	 
Nákupy 
		 
 Filmy na DVD 
 Hodinky 
 Parfémy 
 SME knihy a DVD 
 Superhosting 
 Tlačiareň 
 Víno 
 Tvorba webov 
 Predplatné SME 
 ProSenior 		 
	 
	 
 
	 
 


    
    
        
        
         
          
         
    

    
      
         
            
             
     
        
        
     
    Blog.SME.sk
 

    

         
        
                 
     
         
            Sme.sk
         
         
            Domov
         
         
            Regióny
         
         
            Ekonomika
         
         
            Svet
         
         
            Komentáre
         
         
            Kultúra
         
         
            Šport
         
         
            TV
         
         
            Auto
         
         
            Tech
         
         
            Poradňa
         
         
            Žena
         
         
            Bývanie
         
         
            Zdravie
         
         
            Blog
         
     
 

         
            
     
                                                         Politika 
                                                                                     Spoločnosť 
                                                                                     Cestovanie 
                                                                                     Ekonomika 
                                                                                     Fotografie 
                                                                                     Jedlo 
                                                                                     Kultúra 
                                                                                             
Ďalšie
                             
                                                                                         Lifestyle 
                                                                                                                                                                             Médiá 
                                                                                                                                                                             Nezaradené 
                                                                                                                                                                             Súkromné 
                                                                                                                                                                             Šport 
                                                                                                                                                                             Veda a technika 
                                                                                                                                                                             Zábava 
                                                                                                                                                                             Poézia 
                                                                                                                                                                             Próza 
                                                                                                                                                                             Kódex blogera 
                                                                                 
                         
                                                 
            Blogeri
         
     


            

    
    Prihlásiť sa


    
    Založte si blog



    
    Odhlásiť sa


    
    




         

        
        
         
            
         
         
                
     
                 
            SME.sk &gt;
            Blog.SME.sk &gt;
                            Evicka Blastikova
                                        &gt;
                Súkromné
                     
                 Ako ten cas leti 

        
            
                                    19.6.2010
            o
            9:53
                        |
            Karma článku:
                4.60
            |
            Prečítané 
            1021-krát
                    
         
     
         
             

                 
                    6 a pol roka – to je vsetko? Nie je to ziadne vyrocie, skor na mna dosla taka ta emocionalno melancholicka chvila – idem sa vydavat o par tyzdnov.6 a pol roka je obdobie mojho zitia v UK. A tak si hovorim, ze mi to pride skor ako 20 rokov...........
                 

                 Bolo tomu takto nejak pred 7 rokmi ked som sedela v jednej nemenovanej au pair agenture v Bratislave. Predo mnou kocka, ktora svojou aroganciou by otocila na opatku asi vela klientov. Pamatam sa na otazku, ze kam by som tu Au pair chcela teda ist robit. Kedze som bola cerstvo zmaturovana s vyznamenanim a napriek odmietnutiu dvoch vysokych skol som mala stale velke sebavedomie som odpovedala ze USA. Kocka sa na mna pozrela, prehrnula svoje mastne vlasy a zacala na mna po anglicky. Po troch vetach bolo jasne, ze anglicky velmi neviem a oznamila mi, ze do USA ma teda neposlu. Na to sa ma spytala, ze ci by som nesla do Norska? Vo mne sa nakopilo asi sto otaznikov a nejak sa mi v tej mojej vyznamenanej hlave zrazu zjavil nazov Anglicko..............   To, ze som si tam vtedy na tej stolicke urcila moju buducnost ma ani nenapadlo. O Anglicku som vedela akurat tak, ze tam maju kralovnu, krasneho princa Williama a Beatles - jednoducho Blavacka s vyznamenanim..............:)   Trvalo im to pol roka v agenture, ale nakoniec sa im to podarilo a tak som sa vybrala autobusom cez polku Europy - iba na 6 mesiacov a ani o den dlhsieJ))))))))))))))) Dnes sa mojmu planu musim uz iba smiat.   To, co som tu vsetko za tie roky zazila by sa dalo spisat do jednej velkej knihy - Evy Blastikovej Prihody a Skusenosti. Zacalo by to kapitolou Au pair, rychlo by sa preslo na Albansku kulturu v Londyne, moja casnicka kariera, perioda zaluby v opere (a jej spevakoch) a nakoniec by prisla nudna romanticka cast - pre mna vsak ta najlepsia to ako som nasla svojho princa a priviedla na svet moju malu prnceznu.   6 a pol roka, cas leti...............................let's go and get married!!!!!!!!!!!!!!!! 

                 
                                        
                        
                        Zdieľať
                    

                    
                            
                                    
                                    Zdieľať na
                            
                             
                                    
                             
                    

                                                                                                                        
                            
                            Diskusia: (4)
                        
                    
                    
                        
                        Zvýšte karmu
                    
                 
             

                             
            
                     
                         Ďalšie články blogera 
                         
                                                             
                                    
                    	                                                                                        

                                                                        
                                    
                                        Evicka Blastikova 
                                        
                                            Where do you come from?
                                        
                                    
                                 
                                                             
                                    
                    	                                                                                        

                                                                        
                                    
                                        Evicka Blastikova 
                                        
                                            Ako sa prezivaju Vianoce v Londyne?
                                        
                                    
                                 
                                                             
                                    
                    	                                                                                        

                                                                        
                                    
                                        Evicka Blastikova 
                                        
                                            Moje prve Vianoce s mojim prvym salatom
                                        
                                    
                                 
                                                             
                                    
                    	                                                                                        

                                                                        
                                    
                                        Evicka Blastikova 
                                        
                                            Som obcanom SR, ale volit nemozem
                                        
                                    
                                 
                                                             
                                    
                    	                                                                                        

                                                                        
                                    
                                        Evicka Blastikova 
                                        
                                            Za ten usmev to stoji
                                        
                                    
                                 
                                                     
                        
                            Ďalšie články blogera: Evicka Blastikova
                        
                     
            
                     
                         Ďalšie články z rubriky lifestyle 
                         
                                                             
                                    
                                                                                                                    

                                                                                                
                                    
                                        Xenie Suhayla Komers 
                                        
                                            Vydat, či nevydat se ve stopách svého osudu?
                                        
                                    
                                 
                                                             
                                    
                                                            	                                                                                        

                                                                                                
                                    
                                        Ivana Lešičková 
                                        
                                            Nenávidím Vianoce! Zn: tie v októbri
                                        
                                    
                                 
                                                             
                                    
                                                            	                                                                                        

                                                                                                
                                    
                                        Jana Ambrošová 
                                        
                                            Filipínsky občasník: 4. Peklo v raji
                                        
                                    
                                 
                                                             
                                    
                                                            	                                                                                        

                                                                                                
                                    
                                        Daniela Pikulova 
                                        
                                            Za oponou.
                                        
                                    
                                 
                                                             
                                    
                                                            	                                                                                        

                                                                                                
                                    
                                        Teodor Komenda 
                                        
                                            Škola života
                                        
                                    
                                 
                                                     
                        
                            Ďalšie články z rubriky lifestyle
                        
                     
                 
            
                    
 
     Hlavné správy 
         
        
                                

        
         
            ZAHRANIČIE
             Protestujúci v Maďarsku strácajú dych, Fidesz ich mätie novými návrhmi 
             Na demonštrácii proti Orbánovej vláde bolo v utorok už len niekoľko tisíc ľudí. 
         
     
         
        
                                

        
         
            AKTUALIZOVANÉ O 21:30
             Rubeľ pocítil pád na dno, Rusko je vo finančnej kríze 
             Dolár včera stál už takmer 80 rubľov, pod hladinu ho tlačia najmä nízke ceny ropy. 
         
     
         
        
                                

        
         
            AKTUALIZOVANÉ 21:50
             Taliban zabil v škole v Pakistane 132 detí 
             Pakistan až teraz poriadne zatlačil na islamistov. Odplatou je útok na deti vojakov. 
         
     
     

                 
     
    
     
        
 

     
                
                            
                    



         
            
                Evicka Blastikova
            
         
        blastikova.blog.sme.sk (rss)
         
                                     
     
        Slovenka zijuca v Londyne, ktora miluje zivot
        
     
     
                     
                             
             

     
        
            
                
                    Počet článkov
                    64
                
                
                    Celková karma
                    
                                                0.00
                    
                
                
                    Priemerná čítanosť
                    1876
                
            
        
     

             

             Zoznam rubrík 
            
             
                                     
                        
                            cestujeme
                        
                     
                                     
                        
                            Pribehy z Anglicka
                        
                     
                                     
                        
                            Fotografie
                        
                     
                                     
                        
                            Súkromné
                        
                     
                                     
                        
                            Nazory
                        
                     
                             
         
    

                     
                        
                                                            
                     Čo práve počúvam 
                    
                     
                                                 
                                            Jaromir Nohavica
                                     
                                                                             
                                            Queen
                                     
                                                                             
                                            Johny Cash
                                     
                                                                   
                     Obľúbené blogy 
                    
                     
                                                 
                                            Ivka Vrablanska*lviatko*
                                     
                                                                             
                                            Vlastina Svatkova
                                     
                                                                             
                                            Katarina Krajmerova
                                     
                                                                             
                                            Eva Krajmerova
                                     
                            
             
         
            

             
             Čo ma zaujalo 
            Týmto článkom bloger klikol/klikla na karmu.
             
                                                         
                       Myslíte si, že preháňam?!
                     
                                                         
                       Bojovať láskou a pravdou
                     
                                                         
                       Sedím na súde a nie je mi dobre
                     
                             
         
           
     Pošlite odkaz blogerovi 
    
         
            
         

         
         
         
         

         
         
Odosielateľ (e-mail)
 
         
Text
 
         
             
Protispamová ochrana 
 
 Zle. Skúste znova. 
Opíšte slová z obrázku: Načítať iné slová 
 Get an image CAPTCHA 
 
 
         
                 
            
         
    
  


 

     






            
    
        
    
 

        
         
         
             Už ste čítali? 
         
         
 

 kultura.sme.sk 
 Margaréta sa spriahla s diablom, no mala Kristovu pravdu 
 
 

 www.sme.sk 
 Pútnické miesta The Beatles alebo ako ľudia kráčajú po zebre 
 
 

 cestovanie.sme.sk 
 Lovia za svitania a v hmle 
 
 

 www.sme.sk 
 Ako sa valila lavína slobody. Ako padal komunizmus 
 
 

 kultura.sme.sk 
 Žiadne retro, poriadny biznis. Takto sa lisuje platňa 
 
	   
 


        
         
            
         

     

    
     
 
 
	 

		Kontakty
		Predplatné
		Etický kódex
		Pomoc
		Mapa stránky
		
	 
 
 
	 
		 
			Widget
			RSS
			Newsletter
		 
		 
			Mobil
			Smartphone
			Kindle
			Televízor
		 
		 
			Facebook
			Twitter
			Google+
		 
	 
	 
		
	 
	 
		Ďalšie weby skupiny: Prihlásenie do Post.sk
		Új Szó Slovak Spectator
		Agentúrne správy 
		Vydavateľstvo
		Inzercia
		Osobné údaje
		Návštevnosť webu
		Predajnosť tlače
		Petit Academy
		SME v škole 		© Copyright 1997-2014 Petit Press, a.s. 
	 
 
 
 


          
        
            
            

        
    

    
    


    


    
        
        
        
        
        
        
        
            
            
        
        
        
        
         
                                
               





 

 



        

 




