

 ...............................................Ch lácholivé chachacha 
 ................................A ppassionata 
 ..................................................O šúchané ovácie 
 ....................................T ápanie 
 ................................................I mprovizácie 
 ..........................C yklický Cynizmus 
 .....................................K olízie 
 .........................................................Á úúú 
   
   
   
 .................K ladivovité klebety 
 ................................O dveci 
 ............L acný Lačný Lov 
 ...................................Í very Imaginárnych Istôt 
 ...................................................S amospúšť 
 .......................K omické Kázanie 
 ......................................................................A ... 
   
   
   
 






 

