
      
    
    

     
	 
	 
 SME.sk 
 Zľavy 
 Zoznámenie 
 Reality 
 Dovolenky 
 Pizza 
 Reštaurácie 
 Recenzie 
 Inzeráty 
 Naničmama 	 
Nákupy 
		 
 Filmy na DVD 
 Hodinky 
 Parfémy 
 SME knihy a DVD 
 Superhosting 
 Tlačiareň 
 Víno 
 Tvorba webov 
 Predplatné SME 
 ProSenior 		 
	 
	 
 
	 
 


    
    
        
        
         
          
         
    

    
      
         
            
             
     
        
        
     
    Blog.SME.sk
 

    

         
        
                 
     
         
            Sme.sk
         
         
            Domov
         
         
            Regióny
         
         
            Ekonomika
         
         
            Svet
         
         
            Komentáre
         
         
            Kultúra
         
         
            Šport
         
         
            TV
         
         
            Auto
         
         
            Tech
         
         
            Poradňa
         
         
            Žena
         
         
            Bývanie
         
         
            Zdravie
         
         
            Blog
         
     
 

         
            
     
                                                         Politika 
                                                                                     Spoločnosť 
                                                                                     Cestovanie 
                                                                                     Ekonomika 
                                                                                     Fotografie 
                                                                                     Jedlo 
                                                                                     Kultúra 
                                                                                             
Ďalšie
                             
                                                                                         Lifestyle 
                                                                                                                                                                             Médiá 
                                                                                                                                                                             Nezaradené 
                                                                                                                                                                             Súkromné 
                                                                                                                                                                             Šport 
                                                                                                                                                                             Veda a technika 
                                                                                                                                                                             Zábava 
                                                                                                                                                                             Poézia 
                                                                                                                                                                             Próza 
                                                                                                                                                                             Kódex blogera 
                                                                                 
                         
                                                 
            Blogeri
         
     


            

    
    Prihlásiť sa


    
    Založte si blog



    
    Odhlásiť sa


    
    




         

        
        
         
            
         
         
                
     
                 
            SME.sk &gt;
            Blog.SME.sk &gt;
                            Jana Del Moral
                                        &gt;
                Nezaradené
                     
                 Babka cestovateľka 

        
            
                                    26.6.2010
            o
            14:32
                        |
            Karma článku:
                6.66
            |
            Prečítané 
            727-krát
                    
         
     
         
             

                 
                    Práve bude oslavovat 67 rokov, Anna dochodkyňa z Gran Canarias, matka a starká mnohočlennej rodiny, začala poslednú etapu svojej cesty okolo sveta dodávkou. Všetko začalo, ked oslávila 63 rokov.Anna zatvorila svoj obchod  z oblečením pre kojencov a odišla do dôchodku.
                 

                 " Teraz by som sa mohla venovať naplneniu mojich snov  a največším z nich bolo vždy cestovanie". Takže v tom istom veku, ked sa jej mnohé kamarátky zapisovali na zájazdy pre dôchodcov, Anna začala neuveritelné dobrodružstvo, počas ktorého uz prešla pol sveta.   Najprv začala prechádzať Americký kontinent, od Canady, po Chile a Argentínu, čo jej trvalo skoro osem mesiacov. Potom sa vybrala na Nový Zéland, po prechode cez Europu a  Aziu a po návšteve Austrálie.   Ako som povedala, Anna bude čoskoro oslavovať 67 rokov, ale určite ich neoslávi doma z rodinou, ale v niektorom dalekom štáte Juznej Afriky.   Nebude to pre nu nič nové. Svoje 65 narodeniny oslávila v Cíne, a tie 64 ju zastihli na návšteve latinskej Ameriky.   Teraz jej už zostáva spoznať iba Afriku, no a na tom práve pracuje, kedže zaciatkom marca vyrazila z Valencie svojou dodávkou  do srdca čierneho kontinentu.   Obdivujem Annu a píšem o nej preto že, mám potrebu ukázať aj iný spôsob užívania  volného času na dôchodku, než ten nás tradičný, ktorý radšej ani nebudem opisovať. Žiaľ, väčšina dôchodcov čas iba Trávi a to v plnom zmysle slova  neužívajú si ho naplno, ako by si zaslúžili.    Nejedná sa iba o finančnú stránku, ako sa zvykne najčastejšie  argumentovať, pravý dôvod je nedostatok motivácie, keďže jeden z príznakov starnutia je odsudzovanie všetkého nového a doposiaľ nepoznaného. No a za týmto všetkým sa ukrýva iba jeden vinník Strach.   Strach zo seba samého, zo staroby a smrti, starobu ktorú zo sebou priniesol vek podvedome spájame zo zmenou a patrične sa preto každej zmene vyhýbame. Bez ohľadu na to, či je to zmena k lepšiemu, bez zváženia odsúdime akýkoľvek náznak niečoho nového, alebo odlišného, len aby nám to  nemohlo obohatiť a zmeniť náš stereotypný život.     Pretože, aj keď sa väčšina z nás neprestajne sťažuje na stereotyp, jeho strata nás privádza priam do zúfalstva.    Anna sa nad touto dilemou povzniesla.   Felicidades Anna. 

                 
                                        
                        
                        Zdieľať
                    

                    
                            
                                    
                                    Zdieľať na
                            
                             
                                    
                             
                    

                                                                                                                        
                            
                            Diskusia: (5)
                        
                    
                    
                        
                        Zvýšte karmu
                    
                 
             

                             
            
                     
                         Ďalšie články blogera 
                         
                                                             
                                    
                    	                                                                                        

                                                                        
                                    
                                        Jana Del Moral 
                                        
                                            Vycikaj sa do sprchy
                                        
                                    
                                 
                                                             
                                    
                    	                                                                                        

                                                                        
                                    
                                        Jana Del Moral 
                                        
                                            Deformované nohy a zlomené srdcia
                                        
                                    
                                 
                                                             
                                    
                    	                                                                                        

                                                                        
                                    
                                        Jana Del Moral 
                                        
                                            Horor na tanieri
                                        
                                    
                                 
                                                             
                                    
                    	                                                                                        

                                                                        
                                    
                                        Jana Del Moral 
                                        
                                            Španieli  šampióni
                                        
                                    
                                 
                                                             
                                    
                    	                                                                                        

                                                                        
                                    
                                        Jana Del Moral 
                                        
                                            Cervení to vyhrajú!!!
                                        
                                    
                                 
                                                     
                        
                            Ďalšie články blogera: Jana Del Moral
                        
                     
            
                     
                         Ďalšie články z rubriky nezaradené 
                         
                                                             
                                    
                                                            	                                                                                        

                                                                                                
                                    
                                        Pavel Ondrejmiška 
                                        
                                            Dnes farnosť Žitavany, pred tisíc rokmi kráľovská fara v Kňažiciach
                                        
                                    
                                 
                                                             
                                    
                                                            	                                                                                        

                                                                                                
                                    
                                        Milan Removčík 
                                        
                                            Zimný Šíp.
                                        
                                    
                                 
                                                             
                                    
                                                            	                                                                                        

                                                                                                
                                    
                                          esc-sr 
                                        
                                            Čas (ne)vhodných darčekov
                                        
                                    
                                 
                                                             
                                    
                                                            	                                                                                        

                                                                                                
                                    
                                        Michal Filek 
                                        
                                            Ako je ťažké darovať bezdomovcom polievku?
                                        
                                    
                                 
                                                             
                                    
                                                                                                                    

                                                                                                
                                    
                                        Anna Kováčová 
                                        
                                            Na sexi postavu, zdravie, energiu a šťastný život nepotrebujete tabletky!
                                        
                                    
                                 
                                                     
                        
                            Ďalšie články z rubriky nezaradené
                        
                     
                 
            
                    
 
     Hlavné správy 
         
        
                                

        
         
            ZAHRANIČIE
             Protestujúci v Maďarsku strácajú dych, Fidesz ich mätie novými návrhmi 
             Na demonštrácii proti Orbánovej vláde bolo v utorok už len niekoľko tisíc ľudí. 
         
     
         
        
                                

        
         
            AKTUALIZOVANÉ O 21:30
             Rubeľ pocítil pád na dno, Rusko je vo finančnej kríze 
             Dolár v utorok stál už takmer 80 rubľov, pod hladinu ho tlačia najmä nízke ceny ropy. 
         
     
         
        
                                

        
         
            AKTUALIZOVANÉ 21:50
             Taliban zabil v škole v Pakistane 132 detí 
             Pakistan až teraz poriadne zatlačil na islamistov. Odplatou je útok na deti vojakov. 
         
     
     

                 
     
    
     
        
 

     
                
                            
                    



         
            
                Jana Del Moral
            
         
        delmoral.blog.sme.sk (rss)
         
                                     
     
        Potrebujem lásku, vieru , mier a spravodlivost a bojím sa nenávisti, ignorancie, vojny a nemilosrdnosti.
        
     
     
                     
                             
             

     
        
            
                
                    Počet článkov
                    10
                
                
                    Celková karma
                    
                                                0.00
                    
                
                
                    Priemerná čítanosť
                    1097
                
            
        
     

             

             Zoznam rubrík 
            
             
                                     
                        
                            Súkromné
                        
                     
                                     
                        
                            Nezaradené
                        
                     
                             
         
    

                     
                        
                                                            
                     Obľúbené knihy 
                    
                     
                                                 
                                            El simio y el aprendiz de sushi, De Waal, F.B.M. (2002)
                                     
                                                                             
                                            La utopía Skinneriana, J.L.Prieto
                                     
                                                                             
                                            Anieli a démoni, Dan Brown
                                     
                                                                   
                     Čo práve počúvam 
                    
                     
                                                 
                                            Antonio Orozco, Renovatio
                                     
                                                                   
                     Obľúbené blogy 
                    
                     
                                                 
                                            biras.blog.sme.sk
                                     
                                                                             
                                            http://blogs.telecinco.es/loquemesaledelbolo/
                                     
                                                                   
                     Obľúbené stránky 
                    
                     
                                                 
                                            http://www.pesvnudzi.sk/psiky-na-adopciu
                                     
                            
             
         
            

           
     Pošlite odkaz blogerovi 
    
         
            
         

         
         
         
         

         
         
Odosielateľ (e-mail)
 
         
Text
 
         
             
Protispamová ochrana 
 
 Zle. Skúste znova. 
Opíšte slová z obrázku: Načítať iné slová 
 Get an image CAPTCHA 
 
 
         
                 
            
         
    
  


 

     






            
    
        
    
 

        
         
         
             Už ste čítali? 
         
         
 

 kultura.sme.sk 
 Margaréta sa spriahla s diablom, no mala Kristovu pravdu 
 
 

 www.sme.sk 
 Pútnické miesta The Beatles alebo ako ľudia kráčajú po zebre 
 
 

 cestovanie.sme.sk 
 Lovia za svitania a v hmle 
 
 

 www.sme.sk 
 Ako sa valila lavína slobody. Ako padal komunizmus 
 
 

 kultura.sme.sk 
 Žiadne retro, poriadny biznis. Takto sa lisuje platňa 
 
	   
 


        
         
            
         

     

    
     
 
 
	 

		Kontakty
		Predplatné
		Etický kódex
		Pomoc
		Mapa stránky
		
	 
 
 
	 
		 
			Widget
			RSS
			Newsletter
		 
		 
			Mobil
			Smartphone
			Kindle
			Televízor
		 
		 
			Facebook
			Twitter
			Google+
		 
	 
	 
		
	 
	 
		Ďalšie weby skupiny: Prihlásenie do Post.sk
		Új Szó Slovak Spectator
		Agentúrne správy 
		Vydavateľstvo
		Inzercia
		Osobné údaje
		Návštevnosť webu
		Predajnosť tlače
		Petit Academy
		SME v škole 		© Copyright 1997-2014 Petit Press, a.s. 
	 
 
 
 


          
        
            
            

        
    

    
    


    


    
        
        
        
        
        
        
        
            
            
        
        
        
        
         
                                
               





 

 



        

 




