
      
    
    

     
	 
	 
 SME.sk 
 Zľavy 
 Zoznámenie 
 Reality 
 Dovolenky 
 Pizza 
 Reštaurácie 
 Recenzie 
 Inzeráty 
 Naničmama 	 
Nákupy 
		 
 Filmy na DVD 
 Hodinky 
 Parfémy 
 SME knihy a DVD 
 Superhosting 
 Tlačiareň 
 Víno 
 Tvorba webov 
 Predplatné SME 
 ProSenior 		 
	 
	 
 
	 
 


    
    
        
        
         
          
         
    

    
      
         
            
             
     
        
        
     
    Blog.SME.sk
 

    

         
        
                 
     
         
            Sme.sk
         
         
            Domov
         
         
            Regióny
         
         
            Ekonomika
         
         
            Svet
         
         
            Komentáre
         
         
            Kultúra
         
         
            Šport
         
         
            TV
         
         
            Auto
         
         
            Tech
         
         
            Poradňa
         
         
            Žena
         
         
            Bývanie
         
         
            Zdravie
         
         
            Blog
         
     
 

         
            
     
                                                         Politika 
                                                                                     Spoločnosť 
                                                                                     Cestovanie 
                                                                                     Ekonomika 
                                                                                     Fotografie 
                                                                                     Jedlo 
                                                                                     Kultúra 
                                                                                             
Ďalšie
                             
                                                                                         Lifestyle 
                                                                                                                                                                             Médiá 
                                                                                                                                                                             Nezaradené 
                                                                                                                                                                             Súkromné 
                                                                                                                                                                             Šport 
                                                                                                                                                                             Veda a technika 
                                                                                                                                                                             Zábava 
                                                                                                                                                                             Poézia 
                                                                                                                                                                             Próza 
                                                                                                                                                                             Kódex blogera 
                                                                                 
                         
                                                 
            Blogeri
         
     


            

    
    Prihlásiť sa


    
    Založte si blog



    
    Odhlásiť sa


    
    




         

        
        
         
            
         
         
                
     
                 
            SME.sk &gt;
            Blog.SME.sk &gt;
                            Jozef Drahovský
                                        &gt;
                Doprava
                     
                 Smerovanie, otáčanie, inkasovanie 

        
            
                                    7.4.2010
            o
            11:55
                        (upravené
                10.4.2010
                o
                21:42)
                        |
            Karma článku:
                13.36
            |
            Prečítané 
            3689-krát
                    
         
     
         
             

                 
                    Zrejme každý vodič dostal nejakú pokutu. Občas sa to pritrafí keď v neznámom prostredí počúvate GPS navigáciu, ale pritrafiť sa vám to môže aj keď poslúchate len dopravné značenie, tak ako v Bratislave.
                 

                   Obr. 1. Smerovanie. Ak idete prejdete cez most Lafranconi smerom od križovatky z D1 a potrebujete ísť do centra, tak dopravné značenie navedie na Botanickú ulicu.       Obr. 2. Otáčanie. Na Botanickej ulici sa otočíte do protismeru ako vám to odporúča navigácia GPS.       Obr. 3. Inkasovaniea. Nakoniec vás za uvedený postup zinkasuje polícia. Ktorá tam striehne veľmi často a inkasuje najmä cudzincov, lebo domáci to už poznajú. Polícia pokutuje za otáčanie sa na riadenej križovatke, čo znamená, že križovatka bola riadená semefórom..       Obr. 4. Tato naviguje Google (7.4.2010) a aj všetky navigačne GPS zariadenia, ktoré som testoval.           Obr. 5. Ak neveríte vyskúšajte si to online Zväčšiť mapu.      Zrejme každému sa natíska otázka, prečo je to tak, že navigačné prístroje odporúčajú otáčanie sa kde je to zakázané. Odpoveď je jednoznačná. Prv uvedená križovatka bola bez semaforov a otáčanie tam nebolo zakázané, preto aj smerovanie na výjazde z diaľnice bolo v poriadku a aj navigačné prístroje navigovali správne.   Lenže došlo k rekonštrukcii križovatky, nainštalovali sa semafory a tým pádom došlo k zákazu otáčania. Ihneď sa uvedené miesto stalo obľúbené štátnou aj mestskou políciou, lebo výber pokút je tam istý. Síce niekoľko dní tam bolo namaľované vodorovné dopravné značenie umožňujúce otáčanie, ale zrejme sa to niekomu nepáčilo, že nemohol inkasovať, alebo to bolo namaľované omylom, tak ho zrušili.   Podľa mňa by tam otáčanie mohlo byť dovolené bez obmedzenia dopravy alebo predĺženiu času taktov svetiel. Stačí keď otáčanie bude dovolené pri odbočení vľavo. Vtedy je dovolené odbočiť aj od Botanickej záhrady vpravo, ale našťastie pokračujú štyri i jazdne pruhy, do ktorých sa vozidlá z dvoch jazdných pruhov bezpečne vojdú.   V každom prípade stav, ktorý je, je nezodpovednosť a poukazuje na zákonný chaos pri správe cestnej infraštruktúry:     Policajti si povedia: My dodržujeme zákon, keď vodič poruší niektoré prikázanie tak pokutujeme.   Správca komunikácie na Botanickej si povie: Ja spravujem Botanickú a mňa nezaujímajú nejaké smerovacie tabule pri výjazde z diaľnice.   Zodpovedný za dopravné značenie pri smerovaní z diaľnice povie: Veď mne nič nebolo oznámené, že smerovanie do centra by malo ísť inam a tak nemám dôvod meniť ho.   Tvorca GPS máp si nič nepovie, len si myslí: No hádam v tej Bratislave nie sú dementi, že spravia zmeny v križovatke a dopravné značenie nechajú niekoľko rokov po starom.     Čo by mohlo tejto situácie vzájomnej nekompetentnosti pomôcť? Je to Národný systém dopravných informácii (NSDI), kde by počítač mohol analyzoval smerovanie dopravy a na základe znalosti dopravného značenia. Takéto chyby mohol odhalil ihneď pri návrhu zmeny križovatky. Len nie je isté, či uvedený systém takúto funkcionalitu bude mať.   Záver:  Ako výstižnejšie pomenovať tri fotografie, ktoré som nazval: smerovanie, otáčanie, inkasovanie? 

                 
                                        
                        
                        Zdieľať
                    

                    
                            
                                    
                                    Zdieľať na
                            
                             
                                    
                             
                    

                                                                                                                        
                            
                            Diskusia: (48)
                        
                    
                    
                        
                        Zvýšte karmu
                    
                 
             

                             
            
                     
                         Ďalšie články blogera 
                         
                                                             
                                    
                    	                                                                                        

                                                                        
                                    
                                        Jozef Drahovský 
                                        
                                            Zneužívanie dopravného značenia a podnet na prokuratúru
                                        
                                    
                                 
                                                             
                                    
                    	                                                                                        

                                                                        
                                    
                                        Jozef Drahovský 
                                        
                                            Akou rýchlosťou sa smie a je vhodné ísť v danom mieste?
                                        
                                    
                                 
                                                             
                                    
                    	                                                                                        

                                                                        
                                    
                                        Jozef Drahovský 
                                        
                                            Poznáte dopravné značky súvisiace s parkovaním?
                                        
                                    
                                 
                                                             
                                    
                    	                                                                                        

                                                                        
                                    
                                        Jozef Drahovský 
                                        
                                            Darwinova cena za súkromné dopravné značenie
                                        
                                    
                                 
                                                             
                                    
                    	                                                                                        

                                                                        
                                    
                                        Jozef Drahovský 
                                        
                                            Aký vek a aké oprávnenie je potrebné na motorku?
                                        
                                    
                                 
                                                     
                        
                            Ďalšie články blogera: Jozef Drahovský
                        
                     
            
                     
                         Ďalšie články z rubriky cestovanie 
                         
                                                             
                                    
                                                                                                                    

                                                                                                
                                    
                                        Miroslav Lisinovič 
                                        
                                            Horná brána v Modre
                                        
                                    
                                 
                                                             
                                    
                                                                                                                    

                                                                                                
                                    
                                        Martina Rúčková 
                                        
                                            Z Európy na Kaukaz: Çanakkale a bájna Trója
                                        
                                    
                                 
                                                             
                                    
                                                            	                                                                                        

                                                                                                
                                    
                                        Andrea Grešová 
                                        
                                            To je moje Rumunsko
                                        
                                    
                                 
                                                             
                                    
                                                                                                                    

                                                                                                
                                    
                                        Ján Serbák 
                                        
                                            Pamätník čs. armády s vojnovým cintorínom na Dukle
                                        
                                    
                                 
                                                             
                                    
                                                            	                                                                                        

                                                                                                
                                    
                                        Peter Kover 
                                        
                                            22 krajín (miest), ktoré sa naozaj oplatí vidieť
                                        
                                    
                                 
                                                     
                        
                            Ďalšie články z rubriky cestovanie
                        
                     
                 
            
                    
 
     Hlavné správy 
         
        
                                

        
         
            AKTUALIZOVANÉ 16:00
             Rubeľ kolabuje, ruská vláda má mimoriadne rokovať 
             Jeden dolár stál v utorok poobede už viac ako 78 rubľov, razantné zvýšenie úrokov nepomohlo. 
         
     
         
        
                                

        
         
            ZAHRANIČIE
             Taliban zabil v škole v Pakistane vyše sto ľudí, väčšinou deti 
             Militanti vtrhli do vojenskej školy v policajných rovnošatách. 
         
     
         
        
                                

        
         
            KOMENTARE.SME.SK
             Cynická obluda: Medzičasom na opustenom ostrove 
             Stroskotanci majú veľké šťastie, že sú dvaja. Lacné vtipy na úrovni ich autora. 
         
     
     

                 
     
    
     
        
 

     
                
                            
                    



         
            
                Jozef Drahovský
            
         
        drahovsky.blog.sme.sk (rss)
         
                        VIP
                             
     
        Pracuje v oblasti informačných technológií a elektroniky.  Rád jazdí autom a venuje sa analýzam v doprave, najmä z pohľadu plynulosti a bezpečnosti.
  
Facebook
  
  
        
     
     
                     
                             
             

     
        
            
                
                    Počet článkov
                    1036
                
                
                    Celková karma
                    
                                                8.45
                    
                
                
                    Priemerná čítanosť
                    5398
                
            
        
     

             

             Zoznam rubrík 
            
             
                                     
                        
                            Doprava
                        
                     
                                     
                        
                            Rôzne
                        
                     
                                     
                        
                            Zoznam článkov
                        
                     
                             
         
    

                     
                        
                                                            
                     Obľúbené blogy 
                    
                     
                                                 
                                            blog.sme.sk/*
                                     
                                                                             
                                            spravodaj.madaj.net
                                     
                                                                             
                                            4m.pilnik.sk
                                     
                                                                   
                     Obľúbené stránky 
                    
                     
                                                 
                                            JASPI
                                     
                                                                             
                                            profivodic.sk
                                     
                                                                             
                                            Pripomienkové konanie
                                     
                                                                             
                                            GeoInformatika.sk
                                     
                                                                             
                                            OpenStreetMap
                                     
                                                                             
                                            osel.cz
                                     
                            
             
         
            

           
     Pošlite odkaz blogerovi 
    
         
            
         

         
         
         
         

         
         
Odosielateľ (e-mail)
 
         
Text
 
         
             
Protispamová ochrana 
 
 Zle. Skúste znova. 
Opíšte slová z obrázku: Načítať iné slová 
 Get an image CAPTCHA 
 
 
         
                 
            
         
    
  


 

     






            
    
        
    
 

        
         
         
             Už ste čítali? 
         
         
 

 kultura.sme.sk 
 Margaréta sa spriahla s diablom, no mala Kristovu pravdu 
 
 

 www.sme.sk 
 Pútnické miesta The Beatles alebo ako ľudia kráčajú po zebre 
 
 

 cestovanie.sme.sk 
 Lovia za svitania a v hmle 
 
 

 www.sme.sk 
 Ako sa valila lavína slobody. Ako padal komunizmus 
 
 

 kultura.sme.sk 
 Žiadne retro, poriadny biznis. Takto sa lisuje platňa 
 
	   
 


        
         
            
         

     

    
     
 
 
	 

		Kontakty
		Predplatné
		Etický kódex
		Pomoc
		Mapa stránky
		
	 
 
 
	 
		 
			Widget
			RSS
			Newsletter
		 
		 
			Mobil
			Smartphone
			Kindle
			Televízor
		 
		 
			Facebook
			Twitter
			Google+
		 
	 
	 
		
	 
	 
		Ďalšie weby skupiny: Prihlásenie do Post.sk
		Új Szó Slovak Spectator
		Agentúrne správy 
		Vydavateľstvo
		Inzercia
		Osobné údaje
		Návštevnosť webu
		Predajnosť tlače
		Petit Academy
		SME v škole 		© Copyright 1997-2014 Petit Press, a.s. 
	 
 
 
 


          
        
            
            

        
    

    
    


    


    
        
        
        
        
        
        
        
            
            
        
        
        
        
         
                                
               





 

 



        

 




