URL: http://mp3.zol.com.cn/2005/0829/198398.shtml



<h>竟全是大牌！本周MP3“沤怠奔鄹癖

   <h>CNET中国·ZOL 【源础 作者：中关村在线 斑马线 
2005年08月29日 06:48



  <h> 1．三星 T8　256MB　约郏1999元　现价：1730元


                         <p>          YP-T8

     
<p>YP-T8支持MPEG4电影文件播放，拥有1.8英寸26万色超大TFT彩色显示屏，可
   
欣赏电影/MTV等视频文件，横向播放。YP-T8还融入了独特的三维动作感应游戏
   
δ埽采用3维加速度感应器，进行音乐、动作、游戏相结合的动作感应游戏（Mo
   tion
   
Game）。无需按键，只用手和身体的摆动，就可尽情享受最新形态的游戏。

    <p> YP-T8具有USB
   
Host功能，即使没有手提电脑，也可直接与具有USB功能的产品传输各种数据文
   
，支持USB2.0功能。另外，YP-T8还支持TEXT文本阅读功能，可阅读诗歌、小说
   
、歌词等文本文件，内置的充电锂电池可通过三星提供的原
   
装充电器或USB线直接与PC连接进行充电，可连续播放20小时。

<h>  2．iPod　20GB　约郏2050元　现价：2030元


                         <p>           iPod

   
　　<p>iPod(第四代)采用的是220×176像素的灰度LCD屏，这在现在MP3播放器彩屏
   
化的整体趋势中未免显得有些过时，但除此以外，它的功能表现并没有什么可指
   摘的，支持MP3、AAC、WAV、Apple Lossless 和
   
Audible等音频格式，具有20种EQ音效模式，iPod走的就是这样一条时尚简单路
   
撸而且这种风格正在受到越来越多人的认可。其体积大小为104.1×60.9×14.5
   mm，重量为176g。

   <h>3．BenQ　JoyBee　220　256MB　

   　<h>　约郏1699元　现价：999元


                            <p> BenQ　JoyBee　220

     
<p>明基Joybee220机身简洁，而且六万五千色的彩屏占去了大半，非常显眼，
   
挥谟曳骄褪浅＜的五维操控杆。配合独特的音响底座，更显气派！功能上，支
   
諱P3、WMA、WAV等音乐格式播放，支持多达七种EQ音效；内建数字录音功能可使
   
用内建麦克风或FM收音机设定预约录音，可选择录音及播放之声音品质，还可以
   
作为语言学习机和图片浏览器甚至是当作时钟或旅行闹钟使用；采用 
BenQ
   “Sound Studio SuiteTM“
   
音效调校技术使音乐层次更丰富、更立体；采用内置锂电池供电，可选购Mini立
   体声音箱底座2.1声道。

<h>  4．iAudio　U2　128MB　约郏830元　现价：700元

   　　　　<h>　G3　128MB　约郏760元　现价：650元

   　　　　<h>　iAudio 5　128MB约郏850元 现价：700元


                               <p>      U2

   
　　<p>U2系列采用超紧凑的设计，配备四行超宽液晶显示屏，内置可充电锂电池，
   
充电2小时可支持连续播放近20小时。它支持USB2.0高速下载、支持高清晰声音
   
贾疲可收听和录制调频广播节目，并完全支持移动式磁盘。


                                  <p>   G3

   
　<p>　G3系列是首款连续播放时间长达50小时（一节AA电池）的MP3随身听。方便
   牡己焦δ芎投态播放列表、高清晰声音录制、收录、FM、
   
调频广播，此外还有音乐闹铃、FM闹铃和FM定时录制等功能，当然也可以作为US
   B 
2.0移动磁盘使用；同时它的价格是三款机器中最低的。

                     竟全是大牌！本周MP3“怒降”价格表
                                  iAudio 5

   　<p>　iAudio
   
5系列是COWON最新的一款闪存式MP3随身听，此次迅速向中国市场推出，也表明
   
似渚鲂摹Ｋ是业内首款采用1000色背光超大宽屏液晶的MP3，支持BBE，Mach3Ba
   ss/MP、3D Surround等众多高级音效设置，支持MP/ MP2/ WMA/ ASF/
   WAV/OGG等多种编码音频格式，信噪比达到了超高的95dB。


