URL: http://news.bbc.co.uk/hi/chinese/news/newsid_1129000/11298471.stm

<h>      巴以谈判仍未取得重大进展

                                                      <p> 
开枪事件大幅度减少

                       
<p>以色列和巴勒斯坦的谈判代表，在埃及旅游胜地塔巴已经
                                                   
进行了为期一天的谈判。

   
<p>双方都认为这次谈判是自巴以去年九月底爆发流血冲突以来，双方最严肃和最有
                                                         
诚意的一次谈判。

                                            
<p>巴揽擞锌赡茉谕硇┦焙虿渭犹概
              
<p>但是同时，巴以双方对是否能在以色列大选前达成幸槌直Ａ籼度。

                  
<p>预计这次谈判将持续10天。巴揽擞锌赡茉谕硇┦焙虿渭犹概小

   
<p>根据以色列方面发表的声明，本次谈判设定了两个工作委员会，一个专门负责耶
               
路撒冷问题和边界以及保安问题，另一个针对巴勒斯坦难民问题。

   
<p>就在巴以双方恢复谈判时，以色列军方表示，在西岸地区的开枪事件大幅减少。

   
<p>不过加沙地带今天早晨有一枚炸弹爆炸，一名以色列士兵受伤，这无疑给谈判蒙
                                                             
上一层阴影。

               
<p>另一个主要进展是，以色列放缓对巴勒斯坦人旅行的限制，并已经
                                    
允许16000名巴勒斯坦人前往以色列工作。

                                                          <h> 
巴以低调看和谈

   
<p>在加沙地带暴力事件不断发生，巴以双方对和平谈判的悲观看法弥漫的时候，这
                                               
次和平磋商的意义非常重大。

   
<p>巴以双方均低调谈论这次会谈的前景。在离以色列大选仅有两周的时候，作为以
   
色列反对党的立库德党右翼领袖阿里埃勒·沙龙说，他不会受这次谈判达成的任
                                                         
何栽蛐议的约束。

   
<p>而巴勒斯坦谈判代表赛义卜·埃雷肯特说，“我们将尽自己的最大努力，但我不
                             
想对双方在所有问题上存在的巨大差距打折扣。”

                                                           
<p>以色列总理巴拉
         
克说，要想在离大选非常近的这段时间内填补这些差距的机会“不多”。

                                                            <h>     
重大保留

       
<p>针对美国提出的在加沙地带建立巴勒斯坦国的建议，以色列和巴勒斯坦均原
              
则上接受将大部分西岸和耶路撒冷阿啦人居住地包括在内的计划。

                                       
<p>然而，巴以双方仍有重大的保留意见。

        
<p>以色列政府仍然不愿意让巴勒斯坦人控制全部的耶路撒冷阿啦人居住区。

   
<p>以色列还否决了让数百万巴勒斯坦人及其后代返回家园的计划，这些地方现在已
                                                     
成为以色列的一部分。

    
<p>BBC驻耶路撒冷记者安德伤担双方并未期望在这些马浪墒降暮吞钢写锍勺詈笮
                                                                     议。

                  
<p>然而，人们一般认为，巴以双方可能就某些问题达成栽蛞恢隆

                                                            <p>   
目前，巴拉
   
克总统在民意测验结果中落后于反对党。分析家认为他在下届大选中能否胜出与
                                             
这次和谈的进展情况非常有关。

                                                          <h>   
“停止合作”

   
<p>以色列曾在周末表示要停止与由美国率领的、调查近期中东暴力冲突的国际小组
                                                                 
的合作。

                     
<p>这个调查小组参观了巴以双方争议激烈的耶路撒冷清真寺。

    
<p>以色列方面说，调查小组参观前，没有通知以色列，这违反了早先达成的幸椤

   
<p>以色列外交部发言人说，以色列与国际调查小组将如何合作，取决于以色列和新
                                                 
上任的布什政府谈判结果。

                             
<p>国际调查小组是由美国前任参议员米歇尔率领的。


