URL: http://www.liuxue.net/news/urls/news/liuxue_news_21118.shtml
<h>     留学法国相关程序

<h>2004年11月11日　  来自：留学网

  <h> 語言W校申粘绦:

       <p>申辗語言W校原
   
t上o特定l件限制且全法有近150所語言W校分布於各大城市可供選瘛Ｔ情可⒖
   'W练ㄕZ' 部分。
       <h>法大W申粘绦:

   
<p>法和台骋挥馱年制，分上、下蒞期。上W期氖月到隔年一月，下W期自二月至六
   月。

   
<p>法的大W共分三階段，W生每完成一階段即可獲噪A段文{，各階段申辗绞郊發件
   鳟。郧槿缦:

   
<p>申盏谝浑A段(D.E.U.G.)的W生有特e的申粘绦颉Ｕ於年底開始先與法在台f吕M
   
蛑苯由暇W索取入W赫拢填妥赫滤突胤在台f蓋章K输⒓用磕甓月份固定舉行
   姆ㄕZy (註: 唯已獲得法語鑑定考資格DALF的同W可免考栽) 
;
   
入W赫潞驼Z言y越Y果被送到W生所選的W校，W生如被淙。於四、五月份收到
   校入W通知以便申崭胺ㄋ需之W生鹤C。

   
<p>申盏诙階段(Licence/Ma顃rise)的r間槊磕甓月到六月間，W生可自向預申罩
   
骔索取竺赫拢渫缀章上列出之所砦募後直接e寄回大W核，校方竭^Wv鑑定理後
   e通知申杖耸欠裥杓涌挤ㄎ摹⒚嬖或直接淙　

   
<p>申盏谌階段(D.E.A./Doctorat)必硐日抑抚教授，同r寄人資料至欲申盏腤校核
   Ｔ颊n程热菡查 EduFrance
   
狙u的"課程分钅夸"。這些教育C都竭^ｉT篩選，轫自世界各的W生提供最好的教
   
W品質，是有意赴法深造同W的最佳⒖肌Ｈ绻欲申辗大W，最好能在前一年的秋
   季做Q定K著手输， 法教育中心 ( EduFrance-Taipei)
   ⑷力f助同W辦理相關事宜。
       
<p>另外，關於你的法語程度申杖宋目芖相關科系硗ㄟ^法語鑑定考
   DELF、DALF。申占夹g及诵gW校者t不硬性叶āＩ暾 
以英語授課者最好另外加考
   TOELF 及
   
GMAT。法的高等教育CK]有設定法語的最低要求程度。W生所選竦目葡叠判嗥湔Z
   
言程度能否達到钥葡档囊求。關於法語鑑定考钥稍谔ǔ法文化f罂即藋颉
   　  <h>申 碩士所砦募：
       <l>1. 高中文{ (註 : 晕膡是必要文件 
，即便已獲大W文{也需附上)
       <l>2. 大W文{
       <l>3. 大W成课
       <l>4. 自( 說明申赵科系砸蚣案胺留W之覥 )
       <l>5. 簐 ( W絭、工作津等 )
       <l>6. 教授推薦函 2-3 封
       <l>7. 出生證明 (註 : 晕募毡胤譯成法文)
       <l>8. 杉照片3-4

   
<p>註1：如欲申辗大W研究所，以法語授課之課程，所有資料(推薦函除外)皆碜g
   法文K竭^法在台f公証。
               <p>法在台f地址︰(106) 台北市敦化北路205淌
               <p>法在台f朐：(02) 35 18 51 51
      <p>註2：欲申彰佬g作或設宇W科必砹硗馐渥髌芳。
      <h>申 博士班所砦募：
     <l> 1. 高中文{ (註 : 晕膡是必要文件 
，即便已獲碩士文{也需附上)
      <l>2. 大W文{
      <l>3. 大W成课
     <l> 4. 碩士文{
     <l> 5. 碩士成课
      <l>6. 碩士瘴恼要
      <l>7. 博士研究
      <l>8. 自( 說明申赵科系砸蚣案胺留W之覥 )
      <l>9. 簐 ( W絭、工作津等 )
      <l>10. 教授推薦函 2-3 封
      <l>11. 出生證明 (註 : 晕募毡胤譯成法文)
      <l>12. 杉照片3-4

   
<p>註：除非接芍抚教授同意接受英文文件，所有資料(推薦函除外)皆碜g榉ㄎ腒竭^
   法在台f公証。
               <p>法在台f地址︰(106) 台北市敦化北路205淌
               <p>法在台f朐：(02) 35 18 51 51
   　<h> 法長期的W生鹤C:

   
<p>凡持台匙o照的W生到法留W都需申誛生鹤C。辦理W生鹤C需先獲得法校方的入W
   S可。辦理長期W生鹤C所砦募及注意事恚
        <l>1. 長期W生鹤C申毡砀褚环 
(罩练在台f索取︰台北市敦化北路205淌
   TEL:02-25 45 60 61)
       <l> 2. 杉近照一
        <l>3. 身分證正反面影本一份
        <l>4. 申杖寺膙表一份 ( 
W絭及工作津等；以英文或法文)
        <l>5. W校註宰C明影本一份 ( 
需六月以上，每週課程至少20小r)
        <l>6. 亓ψC明：以申杖嗣義僦 4270 
W元R票或銀行開立之存款證明
        <l>7. 護照正本 (效期必沓過六月)
        <l>8. 鹤C費約2000 NT
        <l>9. C票影本或游蛔C明
      <h>抵達法後辦妥的手續
      <p>辦理居留證;
      <p>被法各院校淙〉耐怿W生
   
取得鹤C抵達法後，必硗瓿蒞校和法地行政上的各碓]允掷m。
      
<p>外鳺生抵法後於鹤C效期认虍地的警察局辦理居留證(Carte 
de
   séjour)，(Carte de séjour)，
      <p>申誶硎湎铝形募：
        <l>1. 法入境許可證 ( 即VISA )
        <l>2. 護照 ( 
有效期限超出一年才可申招期一年之居留證 )
       <l> 3. 住宿證明( Certificat de domicile ) 或房租收 ( 
Quittance de
   loyer ) 可向宿舍或房|要求開立
       <l> 4. W生證 ( Carte d'étudiant ) 或在W證明 ( Certificat de
   scolarité )
       <l> 5. 健康保險證明 ( Assurance maladie )
       <l> 6. 身體z查證明 ( Examen médicale )
       <l> 7. 法文出生證明 ( Certificat de naissance )
        <l>8. 亓ψC明 ( 法銀行存款證明，K註明由外鳵款入賬 
)
        <l>9. 照片3
        <l>10. 有地址及貼妥回郵之信封一
       <p>住宿;
       <p>一般而言，W生可賃租大W宿舍、外租
   
公寓或申战哟家庭。宿舍房間每月房租約6000-10000台牛附人衛浴設渲小套
   房t約15000台拧
       
<p>另有其他的住宿方法，可根人晋l件和就讀W校的地^而定。
     <p>  人保險;
       <p>原
   
t上，於法各院校註缘耐怿W生皆可加入法社保險體系，未超過28q同W更可享
   蟹鳺生保險惠。
       <p>社保險
       <p>法的社保障制度非常完善。

   
<p>法有一ｉT以大W生槟克的社保障制度。只碓谝凰閃生社保險C所核准的高等W
   
校註葬28q以下的外鳺生可享有醫全保。(缀跛有的大W都已被核准)。28q以上
   
的W生﹐若是註跃妥x一所未被社保險C核准的大W，t必恝加私人保險。
       <p>W生互助保險

   
<p>開W初期﹐在就讀的W校龋只能由五大W互助保險其中之一有嗵行辦理此肀ｋU。
       <p>這些互助保險﹐一年砑s 6000 NT
   
保費﹐得到的保障和社保險相同。例如，互助保險哐a治、醫恕⒆≡悍矫娴碾H
   費用和社保險之間的差額。

   
<p>互助保險呓o予意外民事厝伪ｋU(由第三者引起的)，意外事故保險和死亡保險。
       <p>其他人保險 (如: 汽鼙ｋU) 可在互助保險或私 
I保險公司辦理。


