URL: http://zh.wikipedia.org/wiki/Wikipedia:%E7%89%B9%E8%89%B2%E6%9D%A1%E7%9B%AE/%E5%AD%98%E6%A1%A3

   #Wikipedia (涓鎁96U87) copyright

Wikipedia:ü病/

春,本é

   < Wikipedia:ü病(猈ikipedia:共‘/)
   超: 吉, 

   耽喊ǖ共‘繝._サ共‘繝Wikipedia:共‘Wikipedia:‘ā‘._

   法:肮肪阿._埠‘肪._『‘._Wikipedia:共‘/._

   :2004矗 - 2005矗

[] 2006

   錟88╃U89╂郸瓒崇U90U83淇变筓90閁83 

   ┅Τ报奔,奔翱）│,奔俺报._惊18’綘,_7〕蒋綘,_5〔綘3〔._化凯
   芳汞._┅慨臣疓-14._┅静エ渤醇¨,1985春(36)1989疮(96766).
   _è,渤⒈辑牪娇5._
     _________________________________________________________________

   錟9B炬U8BU89鏤9CU9F缁U9F娌绘U97舵U9CU9F鏤9AU84缃U97椹甯U9D錟9B,117骞
   村乏錟8F 

   (27--476),０,じ焙Е,ぃ兜,函倍,犊._蒋エエ酣话._牽邯Φ
   ,邯._ǘ净,饯痘抱锭590彻,ぃ钵蕉._
     _________________________________________________________________

   X Window logo 

   X
   Window化ゾ咕夯,1984椿ジ⒍,UNIX,_籙NIX,_OpenVMS淮┄シ动憾,シ逗槐ňⅷ
   发,じ穿ò⒉董槐,揪＇槐浇纯╔._疮,ゥ:GNOMEKDE蒋X Window缓汉._
     _________________________________________________________________

   缇U8E錟9B藉U9B戒糢9A灞 

   蒋疾Ρ抖._籂辈抖._浆Э,看,牋咖,エ骏骏._督嚎ウ购._1776幢被⒑,
   13埃绩<+ǎ>+,ǚ宝ò,1783幢酱,ぐ._ぞ,浇,37笭ク,50,1Υ购,ゥ卜
   ._370彻(950彻),/Ф._3,海艾._ì¨艾¨碍博,Θ犯捶凹,函Ё._
     _________________________________________________________________

   1900骞寸U9AU84鏤9AU87浠U81鎁9B搁U99 

   ,７害._饱’,喀奔;恫开拱,ィ薄._¨,海,波._ü,翱¨膊,┎._1997
   椿护,箍ú供,环２._
     _________________________________________________________________

   鏤89瑰綰81錟80间窾8E鏤89瑰綰81錟90U91閁87U8F 

   唉,咖⒐(),豆ē._エあ┚昂豆()._
   1壕._⒏ケ豆脊ò._购疮腹脊._胆唉òΕě--咖０,,敞咖淡晶._<'>'翻
   eigen._1904疮龚卡,穿スǜ晨ē._eigen缓"","...",""""--汗脊耿._
     _________________________________________________________________

   浜ㄥU88┓寰贩錟9CU9F榀鎁96-缇U85鏤89瑰U88U97錟85U8B 

   ī贩矾-,18641124--190199),,啊精,７杯倡,汉<'>'._箍舶【锭-
   贩,_〕斗⒑,ゥ笨,喊Η._泛┇,『船苟,_扯,_抄ず._东,_被狈睛
   ,笨ゴ发、逗┇._í饱,攻暗旦卜倍繁蛋;卡定倡,ǔ笨躬,ギ被ň辑缓,
   ,府,Ξ烦(Pierre Bonnard)憾７笨繁._
     _________________________________________________________________

   婢抽U96U80鏤89瑰U88ヨU8C鎁94垮U8DU80錟8DU80寰 

   郴护郴19991220ケ』こ罕,嘲._1583,ǔ『í犊,嘲病惊弧,〈500┙慷亢.
   _1887,俊<+’>+,_<+>+,:"杯「〕ガ嘲,』“"._1987,々＝<+’>+,Θ
   咖._椿护19991220エ,〕护._
     _________________________________________________________________

   浠U8E閁98挎尝缃U978錟8F风U9CU8B錟88扮U9AU84錟9C扮U90U83,1968骞12鎁9CU
   8824鎁97 (NASA) 

   竣8(Apollo
   8)竣…〗夯,Г弧氦堪芳,_け径汞伐槐径贩._竣8矾夯』皑,丢夯._竣8
   动5帆〗._19681221, 龚涵┌,洞20._ǔ丢è暗喘._‖瓲洞刀喊._
     _________________________________________________________________

   楣规按姘存U97U8F绠 

   幢┘,赋⒑环._幢Шゼ患喘┅(负,Ο々,_┎,_泛畅)._醇Ο敖,6._幢,
   ‘几,熬椿薄幢._幢骸垂,_倍._杭┒._穿腐,ń亥,ゴ._
     _________________________________________________________________

   錟93U88錟88┓S锋U9DU9C椴U81閁97 

   ┓S法浆化(1945),ē繝胺D矾,含唤(1945-1953)._负嚎奖,Ε,<'ǜ虎
   >'(The buck stops here!)<'北ゲ>'(If you can't stand the heat, get
   out of the kitchen.),春痘._富奖,,ɑЫ埃._定1952传径；,┊负翰奖._
     _________________________________________________________________

   杩U99骞U85錟86锋U88U98鎁97舵U9CU9F鏤9AU84娆ф床錟9C板U9B句窾8A U87娉
   浜U86鎁8EュU8FU97椹鎁87灏U94璁″U88U92鎁8F村U8A╃U9AU84錟9B藉._ 

   ’焦纯Ы穿,┖._ァ牰唤健炕番(George
   Marshall),：ァ浇、,公繁(William L. Clayton)环(George F.
   Kennan)._ァ19477／,洞喘4⒖处._ǖ,咖綘(Organisation for Economic
   Co-operation and
   Development)槐ソ,_,_劲穿130._ギЖ牋,＜穿俯(2006)1300._
     _________________________________________________________________

   姹U9F鎁88舵U99U82浠ｆU89U80鎁8FU8F绻鏤9AU84閁97U9C錟8EU9F涔U8B鎁88板U
   90U88鎁88板盪8F棰 

   隘ガ急％埃技按肮._）,栋冻ガ,菇‖单哎,抚ò贝,旱挨,エガАО._供,董
   淮盎ケ槐肮逗范П环斗购４叮亢┏皑哎._奔栋瓲笨隘ォ,イ矮胶<'憨碍>',ī,看
   碍īШ,范犯,按У._
     _________________________________________________________________

   Ubuntuアê籐inux,汉DebianGNOME._栋オ"Ubuntu",Т""._Ubuntuê
   藩,赋卡悲痘._Ubuntu阀兢,ǘス堪._KubuntuXubuntu疷buntu／船(deri
   vative projects),KDEXfce岸Ubuntu._ Edubuntu焊“,ΙǘΟ缚ì._
     _________________________________________________________________

   2006涓U96鏤95U8C鎁9D瀹U98鎁96规捣鎁8A 

   2006闯匠撼辰,200669コ79エ._豹32,64唇._ê江,Зě11,牰敖壕,З脊
   53,Η窢._,伐31〔._
     _________________________________________________________________

   褰U88绨цU85垮U82U91錟85U8B
   (澶х碪84鎁981890骞翠唬鏤9AU84錟9CU96鏤89U87) 

   Э(Spring Heeled
   Jack)背,辑：._┊悲1837,奔,Π簿┅疆,攻Ρ辑ù,1850矗188
   0矗鞍._定保被,浮侗1904,扯都._保辈韩,』建陡,牑舶妇　._
     _________________________________________________________________

   缃U97绾冲痉烽U87U8C  

   撤贩汞娇欢,_33粻┘(1967-1975),_40换(1981-1989)._ē,够－,_,_
   径,_,_但._饭í本豢25%,_è,う,氦贰,卡1981--1982触桨,1982锤._
   捣,胶""._,Е吹,勘倒捍._龚炕贡哗滑哗,焙唬._
     _________________________________________________________________

   绮ゅU89цU8A辨U97﹀父瑕U8B閁80 錟9EU8B 

   氮,川１,_？壕,钡,_,_埠,_健ⅷ._刀姜ü井._函郴,焙脖._矮,汉箍）奖购
   ,浚捍菇._导2006520ガ518订孩._
     _________________________________________________________________

   绗浜U8C浠ｅU8DU97瓒U8A錟9B藉U90U9B涓昏档鏤9CU9C鏤9AU84閁99靛U93錟87
   錟9CU9F鏤9AU84涓U9D瑜U9B鏤8EU89琛 

   蒋203闯111川昂蕉,浇(娇),┉娇,_靠ずЖ昂,,_,_,_ò酣._蒋Ν,狈〉2
   03捶导丁　._196179,骄ぁ？,嚎""._112,将；岛房,111喘._奖93,；._
     _________________________________________________________________

   棣U99娓涓閁8AU80澶у籙88鎁97ユU99 

   ()(BOCHK),”,ア靖,Л,ǒ300._12,2001101サ,200210キ
   {А)俯集._2003创,7630,2003春80._,〔〕换钡,ェ._,海
   ._冬腑ê┄,俊腑._
     _________________________________________________________________

   瀚閁81U8B鏤92 

   (1913--2006),_タ欢,北._颈キЦ,抱皑堪,净埃滑附,_え,_ǚ
   ⅱ._ùǚ糠户,ě涵,_舶垢キ,埃┛函埃粻,悲<'埃>'._1984224,嚎⒎
   牴＆ⅵ,礌’栋._20062,牰导及,93._
     _________________________________________________________________

   璐U9D濉U9E灏U94錟87芥U95扮U9AU84涓U80涓瀹U9E渚U8B:涓U80涓绱х环鏤9AU
   84榧U93閁9D㈠U9Cㄤ腑
   蹇U83錟8FU97錟88版U95插U87诲U90U8E鏤9AU84浜U8C閁98舵U8C錟8AㄦU8C錟9E
   U8B,錟85舵部錟8DU8A寰U84鎁96瑰U90U91鏤9AU84骞U85搴﹀氨鎁98涓U80涓璐U
   9D濉U9E灏U94錟87芥U95(鑅80U83鑅99U91妫璐U9F錟8F)._ 

   桨唉还桨话._桨牚４岸供18侗鲍唉豆挤┄冬警ǘ,斗唉矗._辜矾,,_讥
   唉Ч桨逗‘._1817,方唉定懂夯ó,』昂桨缓,亥ソ桨._
     _________________________________________________________________

   1895骞,鎁97ヨ籙8D閁80插U8F板U8CU97錟9FU8E鏤9AU84鎁83冲U83U8F錟9CU96._
   
   埃セ1895闯1945窗＋ガ,_,杭,海亥,_ィ,_ガ被ガ._ズ话,＋埃,_Д舶
   含,óΠ１哗３,隘咖._牶埃セ,堪,牥炕氨,牓播碍埃,āО哎虎Ψ._
   缉昂,付Π笨鞍６,_さ嘲._讥靠,1990矗,父动喊氦._
     _________________________________________________________________

   鑅81U96濂宠睻9E寰风U95錟83U8F 

   撤,_,┗._ū敬碍(1337-1453)苟饱,Λ._番匠,共报播,ě供砍,_背
   ,<'>',苟刀┒北罕._1429矗ク,Χ怠钡._冻1430川『,罕胶ゼ,北涧钉
   ク倡す,1431530エ毒._17部撼,320部._20幢韩购,反々拱─,145
   6春钩._1920516ケぃ._
     _________________________________________________________________

   1922骞,宸︽淳鎁96拌U81U9E瑷U98鑅80U85Kurt
   Hiller鏤99艰〃浜U86錟8FU8D灏U8D绗175姊U9D鏤9AU84绲U90閁9BU86鎁96U87绔
    ._妯U99椤U8C鏤9AU84缈昏鏤82"涓U96绱U80鎁81ヨ颈"._ 

   番175(Paragraph
   175)1871515,1994310ア._阀Ш邯,┈春袱ě._┄1890矗,З蒋""ê,
   ǔ胺骄换Г狗究._ⅳ175臣1898矗._1929,》净,_繁ⅷ坊èⅳ175._豆ǚ,虎
   发._波尽,川挤腑,闯1994传ⅳ._
     _________________________________________________________________

   鏤94ㄨU8CU83寰风U93﹁U80虫U96鎁96圭║8B妯℃U8BU9F鏤9AU84浜U8C姘уU8CU
   96纰虫癠94浣U93涓U8D錟90U8C娓╁害涓U8B娑插U8CU96杩U87绋U8B鏤9AU84p-V绛
   U89娓╃嚎 

   乏朝(饭),肮,钒│斗Τ(van der
   Waals,"",_"》Τ")1873春豆._汞钩豆,构ǐ场渐Т辅,タ唇鞍┃._
     _________________________________________________________________

   涓寰峰U90U88浣U9C 

   19111941,椒20._é,房,渤豢渐壕鞍,ì…イ._降犊鞍伐,洞ú函
   熬._1928,浇è…,,ガ供,坏及咕⒒ú楷._搐,将敖播埃シ,方耿
   ._郴1920矗1930矗,筏涧О椿ǚ._蕉1933闯箍1937喘ゼ,4炊;％供
   1936,饭桨＇北._,阀Л降ˉ单._
     _________________________________________________________________

   閁96U8B鎁99鎁95﹀窾82鎁94垮篣9C澶ф║93 

   Ο海,_Ο慨,Ο,牶卡Η郊._Ε丢动辑,グ胶<'>',_グΗ郡._牰栋,Λ
   汉,ウ孩岸鞍._Ζ┌,,_,_,_ē,Ν伐⒎狗 (Duiker Island)._
     _________________________________________________________________

   鑅8B辫开鎁8BU89风U94U98錟9C 

   豹钒(19171119-19841031),及功看,唉ɑ溅痉极._咕滑滑话,唉：
   炕憨._构⒑唉ǚ凹孩,耿牽弧工犊景._牰唉纯还付,_,害倍"唉"._
     _________________________________________________________________

   棣U96閁87U8C錟9FU8E瀹娈 

   蒋波ず,,豹蕉拱,ソ(1429-1879)._桨ō渐,经,_ぃガī,_贰._健ガサ
   ,1609,ī━刀í锭督,ざ蕉弓健._1879330カガ～顶ガ,Ж将翰晨,ǜ顶靠.
   _綘豆爱,ジ,妇,钒"渐"._
     _________________________________________________________________

   浜虹U9AU84蹇U83鑅84U8F 

   骇ごЖ,盎报,牰,波._._／胶皑52处龚┉(撤＜)._憾エ⒎牕
   ()._８菇吵,ゾ／ī┖皑._
     _________________________________________________________________

   婀U98娼榀鏤8F娈 

   ,牏<'>',,辑ū,._尽,_2,_1,_,_侗2,舰5015彻,胶283._函汗
   ,’け,_贩,_匠：,牶焊炯矮ü潮._供,朝<'>',杭キ：,竞<'О牗>'慨,._粳
   ,_2,孩76彻,箔海58,含4._Χ2005船痉70,2._,_博Υⅷ20ェ,藩え
   ._
     _________________________________________________________________

   錟95U9F寰锋︰9F  

   反1925闯199875クù,._1998搐舶唇,７亥,稩ATA汉HKGICAO矗糣HHH交げ.
   _反警ù,⒕ì,ùì._兜悍椿郊,,ù,焊._
     _________________________________________________________________

   寰U9E棣U99娓澶骞冲北灞遍 U82涓U8A淇鏤9E扮跺U9A錟88╀篣9E娓 

   ┋抖矾._奔幢,精缓З动,牠┋惫牕._┐,搏焙┋罕蔼,グ靠ぐ
   タ级牨房,Ο罕胺._Ν┋捍笨凡,化,骇._2004幢,┋⒑41.88彻._背,
   砍泊,常ǚ._矾К,_,_共扯._
     _________________________________________________________________

   澶惧U9Cㄩ玌98妯U93閁96U93鏤9AU84鑅89U8B鑅88洪U9DU92灞卞,鑅89U8B鑅88
   鏤82鸿U87哄U8CU97娣錟8F茬U99兼篣90錟9C颁筓8B涓U80 

   悍:爆,1709,炒牼晶牱,1884春._动げ,┄复,П暴安付._Α’,及Ц埠,1
   7患鞍车钡._1654椽<+Оぐ>+痘,17Ж杭鞍,ず赋,Α督._闯18,ケ辑夯俺,牚
   ,_⒑环,斧._长,胺波喘户,蓟２サ._,コ）⒑夯悍,犯看20盃,发Х._
     _________________________________________________________________

   錟9B句篣8C:閁99U88閁9C插U9C1998骞村U86瀛
   ｅゥ鎁9EU97錟8C瑰U85U8B杩U90錟8Aㄤ糢9A涓
   婕U94缁U8E鎁8E㈡U88U88錟90U8D鎁9B<+錟86U8D浼U9A璇哄凹璇>+ 

   (19761124--),骏,狈俺酣._1994川％龚翻浆(铂)狈艾,1995川狈唉涵
   (铂)狈盃,1998川キ翻浆(铂)狈艾,翰がソ繁钒._牗昂ō<+悲卑>+郴汉
   炊辈,搏蛋"按"._
     _________________________________________________________________

   1889骞9鎁9CU8821鎁97ヨ糢89鎁96<+Puck閁9BU9C瑾U8C>+鏤9AU84婕鏤95,鎁
   8FU8F杩扮U84℃砋95纰哄甎9A閁96U8B鑅86U9B鎁89U8B錟82U91錟85U8B韬錟88U8
   6._ 

   1888831グ119,极Ρ蕉ィ撼吵１._,～〕府,华渐._锭蒋,卜侗._扯…昂._
   动簿,恫父顶._牶,盎,_·,牽礌卜._被,_,_┓┓壕ēЬ._
     _________________________________________________________________

   錟94錟90楦U9F 

   (Confuciusornis,巩冻韩,),冻龚浇ō,朝僵动┉._ò铂超,定即,敖肮._
   亢涵._巩逗肮皑⒉ō,花1.251.1看Τ,晨功敖┆┉溅._播━牽è._
     _________________________________________________________________

   閁95挎睻99鏤81杞︾玌99 

   ,"",,皑._刊3000,牼鲍昂"尽"._堪"",艾缉籂侗ゴ,潮肠⒑病._舶,,汗
   蕉._楷,涵江ē._
     _________________________________________________________________

   涓U80錟80U8B榻U8A澶╁ぇ鑅81U96瑙U92鑅89茬U9AU84甯U83琚U8B鎁88插U81,寰
   U8C绔鎁9CU89鎁94鎁9E舵U92U90鑅91U97 

   脖〔,_〔,_,_,_,エ缓汉,ê,ゲ董ǘ._玻奔,癄翰东ɑ鲍,┖舶,捕
   化倍._潮簿朝,翱ā,牑薄;嘲豢ó,碑坎._〔19,_20,牶卡._20臣⒉,〃脖坎
   ._
     _________________________________________________________________

   鏤90U83錟9C轰稿縐83錟9C板甫 

   刊堡汗耿._栋＂繁及,宝蕉,巢,_凯,_唉,_春,_,_,_,_堪Δ栋._浚花ィ,
   ǎ３._慷纯,娇憨顶,犊京;府动洞;グ刊,蒋靠ǜ鞍._狗ゲ,龚ザЭ蕉,胶
   ,扯げ,奔俺З喘矮(Bodyline)._
     _________________________________________________________________

   浜鸿U84U91绾靛U88U87閁9D㈢U9AU84 哥U81錟85辨U8C鎁88U90錟83U8F 

   副┄副,窘īè,牤汉耽,朝ォ府,くザ┄._ê,抱憨涧沪シ._酣
   ,Ё牜副,骏ù,_Χê,Оè沪,_Δウ._
     _________________________________________________________________

   棣U99娓鏤89瑰U88ヨU8C鎁94垮U8DU80錟8DU80鎁97U97 

   换,浮焙,患199771ケ被こ罕,敬胺._1982捶,暴郡,1984淳<+卑>+,
   199771シ,罕蒋攻,,_ザ,_氨』翱._
     _________________________________________________________________

   鎁97ヨ籙8D鎁961941骞12鎁9CU8826鎁97ュU9CㄧU9AU87錟90U8E澶чU81U93閁8
   0茶U8C錟85ュU9FU8E姝
   ユU93U8D, U98錟85U88楱U8E棣鎁95绂鑅80U85鏤82洪U85U92浜U95閁9AU86._
   
   セ¨哎被:19411225ク＆,1945815ゥ孩._罕岛<'炊>'._单ǒ汉「;ǒ
   ,あ卡狈卡,氨Λ攻._,_耿,,闯ǒ侗._哎,备,ò肮._
     _________________________________________________________________

   濂ユU96浠U96閁9F︾籙93鎁9EU84 

   ジΟè付恭,抖ǜ定,ザ被炕,定籂シ盎Ж._ジΟ函┚,ǒ┉Ж『┋┚〉,巩抖
   垂О尽Шǜ抖._动腐ジΙ,Д甫犯动函ジΧ._200510,苯ù,ǚ、,牶
   ジΙ,_懂涵翱矗._

    | 垂病...
   オ"http://zh.wikipedia.org/wiki/Wikipedia:%E6%AF%8F%E5%91%A8%E7%89%B9%
   E8%89%B2%E6%9D%A1%E7%9B%AE/%E5%AD%98%E6%A1%A3"



     * 巩耽
     * ê
     * 
     * 
     * 
     * 
     * 埃
     * 

亥

     * 缓Ψ

吉

     * 
     * 竞坏
     * 盎
     * 垂
     * 共
     * 骸
     * 牚本



     * 
     * 
     * 
     * 
     * 耽
     * 滑
     * 



   ____________________ 杩U9B錟85  鎁90U9C绱

シ

     * 茎耽
     * 竞垂
     * 牰
     * 沟
     * 暗
     * 妇

   Powered by MediaWiki 
   Wikimedia Foundation 
     * 垂 20061225 01:00._
     * 龚GNU保腐()._
       Wikipedia春酣;(TM)汉._
     * 
     * 炒壕
     * ０
