

    
	
	

	 
		 
			
			
			
	  
 	 
 		"&gt;
 			 
 			 		
 			 
 				 				 
 				O nás
 					
 					 					 
 					 
 						
 					 
 					 
 					 						 
 							
	 	  				Stanovy SSNKF	 	  				
 						 
 						 						 
 							
	 	  				Rebríček hodnotenia športovcov SSNKF	 	  				
 						 
 						 						 
 							
	 	  				Disciplinárny poriadok SSNKF	 	  				
 						 
 						 						 
 							
	 	  				Filozófia	 	  				
 						 
 						 						 
 							
	 	  				Kluby SSNKF	 	  				
 						 
 						 						 
 							
	 	  				Registračný poriadok	 	  				
 						 
 						 						 
 							
	 	  				Súťažné pravidlá pre naturálnu Kulturistika a Fitnes	 	  				
 						 
 						 						 
 							
	 	  				Súťažný poriadok	 	  				
 						 
 						 						 
 							
	 	  				Zmeny v kategórii šport model fitness	 	  				
 						 
 						 					 
 					 
 					 						
 				 
 				  				 
 				Články
 					
 					 					 
 					 
 						
 					 
 					 
 					 						 
 							
	 	  				2009	 	  				
 						 
 						 						 
 							
	 	  				2010	 	  				
 						 
 						 						 
 							
	 	  				2011	 	  				
 						 
 						 						 
 							
	 	  				2012	 	  				
 						 
 						 						 
 							
	 	  				2013	 	  				
 						 
 						 						 
 							
	 	  				2014	 	  				
 						 
 						 						 
 							
	 	  				2015	 	  				
 						 
 						 					 
 					 
 					 						
 				 
 				  				 
 				Galéria
 					
 					
 						 						
 				 
 				  				 
 				Členstvo
 					
 					
 						 						
 				 
 				  				 
 				Ada SR
 					
 					 					 
 					 
 						
 					 
 					 
 					 						 
 							
	 	  				Doping v športe	 	  				
 						 
 						 						 
 							
	 	  				Informačné materiály	 	  				
 						 
 						 						 
 							
	 	  				Dopingová kontrola v športe	 	  				
 						 
 						 						 
 							
	 	  				Vrcholový športový výkon bez dopingu	 	  				
 						 
 						 						 
 							
	 	  				Zomrieť pre športové víťazstvo?	 	  				
 						 
 						 						 
 							
	 	  				Rok tolerancie neznačil odpúšťanie vážnych prehreškov	 	  				
 						 
 						 						 
 							
	 	  				Vlani dopingový rekord na Slovensku	 	  				
 						 
 						 						 
 							
	 	  				Zoznam zakázaných látok a metód 2009	 	  				
 						 
 						 						 
 							
	 	  				WADA 2009 Zoznam zakázaných látok	 	  				
 						 
 						 					 
 					 
 					 						
 				 
 				  				 
 				Partneri
 					
 					
 						 						
 				 
 				  				 
 				Kontakt
 					
 					
 						 						
 				 
 				  			 
 		 
 	 
 			 
				 
					 
						
							
						
							
  
 	  	
 	  		
 	  	
 	  	 
 	   	  		 
 	  			
 	  			 	  			
 	  				O nás
	 	  		
	 	  			 	  		
	 	  		
	 	  		 
	 	  			 	  		 
	 	  			 	  		 
	 	  			
	 	  				Stanovy SSNKF	 	  				
	 	  		 
	 	  			 	  		 
	 	  			
	 	  				Rebríček hodnotenia športovcov SSNKF	 	  				
	 	  		 
	 	  			 	  		 
	 	  			
	 	  				Disciplinárny poriadok SSNKF	 	  				
	 	  		 
	 	  			 	  		 
	 	  			
	 	  				Filozófia	 	  				
	 	  		 
	 	  			 	  		 
	 	  			
	 	  				Kluby SSNKF	 	  				
	 	  		 
	 	  			 	  		 
	 	  			
	 	  				Registračný poriadok	 	  				
	 	  		 
	 	  			 	  		 
	 	  			
	 	  				Súťažné pravidlá pre naturálnu Kulturistika a Fitnes	 	  				
	 	  		 
	 	  			 	  		 
	 	  			
	 	  				Súťažný poriadok	 	  				
	 	  		 
	 	  			 	  		 
	 	  			
	 	  				Zmeny v kategórii šport model fitness	 	  				
	 	  		 
	 	  			 	  		 
 	  			 	  			 
 	  			
 	  		 
 	  	 	 	  		 
 	  			
 	  			 	  			
 	  				Články
	 	  		
	 	  			 	  		
	 	  		
	 	  		 
	 	  			 	  		 
	 	  			 	  		 
	 	  			
	 	  				2009	 	  				
	 	  		 
	 	  			 	  		 
	 	  			
	 	  				2010	 	  				
	 	  		 
	 	  			 	  		 
	 	  			
	 	  				2011	 	  				
	 	  		 
	 	  			 	  		 
	 	  			
	 	  				2012	 	  				
	 	  		 
	 	  			 	  		 
	 	  			
	 	  				2013	 	  				
	 	  		 
	 	  			 	  		 
	 	  			
	 	  				2014	 	  				
	 	  		 
	 	  			 	  		 
	 	  			
	 	  				2015	 	  				
	 	  		 
	 	  			 	  		 
 	  			 	  			 
 	  			
 	  		 
 	  	 	 	  		 
 	  			
 	  				 	  			
	 	  				
	 	  					Galéria	 	  				
	 	  			
	 	  					 	  		
	 	  		
	 	  		 
	 	  		 	  			 
 	  			
 	  		 
 	  	 	 	  		 
 	  			
 	  				 	  			
	 	  				
	 	  					Členstvo	 	  				
	 	  			
	 	  					 	  		
	 	  		
	 	  		 
	 	  		 	  			 
 	  			
 	  		 
 	  	 	 	  		 
 	  			
 	  			 	  			
 	  				Ada SR
	 	  		
	 	  			 	  		
	 	  		
	 	  		 
	 	  			 	  		 
	 	  			 	  		 
	 	  			
	 	  				Doping v športe	 	  				
	 	  		 
	 	  			 	  		 
	 	  			
	 	  				Informačné materiály	 	  				
	 	  		 
	 	  			 	  		 
	 	  			
	 	  				Dopingová kontrola v športe	 	  				
	 	  		 
	 	  			 	  		 
	 	  			
	 	  				Vrcholový športový výkon bez dopingu	 	  				
	 	  		 
	 	  			 	  		 
	 	  			
	 	  				Zomrieť pre športové víťazstvo?	 	  				
	 	  		 
	 	  			 	  		 
	 	  			
	 	  				Rok tolerancie neznačil odpúšťanie vážnych prehreškov	 	  				
	 	  		 
	 	  			 	  		 
	 	  			
	 	  				Vlani dopingový rekord na Slovensku	 	  				
	 	  		 
	 	  			 	  		 
	 	  			
	 	  				Zoznam zakázaných látok a metód 2009	 	  				
	 	  		 
	 	  			 	  		 
	 	  			
	 	  				WADA 2009 Zoznam zakázaných látok	 	  				
	 	  		 
	 	  			 	  		 
 	  			 	  			 
 	  			
 	  		 
 	  	 	 	  		 
 	  			
 	  				 	  			
	 	  				
	 	  					Partneri	 	  				
	 	  			
	 	  					 	  		
	 	  		
	 	  		 
	 	  		 	  			 
 	  			
 	  		 
 	  	 	 	  		 
 	  			
 	  				 	  			
	 	  				
	 	  					Kontakt	 	  				
	 	  			
	 	  					 	  		
	 	  		
	 	  		 
	 	  		 	  			 
 	  			
 	  		 
 	  	 					 
					 
						
					 
					 
						 
							
							
								
								
								 Hľadaj 
								
									
								
															
				     
				   
				 
				
				 
					
						
						0
					
				 
				
 	  	 
 	   
					 
				 
			 
			

		  
	 
		 
		 
	 
 

 
    
       Aktualita 
       
          
             Domov 
             ssnkf.sk 
          
       
    
 
 
 	                 
                   
                      
                         
                            
                               
                                  
                                     2011 
                                     6 
                                     10 
                                  
                               
                               
                              	
	



	


	



	



	
                               
                            
                            
                               
                                 							
                                  
                                 	European championship uibbn 2011- dinant                                  
                                  
                                     News 
                                  
                                  
                                    Pridal ssnkf.sk
                                    0							
                                  
                               
                               
                              	 Reprezentačný tím SSNKF vo štvrotk vyrazil do Belgického mesta Dinant, kde sa dňa 11.06. 2011 jeho členovia v zložení: Tomáš Prostinák, Tomáš Kuchta, Dávid Gál, Roman Vadkerti, Miloš Kabát, Koloman Tóth zúčastnia Majstrovstiev Európy v naturálnej kulturistike-EUROPEAN CHAMPIONSHIPS UIBBN 2011. 
  Všetkým držíme palce a želáme veľa úspechov!                                
                                                          
                         
                                             
                     
                      
                     	
	 
		 
			
	
	
	 
	
		 
		
		 
			 
				
		 Partneti 
		 
				
			
		 
				
			
		 
				
			
		 
				
			
		 
				 
		
		 
		 
				 


                      
                   
                
                           
           	 
    
       
          
             
                
                    
                
             
          
       
    
 

		
                 
                     
                         
                             
                                 
                                     Dnes je 02.03.2015
 
                                     
                                         

                                        	15:44:30
                                         
                                         Základom každého tréningu je úspešné zorganizovanie času. 
                                     
                                 
                             
                             
                                 
                                     
                                         
                                             
                                                 
                                                    
                                                     
                                                 
                                                 
                                                      
                                                     27.10.2014 
                                                 
                                             
                                         
                                     
                                 
                             
                            
                             
                                 
                                     
                                         
                                                                                       
                                                
                                                	
                                                		
                                                	
                                                 
                                                Aone
                                             
                                                                                        
                                                
                                                	
                                                		
                                                	
                                                 
                                                Fit Plus
                                             
                                                                                        
                                                
                                                	
                                                		
                                                	
                                                 
                                                Biotechusa
                                             
                                                                                        
                                                
                                                	
                                                		
                                                	
                                                 
                                                Ada Slovakia
                                             
                                            
                                         
                                     
                                 
                              
                             
                                 
                                     
                                         Slovenská spoločnosť pre naturálnu kulturistiku a fitness | 2015 
                                         
                                        	 
                                     
                                 
                             
                         
                     
                    
                     
                    	                         
                             
                            	Developed by 
                            		Designdnt   | custom eshop solutions
                            		 Slovenská spoločnosť pre naturálnu kulturistiku a fitness | 2015                            		
                         
                     
                     
                 
             
         
                	
               
        
        
                
        
        
        
        
        
        
        
        
        
        
        
        
        
        
        
        
        
        
        
        
        
    
    

