

    
	
	

	 
		 
			
			
			
	  
 	 
 		"&gt;
 			 
 			 		
 			 
 				 				 
 				O nás
 					
 					 					 
 					 
 						
 					 
 					 
 					 						 
 							
	 	  				Stanovy SSNKF	 	  				
 						 
 						 						 
 							
	 	  				Rebríček hodnotenia športovcov SSNKF	 	  				
 						 
 						 						 
 							
	 	  				Disciplinárny poriadok SSNKF	 	  				
 						 
 						 						 
 							
	 	  				Filozófia	 	  				
 						 
 						 						 
 							
	 	  				Kluby SSNKF	 	  				
 						 
 						 						 
 							
	 	  				Registračný poriadok	 	  				
 						 
 						 						 
 							
	 	  				Súťažné pravidlá pre naturálnu Kulturistika a Fitnes	 	  				
 						 
 						 						 
 							
	 	  				Súťažný poriadok	 	  				
 						 
 						 						 
 							
	 	  				Zmeny v kategórii šport model fitness	 	  				
 						 
 						 					 
 					 
 					 						
 				 
 				  				 
 				Články
 					
 					 					 
 					 
 						
 					 
 					 
 					 						 
 							
	 	  				2009	 	  				
 						 
 						 						 
 							
	 	  				2010	 	  				
 						 
 						 						 
 							
	 	  				2011	 	  				
 						 
 						 						 
 							
	 	  				2012	 	  				
 						 
 						 						 
 							
	 	  				2013	 	  				
 						 
 						 						 
 							
	 	  				2014	 	  				
 						 
 						 						 
 							
	 	  				2015	 	  				
 						 
 						 					 
 					 
 					 						
 				 
 				  				 
 				Galéria
 					
 					
 						 						
 				 
 				  				 
 				Členstvo
 					
 					
 						 						
 				 
 				  				 
 				Ada SR
 					
 					 					 
 					 
 						
 					 
 					 
 					 						 
 							
	 	  				Doping v športe	 	  				
 						 
 						 						 
 							
	 	  				Informačné materiály	 	  				
 						 
 						 						 
 							
	 	  				Dopingová kontrola v športe	 	  				
 						 
 						 						 
 							
	 	  				Vrcholový športový výkon bez dopingu	 	  				
 						 
 						 						 
 							
	 	  				Zomrieť pre športové víťazstvo?	 	  				
 						 
 						 						 
 							
	 	  				Rok tolerancie neznačil odpúšťanie vážnych prehreškov	 	  				
 						 
 						 						 
 							
	 	  				Vlani dopingový rekord na Slovensku	 	  				
 						 
 						 						 
 							
	 	  				Zoznam zakázaných látok a metód 2009	 	  				
 						 
 						 						 
 							
	 	  				WADA 2009 Zoznam zakázaných látok	 	  				
 						 
 						 					 
 					 
 					 						
 				 
 				  				 
 				Partneri
 					
 					
 						 						
 				 
 				  				 
 				Kontakt
 					
 					
 						 						
 				 
 				  			 
 		 
 	 
 			 
				 
					 
						
							
						
							
  
 	  	
 	  		
 	  	
 	  	 
 	   	  		 
 	  			
 	  			 	  			
 	  				O nás
	 	  		
	 	  			 	  		
	 	  		
	 	  		 
	 	  			 	  		 
	 	  			 	  		 
	 	  			
	 	  				Stanovy SSNKF	 	  				
	 	  		 
	 	  			 	  		 
	 	  			
	 	  				Rebríček hodnotenia športovcov SSNKF	 	  				
	 	  		 
	 	  			 	  		 
	 	  			
	 	  				Disciplinárny poriadok SSNKF	 	  				
	 	  		 
	 	  			 	  		 
	 	  			
	 	  				Filozófia	 	  				
	 	  		 
	 	  			 	  		 
	 	  			
	 	  				Kluby SSNKF	 	  				
	 	  		 
	 	  			 	  		 
	 	  			
	 	  				Registračný poriadok	 	  				
	 	  		 
	 	  			 	  		 
	 	  			
	 	  				Súťažné pravidlá pre naturálnu Kulturistika a Fitnes	 	  				
	 	  		 
	 	  			 	  		 
	 	  			
	 	  				Súťažný poriadok	 	  				
	 	  		 
	 	  			 	  		 
	 	  			
	 	  				Zmeny v kategórii šport model fitness	 	  				
	 	  		 
	 	  			 	  		 
 	  			 	  			 
 	  			
 	  		 
 	  	 	 	  		 
 	  			
 	  			 	  			
 	  				Články
	 	  		
	 	  			 	  		
	 	  		
	 	  		 
	 	  			 	  		 
	 	  			 	  		 
	 	  			
	 	  				2009	 	  				
	 	  		 
	 	  			 	  		 
	 	  			
	 	  				2010	 	  				
	 	  		 
	 	  			 	  		 
	 	  			
	 	  				2011	 	  				
	 	  		 
	 	  			 	  		 
	 	  			
	 	  				2012	 	  				
	 	  		 
	 	  			 	  		 
	 	  			
	 	  				2013	 	  				
	 	  		 
	 	  			 	  		 
	 	  			
	 	  				2014	 	  				
	 	  		 
	 	  			 	  		 
	 	  			
	 	  				2015	 	  				
	 	  		 
	 	  			 	  		 
 	  			 	  			 
 	  			
 	  		 
 	  	 	 	  		 
 	  			
 	  				 	  			
	 	  				
	 	  					Galéria	 	  				
	 	  			
	 	  					 	  		
	 	  		
	 	  		 
	 	  		 	  			 
 	  			
 	  		 
 	  	 	 	  		 
 	  			
 	  				 	  			
	 	  				
	 	  					Členstvo	 	  				
	 	  			
	 	  					 	  		
	 	  		
	 	  		 
	 	  		 	  			 
 	  			
 	  		 
 	  	 	 	  		 
 	  			
 	  			 	  			
 	  				Ada SR
	 	  		
	 	  			 	  		
	 	  		
	 	  		 
	 	  			 	  		 
	 	  			 	  		 
	 	  			
	 	  				Doping v športe	 	  				
	 	  		 
	 	  			 	  		 
	 	  			
	 	  				Informačné materiály	 	  				
	 	  		 
	 	  			 	  		 
	 	  			
	 	  				Dopingová kontrola v športe	 	  				
	 	  		 
	 	  			 	  		 
	 	  			
	 	  				Vrcholový športový výkon bez dopingu	 	  				
	 	  		 
	 	  			 	  		 
	 	  			
	 	  				Zomrieť pre športové víťazstvo?	 	  				
	 	  		 
	 	  			 	  		 
	 	  			
	 	  				Rok tolerancie neznačil odpúšťanie vážnych prehreškov	 	  				
	 	  		 
	 	  			 	  		 
	 	  			
	 	  				Vlani dopingový rekord na Slovensku	 	  				
	 	  		 
	 	  			 	  		 
	 	  			
	 	  				Zoznam zakázaných látok a metód 2009	 	  				
	 	  		 
	 	  			 	  		 
	 	  			
	 	  				WADA 2009 Zoznam zakázaných látok	 	  				
	 	  		 
	 	  			 	  		 
 	  			 	  			 
 	  			
 	  		 
 	  	 	 	  		 
 	  			
 	  				 	  			
	 	  				
	 	  					Partneri	 	  				
	 	  			
	 	  					 	  		
	 	  		
	 	  		 
	 	  		 	  			 
 	  			
 	  		 
 	  	 	 	  		 
 	  			
 	  				 	  			
	 	  				
	 	  					Kontakt	 	  				
	 	  			
	 	  					 	  		
	 	  		
	 	  		 
	 	  		 	  			 
 	  			
 	  		 
 	  	 					 
					 
						
					 
					 
						 
							
							
								
								
								 Hľadaj 
								
									
								
															
				     
				   
				 
				
				 
					
						
						0
					
				 
				
 	  	 
 	   
					 
				 
			 
			

		  
	 
		 
		 
	 
 

 
    
       Aktualita 
       
          
             Domov 
             ssnkf.sk 
          
       
    
 
 
 	                 
                   
                      
                         
                            
                               
                                  
                                     2010 
                                     4 
                                     26 
                                  
                               
                               
                              	
	



	


	



	



	
                               
                            
                            
                               
                                 							
                                  
                                 	Ssnkf pripravuje premiérovu súťaž v detskom fitnes už na jeseň 2010.                                    
                                  
                                     News 
                                  
                                  
                                    Pridal ssnkf.sk
                                    0							
                                  
                               
                               
                              	Nadváha nie je problémom iba u dospelých, ale rovnako aj u deti. SSNKF preto v spolupráci s odborníkmi na výchovu detí pripravujú program, ktorého motiváciou bude organizovanie súťaží v detskom fitnes. Cieľom nie je dosahovať maximálne výsledky aj keď kritéria na víťazov rôznych kategórii sú dané, dôležitá je hlavne dlhodobá príprava na tieto súťaže v ktorej dôraz kladieme na osvetovú činnosť klubov zameranú na zdravý životný štýl, pretože hlavným krédom SSNKF je boj proti dopingu - drogám a a v prípade detského fitnes je deti zaujať, motivovať a formou hry ich pripravovať na súťaže. SSNKF preto pripravuje premiérovu ukážku v detskom fitnes už na VIKTORIA NATURAL CUP 2010 vo Veľkom Grobe.                               
                                                          
                         
                                             
                     
                      
                     	
	 
		 
			
	
	
	 
	
		 
		
		 
			 
				
		 Partneti 
		 
				
			
		 
				
			
		 
				
			
		 
				
			
		 
				 
		
		 
		 
				 


                      
                   
                
                           
           	 
    
       
          
             
                
                    
                
             
          
       
    
 

		
                 
                     
                         
                             
                                 
                                     Dnes je 02.03.2015
 
                                     
                                         

                                        	15:43:23
                                         
                                         Základom každého tréningu je úspešné zorganizovanie času. 
                                     
                                 
                             
                             
                                 
                                     
                                         
                                             
                                                 
                                                    
                                                     
                                                 
                                                 
                                                      
                                                     27.10.2014 
                                                 
                                             
                                         
                                     
                                 
                             
                            
                             
                                 
                                     
                                         
                                                                                       
                                                
                                                	
                                                		
                                                	
                                                 
                                                Fit Plus
                                             
                                                                                        
                                                
                                                	
                                                		
                                                	
                                                 
                                                Aone
                                             
                                                                                        
                                                
                                                	
                                                		
                                                	
                                                 
                                                Ada Slovakia
                                             
                                                                                        
                                                
                                                	
                                                		
                                                	
                                                 
                                                Biotechusa
                                             
                                            
                                         
                                     
                                 
                              
                             
                                 
                                     
                                         Slovenská spoločnosť pre naturálnu kulturistiku a fitness | 2015 
                                         
                                        	 
                                     
                                 
                             
                         
                     
                    
                     
                    	                         
                             
                            	Developed by 
                            		Designdnt   | custom eshop solutions
                            		 Slovenská spoločnosť pre naturálnu kulturistiku a fitness | 2015                            		
                         
                     
                     
                 
             
         
                	
               
        
        
                
        
        
        
        
        
        
        
        
        
        
        
        
        
        
        
        
        
        
        
        
        
    
    

