

    
	
	

	 
		 
			
			
			
	  
 	 
 		"&gt;
 			 
 			 		
 			 
 				 				 
 				O nás
 					
 					 					 
 					 
 						
 					 
 					 
 					 						 
 							
	 	  				Stanovy SSNKF	 	  				
 						 
 						 						 
 							
	 	  				Rebríček hodnotenia športovcov SSNKF	 	  				
 						 
 						 						 
 							
	 	  				Disciplinárny poriadok SSNKF	 	  				
 						 
 						 						 
 							
	 	  				Filozófia	 	  				
 						 
 						 						 
 							
	 	  				Kluby SSNKF	 	  				
 						 
 						 						 
 							
	 	  				Registračný poriadok	 	  				
 						 
 						 						 
 							
	 	  				Súťažné pravidlá pre naturálnu Kulturistika a Fitnes	 	  				
 						 
 						 						 
 							
	 	  				Súťažný poriadok	 	  				
 						 
 						 						 
 							
	 	  				Zmeny v kategórii šport model fitness	 	  				
 						 
 						 					 
 					 
 					 						
 				 
 				  				 
 				Články
 					
 					 					 
 					 
 						
 					 
 					 
 					 						 
 							
	 	  				2009	 	  				
 						 
 						 						 
 							
	 	  				2010	 	  				
 						 
 						 						 
 							
	 	  				2011	 	  				
 						 
 						 						 
 							
	 	  				2012	 	  				
 						 
 						 						 
 							
	 	  				2013	 	  				
 						 
 						 						 
 							
	 	  				2014	 	  				
 						 
 						 						 
 							
	 	  				2015	 	  				
 						 
 						 					 
 					 
 					 						
 				 
 				  				 
 				Galéria
 					
 					
 						 						
 				 
 				  				 
 				Členstvo
 					
 					
 						 						
 				 
 				  				 
 				Ada SR
 					
 					 					 
 					 
 						
 					 
 					 
 					 						 
 							
	 	  				Doping v športe	 	  				
 						 
 						 						 
 							
	 	  				Informačné materiály	 	  				
 						 
 						 						 
 							
	 	  				Dopingová kontrola v športe	 	  				
 						 
 						 						 
 							
	 	  				Vrcholový športový výkon bez dopingu	 	  				
 						 
 						 						 
 							
	 	  				Zomrieť pre športové víťazstvo?	 	  				
 						 
 						 						 
 							
	 	  				Rok tolerancie neznačil odpúšťanie vážnych prehreškov	 	  				
 						 
 						 						 
 							
	 	  				Vlani dopingový rekord na Slovensku	 	  				
 						 
 						 						 
 							
	 	  				Zoznam zakázaných látok a metód 2009	 	  				
 						 
 						 						 
 							
	 	  				WADA 2009 Zoznam zakázaných látok	 	  				
 						 
 						 					 
 					 
 					 						
 				 
 				  				 
 				Partneri
 					
 					
 						 						
 				 
 				  				 
 				Kontakt
 					
 					
 						 						
 				 
 				  			 
 		 
 	 
 			 
				 
					 
						
							
						
							
  
 	  	
 	  		
 	  	
 	  	 
 	   	  		 
 	  			
 	  			 	  			
 	  				O nás
	 	  		
	 	  			 	  		
	 	  		
	 	  		 
	 	  			 	  		 
	 	  			 	  		 
	 	  			
	 	  				Stanovy SSNKF	 	  				
	 	  		 
	 	  			 	  		 
	 	  			
	 	  				Rebríček hodnotenia športovcov SSNKF	 	  				
	 	  		 
	 	  			 	  		 
	 	  			
	 	  				Disciplinárny poriadok SSNKF	 	  				
	 	  		 
	 	  			 	  		 
	 	  			
	 	  				Filozófia	 	  				
	 	  		 
	 	  			 	  		 
	 	  			
	 	  				Kluby SSNKF	 	  				
	 	  		 
	 	  			 	  		 
	 	  			
	 	  				Registračný poriadok	 	  				
	 	  		 
	 	  			 	  		 
	 	  			
	 	  				Súťažné pravidlá pre naturálnu Kulturistika a Fitnes	 	  				
	 	  		 
	 	  			 	  		 
	 	  			
	 	  				Súťažný poriadok	 	  				
	 	  		 
	 	  			 	  		 
	 	  			
	 	  				Zmeny v kategórii šport model fitness	 	  				
	 	  		 
	 	  			 	  		 
 	  			 	  			 
 	  			
 	  		 
 	  	 	 	  		 
 	  			
 	  			 	  			
 	  				Články
	 	  		
	 	  			 	  		
	 	  		
	 	  		 
	 	  			 	  		 
	 	  			 	  		 
	 	  			
	 	  				2009	 	  				
	 	  		 
	 	  			 	  		 
	 	  			
	 	  				2010	 	  				
	 	  		 
	 	  			 	  		 
	 	  			
	 	  				2011	 	  				
	 	  		 
	 	  			 	  		 
	 	  			
	 	  				2012	 	  				
	 	  		 
	 	  			 	  		 
	 	  			
	 	  				2013	 	  				
	 	  		 
	 	  			 	  		 
	 	  			
	 	  				2014	 	  				
	 	  		 
	 	  			 	  		 
	 	  			
	 	  				2015	 	  				
	 	  		 
	 	  			 	  		 
 	  			 	  			 
 	  			
 	  		 
 	  	 	 	  		 
 	  			
 	  				 	  			
	 	  				
	 	  					Galéria	 	  				
	 	  			
	 	  					 	  		
	 	  		
	 	  		 
	 	  		 	  			 
 	  			
 	  		 
 	  	 	 	  		 
 	  			
 	  				 	  			
	 	  				
	 	  					Členstvo	 	  				
	 	  			
	 	  					 	  		
	 	  		
	 	  		 
	 	  		 	  			 
 	  			
 	  		 
 	  	 	 	  		 
 	  			
 	  			 	  			
 	  				Ada SR
	 	  		
	 	  			 	  		
	 	  		
	 	  		 
	 	  			 	  		 
	 	  			 	  		 
	 	  			
	 	  				Doping v športe	 	  				
	 	  		 
	 	  			 	  		 
	 	  			
	 	  				Informačné materiály	 	  				
	 	  		 
	 	  			 	  		 
	 	  			
	 	  				Dopingová kontrola v športe	 	  				
	 	  		 
	 	  			 	  		 
	 	  			
	 	  				Vrcholový športový výkon bez dopingu	 	  				
	 	  		 
	 	  			 	  		 
	 	  			
	 	  				Zomrieť pre športové víťazstvo?	 	  				
	 	  		 
	 	  			 	  		 
	 	  			
	 	  				Rok tolerancie neznačil odpúšťanie vážnych prehreškov	 	  				
	 	  		 
	 	  			 	  		 
	 	  			
	 	  				Vlani dopingový rekord na Slovensku	 	  				
	 	  		 
	 	  			 	  		 
	 	  			
	 	  				Zoznam zakázaných látok a metód 2009	 	  				
	 	  		 
	 	  			 	  		 
	 	  			
	 	  				WADA 2009 Zoznam zakázaných látok	 	  				
	 	  		 
	 	  			 	  		 
 	  			 	  			 
 	  			
 	  		 
 	  	 	 	  		 
 	  			
 	  				 	  			
	 	  				
	 	  					Partneri	 	  				
	 	  			
	 	  					 	  		
	 	  		
	 	  		 
	 	  		 	  			 
 	  			
 	  		 
 	  	 	 	  		 
 	  			
 	  				 	  			
	 	  				
	 	  					Kontakt	 	  				
	 	  			
	 	  					 	  		
	 	  		
	 	  		 
	 	  		 	  			 
 	  			
 	  		 
 	  	 					 
					 
						
					 
					 
						 
							
							
								
								
								 Hľadaj 
								
									
								
															
				     
				   
				 
				
				 
					
						
						0
					
				 
				
 	  	 
 	   
					 
				 
			 
			

		  
	 
		 
		 
	 
 

 
    
       Aktualita 
       
          
             Domov 
             ssnkf.sk 
          
       
    
 
 
 	                 
                   
                      
                         
                            
                               
                                  
                                     2010 
                                     6 
                                     8 
                                  
                               
                               
                              	
	



	


	



	



	
                               
                            
                            
                               
                                 							
                                  
                                 	11 medailí z francúzska (možnosť sledovať záznam online)                                  
                                  
                                     News 
                                  
                                  
                                    Pridal ssnkf.sk
                                    0							
                                  
                               
                               
                              	 Aj napriek niektorým menej príjemným prekvapeniam napokon dosiahla naša reprezentácia na Majstrovstách európy vo Francúzsku spolu 11 medailových umiestnení. Ich úplný prehľad nájdete vo finálnom prehľade. 
 Ak si chcete sami overiť do akej miery sa rozhodnutia poroty zhodujú s vašim názorom, určite nepremeškajte reprízu priameho prenosu, ktorý odvysielame prostredníctvom francúzskeho magazínu Sportmag opäť priamo na našich stránkach v utorok (8. júna) od 10:00. 
                                 
                                                          
                         
                                             
                     
                      
                     	
	 
		 
			
	
	
	 
	
		 
		
		 
			 
				
		 Partneti 
		 
				
			
		 
				
			
		 
				
			
		 
				
			
		 
				 
		
		 
		 
				 


                      
                   
                
                           
           	 
    
       
          
             
                
                    
                
             
          
       
    
 

		
                 
                     
                         
                             
                                 
                                     Dnes je 02.03.2015
 
                                     
                                         

                                        	15:43:32
                                         
                                         Základom každého tréningu je úspešné zorganizovanie času. 
                                     
                                 
                             
                             
                                 
                                     
                                         
                                             
                                                 
                                                    
                                                     
                                                 
                                                 
                                                      
                                                     27.10.2014 
                                                 
                                             
                                         
                                     
                                 
                             
                            
                             
                                 
                                     
                                         
                                                                                       
                                                
                                                	
                                                		
                                                	
                                                 
                                                Fit Plus
                                             
                                                                                        
                                                
                                                	
                                                		
                                                	
                                                 
                                                Ada Slovakia
                                             
                                                                                        
                                                
                                                	
                                                		
                                                	
                                                 
                                                Aone
                                             
                                                                                        
                                                
                                                	
                                                		
                                                	
                                                 
                                                Biotechusa
                                             
                                            
                                         
                                     
                                 
                              
                             
                                 
                                     
                                         Slovenská spoločnosť pre naturálnu kulturistiku a fitness | 2015 
                                         
                                        	 
                                     
                                 
                             
                         
                     
                    
                     
                    	                         
                             
                            	Developed by 
                            		Designdnt   | custom eshop solutions
                            		 Slovenská spoločnosť pre naturálnu kulturistiku a fitness | 2015                            		
                         
                     
                     
                 
             
         
                	
               
        
        
                
        
        
        
        
        
        
        
        
        
        
        
        
        
        
        
        
        
        
        
        
        
    
    

