

    
	
	

	 
		 
			
			
			
	  
 	 
 		"&gt;
 			 
 			 		
 			 
 				 				 
 				O nás
 					
 					 					 
 					 
 						
 					 
 					 
 					 						 
 							
	 	  				Stanovy SSNKF	 	  				
 						 
 						 						 
 							
	 	  				Rebríček hodnotenia športovcov SSNKF	 	  				
 						 
 						 						 
 							
	 	  				Disciplinárny poriadok SSNKF	 	  				
 						 
 						 						 
 							
	 	  				Filozófia	 	  				
 						 
 						 						 
 							
	 	  				Kluby SSNKF	 	  				
 						 
 						 						 
 							
	 	  				Registračný poriadok	 	  				
 						 
 						 						 
 							
	 	  				Súťažné pravidlá pre naturálnu Kulturistika a Fitnes	 	  				
 						 
 						 						 
 							
	 	  				Súťažný poriadok	 	  				
 						 
 						 						 
 							
	 	  				Zmeny v kategórii šport model fitness	 	  				
 						 
 						 					 
 					 
 					 						
 				 
 				  				 
 				Články
 					
 					 					 
 					 
 						
 					 
 					 
 					 						 
 							
	 	  				2009	 	  				
 						 
 						 						 
 							
	 	  				2010	 	  				
 						 
 						 						 
 							
	 	  				2011	 	  				
 						 
 						 						 
 							
	 	  				2012	 	  				
 						 
 						 						 
 							
	 	  				2013	 	  				
 						 
 						 						 
 							
	 	  				2014	 	  				
 						 
 						 						 
 							
	 	  				2015	 	  				
 						 
 						 					 
 					 
 					 						
 				 
 				  				 
 				Galéria
 					
 					
 						 						
 				 
 				  				 
 				Členstvo
 					
 					
 						 						
 				 
 				  				 
 				Ada SR
 					
 					 					 
 					 
 						
 					 
 					 
 					 						 
 							
	 	  				Doping v športe	 	  				
 						 
 						 						 
 							
	 	  				Informačné materiály	 	  				
 						 
 						 						 
 							
	 	  				Dopingová kontrola v športe	 	  				
 						 
 						 						 
 							
	 	  				Vrcholový športový výkon bez dopingu	 	  				
 						 
 						 						 
 							
	 	  				Zomrieť pre športové víťazstvo?	 	  				
 						 
 						 						 
 							
	 	  				Rok tolerancie neznačil odpúšťanie vážnych prehreškov	 	  				
 						 
 						 						 
 							
	 	  				Vlani dopingový rekord na Slovensku	 	  				
 						 
 						 						 
 							
	 	  				Zoznam zakázaných látok a metód 2009	 	  				
 						 
 						 						 
 							
	 	  				WADA 2009 Zoznam zakázaných látok	 	  				
 						 
 						 					 
 					 
 					 						
 				 
 				  				 
 				Partneri
 					
 					
 						 						
 				 
 				  				 
 				Kontakt
 					
 					
 						 						
 				 
 				  			 
 		 
 	 
 			 
				 
					 
						
							
						
							
  
 	  	
 	  		
 	  	
 	  	 
 	   	  		 
 	  			
 	  			 	  			
 	  				O nás
	 	  		
	 	  			 	  		
	 	  		
	 	  		 
	 	  			 	  		 
	 	  			 	  		 
	 	  			
	 	  				Stanovy SSNKF	 	  				
	 	  		 
	 	  			 	  		 
	 	  			
	 	  				Rebríček hodnotenia športovcov SSNKF	 	  				
	 	  		 
	 	  			 	  		 
	 	  			
	 	  				Disciplinárny poriadok SSNKF	 	  				
	 	  		 
	 	  			 	  		 
	 	  			
	 	  				Filozófia	 	  				
	 	  		 
	 	  			 	  		 
	 	  			
	 	  				Kluby SSNKF	 	  				
	 	  		 
	 	  			 	  		 
	 	  			
	 	  				Registračný poriadok	 	  				
	 	  		 
	 	  			 	  		 
	 	  			
	 	  				Súťažné pravidlá pre naturálnu Kulturistika a Fitnes	 	  				
	 	  		 
	 	  			 	  		 
	 	  			
	 	  				Súťažný poriadok	 	  				
	 	  		 
	 	  			 	  		 
	 	  			
	 	  				Zmeny v kategórii šport model fitness	 	  				
	 	  		 
	 	  			 	  		 
 	  			 	  			 
 	  			
 	  		 
 	  	 	 	  		 
 	  			
 	  			 	  			
 	  				Články
	 	  		
	 	  			 	  		
	 	  		
	 	  		 
	 	  			 	  		 
	 	  			 	  		 
	 	  			
	 	  				2009	 	  				
	 	  		 
	 	  			 	  		 
	 	  			
	 	  				2010	 	  				
	 	  		 
	 	  			 	  		 
	 	  			
	 	  				2011	 	  				
	 	  		 
	 	  			 	  		 
	 	  			
	 	  				2012	 	  				
	 	  		 
	 	  			 	  		 
	 	  			
	 	  				2013	 	  				
	 	  		 
	 	  			 	  		 
	 	  			
	 	  				2014	 	  				
	 	  		 
	 	  			 	  		 
	 	  			
	 	  				2015	 	  				
	 	  		 
	 	  			 	  		 
 	  			 	  			 
 	  			
 	  		 
 	  	 	 	  		 
 	  			
 	  				 	  			
	 	  				
	 	  					Galéria	 	  				
	 	  			
	 	  					 	  		
	 	  		
	 	  		 
	 	  		 	  			 
 	  			
 	  		 
 	  	 	 	  		 
 	  			
 	  				 	  			
	 	  				
	 	  					Členstvo	 	  				
	 	  			
	 	  					 	  		
	 	  		
	 	  		 
	 	  		 	  			 
 	  			
 	  		 
 	  	 	 	  		 
 	  			
 	  			 	  			
 	  				Ada SR
	 	  		
	 	  			 	  		
	 	  		
	 	  		 
	 	  			 	  		 
	 	  			 	  		 
	 	  			
	 	  				Doping v športe	 	  				
	 	  		 
	 	  			 	  		 
	 	  			
	 	  				Informačné materiály	 	  				
	 	  		 
	 	  			 	  		 
	 	  			
	 	  				Dopingová kontrola v športe	 	  				
	 	  		 
	 	  			 	  		 
	 	  			
	 	  				Vrcholový športový výkon bez dopingu	 	  				
	 	  		 
	 	  			 	  		 
	 	  			
	 	  				Zomrieť pre športové víťazstvo?	 	  				
	 	  		 
	 	  			 	  		 
	 	  			
	 	  				Rok tolerancie neznačil odpúšťanie vážnych prehreškov	 	  				
	 	  		 
	 	  			 	  		 
	 	  			
	 	  				Vlani dopingový rekord na Slovensku	 	  				
	 	  		 
	 	  			 	  		 
	 	  			
	 	  				Zoznam zakázaných látok a metód 2009	 	  				
	 	  		 
	 	  			 	  		 
	 	  			
	 	  				WADA 2009 Zoznam zakázaných látok	 	  				
	 	  		 
	 	  			 	  		 
 	  			 	  			 
 	  			
 	  		 
 	  	 	 	  		 
 	  			
 	  				 	  			
	 	  				
	 	  					Partneri	 	  				
	 	  			
	 	  					 	  		
	 	  		
	 	  		 
	 	  		 	  			 
 	  			
 	  		 
 	  	 	 	  		 
 	  			
 	  				 	  			
	 	  				
	 	  					Kontakt	 	  				
	 	  			
	 	  					 	  		
	 	  		
	 	  		 
	 	  		 	  			 
 	  			
 	  		 
 	  	 					 
					 
						
					 
					 
						 
							
							
								
								
								 Hľadaj 
								
									
								
															
				     
				   
				 
				
				 
					
						
						0
					
				 
				
 	  	 
 	   
					 
				 
			 
			

		  
	 
		 
		 
	 
 

 
    
       Aktualita 
       
          
             Domov 
             ssnkf.sk 
          
       
    
 
 
 	                 
                   
                      
                         
                            
                               
                                  
                                     2010 
                                     6 
                                     19 
                                  
                               
                               
                              	
	



	


	



	



	
                               
                            
                            
                               
                                 							
                                  
                                 	Znalosti, schopnosti, osobnosť a práca trénera                                  
                                  
                                     News 
                                  
                                  
                                    Pridal ssnkf.sk
                                    0							
                                  
                               
                               
                              	Práca trénera je nesmierne rôznorodá, nastavená na školenie a výchovné pôsobenie, motivovanie a tvarovanie osobnosti pretekárov.
Základným predpokladom práce trénera je schopnosť spojenia teórie a praxe, poznávania a pôsobenia, snaha zaistiť schopnosti a znalosti jemu zvereným pretekárom, ale tiež aktívneho odpočinku, psychického uvoľnenia a zábavy. Ak chce tréner toto všetko zvládnuť musí neustále rozširovať a zdokonaľovať svoje schopnosti a znalosti ako praktické tak aj teoretické. Žiadny zo športov nestagnuje, ale neustále sa vyvíja, obohacuje o nové poznatky a prvky. Týka sa to tiež aj naturálnej kulturistiky a preto tréner, ktorý nie je schopný ďalej rozširovať svoje znalosti a napriahne po nových poznatkoch a rozširovaní svojich znalostí nielen, že stagnuje, ale de facto sa vracia vo svojom vývoji späť, ale pod tlakom svojej „namyslenosti“ a „dokonalosti“ pôsobí negatívne na rozvoj svojich pretekárov.

Skutočnosťou je, že tréner stále pracuje s ľuďmi, predovšetkým s mládežou, ale tiež s ostatnými trénermi, funkcionármi a pod. Vznikajú blízke, niekedy emocionálne vzťahy medzi trénerom a pretekárom a preto je samozrejmosťou, že zodpovednosť trénera za chovanie je veľmi vysoká. Ak kováč vyrobí zlú podkovu je to nepríjemné, ale nie je to tragédia, ale ak tréner svojim nezodpovedným chovaním zdeformuje a zničí charakter mladého športovca, potom spoločenský význam takejto chyby je oveľa závažnejší, tím viac, že pri vystupujúcich emóciách je zodpovednosť na strane trénera veľmi vysoká.

Naturálna kulturistika patrila a patrí medzi športy s vysokou spoločenskou úrovňou a vytvára prostredie veľmi kultivované. Napriek tomu aj v tomto športe vystupujú tréneri s takmer psychopatickou závislosťou na výsledkoch. Často, svoje emócie až na hranici primitívnych pudov nedokážu krotiť ani pred svojimi zverencami. Arogantné a hulvátske chovanie je nielen ukážkou nízkej úrovne takýchto “učiteľov“, ale má úplne negatívny vplyv na výchovu pretekárov.

Vo veľkej väčšine pretekári podliehajú vôli a presvedčeniu zo strany trénera o svojej jedinečnosti nemajú odvahu ani vnútornú silu čeliť a protestovať proti takémuto presvedčeniu, no výsledok je často opačný pretekári trpia, hľadajú chyby svojho neúspechu v iných a prehliadajú chovanie svojho trénera.
Pozorná odovzdanosť a poslušnosť vo vnútri prerastá v neskoršie pohŕdanie takýmto trénerom.

Nie je nevyhnutné zdôrazňovať celospoločenskú škodlivosť takéhoto jednania a negatívny vplyv na výchovu mládeže, pretekárov. Mizne láska k športu a nepochybne vzniká narušená psychika pretekára. Ak sa tréner sústreďuje len na získavanie medailí a prvenstiev môže veľmi ľahko zabudnúť na veľkú zodpovednosť a výchovné pôsobenie, môže zničiť talent pretekára cez nezmyselné preťažovanie možnosti pretekára a to ako po fyzickej tak psychickej stránke. Nahráva tomu prílišná glorifikácia výsledkov pretekárov.

V snahe vlastného uspokojenia vyťažujú pretekára za hranice jeho možností, jasajú nad jeho a svojimi úspechmi a snáď skutočne nevnímajú, že niekedy veľmi úspešne zabíjajú v pretekárovi motiváciu, radosť zo športu a ostávajú stáť v údive, keď po súťaži ich zverenec nefiguruje na popredných miestach po niekoľkých mesiacoch intenzívneho a predsa tak výborného tréningu.
Tréneri ako keby zabúdali, že vstupné obdobie vo výchove je zasvätené učeniu pre budúcnosť.

Bohužiaľ v očiach trénera sú za to zodpovedné všetky iné faktory len nie jeho vlastné chyby.
Nevníma ich. Prehnanou a nekontrolovanou ctižiadosťou možno zničil talentovaného pretekára. Samozrejme stáva sa, že takýto pretekár (čo potvrdzuje jeho talent) získa čiastočné výsledky, ale to len utvrdzuje jeho trénera v správnosti zvolenej cesty.
Práca trénera a jeho schopnosti prakticko-metodické sú rozdielne v rôznych športových odvetviach.
Neexistuje jedno a jediná správna “trénerská filozofia“, nie je žiadny vzorec ideálneho trénera, ale tí najlepší majú veľa spoločných vlastností.

1. Veľmi široké odborné vlastnosti neustále doplňované, rozširované o nové poznatky a to nielen v odvetví športu, ktorý privádzajú, ale tiež v športoch, ktoré svojou povahou môžu pomôcť v rozvoji vlastnej disciplíny.
2. Vysokú úroveň technických schopností zaisťujúcich kvalitnú prezentáciu návyku a ich pozdejšie učenie.
3. Hlboké teoretické znalosti a schopnosti ich aplikovanie, vysoká úroveň praktických metodických schopností.
4. Schopnosti veliteľské a organizačné.
5. Schopnosti vychovávacie, inspiračné, adekvátne motivovanie pretekárov a čo je nesmierne dôležité, prostredníctvom vlastného príkladu.
6. Novátorský postoj, stále hľadanie ciest a sledovanie zmien v športe.
7. Schopnosť plánovania, programovania a organizovania procesu športovej prípravy, samokontrola priebehu školenia, pozorovania súťaži a schopnosť analýzy poznatkov.
8. Používanie všetkých správnych pravidiel pestrého a bohatého, tréningu, rôznorodé prvky vedenia tréningu a tým tvarovanie záujmu o svoj šport u pretekárov, láska k športu a stotožňovanie sa so svojou disciplínou.
9. Schopnosť spolupráce z funkcionári, .
10. Predávanie svojich znalostí mladším trénerom.
Tréner je predovšetkým učiteľom a vychovávateľom, ale bohužiaľ musí plniť aj iné úlohy.                               
                                                          
                         
                                             
                     
                      
                     	
	 
		 
			
	
	
	 
	
		 
		
		 
			 
				
		 Partneti 
		 
				
			
		 
				
			
		 
				
			
		 
				
			
		 
				 
		
		 
		 
				 


                      
                   
                
                           
           	 
    
       
          
             
                
                    
                
             
          
       
    
 

		
                 
                     
                         
                             
                                 
                                     Dnes je 02.03.2015
 
                                     
                                         

                                        	15:43:35
                                         
                                         Základom každého tréningu je úspešné zorganizovanie času. 
                                     
                                 
                             
                             
                                 
                                     
                                         
                                             
                                                 
                                                    
                                                     
                                                 
                                                 
                                                      
                                                     27.10.2014 
                                                 
                                             
                                         
                                     
                                 
                             
                            
                             
                                 
                                     
                                         
                                                                                       
                                                
                                                	
                                                		
                                                	
                                                 
                                                Ada Slovakia
                                             
                                                                                        
                                                
                                                	
                                                		
                                                	
                                                 
                                                Biotechusa
                                             
                                                                                        
                                                
                                                	
                                                		
                                                	
                                                 
                                                Fit Plus
                                             
                                                                                        
                                                
                                                	
                                                		
                                                	
                                                 
                                                Aone
                                             
                                            
                                         
                                     
                                 
                              
                             
                                 
                                     
                                         Slovenská spoločnosť pre naturálnu kulturistiku a fitness | 2015 
                                         
                                        	 
                                     
                                 
                             
                         
                     
                    
                     
                    	                         
                             
                            	Developed by 
                            		Designdnt   | custom eshop solutions
                            		 Slovenská spoločnosť pre naturálnu kulturistiku a fitness | 2015                            		
                         
                     
                     
                 
             
         
                	
               
        
        
                
        
        
        
        
        
        
        
        
        
        
        
        
        
        
        
        
        
        
        
        
        
    
    

