

    
	
	
    
    	
        
         
            
             
             
               
                 
                     
                         
                            
                             
                                                            
                                    
                                
                             
                            
                            
                                                        
                             
                                
								Charitatívna cyklojazda   
                                    
                                
                             
                            
                                                     
                     
                 
                 
                	
  
 	 
 		
 		                       	
 		 			 
 				Domov
 				 			 
 			 			 
 				Deťom pre život
 				 			 
 			 			 
 				Príbeh
 				 			 
 			 					 
 						Články
 					 
 						 						 
 							2015
 								 								 
 									 								 
 									
 										BRATISLAVA REGION CUP 									
 								 
 								 							 
 							 						 
 						 						 
 							2010
 								 								 
 									 								 
 									
 										CHARITATÍVNA CYKLOJAZDA 									
 								 
 								 							 
 							 						 
 						 						 
 							2013
 								 								 
 									 								 
 									
 										BRATISLAVA REGION CUP 									
 								 
 								 								 
 									
 										CHARITATÍVNA CYKLOJAZDA 									
 								 
 								 							 
 							 						 
 						 						 
 							2014
 								 								 
 									 								 
 									
 										CHARITATÍVNA CYKLOJAZDA 									
 								 
 								 								 
 									
 										BRATISLAVA REGION CUP 									
 								 
 								 							 
 							 						 
 						 					 
 					 
 					 			 
 				Galéria
 				 			 
 			 			 
 				Bratislava Region Cup
 				 				 
 					 					 
 						Propozície
 					 
 					 					 
 						O seriáli
 					 
 					 					 
 						Výsledky
 					 
 					 				 
 				 			 
 			 			 
 				Charitatívna cyklojazda
 				 				 
 					 					 
 						Trasa 2014
 					 
 					 					 
 						V médiach
 					 
 					 				 
 				 			 
 			 			 
 				Kontakt
 				 			 
 			 		 
 	 
 
                
 

             
            

		           
             
                 
                 
                     GREEN BIKE &amp; WELLNESS PATINCE TOUR 
                 
             
             

            
             

                 
                     
                         
                             Domov 
                             / 
                             Články 
                             / 
                             GREEN BIKE &amp; WELLNESS PATINCE TOUR                                        
                         
                             
                 

                 
                    
                 

                
                 
                     
                        
                        
                                              
                            
                             
                            	                                 
                                 
                                     GREEN BIKE &amp; WELLNESS PATINCE TOUR 
                                 
                                
                               
                                
                                 
                                     
                                        
                                         
                                             29.9.2013   
                                             
                                             
                                               
                                                 
                                                  
                                                 
                                               
                                             
                                            
                                         
                                        

                                        
                                         
                                        	 
                                        	 Poďte s nami ukončiť tohtoročnú cyklistickú sezónu vo veľkom štýle! Odbicyklujte si to s nami do Wellness Hotela Patince!  
                                         
                                         
                                        
                                    
                                 
                                 
                                                                
                             
                            
                                                     
                         

                        
                                              
                            
                            
                            
                            														 
                                 Skúste vyhľadávanie 
                                
                                     
                                        
                                        
                                            
                                        
                                     
                                   
                             
                            
                             
                                 
                                     
Partneri 
                                 
                                
                                 
                                    
                                     
                                         
                                             Partneri Bratislava Region Cup 
    
                                             
                                                 
                                                 
                                                     
                                                    			                                                         
                                                        	
                                                        	
                                                        	
                                                        	 Dukla Trenčín 
                                                         
                                                        	                                                         
                                                        	
                                                        	
                                                        	
                                                        	 Toi Toi &amp; DIXI 
                                                         
                                                        	                                                         
                                                        	
                                                        	
                                                        	
                                                        	 Hydrotour 
                                                         
                                                        	                                                         
                                                        	
                                                        	
                                                        	
                                                        	 RCI 
                                                         
                                                        	                                                         
                                                        	
                                                        	
                                                        	
                                                        	 Šarišské Jastrabie 
                                                         
                                                        	                                                         
                                                        	
                                                        	
                                                        	
                                                        	 Stakčín 
                                                         
                                                        	                                                         
                                                        	
                                                        	
                                                        	
                                                        	 RCI Finance 
                                                         
                                                        	                                                         
                                                        	
                                                        	
                                                        	
                                                        	 Angelus 
                                                         
                                                        	                                                         
                                                        	
                                                        	
                                                        	
                                                        	 MTBiker 
                                                         
                                                        	                                                         
                                                        	
                                                        	
                                                        	
                                                        	 Green Bike 
                                                         
                                                        	                                                         
                                                        	
                                                        	
                                                        	
                                                        	 Dolný Kubín 
                                                         
                                                        	                                                         
                                                        	
                                                        	
                                                        	
                                                        	 Tatranská Lomnica 
                                                         
                                                        	                                                         
                                                        	
                                                        	
                                                        	
                                                        	 Bratislava 
                                                         
                                                        	                                                         
                                                        	
                                                        	
                                                        	
                                                        	 Lifecycling 
                                                         
                                                        	                                                         
                                                        	
                                                        	
                                                        	
                                                        	 Malinovo 
                                                         
                                                        	                                                     
                              
                                                 
                                                 
                                             
                                            
                                                VIEW EVENT PAGE
                                                
                                            
                                         
                                     
                                    

                                    
                                      
                                         
                                             Partneri Charitatívnej cyklojazdy 
    
                                             
                                                 
                                                 
                                                     
                                                    			                                                         
                                                        	
                                                        	
                                                        	
                                                        	 cyklistika-sk.eu 
                                                         
                                                        	                                                         
                                                        	
                                                        	
                                                        	
                                                        	 Mestské lesy Bratislava 
                                                         
                                                        	                                                         
                                                        	
                                                        	
                                                        	
                                                        	 Bratislava Nové Mesto 
                                                         
                                                        	                                                         
                                                        	
                                                        	
                                                        	
                                                        	 Digi Sport 
                                                         
                                                        	                                                         
                                                        	
                                                        	
                                                        	
                                                        	 MTBiker 
                                                         
                                                        	                                                         
                                                        	
                                                        	
                                                        	
                                                        	 Bratislava 
                                                         
                                                        	                                                     
                              
                                                 
                                                 
                                             
                                            
                                                VIEW EVENT PAGE
                                                
                                            
                                         
                                     
                                    

                                 
                                 
                               
                            
                            
                            
                            
                             
                            
                                 
                                     Najnovšie články 
                                 
                                 
                                 
                                	     
                                     
                                    	
                                        
                                       
                                         
                                            
                                            	 Bratislava Region Cup 2015 
                                            
                                             Bratislava Region Cup 2015

 

Minulý rok sme v hlavnom meste odštartovali prvý ročník športového podujatia Bratislava Region Cup. Séria akcií pre všetkých športových nadšencov pokračuje aj v roku 2... 
                                         
                                     
                                         
                                     
                                    	
                                        
                                       
                                         
                                            
                                            	 Video z Ružinovskej časovky 
                                            
                                             Pozrite si video z Ružinovskej časovky






Your browser does not support the video tag. 
                                         
                                     
                                         
                                     
                                    	
                                        
                                       
                                         
                                            
                                            	 Prvý ročník Bratislava Region Cup úspešný 
                                            
                                             Rok 2014 prial jednoznačne športu. V hlavnom meste sa uskutočnilo niekoľko skvelých športových podujatí v rámci Bratislava Region Cupu.Celej  série  Bratislava Region Cup sa zúčastnili profesionálni ale aj hobby športovci, pretekári z rôznych krajín Európy.  Cieľom ... 
                                         
                                     
                                         
                                     
                                    	
                                        
                                       
                                         
                                            
                                            	 Patince - záver cyklistickej sezóny 2014 
                                            
                                             Poďte s nami ukončiť tohtoročnú cyklistickú  sezónu vo veľkom štýle! Odbicyklujte si to s nami do Wellness Hotela Patince!Tohtoročná cyklistická sezóna bola náročná, plná horských i cestných maratónov, či časoviek. A preto si po športových výkonoch doprajte zaslúžen?... 
                                         
                                     
                                                                     
                                 
                                 
                                
                                
                               								
																   
                                    
                                     
                                         Na bicykli deťom 
                                         
                                     
                                 
																   
                                    
                                     
                                         Na bicykli deťom 
                                         
                                     
                                 
																   
                                    
                                     
                                         Na bicykli deťom 
                                         
                                     
                                 
																   
                                    
                                     
                                         Na bicykli deťom 
                                         
                                     
                                 
								                                 
                         
                        
                                          
                   
                
                	     
                 
                     
                         
                             
                                 
                                     Ďakujeme všetkým naším sponzorom a partnerom. 
                                     ...za nezištnú podporu a pomoc... 
                                 
                                 
                                	  	                                 	  	 		
                                     
                                    		
                                    	
                                     
                                   
                                                                    	  	 		
                                     
                                    		
                                    	
                                     
                                   
                                                                    	  	 		
                                     
                                    		
                                    	
                                     
                                   
                                                                    	  	 		
                                     
                                    		
                                    	
                                     
                                   
                                                                    	  	 		
                                     
                                    		
                                    	
                                     
                                   
                                                                    	  	 		
                                     
                                    		
                                    	
                                     
                                   
                                                                    	  	 		
                                     
                                    		
                                    	
                                     
                                   
                                                                    	  	 		
                                     
                                    		
                                    	
                                     
                                   
                                                                    	  	 		
                                     
                                    		
                                    	
                                     
                                   
                                                                    	  	 		
                                     
                                    		
                                    	
                                     
                                   
                                                                    	  	 		
                                     
                                    		
                                    	
                                     
                                   
                                                                    	  	 		
                                     
                                    		
                                    	
                                     
                                   
                                                                    	  	 		
                                     
                                    		
                                    	
                                     
                                   
                                                                    	  	 		
                                     
                                    		
                                    	
                                     
                                   
                                                                    	  	 		
                                     
                                    		
                                    	
                                     
                                   
                                                                    	  	 		
                                     
                                    		
                                    	
                                     
                                   
                                                                    	  	 		
                                     
                                    		
                                    	
                                     
                                   
                                                                    	  	 		
                                     
                                    		
                                    	
                                     
                                   
                                                                    	  	 		
                                     
                                    		
                                    	
                                     
                                   
                                                                    	  	 		
                                     
                                    		
                                    	
                                     
                                   
                                                                    	  	 		
                                     
                                    		
                                    	
                                     
                                   
                                                                    	  	 		
                                     
                                    		
                                    	
                                     
                                   
                                                                    	  	 		
                                     
                                    		
                                    	
                                     
                                   
                                                                    	  	 		
                                     
                                    		
                                    	
                                     
                                   
                                                                    	  	 		
                                     
                                    		
                                    	
                                     
                                   
                                                                    	  	 		
                                     
                                    		
                                    	
                                     
                                   
                                                                    	  	 		
                                     
                                    		
                                    	
                                     
                                   
                                                                    	  	 		
                                     
                                    		
                                    	
                                     
                                   
                                                                    	  	 		
                                     
                                    		
                                    	
                                     
                                   
                                                                    	  	 		
                                     
                                    		
                                    	
                                     
                                   
                                                                    	  	 		
                                     
                                    		
                                    	
                                     
                                   
                                                                    	  	 		
                                     
                                    		
                                    	
                                     
                                   
                                                                    	  	 		
                                     
                                    		
                                    	
                                     
                                   
                                                                    	  	 		
                                     
                                    		
                                    	
                                     
                                   
                                                                    	  	 		
                                     
                                    		
                                    	
                                     
                                   
                                                                    	  	 		
                                     
                                    		
                                    	
                                     
                                   
                                                                    	  	 		
                                     
                                    		
                                    	
                                     
                                   
                                                                    	  	 		
                                     
                                    		
                                    	
                                     
                                   
                                                                    	  	 		
                                     
                                    		
                                    	
                                     
                                   
                                                                    	  	 		
                                     
                                    		
                                    	
                                     
                                   
                                                                    	  	 		
                                     
                                    		
                                    	
                                     
                                   
                                                                    	  	 		
                                     
                                    		
                                    	
                                     
                                   
                                                                    	  	 		
                                     
                                    		
                                    	
                                     
                                   
                                                                    	  	 		
                                     
                                    		
                                    	
                                     
                                   
                                                                    	  	 		
                                     
                                    		
                                    	
                                     
                                   
                                                                    	  	 		
                                     
                                    		
                                    	
                                     
                                   
                                                                    	  	 		
                                     
                                    		
                                    	
                                     
                                   
                                                                    	  	 		
                                     
                                    		
                                    	
                                     
                                   
                                                                    	  	 		
                                     
                                    		
                                    	
                                     
                                   
                                                                    	  	 		
                                     
                                    		
                                    	
                                     
                                   
                                                                    	  	 		
                                     
                                    		
                                    	
                                     
                                   
                                                                    	  	 		
                                     
                                    		
                                    	
                                     
                                   
                                                                    	  	 		
                                     
                                    		
                                    	
                                     
                                   
                                                                    	  	 		
                                     
                                    		
                                    	
                                     
                                   
                                                                    	  	 		
                                     
                                    		
                                    	
                                     
                                   
                                                                    	  	 		
                                     
                                    		
                                    	
                                     
                                   
                                                                    	  	 		
                                     
                                    		
                                    	
                                     
                                   
                                                                    	  	 		
                                     
                                    		
                                    	
                                     
                                   
                                                                    	  	 		
                                     
                                    		
                                    	
                                     
                                   
                                                                    	  	 		
                                     
                                    		
                                    	
                                     
                                   
                                                                    	  	 		
                                     
                                    		
                                    	
                                     
                                   
                                                                    	  	 		
                                     
                                    		
                                    	
                                     
                                   
                                                                    	  	 		
                                     
                                    		
                                    	
                                     
                                   
                                                                    	  	 		
                                     
                                    		
                                    	
                                     
                                   
                                                                    	  	 		
                                     
                                    		
                                    	
                                     
                                   
                                                                    	  	 		
                                     
                                    		
                                    	
                                     
                                   
                                                                    	  	 		
                                     
                                    		
                                    	
                                     
                                   
                                                                    	  	 		
                                     
                                    		
                                    	
                                     
                                   
                                                                    	  	 		
                                     
                                    		
                                    	
                                     
                                   
                                                                    	  	 		
                                     
                                    		
                                    	
                                     
                                   
                                                                    	  	 		
                                     
                                    		
                                    	
                                     
                                   
                                                                    	  	 		
                                     
                                    		
                                    	
                                     
                                   
                                                                    	  	 		
                                     
                                    		
                                    	
                                     
                                   
                                                                    	  	 		
                                     
                                    		
                                    	
                                     
                                   
                                                                    	  	 		
                                     
                                    		
                                    	
                                     
                                   
                                                                    	  	 		
                                     
                                    		
                                    	
                                     
                                   
                                                                    	  	 		
                                     
                                    		
                                    	
                                     
                                   
                                                                    	  	 		
                                     
                                    		
                                    	
                                     
                                   
                                                                        
                                 
                             
                         
                     
                   
                 
               
            


             
                 
                	
                	
                    
                     
                         
                                 
                                     
                                        
                                            
                                        
                                     
                                 
                                                                 
                                     
                                        
                                            
                                        
                                     
                                  
                                 
                                     
                                        
                                            
                                        
                                     
                                  
                                  
                                     
                                        
                                            
                                        
                                     
                                 
                         
                      
                    

                 
                   
            

            
             
                 
                     
                         
                             © 2015 Na bicykli deťom | Developed by 
                            	
                            		Designdnt
                            	
                         
 
                         
                            
                             
                                 
DOMOV  
                                 ČLÁNKY 
                                 PRÍBEH  
                                 GALÉRIA  
                                 PROPOZÍCIE                 
                                 KONTAKT 
                             
                            
                         
                     
                 
             
            

         
        

                
         
                        
        
         
           
         
            
        
          
         
          
        
              
           
        
                    
         
         
        
        
        
        
        
         
        
         
        
              
        
        
         
        
         
        
        
        
 
    

