

    
	
	
    
    	
        
         
            
             
             
               
                 
                     
                         
                            
                             
                                                            
                                    
                                
                             
                            
                            
                                                        
                             
                                
								Charitatívna cyklojazda   
                                    
                                
                             
                            
                                                     
                     
                 
                 
                	
  
 	 
 		
 		                       	
 		 			 
 				Domov
 				 			 
 			 			 
 				Deťom pre život
 				 			 
 			 			 
 				Príbeh
 				 			 
 			 					 
 						Články
 					 
 						 						 
 							2015
 								 								 
 									 								 
 									
 										BRATISLAVA REGION CUP 									
 								 
 								 							 
 							 						 
 						 						 
 							2010
 								 								 
 									 								 
 									
 										CHARITATÍVNA CYKLOJAZDA 									
 								 
 								 							 
 							 						 
 						 						 
 							2013
 								 								 
 									 								 
 									
 										BRATISLAVA REGION CUP 									
 								 
 								 								 
 									
 										CHARITATÍVNA CYKLOJAZDA 									
 								 
 								 							 
 							 						 
 						 						 
 							2014
 								 								 
 									 								 
 									
 										CHARITATÍVNA CYKLOJAZDA 									
 								 
 								 								 
 									
 										BRATISLAVA REGION CUP 									
 								 
 								 							 
 							 						 
 						 					 
 					 
 					 			 
 				Galéria
 				 			 
 			 			 
 				Bratislava Region Cup
 				 				 
 					 					 
 						Propozície
 					 
 					 					 
 						O seriáli
 					 
 					 					 
 						Výsledky
 					 
 					 				 
 				 			 
 			 			 
 				Charitatívna cyklojazda
 				 				 
 					 					 
 						Trasa 2014
 					 
 					 					 
 						V médiach
 					 
 					 				 
 				 			 
 			 			 
 				Kontakt
 				 			 
 			 		 
 	 
 
                
 

             
            

		           
             
                 
                 
                     LETÁK ŽP 2013 
                 
             
             

            
             

                 
                     
                         
                             Domov 
                             / 
                             Články 
                             / 
                             LETÁK ŽP 2013                                        
                         
                             
                 

                 
                    
                 

                
                 
                     
                        
                        
                                              
                            
                             
                            	                                 
                                 
                                     LETÁK ŽP 2013 
                                 
                                
                               
                                
                                 
                                     
                                        
                                         
                                             15.3.2013   
                                             
                                             
                                               
                                                 
                                                  
                                                 
                                               
                                             
                                            
                                         
                                        

                                        
                                         
                                        	 
                                        	 Máme spravený reklamný leták pre ŽP 2013 Na Bicykli deťom. V podstate sponzorov máme ujasnených, doladíme ešte detaily a pôjde to do tlače. V blízkej budúcnosti bude aj oficiálny plagát pre rok 2013.
 Termíny pre rok 2013  20.04.2013 - Kaktus bike Svätojurský MTB maratón, Svätý Jur 01.05.2013 - Račianska časovka, Bratislava - Rača 25.05.2013 - Kaktus bike Bratislavský MTB maratón, Bratislava - Karlova Ves 02.06.2013 - Novomestský pedál Cross Country Cup pre všetkých, Bratislava - Kamzík 05.07.2013 - Kaktus bike Svätojurský blesk - cyklo časovka do vrchu, Svätý Jur 24.08.2013 - Kellys Green bike Tour, Bratislava - Partizánska lúka, .   Kategórie hodnotené v rámci Župného pohára Na bicykli deťom 2013:  Kategória: Muži 19-39 r. Kategória: Seniori 40-49 r. Kategória: Veteráni 50-59 r. Kategória: Veteráni 60 a viac r. Kategória: Ženy 19-39 r. Kategória: Ženy 40-49 r. Kategória: Ženy 50 a viac r. Kategória: Juniori 17-18 r. Kategória: Juniorky 17-18 r. Kategória: Kadeti 15-16 r. Kategória: Kadetky 15-16 r.
 
                                         
                                         
                                        
                                    
                                 
                                 
                                                                
                             
                            
                                                     
                         

                        
                                              
                            
                            
                            
                            														 
                                 Skúste vyhľadávanie 
                                
                                     
                                        
                                        
                                            
                                        
                                     
                                   
                             
                            
                             
                                 
                                     
Partneri 
                                 
                                
                                 
                                    
                                     
                                         
                                             Partneri Bratislava Region Cup 
    
                                             
                                                 
                                                 
                                                     
                                                    			                                                         
                                                        	
                                                        	
                                                        	
                                                        	 Viva 
                                                         
                                                        	                                                         
                                                        	
                                                        	
                                                        	
                                                        	 Poprad 
                                                         
                                                        	                                                         
                                                        	
                                                        	
                                                        	
                                                        	 Pro Diagnostic Group 
                                                         
                                                        	                                                         
                                                        	
                                                        	
                                                        	
                                                        	 Plavnica 
                                                         
                                                        	                                                         
                                                        	
                                                        	
                                                        	
                                                        	 Enervit 
                                                         
                                                        	                                                         
                                                        	
                                                        	
                                                        	
                                                        	 Nová Sedlica 
                                                         
                                                        	                                                         
                                                        	
                                                        	
                                                        	
                                                        	 Drietoma 
                                                         
                                                        	                                                         
                                                        	
                                                        	
                                                        	
                                                        	 Generali SLovensko 
                                                         
                                                        	                                                         
                                                        	
                                                        	
                                                        	
                                                        	 BVS 
                                                         
                                                        	                                                         
                                                        	
                                                        	
                                                        	
                                                        	 Tatranská Lomnica 
                                                         
                                                        	                                                         
                                                        	
                                                        	
                                                        	
                                                        	 Dukla Trenčín 
                                                         
                                                        	                                                         
                                                        	
                                                        	
                                                        	
                                                        	 L&amp;L Advisors 
                                                         
                                                        	                                                         
                                                        	
                                                        	
                                                        	
                                                        	 Kinecom 
                                                         
                                                        	                                                         
                                                        	
                                                        	
                                                        	
                                                        	 DigiSport 
                                                         
                                                        	                                                         
                                                        	
                                                        	
                                                        	
                                                        	 Stakčín 
                                                         
                                                        	                                                     
                              
                                                 
                                                 
                                             
                                            
                                                VIEW EVENT PAGE
                                                
                                            
                                         
                                     
                                    

                                    
                                      
                                         
                                             Partneri Charitatívnej cyklojazdy 
    
                                             
                                                 
                                                 
                                                     
                                                    			                                                         
                                                        	
                                                        	
                                                        	
                                                        	 cyklistika-sk.eu 
                                                         
                                                        	                                                         
                                                        	
                                                        	
                                                        	
                                                        	 Digi Sport 
                                                         
                                                        	                                                         
                                                        	
                                                        	
                                                        	
                                                        	 Bratislava Nové Mesto 
                                                         
                                                        	                                                         
                                                        	
                                                        	
                                                        	
                                                        	 Mestské lesy Bratislava 
                                                         
                                                        	                                                         
                                                        	
                                                        	
                                                        	
                                                        	 MTBiker 
                                                         
                                                        	                                                         
                                                        	
                                                        	
                                                        	
                                                        	 Bratislava 
                                                         
                                                        	                                                     
                              
                                                 
                                                 
                                             
                                            
                                                VIEW EVENT PAGE
                                                
                                            
                                         
                                     
                                    

                                 
                                 
                               
                            
                            
                            
                            
                             
                            
                                 
                                     Najnovšie články 
                                 
                                 
                                 
                                	     
                                     
                                    	
                                        
                                       
                                         
                                            
                                            	 Bratislava Region Cup 2015 
                                            
                                             Bratislava Region Cup 2015

 

Minulý rok sme v hlavnom meste odštartovali prvý ročník športového podujatia Bratislava Region Cup. Séria akcií pre všetkých športových nadšencov pokračuje aj v roku 2... 
                                         
                                     
                                         
                                     
                                    	
                                        
                                       
                                         
                                            
                                            	 Video z Ružinovskej časovky 
                                            
                                             Pozrite si video z Ružinovskej časovky






Your browser does not support the video tag. 
                                         
                                     
                                         
                                     
                                    	
                                        
                                       
                                         
                                            
                                            	 Prvý ročník Bratislava Region Cup úspešný 
                                            
                                             Rok 2014 prial jednoznačne športu. V hlavnom meste sa uskutočnilo niekoľko skvelých športových podujatí v rámci Bratislava Region Cupu.Celej  série  Bratislava Region Cup sa zúčastnili profesionálni ale aj hobby športovci, pretekári z rôznych krajín Európy.  Cieľom ... 
                                         
                                     
                                         
                                     
                                    	
                                        
                                       
                                         
                                            
                                            	 Patince - záver cyklistickej sezóny 2014 
                                            
                                             Poďte s nami ukončiť tohtoročnú cyklistickú  sezónu vo veľkom štýle! Odbicyklujte si to s nami do Wellness Hotela Patince!Tohtoročná cyklistická sezóna bola náročná, plná horských i cestných maratónov, či časoviek. A preto si po športových výkonoch doprajte zaslúžen?... 
                                         
                                     
                                                                     
                                 
                                 
                                
                                
                               								
																   
                                    
                                     
                                         Na bicykli deťom 
                                         
                                     
                                 
																   
                                    
                                     
                                         Na bicykli deťom 
                                         
                                     
                                 
																   
                                    
                                     
                                         Na bicykli deťom 
                                         
                                     
                                 
																   
                                    
                                     
                                         Na bicykli deťom 
                                         
                                     
                                 
								                                 
                         
                        
                                          
                   
                
                	     
                 
                     
                         
                             
                                 
                                     Ďakujeme všetkým naším sponzorom a partnerom. 
                                     ...za nezištnú podporu a pomoc... 
                                 
                                 
                                	  	                                 	  	 		
                                     
                                    		
                                    	
                                     
                                   
                                                                    	  	 		
                                     
                                    		
                                    	
                                     
                                   
                                                                    	  	 		
                                     
                                    		
                                    	
                                     
                                   
                                                                    	  	 		
                                     
                                    		
                                    	
                                     
                                   
                                                                    	  	 		
                                     
                                    		
                                    	
                                     
                                   
                                                                    	  	 		
                                     
                                    		
                                    	
                                     
                                   
                                                                    	  	 		
                                     
                                    		
                                    	
                                     
                                   
                                                                    	  	 		
                                     
                                    		
                                    	
                                     
                                   
                                                                    	  	 		
                                     
                                    		
                                    	
                                     
                                   
                                                                    	  	 		
                                     
                                    		
                                    	
                                     
                                   
                                                                    	  	 		
                                     
                                    		
                                    	
                                     
                                   
                                                                    	  	 		
                                     
                                    		
                                    	
                                     
                                   
                                                                    	  	 		
                                     
                                    		
                                    	
                                     
                                   
                                                                    	  	 		
                                     
                                    		
                                    	
                                     
                                   
                                                                    	  	 		
                                     
                                    		
                                    	
                                     
                                   
                                                                    	  	 		
                                     
                                    		
                                    	
                                     
                                   
                                                                    	  	 		
                                     
                                    		
                                    	
                                     
                                   
                                                                    	  	 		
                                     
                                    		
                                    	
                                     
                                   
                                                                    	  	 		
                                     
                                    		
                                    	
                                     
                                   
                                                                    	  	 		
                                     
                                    		
                                    	
                                     
                                   
                                                                    	  	 		
                                     
                                    		
                                    	
                                     
                                   
                                                                    	  	 		
                                     
                                    		
                                    	
                                     
                                   
                                                                    	  	 		
                                     
                                    		
                                    	
                                     
                                   
                                                                    	  	 		
                                     
                                    		
                                    	
                                     
                                   
                                                                    	  	 		
                                     
                                    		
                                    	
                                     
                                   
                                                                    	  	 		
                                     
                                    		
                                    	
                                     
                                   
                                                                    	  	 		
                                     
                                    		
                                    	
                                     
                                   
                                                                    	  	 		
                                     
                                    		
                                    	
                                     
                                   
                                                                    	  	 		
                                     
                                    		
                                    	
                                     
                                   
                                                                    	  	 		
                                     
                                    		
                                    	
                                     
                                   
                                                                    	  	 		
                                     
                                    		
                                    	
                                     
                                   
                                                                    	  	 		
                                     
                                    		
                                    	
                                     
                                   
                                                                    	  	 		
                                     
                                    		
                                    	
                                     
                                   
                                                                    	  	 		
                                     
                                    		
                                    	
                                     
                                   
                                                                    	  	 		
                                     
                                    		
                                    	
                                     
                                   
                                                                    	  	 		
                                     
                                    		
                                    	
                                     
                                   
                                                                    	  	 		
                                     
                                    		
                                    	
                                     
                                   
                                                                    	  	 		
                                     
                                    		
                                    	
                                     
                                   
                                                                    	  	 		
                                     
                                    		
                                    	
                                     
                                   
                                                                    	  	 		
                                     
                                    		
                                    	
                                     
                                   
                                                                    	  	 		
                                     
                                    		
                                    	
                                     
                                   
                                                                    	  	 		
                                     
                                    		
                                    	
                                     
                                   
                                                                    	  	 		
                                     
                                    		
                                    	
                                     
                                   
                                                                    	  	 		
                                     
                                    		
                                    	
                                     
                                   
                                                                    	  	 		
                                     
                                    		
                                    	
                                     
                                   
                                                                    	  	 		
                                     
                                    		
                                    	
                                     
                                   
                                                                    	  	 		
                                     
                                    		
                                    	
                                     
                                   
                                                                    	  	 		
                                     
                                    		
                                    	
                                     
                                   
                                                                    	  	 		
                                     
                                    		
                                    	
                                     
                                   
                                                                    	  	 		
                                     
                                    		
                                    	
                                     
                                   
                                                                    	  	 		
                                     
                                    		
                                    	
                                     
                                   
                                                                    	  	 		
                                     
                                    		
                                    	
                                     
                                   
                                                                    	  	 		
                                     
                                    		
                                    	
                                     
                                   
                                                                    	  	 		
                                     
                                    		
                                    	
                                     
                                   
                                                                    	  	 		
                                     
                                    		
                                    	
                                     
                                   
                                                                    	  	 		
                                     
                                    		
                                    	
                                     
                                   
                                                                    	  	 		
                                     
                                    		
                                    	
                                     
                                   
                                                                    	  	 		
                                     
                                    		
                                    	
                                     
                                   
                                                                    	  	 		
                                     
                                    		
                                    	
                                     
                                   
                                                                    	  	 		
                                     
                                    		
                                    	
                                     
                                   
                                                                    	  	 		
                                     
                                    		
                                    	
                                     
                                   
                                                                    	  	 		
                                     
                                    		
                                    	
                                     
                                   
                                                                    	  	 		
                                     
                                    		
                                    	
                                     
                                   
                                                                    	  	 		
                                     
                                    		
                                    	
                                     
                                   
                                                                    	  	 		
                                     
                                    		
                                    	
                                     
                                   
                                                                    	  	 		
                                     
                                    		
                                    	
                                     
                                   
                                                                    	  	 		
                                     
                                    		
                                    	
                                     
                                   
                                                                    	  	 		
                                     
                                    		
                                    	
                                     
                                   
                                                                    	  	 		
                                     
                                    		
                                    	
                                     
                                   
                                                                    	  	 		
                                     
                                    		
                                    	
                                     
                                   
                                                                    	  	 		
                                     
                                    		
                                    	
                                     
                                   
                                                                    	  	 		
                                     
                                    		
                                    	
                                     
                                   
                                                                    	  	 		
                                     
                                    		
                                    	
                                     
                                   
                                                                    	  	 		
                                     
                                    		
                                    	
                                     
                                   
                                                                    	  	 		
                                     
                                    		
                                    	
                                     
                                   
                                                                    	  	 		
                                     
                                    		
                                    	
                                     
                                   
                                                                    	  	 		
                                     
                                    		
                                    	
                                     
                                   
                                                                    	  	 		
                                     
                                    		
                                    	
                                     
                                   
                                                                        
                                 
                             
                         
                     
                   
                 
               
            


             
                 
                	
                	
                    
                     
                         
                                 
                                     
                                        
                                            
                                        
                                     
                                 
                                                                 
                                     
                                        
                                            
                                        
                                     
                                  
                                 
                                     
                                        
                                            
                                        
                                     
                                  
                                  
                                     
                                        
                                            
                                        
                                     
                                 
                         
                      
                    

                 
                   
            

            
             
                 
                     
                         
                             © 2015 Na bicykli deťom | Developed by 
                            	
                            		Designdnt
                            	
                         
 
                         
                            
                             
                                 
DOMOV  
                                 ČLÁNKY 
                                 PRÍBEH  
                                 GALÉRIA  
                                 PROPOZÍCIE                 
                                 KONTAKT 
                             
                            
                         
                     
                 
             
            

         
        

                
         
                        
        
         
           
         
            
        
          
         
          
        
              
           
        
                    
         
         
        
        
        
        
        
         
        
         
        
              
        
        
         
        
         
        
        
        
 
    

