

    
	
	
    
    	
        
         
            
             
             
               
                 
                     
                         
                            
                             
                                                            
                                    
                                
                             
                            
                            
                                                        
                             
                                
								Charitatívna cyklojazda   
                                    
                                
                             
                            
                                                     
                     
                 
                 
                	
  
 	 
 		
 		                       	
 		 			 
 				Domov
 				 			 
 			 			 
 				Deťom pre život
 				 			 
 			 			 
 				Príbeh
 				 			 
 			 					 
 						Články
 					 
 						 						 
 							2015
 								 								 
 									 								 
 									
 										BRATISLAVA REGION CUP 									
 								 
 								 							 
 							 						 
 						 						 
 							2010
 								 								 
 									 								 
 									
 										CHARITATÍVNA CYKLOJAZDA 									
 								 
 								 							 
 							 						 
 						 						 
 							2013
 								 								 
 									 								 
 									
 										BRATISLAVA REGION CUP 									
 								 
 								 								 
 									
 										CHARITATÍVNA CYKLOJAZDA 									
 								 
 								 							 
 							 						 
 						 						 
 							2014
 								 								 
 									 								 
 									
 										CHARITATÍVNA CYKLOJAZDA 									
 								 
 								 								 
 									
 										BRATISLAVA REGION CUP 									
 								 
 								 							 
 							 						 
 						 					 
 					 
 					 			 
 				Galéria
 				 			 
 			 			 
 				Bratislava Region Cup
 				 				 
 					 					 
 						Propozície
 					 
 					 					 
 						O seriáli
 					 
 					 					 
 						Výsledky
 					 
 					 				 
 				 			 
 			 			 
 				Charitatívna cyklojazda
 				 				 
 					 					 
 						Trasa 2014
 					 
 					 					 
 						V médiach
 					 
 					 				 
 				 			 
 			 			 
 				Kontakt
 				 			 
 			 		 
 	 
 
                
 

             
            

		           
             
                 
                 
                     Na bicykel so spoločnosťou Pro Diagnostic Group! 
                 
             
             

            
             

                 
                     
                         
                             Domov 
                             / 
                             Články 
                             / 
                             Na bicykel so spoločnosťou Pro Diagnostic Group!                                        
                         
                             
                 

                 
                    
                 

                
                 
                     
                        
                        
                                              
                            
                             
                            	                                 
                                 
                                     Na bicykel so spoločnosťou Pro Diagnostic Group! 
                                 
                                
                               
                                
                                 
                                     
                                        
                                         
                                             14.4.2014   
                                             
                                             
                                               
                                                 
                                                  
                                                 
                                               
                                             
                                            
                                         
                                        

                                        
                                         
                                        	 
                                        	 S radosťou oznamujeme, že spoločnosť, ktorá zastrešuje niekoľko významných diagnostických stredísk po celom Slovensku sa stáva partnerom charitatívnej cyklojazdy Na bicykli deťom 2014!    
 Spoločnosť Pro Diagnostic Group
a.s. zastrešuje niekoľko významných diagnostických stredísk po celom Slovensku. Pracoviská v Bratislave, Nových Zámkoch, Žiline, Poprade, Prešove a
Košiciach sú zamerané predovšetkým na rádiológiu a diagnostiku pomocou
magnetickej rezonancie. Spoločnosť ale prevádzkuje aj pracoviská pozitrónovej emisnej
tomografie (PET/CT), počítačovej tomografie či roentgenologické oddelenie. Za kvalitou práce zdravotníckych
tímov nestoja len jedny z najmodernejších prístrojov magnetickej
rezonancie či PET/CT, ale predovšetkým vysoká odbornosť lekárov, rádiologických
technikov, sestier a hlavne ľudský prístup k naším klientom.

 
   

 Do projektu Na bicykli deťom spoločnosť
vstupovala postupne. Najprv ako účastníci cyklojazdy, a v tomto roku už aj ako hrdý partner
projektu. K rozhodnutiu podporiť celý projekt priviedla spoločnosť chuť pomôcť,
ako aj fakt, že v Pro Diagnostic Group sú mnohokrát jednými z prvých, ktorí odhalia a diagnostikujú
onkologické ochorenie, či už pomocou magnetickej rezonancie alebo PET/CT metód.
Samotná diagnostika síce nelieči, ale včasné odhalenie choroby je kľúčové pre
jej budúci priebeh a spôsob liečby. Pre diagnostické tímy je
najväčším zadosťučinením to, keď môžu počas pravidelného diagnostikovania
pacientovi oznámiť, že ochorenie ustupuje a v najlepšom prípade, že
ho už úplne prekonal. V spoločnosti si uvedomujú a každý deň sa osobne stretávajú
s náročnosťou boja s rakovinou, preto chcú pomôcť pri jej zvládaní, či
už detským pacientom, ale aj všetkým ostatným, ktorých zákerná choroba postihla.


 
                                         
                                         
                                        
                                    
                                 
                                 
                                                                
                             
                            
                                                     
                         

                        
                                              
                            
                            
                            
                            														 
                                 Skúste vyhľadávanie 
                                
                                     
                                        
                                        
                                            
                                        
                                     
                                   
                             
                            
                             
                                 
                                     
Partneri 
                                 
                                
                                 
                                    
                                     
                                         
                                             Partneri Bratislava Region Cup 
    
                                             
                                                 
                                                 
                                                     
                                                    			                                                         
                                                        	
                                                        	
                                                        	
                                                        	 Starý Smokovec 
                                                         
                                                        	                                                         
                                                        	
                                                        	
                                                        	
                                                        	 Tatranská Lomnica 
                                                         
                                                        	                                                         
                                                        	
                                                        	
                                                        	
                                                        	 Teraz.sk 
                                                         
                                                        	                                                         
                                                        	
                                                        	
                                                        	
                                                        	 Štiavnický kros triatlon 
                                                         
                                                        	                                                         
                                                        	
                                                        	
                                                        	
                                                        	 Plavnica 
                                                         
                                                        	                                                         
                                                        	
                                                        	
                                                        	
                                                        	 Toi Toi 
                                                         
                                                        	                                                         
                                                        	
                                                        	
                                                        	
                                                        	 Kunovice 
                                                         
                                                        	                                                         
                                                        	
                                                        	
                                                        	
                                                        	 Dr. Magnet 
                                                         
                                                        	                                                         
                                                        	
                                                        	
                                                        	
                                                        	 Ćaklov 
                                                         
                                                        	                                                         
                                                        	
                                                        	
                                                        	
                                                        	 Penzion SIMI 
                                                         
                                                        	                                                         
                                                        	
                                                        	
                                                        	
                                                        	 Dukla Trenčín 
                                                         
                                                        	                                                         
                                                        	
                                                        	
                                                        	
                                                        	 Terchová 
                                                         
                                                        	                                                         
                                                        	
                                                        	
                                                        	
                                                        	 Košice 
                                                         
                                                        	                                                         
                                                        	
                                                        	
                                                        	
                                                        	 Slovnaft 
                                                         
                                                        	                                                         
                                                        	
                                                        	
                                                        	
                                                        	 Beluša 
                                                         
                                                        	                                                     
                              
                                                 
                                                 
                                             
                                            
                                                VIEW EVENT PAGE
                                                
                                            
                                         
                                     
                                    

                                    
                                      
                                         
                                             Partneri Charitatívnej cyklojazdy 
    
                                             
                                                 
                                                 
                                                     
                                                    			                                                         
                                                        	
                                                        	
                                                        	
                                                        	 Mestské lesy Bratislava 
                                                         
                                                        	                                                         
                                                        	
                                                        	
                                                        	
                                                        	 MTBiker 
                                                         
                                                        	                                                         
                                                        	
                                                        	
                                                        	
                                                        	 Bratislava Nové Mesto 
                                                         
                                                        	                                                         
                                                        	
                                                        	
                                                        	
                                                        	 Digi Sport 
                                                         
                                                        	                                                         
                                                        	
                                                        	
                                                        	
                                                        	 Bratislava 
                                                         
                                                        	                                                         
                                                        	
                                                        	
                                                        	
                                                        	 cyklistika-sk.eu 
                                                         
                                                        	                                                     
                              
                                                 
                                                 
                                             
                                            
                                                VIEW EVENT PAGE
                                                
                                            
                                         
                                     
                                    

                                 
                                 
                               
                            
                            
                            
                            
                             
                            
                                 
                                     Najnovšie články 
                                 
                                 
                                 
                                	     
                                     
                                    	
                                        
                                       
                                         
                                            
                                            	 Bratislava Region Cup 2015 
                                            
                                             Bratislava Region Cup 2015

 

Minulý rok sme v hlavnom meste odštartovali prvý ročník športového podujatia Bratislava Region Cup. Séria akcií pre všetkých športových nadšencov pokračuje aj v roku 2... 
                                         
                                     
                                         
                                     
                                    	
                                        
                                       
                                         
                                            
                                            	 Video z Ružinovskej časovky 
                                            
                                             Pozrite si video z Ružinovskej časovky






Your browser does not support the video tag. 
                                         
                                     
                                         
                                     
                                    	
                                        
                                       
                                         
                                            
                                            	 Prvý ročník Bratislava Region Cup úspešný 
                                            
                                             Rok 2014 prial jednoznačne športu. V hlavnom meste sa uskutočnilo niekoľko skvelých športových podujatí v rámci Bratislava Region Cupu.Celej  série  Bratislava Region Cup sa zúčastnili profesionálni ale aj hobby športovci, pretekári z rôznych krajín Európy.  Cieľom ... 
                                         
                                     
                                         
                                     
                                    	
                                        
                                       
                                         
                                            
                                            	 Patince - záver cyklistickej sezóny 2014 
                                            
                                             Poďte s nami ukončiť tohtoročnú cyklistickú  sezónu vo veľkom štýle! Odbicyklujte si to s nami do Wellness Hotela Patince!Tohtoročná cyklistická sezóna bola náročná, plná horských i cestných maratónov, či časoviek. A preto si po športových výkonoch doprajte zaslúžen?... 
                                         
                                     
                                                                     
                                 
                                 
                                
                                
                               								
																   
                                    
                                     
                                         Na bicykli deťom 
                                         
                                     
                                 
																   
                                    
                                     
                                         Na bicykli deťom 
                                         
                                     
                                 
																   
                                    
                                     
                                         Na bicykli deťom 
                                         
                                     
                                 
																   
                                    
                                     
                                         Na bicykli deťom 
                                         
                                     
                                 
								                                 
                         
                        
                                          
                   
                
                	     
                 
                     
                         
                             
                                 
                                     Ďakujeme všetkým naším sponzorom a partnerom. 
                                     ...za nezištnú podporu a pomoc... 
                                 
                                 
                                	  	                                 	  	 		
                                     
                                    		
                                    	
                                     
                                   
                                                                    	  	 		
                                     
                                    		
                                    	
                                     
                                   
                                                                    	  	 		
                                     
                                    		
                                    	
                                     
                                   
                                                                    	  	 		
                                     
                                    		
                                    	
                                     
                                   
                                                                    	  	 		
                                     
                                    		
                                    	
                                     
                                   
                                                                    	  	 		
                                     
                                    		
                                    	
                                     
                                   
                                                                    	  	 		
                                     
                                    		
                                    	
                                     
                                   
                                                                    	  	 		
                                     
                                    		
                                    	
                                     
                                   
                                                                    	  	 		
                                     
                                    		
                                    	
                                     
                                   
                                                                    	  	 		
                                     
                                    		
                                    	
                                     
                                   
                                                                    	  	 		
                                     
                                    		
                                    	
                                     
                                   
                                                                    	  	 		
                                     
                                    		
                                    	
                                     
                                   
                                                                    	  	 		
                                     
                                    		
                                    	
                                     
                                   
                                                                    	  	 		
                                     
                                    		
                                    	
                                     
                                   
                                                                    	  	 		
                                     
                                    		
                                    	
                                     
                                   
                                                                    	  	 		
                                     
                                    		
                                    	
                                     
                                   
                                                                    	  	 		
                                     
                                    		
                                    	
                                     
                                   
                                                                    	  	 		
                                     
                                    		
                                    	
                                     
                                   
                                                                    	  	 		
                                     
                                    		
                                    	
                                     
                                   
                                                                    	  	 		
                                     
                                    		
                                    	
                                     
                                   
                                                                    	  	 		
                                     
                                    		
                                    	
                                     
                                   
                                                                    	  	 		
                                     
                                    		
                                    	
                                     
                                   
                                                                    	  	 		
                                     
                                    		
                                    	
                                     
                                   
                                                                    	  	 		
                                     
                                    		
                                    	
                                     
                                   
                                                                    	  	 		
                                     
                                    		
                                    	
                                     
                                   
                                                                    	  	 		
                                     
                                    		
                                    	
                                     
                                   
                                                                    	  	 		
                                     
                                    		
                                    	
                                     
                                   
                                                                    	  	 		
                                     
                                    		
                                    	
                                     
                                   
                                                                    	  	 		
                                     
                                    		
                                    	
                                     
                                   
                                                                    	  	 		
                                     
                                    		
                                    	
                                     
                                   
                                                                    	  	 		
                                     
                                    		
                                    	
                                     
                                   
                                                                    	  	 		
                                     
                                    		
                                    	
                                     
                                   
                                                                    	  	 		
                                     
                                    		
                                    	
                                     
                                   
                                                                    	  	 		
                                     
                                    		
                                    	
                                     
                                   
                                                                    	  	 		
                                     
                                    		
                                    	
                                     
                                   
                                                                    	  	 		
                                     
                                    		
                                    	
                                     
                                   
                                                                    	  	 		
                                     
                                    		
                                    	
                                     
                                   
                                                                    	  	 		
                                     
                                    		
                                    	
                                     
                                   
                                                                    	  	 		
                                     
                                    		
                                    	
                                     
                                   
                                                                    	  	 		
                                     
                                    		
                                    	
                                     
                                   
                                                                    	  	 		
                                     
                                    		
                                    	
                                     
                                   
                                                                    	  	 		
                                     
                                    		
                                    	
                                     
                                   
                                                                    	  	 		
                                     
                                    		
                                    	
                                     
                                   
                                                                    	  	 		
                                     
                                    		
                                    	
                                     
                                   
                                                                    	  	 		
                                     
                                    		
                                    	
                                     
                                   
                                                                    	  	 		
                                     
                                    		
                                    	
                                     
                                   
                                                                    	  	 		
                                     
                                    		
                                    	
                                     
                                   
                                                                    	  	 		
                                     
                                    		
                                    	
                                     
                                   
                                                                    	  	 		
                                     
                                    		
                                    	
                                     
                                   
                                                                    	  	 		
                                     
                                    		
                                    	
                                     
                                   
                                                                    	  	 		
                                     
                                    		
                                    	
                                     
                                   
                                                                    	  	 		
                                     
                                    		
                                    	
                                     
                                   
                                                                    	  	 		
                                     
                                    		
                                    	
                                     
                                   
                                                                    	  	 		
                                     
                                    		
                                    	
                                     
                                   
                                                                    	  	 		
                                     
                                    		
                                    	
                                     
                                   
                                                                    	  	 		
                                     
                                    		
                                    	
                                     
                                   
                                                                    	  	 		
                                     
                                    		
                                    	
                                     
                                   
                                                                    	  	 		
                                     
                                    		
                                    	
                                     
                                   
                                                                    	  	 		
                                     
                                    		
                                    	
                                     
                                   
                                                                    	  	 		
                                     
                                    		
                                    	
                                     
                                   
                                                                    	  	 		
                                     
                                    		
                                    	
                                     
                                   
                                                                    	  	 		
                                     
                                    		
                                    	
                                     
                                   
                                                                    	  	 		
                                     
                                    		
                                    	
                                     
                                   
                                                                    	  	 		
                                     
                                    		
                                    	
                                     
                                   
                                                                    	  	 		
                                     
                                    		
                                    	
                                     
                                   
                                                                    	  	 		
                                     
                                    		
                                    	
                                     
                                   
                                                                    	  	 		
                                     
                                    		
                                    	
                                     
                                   
                                                                    	  	 		
                                     
                                    		
                                    	
                                     
                                   
                                                                    	  	 		
                                     
                                    		
                                    	
                                     
                                   
                                                                    	  	 		
                                     
                                    		
                                    	
                                     
                                   
                                                                    	  	 		
                                     
                                    		
                                    	
                                     
                                   
                                                                    	  	 		
                                     
                                    		
                                    	
                                     
                                   
                                                                    	  	 		
                                     
                                    		
                                    	
                                     
                                   
                                                                    	  	 		
                                     
                                    		
                                    	
                                     
                                   
                                                                    	  	 		
                                     
                                    		
                                    	
                                     
                                   
                                                                    	  	 		
                                     
                                    		
                                    	
                                     
                                   
                                                                    	  	 		
                                     
                                    		
                                    	
                                     
                                   
                                                                    	  	 		
                                     
                                    		
                                    	
                                     
                                   
                                                                        
                                 
                             
                         
                     
                   
                 
               
            


             
                 
                	
                	
                    
                     
                         
                                 
                                     
                                        
                                            
                                        
                                     
                                 
                                                                 
                                     
                                        
                                            
                                        
                                     
                                  
                                 
                                     
                                        
                                            
                                        
                                     
                                  
                                  
                                     
                                        
                                            
                                        
                                     
                                 
                         
                      
                    

                 
                   
            

            
             
                 
                     
                         
                             © 2015 Na bicykli deťom | Developed by 
                            	
                            		Designdnt
                            	
                         
 
                         
                            
                             
                                 
DOMOV  
                                 ČLÁNKY 
                                 PRÍBEH  
                                 GALÉRIA  
                                 PROPOZÍCIE                 
                                 KONTAKT 
                             
                            
                         
                     
                 
             
            

         
        

                
         
                        
        
         
           
         
            
        
          
         
          
        
              
           
        
                    
         
         
        
        
        
        
        
         
        
         
        
              
        
        
         
        
         
        
        
        
 
    

