

    
	
	
    
    	
        
         
            
             
             
               
                 
                     
                         
                            
                             
                                                            
                                    
                                
                             
                            
                            
                                                        
                             
                                
								Charitatívna cyklojazda   
                                    
                                
                             
                            
                                                     
                     
                 
                 
                	
  
 	 
 		
 		                       	
 		 			 
 				Domov
 				 			 
 			 			 
 				Deťom pre život
 				 			 
 			 			 
 				Príbeh
 				 			 
 			 					 
 						Články
 					 
 						 						 
 							2015
 								 								 
 									 								 
 									
 										BRATISLAVA REGION CUP 									
 								 
 								 							 
 							 						 
 						 						 
 							2010
 								 								 
 									 								 
 									
 										CHARITATÍVNA CYKLOJAZDA 									
 								 
 								 							 
 							 						 
 						 						 
 							2013
 								 								 
 									 								 
 									
 										BRATISLAVA REGION CUP 									
 								 
 								 								 
 									
 										CHARITATÍVNA CYKLOJAZDA 									
 								 
 								 							 
 							 						 
 						 						 
 							2014
 								 								 
 									 								 
 									
 										CHARITATÍVNA CYKLOJAZDA 									
 								 
 								 								 
 									
 										BRATISLAVA REGION CUP 									
 								 
 								 							 
 							 						 
 						 					 
 					 
 					 			 
 				Galéria
 				 			 
 			 			 
 				Bratislava Region Cup
 				 				 
 					 					 
 						Propozície
 					 
 					 					 
 						O seriáli
 					 
 					 					 
 						Výsledky
 					 
 					 				 
 				 			 
 			 			 
 				Charitatívna cyklojazda
 				 				 
 					 					 
 						Trasa 2014
 					 
 					 					 
 						V médiach
 					 
 					 				 
 				 			 
 			 			 
 				Kontakt
 				 			 
 			 		 
 	 
 
                
 

             
            

		           
             
                 
                 
                     7.etapa TATRY - TERCHOVÁ 
                 
             
             

            
             

                 
                     
                         
                             Domov 
                             / 
                             Články 
                             / 
                             7.etapa TATRY - TERCHOVÁ                                        
                         
                             
                 

                 
                    
                 

                
                 
                     
                        
                        
                                              
                            
                             
                            	                                 
                                 
                                     7.etapa TATRY - TERCHOVÁ 
                                 
                                
                               
                                
                                 
                                     
                                        
                                         
                                             12.6.2013   
                                             
                                             
                                               
                                                 
                                                  
                                                 
                                               
                                             
                                            
                                         
                                        

                                        
                                         
                                        	 
                                        	 
 Náročná etapa plná kopcov nás stála veľa síl. napriek tomu, šťastne sme sa dostali až do Jánošíkovho kraja.   
 

 Skoré tatranské ráno, čerstvý vzduch, všade ticho,
zo sna nás prebúdza už známy zvuk Bilovej píšťalky. Áno, presne takto sa začína
každý náš deň, Bilova píšťalka sa stala neodmysliteľnou súčasťou nášho
projektu:-)   


      


 Máme pred sebou slnečný deň, ktorý začína úžasne.
Štartujeme z Dolného Smokovca za podpory žiakov z miestnej základnej školy. Sadáme
na bicykle, prvá zastávka nás čaká v Liptovskom Hrádku. Pres mestským úradom
máme krásne privítanie, kopec ľudí, pohostenie, od zástupcov mesta preberáme
šek na 300€.   


      


 Po občerstvení znova vysadáme na bicykle a
pokračujeme. Prechádzame krásnou krajinou Liptova až sa dostaneme do Dolného
Kubína. Niektorí sú z tunajších kopcov vyšťavení, ale za to spokojní a šťastní,
že im to šliape. Po prijatí starostom Dolného Kubína a občerstvení pokračujeme.
"Traťovky" v podobe bagiet, šišiek a pagáčov nám dodávajú silu.    


 Prekonávame ďalšie kopce, prejdeme Terchovú a
šťastne sa dostávame do hotela Bránica v obci Belá. Krásny hotel s úžasnými
ľuďmi! Čakajú nás tu naši priatelia, hokejisti z Trenčína, ktorí nás podporujú
každý rok. Výdatná večera a spánok, ďalšia etapa je tu už o pár hodín...   


 
                                         
                                         
                                        
                                    
                                 
                                 
                                                                
                             
                            
                                                     
                         

                        
                                              
                            
                            
                            
                            														 
                                 Skúste vyhľadávanie 
                                
                                     
                                        
                                        
                                            
                                        
                                     
                                   
                             
                            
                             
                                 
                                     
Partneri 
                                 
                                
                                 
                                    
                                     
                                         
                                             Partneri Bratislava Region Cup 
    
                                             
                                                 
                                                 
                                                     
                                                    			                                                         
                                                        	
                                                        	
                                                        	
                                                        	 Pro Diagnostic Group 
                                                         
                                                        	                                                         
                                                        	
                                                        	
                                                        	
                                                        	 Terchová 
                                                         
                                                        	                                                         
                                                        	
                                                        	
                                                        	
                                                        	 Plaveč 
                                                         
                                                        	                                                         
                                                        	
                                                        	
                                                        	
                                                        	 Birell 
                                                         
                                                        	                                                         
                                                        	
                                                        	
                                                        	
                                                        	 Stredoslovenská Energetika 
                                                         
                                                        	                                                         
                                                        	
                                                        	
                                                        	
                                                        	 Dr. Magnet 
                                                         
                                                        	                                                         
                                                        	
                                                        	
                                                        	
                                                        	 Kinecom 
                                                         
                                                        	                                                         
                                                        	
                                                        	
                                                        	
                                                        	 Reanult Kestler  
                                                         
                                                        	                                                         
                                                        	
                                                        	
                                                        	
                                                        	 Nová Sedlica 
                                                         
                                                        	                                                         
                                                        	
                                                        	
                                                        	
                                                        	 Green Bike 
                                                         
                                                        	                                                         
                                                        	
                                                        	
                                                        	
                                                        	 Slovenské elektrárne 
                                                         
                                                        	                                                         
                                                        	
                                                        	
                                                        	
                                                        	 Partner 
                                                         
                                                        	                                                         
                                                        	
                                                        	
                                                        	
                                                        	 Tatravagónka Poprad 
                                                         
                                                        	                                                         
                                                        	
                                                        	
                                                        	
                                                        	 MTBiker 
                                                         
                                                        	                                                         
                                                        	
                                                        	
                                                        	
                                                        	 Penzión na Sihoti 
                                                         
                                                        	                                                     
                              
                                                 
                                                 
                                             
                                            
                                                VIEW EVENT PAGE
                                                
                                            
                                         
                                     
                                    

                                    
                                      
                                         
                                             Partneri Charitatívnej cyklojazdy 
    
                                             
                                                 
                                                 
                                                     
                                                    			                                                         
                                                        	
                                                        	
                                                        	
                                                        	 MTBiker 
                                                         
                                                        	                                                         
                                                        	
                                                        	
                                                        	
                                                        	 Mestské lesy Bratislava 
                                                         
                                                        	                                                         
                                                        	
                                                        	
                                                        	
                                                        	 Bratislava Nové Mesto 
                                                         
                                                        	                                                         
                                                        	
                                                        	
                                                        	
                                                        	 Bratislava 
                                                         
                                                        	                                                         
                                                        	
                                                        	
                                                        	
                                                        	 Digi Sport 
                                                         
                                                        	                                                         
                                                        	
                                                        	
                                                        	
                                                        	 cyklistika-sk.eu 
                                                         
                                                        	                                                     
                              
                                                 
                                                 
                                             
                                            
                                                VIEW EVENT PAGE
                                                
                                            
                                         
                                     
                                    

                                 
                                 
                               
                            
                            
                            
                            
                             
                            
                                 
                                     Najnovšie články 
                                 
                                 
                                 
                                	     
                                     
                                    	
                                        
                                       
                                         
                                            
                                            	 Bratislava Region Cup 2015 
                                            
                                             Bratislava Region Cup 2015

 

Minulý rok sme v hlavnom meste odštartovali prvý ročník športového podujatia Bratislava Region Cup. Séria akcií pre všetkých športových nadšencov pokračuje aj v roku 2... 
                                         
                                     
                                         
                                     
                                    	
                                        
                                       
                                         
                                            
                                            	 Video z Ružinovskej časovky 
                                            
                                             Pozrite si video z Ružinovskej časovky






Your browser does not support the video tag. 
                                         
                                     
                                         
                                     
                                    	
                                        
                                       
                                         
                                            
                                            	 Prvý ročník Bratislava Region Cup úspešný 
                                            
                                             Rok 2014 prial jednoznačne športu. V hlavnom meste sa uskutočnilo niekoľko skvelých športových podujatí v rámci Bratislava Region Cupu.Celej  série  Bratislava Region Cup sa zúčastnili profesionálni ale aj hobby športovci, pretekári z rôznych krajín Európy.  Cieľom ... 
                                         
                                     
                                         
                                     
                                    	
                                        
                                       
                                         
                                            
                                            	 Patince - záver cyklistickej sezóny 2014 
                                            
                                             Poďte s nami ukončiť tohtoročnú cyklistickú  sezónu vo veľkom štýle! Odbicyklujte si to s nami do Wellness Hotela Patince!Tohtoročná cyklistická sezóna bola náročná, plná horských i cestných maratónov, či časoviek. A preto si po športových výkonoch doprajte zaslúžen?... 
                                         
                                     
                                                                     
                                 
                                 
                                
                                
                               								
																   
                                    
                                     
                                         Na bicykli deťom 
                                         
                                     
                                 
																   
                                    
                                     
                                         Na bicykli deťom 
                                         
                                     
                                 
																   
                                    
                                     
                                         Na bicykli deťom 
                                         
                                     
                                 
																   
                                    
                                     
                                         Na bicykli deťom 
                                         
                                     
                                 
								                                 
                         
                        
                                          
                   
                
                	     
                 
                     
                         
                             
                                 
                                     Ďakujeme všetkým naším sponzorom a partnerom. 
                                     ...za nezištnú podporu a pomoc... 
                                 
                                 
                                	  	                                 	  	 		
                                     
                                    		
                                    	
                                     
                                   
                                                                    	  	 		
                                     
                                    		
                                    	
                                     
                                   
                                                                    	  	 		
                                     
                                    		
                                    	
                                     
                                   
                                                                    	  	 		
                                     
                                    		
                                    	
                                     
                                   
                                                                    	  	 		
                                     
                                    		
                                    	
                                     
                                   
                                                                    	  	 		
                                     
                                    		
                                    	
                                     
                                   
                                                                    	  	 		
                                     
                                    		
                                    	
                                     
                                   
                                                                    	  	 		
                                     
                                    		
                                    	
                                     
                                   
                                                                    	  	 		
                                     
                                    		
                                    	
                                     
                                   
                                                                    	  	 		
                                     
                                    		
                                    	
                                     
                                   
                                                                    	  	 		
                                     
                                    		
                                    	
                                     
                                   
                                                                    	  	 		
                                     
                                    		
                                    	
                                     
                                   
                                                                    	  	 		
                                     
                                    		
                                    	
                                     
                                   
                                                                    	  	 		
                                     
                                    		
                                    	
                                     
                                   
                                                                    	  	 		
                                     
                                    		
                                    	
                                     
                                   
                                                                    	  	 		
                                     
                                    		
                                    	
                                     
                                   
                                                                    	  	 		
                                     
                                    		
                                    	
                                     
                                   
                                                                    	  	 		
                                     
                                    		
                                    	
                                     
                                   
                                                                    	  	 		
                                     
                                    		
                                    	
                                     
                                   
                                                                    	  	 		
                                     
                                    		
                                    	
                                     
                                   
                                                                    	  	 		
                                     
                                    		
                                    	
                                     
                                   
                                                                    	  	 		
                                     
                                    		
                                    	
                                     
                                   
                                                                    	  	 		
                                     
                                    		
                                    	
                                     
                                   
                                                                    	  	 		
                                     
                                    		
                                    	
                                     
                                   
                                                                    	  	 		
                                     
                                    		
                                    	
                                     
                                   
                                                                    	  	 		
                                     
                                    		
                                    	
                                     
                                   
                                                                    	  	 		
                                     
                                    		
                                    	
                                     
                                   
                                                                    	  	 		
                                     
                                    		
                                    	
                                     
                                   
                                                                    	  	 		
                                     
                                    		
                                    	
                                     
                                   
                                                                    	  	 		
                                     
                                    		
                                    	
                                     
                                   
                                                                    	  	 		
                                     
                                    		
                                    	
                                     
                                   
                                                                    	  	 		
                                     
                                    		
                                    	
                                     
                                   
                                                                    	  	 		
                                     
                                    		
                                    	
                                     
                                   
                                                                    	  	 		
                                     
                                    		
                                    	
                                     
                                   
                                                                    	  	 		
                                     
                                    		
                                    	
                                     
                                   
                                                                    	  	 		
                                     
                                    		
                                    	
                                     
                                   
                                                                    	  	 		
                                     
                                    		
                                    	
                                     
                                   
                                                                    	  	 		
                                     
                                    		
                                    	
                                     
                                   
                                                                    	  	 		
                                     
                                    		
                                    	
                                     
                                   
                                                                    	  	 		
                                     
                                    		
                                    	
                                     
                                   
                                                                    	  	 		
                                     
                                    		
                                    	
                                     
                                   
                                                                    	  	 		
                                     
                                    		
                                    	
                                     
                                   
                                                                    	  	 		
                                     
                                    		
                                    	
                                     
                                   
                                                                    	  	 		
                                     
                                    		
                                    	
                                     
                                   
                                                                    	  	 		
                                     
                                    		
                                    	
                                     
                                   
                                                                    	  	 		
                                     
                                    		
                                    	
                                     
                                   
                                                                    	  	 		
                                     
                                    		
                                    	
                                     
                                   
                                                                    	  	 		
                                     
                                    		
                                    	
                                     
                                   
                                                                    	  	 		
                                     
                                    		
                                    	
                                     
                                   
                                                                    	  	 		
                                     
                                    		
                                    	
                                     
                                   
                                                                    	  	 		
                                     
                                    		
                                    	
                                     
                                   
                                                                    	  	 		
                                     
                                    		
                                    	
                                     
                                   
                                                                    	  	 		
                                     
                                    		
                                    	
                                     
                                   
                                                                    	  	 		
                                     
                                    		
                                    	
                                     
                                   
                                                                    	  	 		
                                     
                                    		
                                    	
                                     
                                   
                                                                    	  	 		
                                     
                                    		
                                    	
                                     
                                   
                                                                    	  	 		
                                     
                                    		
                                    	
                                     
                                   
                                                                    	  	 		
                                     
                                    		
                                    	
                                     
                                   
                                                                    	  	 		
                                     
                                    		
                                    	
                                     
                                   
                                                                    	  	 		
                                     
                                    		
                                    	
                                     
                                   
                                                                    	  	 		
                                     
                                    		
                                    	
                                     
                                   
                                                                    	  	 		
                                     
                                    		
                                    	
                                     
                                   
                                                                    	  	 		
                                     
                                    		
                                    	
                                     
                                   
                                                                    	  	 		
                                     
                                    		
                                    	
                                     
                                   
                                                                    	  	 		
                                     
                                    		
                                    	
                                     
                                   
                                                                    	  	 		
                                     
                                    		
                                    	
                                     
                                   
                                                                    	  	 		
                                     
                                    		
                                    	
                                     
                                   
                                                                    	  	 		
                                     
                                    		
                                    	
                                     
                                   
                                                                    	  	 		
                                     
                                    		
                                    	
                                     
                                   
                                                                    	  	 		
                                     
                                    		
                                    	
                                     
                                   
                                                                    	  	 		
                                     
                                    		
                                    	
                                     
                                   
                                                                    	  	 		
                                     
                                    		
                                    	
                                     
                                   
                                                                    	  	 		
                                     
                                    		
                                    	
                                     
                                   
                                                                    	  	 		
                                     
                                    		
                                    	
                                     
                                   
                                                                    	  	 		
                                     
                                    		
                                    	
                                     
                                   
                                                                    	  	 		
                                     
                                    		
                                    	
                                     
                                   
                                                                    	  	 		
                                     
                                    		
                                    	
                                     
                                   
                                                                    	  	 		
                                     
                                    		
                                    	
                                     
                                   
                                                                        
                                 
                             
                         
                     
                   
                 
               
            


             
                 
                	
                	
                    
                     
                         
                                 
                                     
                                        
                                            
                                        
                                     
                                 
                                                                 
                                     
                                        
                                            
                                        
                                     
                                  
                                 
                                     
                                        
                                            
                                        
                                     
                                  
                                  
                                     
                                        
                                            
                                        
                                     
                                 
                         
                      
                    

                 
                   
            

            
             
                 
                     
                         
                             © 2015 Na bicykli deťom | Developed by 
                            	
                            		Designdnt
                            	
                         
 
                         
                            
                             
                                 
DOMOV  
                                 ČLÁNKY 
                                 PRÍBEH  
                                 GALÉRIA  
                                 PROPOZÍCIE                 
                                 KONTAKT 
                             
                            
                         
                     
                 
             
            

         
        

                
         
                        
        
         
           
         
            
        
          
         
          
        
              
           
        
                    
         
         
        
        
        
        
        
         
        
         
        
              
        
        
         
        
         
        
        
        
 
    

