



 

 

email me | skype me | aim me | media inquiries | rss | visit olbermannwatch

 

 
 



 
 

 
 

  
   




 
 
www.flickr.com 

 This is a Flickr badge showing public photos from robert_a_cox tagged with thenationaldebate. Make your own badge here. 

 
 



 
 
 
 

 
 
 
Recommended 
 


 
Recent Comments
 

  
   Fort-Worth Star Telegram Readers 

(1573) 
         Aria wrote: 
              [URL]http://www.si4mena.org/formula-1[/URL]   [URL]http://www.intezwr.org/tempo[/URL]   [URL]http:...
            [more]  
         
   Closing Down The National Debate 

(7197) 
         long penis wrote: 
            Nice site. Thanks.

























...
            [more]  
         
   Viva Las Vegas - RTNDA Convention 

(3806) 
         natural penis enlargement wrote: 
            Cool site. Thanks!!!
huge penis
&lt;a href='...
            [more]  
         
   Bad Day for the Bad Guys in Maine 

(6435) 
         forced sex wrote: 
            Hi! Nice design, good site!
Thanks!
http://bestvid.9999mb.com/beastiality.html &lt;a href="http://bes...
            [more]  
         
   Catching Up, the MBA, and our little Maine blogstorm 

(2707) 
         free porn mpegs wrote: 
            red hot chili pepper &lt;a href=...
            [more]  
         
   
  

       
       


 


December 2006

Sun
Mon
Tue
Wed
Thu
Fri
Sat




 


 


 


 


 


1


2



3


4


5


6


7


8


9



10


11


12


13


14


15


16



17


18


19


20


21


22


23



24


25


26


27


28


29


30



31


 


 


 


 


 


 




 

 Search 
 
 


Search this site: 
 


 

 
 Categories 

 
 
Media Criticism



 
 

 

 Archives 

 
 September 2006 
 May 2006 
 April 2006 
 December 2005 
 November 2005 
 October 2005 
 September 2005 
 July 2005 
 June 2005 
 May 2005 
 April 2005 
 March 2005 
 February 2005 
 January 2005 
 December 2004 
 November 2004 
 October 2004 
 September 2004 
 August 2004 
 July 2004 
 June 2004 
 May 2004 
 April 2004 
 March 2004 
 February 2004 
 January 2004 
 December 2003 
 November 2003 
 October 2003 
 September 2003 
 August 2003 
 July 2003 
 June 2003 
 
 



 Recent Entries 

 
 Fort-Worth Star Telegram Readers 
 Closing Down The National Debate 
  
  
  
  
  
 Project for Excellence in Journalism 
 Will Bloggers Ever Lose? 
 Bad Day for the Bad Guys in Maine 

 
 

 
 
Syndicate this site (XML)
 




 RSS FEEDS 
 

 
 
 
 
 
 

 

 



 


 
 
 















 


 


 
Powered by Movable Type 3.16     
 




   




       
      
      
      


      
       





 
 
 
