




Parenting of K-6 Children   Archive



























 


 


You are here:

About&gt;Parenting &amp; Family&gt;Parenting of K-6 Children


  



Parenting of K-6 Children






 
 
 Parenting &amp; Family 
 Child Parenting 
 
 
Essentials 
Parent BlogsHow to Be an Online Shopping ExpertOnline Games for KidsThe Best Kids' ToysParents' Plan for Stress-Free Holidays
 
 
 
Topics 
Activities and FunBehavior ProblemsChild DevelopmentDisciplineChild Health and DisordersElementary SchoolFamily ComputerFamily IssuesGames and ToysHolidays and SeasonsKids' PartiesLearning EnrichmentLife at HomeParent SupportShopping
 
 
 
Buyer's Guide 
Guide Picks - Kids' Toy and Gift GuideToys for Drawing and ColoringMusical Toys for Younger KidsWord Games for Older KidsPretend Play Toys
 
 
 
  Tools
   
    Compare Prices
    Find a Job
    Mortgage Loans
    Travel Booking
    Yellow Pages
   
 
 
 
  
 Forums 
 Most Popular Articles 
 Latest Articles 
 Help 
  
 
 
 
 
 



 From Kimberly L. Keith, Your Guide to Parenting of K-6 Children. FREE Newsletter. Sign Up Now!
 
 Parenting of K-6 Children Blog Archive 
	 December 2006 
				 
 November 2006 
			
			 
 October 2006 
				 
 September 2006 
				 
 August 2006 
				 
 July 2006 
				 
 June 2006 
				 
 May 2006 
				 
 April 2006 
				 
 March 2006 
				 
 February 2006 
				 
 January 2006 
				 
 December 2005 
				 
 November 2005 
				 
 October 2005 
				 
 September 2005 
				 
 August 2005 
				 
 July 2005 
				 
 June 2005 
				 
 May 2005 
				 
 April 2005 
				 
 March 2005 
				 
 February 2005 
				 
 January 2005 
				 
 December 2004 
				 
 November 2004 
				 
 October 2004 
				 
 September 2004 
				 
 August 2004 
				 
 July 2004 
				 
 June 2004 
				 
 May 2004 
				 
 April 2004 
				 
 March 2004 
				 
 February 2004 
				 
 January 2004 
				 
 December 2003 
				 
 November 2003 
				 
 October 2003 
				 
 September 2003 
				 
 August 2003 
				 
 July 2003 
				 
 June 2003 
			 
 Email to a Friend  
 
 Display Latest Headlines |  |  | Read Archives 
 powered by WordPress 




 
 
 
  
 Find the Perfect Gift 
 Top 10 Toys of 2006Digital Cameras Under $200Best Gifts for Your SpouseReview: TMX ElmoRomantic Gifts Under $50 
  
  
 What's Hot 
 Cope with a Busy Holiday WeekValentine Party Games for KidsEaster E-Cards Valentine Crafts for KidsFreebies for Parents and Kids 
  
 
 
 
 
 
 Advertisement 

 
  
 Most Popular 
 Christmas GamesOnline Games for Preschool KidKids' Christmas Parties Christmas Game for Kids Children's Birthday Cakes 
  
  
 Related Sites 
 Adoption / Foster CarePediatricsFatherhoodParenting Special NeedsSingle Parents 
  
 
 
 




	 
	
All Topics | Email Article  |  | 





 

	
Advertising Info | News &amp; Events | Work at About | SiteMap | Reprints | Help

	
Our Story | Be a Guide



	
User Agreement | Ethics Policy | Patent Info. | Privacy Policy

	©2006 About, Inc., A part of The New York Times Company. All rights reserved.


 








