





astrology, vedic astrology, natal chart , Astrology , horoscope , software portal















 


  
  
    
      
        
        
          
            
              
                

                
                
                
                

                
                
                   
                   


              
                
                   
                  
       
                
                
       
                  
                  
                   
                
              



        
          

        
          
             
            
                
              
              
                
                
                
                   
                  
                   

                
                   Astrology 
                  Services     Astrology 
                  Company       Astrology 
                  Software     Shopping   




              
                
                

                
                   
                  
                    
                    
                      
                      
                      
                      
                      
                      
                      


 

                
                



 
              

        
          

        
          
             
            
            
              
              
                
                

                
                
                


              
                
                
Indian Astrology   Astro Dictionary - Astrological Gem 
                  Mantras - K.P. 
                  Astrology - Lal 
                  Kitab - Astro 
                  Marriage compatibility - Astro Money 
                  matters - Astrology 
                  Varshphal - Vedic 
                  Astrology - Vedic Astro Lessons 
                  - Women &amp; Astrology 
                    Western 
                  Astrology  Gemnology 
                  - Health 
                  &amp; Astrology   Occult   Charms 
                  - Dreams - Kundalini - 
                  Tantra 
                  - Mantra 
                  - Yantra 
                     Meditation Other   Astrology &amp; fun - Astrology Articles - Chinese Astrology 
                  - Astro Graphology - Numerology - Palmistry - Physiognomy Men - Physiognomy women - Vastu    
                  Religion   Festivals 
                  of India -Fairs of 
                  India -Fasts of 
                  India - Bhagwad 
                  Gita Krishna 
                  Lilas - Vedas   Health   Yoga for all - Sun 
                  Salutation - Pranayama Astrology 
                    Book  Astrological Books 
                    Games  Mind Reader   Shopping Home 
                

              
                
                

                
                
                




 


        
          



      
       
      
       
       
      
      
        
        
          
             
            
            
              
              
                
                 
                

              
                
                
                   
                  
                  
                    
                    
                      
                        
                          
                          
                            
                                





                    
                      
                         Indian 
                        Astrology 


                    
                      

                    
                      Astrology Details

                    
                      Vedic 
                        Astrology

                    
                      K.P. 
                        Astrology

                    
                      Lal 
                        Kitab

                    
                      Marraige 
                    compatibility

                    
                      Varshphal

                    
                      

                    
                      Western

                    
                      

                    
                      Gemnology

                    
                      Health 
                        &amp; Astrology

                    
                      

                    
                      Services

                    
                      

                    
                      Horoscope 
                    Consultancy

                    
                      

                    
                      Marriage 
                    Compatibility

                    
                      

                    
                      Remedy Report

                    
                      

                    
                      Free 
                        Services

                    
                      

                    
                      
                         Graphology 


                    
                      Know 
                        Day

                    
                      Love 
                        compatibility

                    
                      MoonSign

                    
                      Numerology

                    
                      Chinese

                    
                      

                    
                      Occult

                    
                      

                    
                      Charms

                    
                      Dreams

                    
                      Tantra

                    
                      Mantra

                    
                      Yantra

                    
                      Kundalini

                    
                      

                    
                      
                        
                          
                          
                            Beyond your 
                              Imaginations 

                          
                            

                          
                            
Information On INDIAN 


                          
                            

                          
                                 Fasts      Fairs      Festivals 


                          
                            




                    
                      

                    
                      Channels

                    
                      

                    
                      Matrimony 
                      Solutions

                    
                      Precious, Semi-Precious Gems &amp; 
                        Jewellery

                    
                      Yellow Pages

                    
                      Rajasthan Heritage and 
                        Handicraft

                    
                      

                    
                      Past 
                        Astrological Reports

                    
                      

                    
                      Cricket

                    
                      Iraq / US War

                    
                      

                    
                      Astrologers 
                        Directory

                    
                      

                    
                      Register Now

                    
                      

                    
                      Indian 
                        Calendar

                    
                      

                    
                      
Panchang (Vikram Samvat, 
                      2060)


                    
                      

                    
                      

                    
                      

                    
                      
                         
                          Astrology 
                    perfumes 


                    
                      

                    
                      

                    
                      

                    
                       
                      

                    
                      

                    
                      

                    
                      

                    
                      
                        
                          
                          
                            
                               Free  Listing of Astrologers on 
                              Aryabhatt 





                    
                      

                    
                      

                    
                      

                    
                      
                        
                          
                          
                            
                               Invitation to ARTICLES on 
                              Astrology, yoga, occult, health and other 
                              predictive 
                          techniques 





                    
                      

                    
                      

                    
                      

                    
                      
                        
                          
                          
                            
                               Advertise with 
                              us 





                    
                      

                    
                      

                    
                      

                    
                      
                           Send Greeting Cards to your 
                        LOVE 


                    
                      

                    
                      

                    
                      

                    
                      
                      

                      
                      
                      
                      
                      
                      

                    
                      
                      
                      

                      
                      
                      
                      
                      
                      
                      

                    
                      
                      
                      
                      
                      
                      
                      
                      

                    
                      
                      












                    
                      
                      
                     




 

                

              
                
                ese
                
                   
                   




 

          
          
             
            
            
              
              
                
                horoscope horoscope matching
                

              
                
                
                  
                    
                    
                      Hot Favorites

                    
                      
                         
                         

                        
                          
                          
                            

                             
                            
   
                            

                          
                            
                                 

                            
 web www.aryabhatt.com 
                                       
                            






                    
                      

                    
                      New Attraction

                    
                      

                    
                      Astrology 
                        Details 

                    
                      
                       
                         
                         
                        
                        New Improved Moon Sign Weekly Predictions 
 
                         
                         
                        
                        Free Rudraskha Recommendations as per your Horoscope 
 
                         
                         
                        
                        Mantras for Attraction, love, Cure and diseases 
 
                       
                      

                    
                      

                    
                      
                      New 
                      Special

                    
                      
                         
                        
                          
                          
                            

                            
                            Largest, Exclusive, Selected Collection of
                             
                             
                            -
                            
                            Astrology Books 
                            -
                            
                            Ayurveda Books 
                            -
                            
                            Astrology Products 
                            -
                            
                            Ayurveda Products 
                             
                            Powered by
                            
                            Amazon.com


                          
 


                    
                      
                        
                          
                          
                                 Aryabhatt    Gem Store


                          
                            
                                
                                
                                
                                
                                
                                
                                

                                
                                Best Astrology Gem Stones 
                                at Best Price

                                
                                

                                
                                
                                
                                

                                 
                                 
Ruby, 
                                Pearl, Emerald 
                                 
 
Red 
                                Coral 
                                 
 
Yellow 
                                Sapphire, Blue Sapphire 
                                 
 
Zircon, 
                                Opal, Gomedh 
                                 
 
Cat's 
                                Eye, Amethyst 
                                 
 
Moon 
                                Stone, Yellow Topaz  
 
                                 
Find More 
                                 



 







                    
                      

                    
                      
                        
                          
                          
                            
Aryabhatt Shopping 
                               (Astrology Products, 
                              astrology services, Gems, Rudraksha and lots 
                              more)


                          
                            
1. Authentic Rudraksha 
                              (Source to divine 
                              Power)


                          
                            2. Gem Stones  (For Astrology and Jewellery 
                              needs)

                          
                            3. Nine Gems Pendant  
                              (Spiritual 
                              Enlightment)

                          
                            4. Astrological Rings  
                              


 
                        
                          
                          
                            
                               
                              






















                                                                                 
                                                                                 
                                                                                 
                                                                                 
                                                                                 
                                                                                 
                                                                                 
                                                                                 
                                                                                 
                                                                                 
                                                                                 
                                       
                              																																																		
 



                         

                          
                        
                          
                          
                            
                             
                            
                            
Online 
                              Horoscope Get your Online Horoscope 
                              based on Indian Astrology . Just enter your Date, 
                              Place and Time of Birth and get your 
                              horoscope.              
                                           
                                           
                              Click 
                              Here 

                          
                            

                          
                            
 
                              
                                
                                
                                
                                
                                
                                
                                    Unfold 
                                The

                                

                                
                                       
                                       
                                    Mysteries of Your 
                                Life


                                
                                
Astrology Reports &amp; 
                                Services     
                                

                                
                                

                                
                                








 Hot 
                        Picks 
                        
                          
                          
                            
                              
                                
                                
                                
KP Astrology &amp; KP 
                                Panchang 
                              




                          
                            
                               

                          
                            


                    


                      
                         

                    
                      
                        
                          
                          
                            
                              
                              Your 
                              Home And Nature Harmony (Vastu-Shastra) 
                              

                          
                            
                             Horoscope 
                              Consultancy Services 

                          
                            
                             Vedic 
                              Marriage compatibility &amp; Horoscope 
                              Matching

                          
                            
                             Personalized 
                              career guidance report

                          
                            
                             Remedial 
                              Astrology (Astrological Solution to better 
                              life)

                          
                            
                             Personalized 
                              predictions for year 
                            2003-2004

                          
                            
                             Astrology 
                              Counseling &amp; 
                          Consultancy

                          
                            
                               more... 





                    
                      

                    
                      
                        
                          
                          
                            
Festivals of 
                              India India is a country of 
                              Rich Culture and Heritage. The colourful 
                              collection of Indian 
                          Festivals





                    
                      

                    
                      Free Instant 
                      Reports

                    
                      
                        
                          
                            
                              
                                
                                
                                

                                
                                Birth Horoscope 
                                (Natal Chart) Make your birth 
                                horoscope (natal chart) on the basis of vedic 
                                astrology. View 
                                Sample         See 
                                Your Horoscope

                                
                                

                                
                                Moon 
                                Constellation Report (Nakshtra 
                                Prediction) What is hidden 
                                inside you ? What should be your professional 
                                field ? What are the reasons of your sucess or 
                                Failure ? Get, answers to these questions 
                                through Moon Constellation Report. View 
                                Sample         Constellation 
                                Report

                                
                                







                    
                      

                    
                      Free Online 
                      Services

                    
                      
                        
                          
                            
                              
                                
                                
                                Graphology Handwritings 
                                reveals lots about an individual, the complete 
                                analysis of your handwriting.

                                
                                

                                
                                Male 
                                / Female Sunsign Compatibility  Matching 
                                of horoscopic chart of  a boy and girl for 
                                the purpose of marriage according to Vedic 
                                Principles

                                
                                

                                
                                
Numerolological analysis of 
                                your name  We 
                                exist in the universe of vibrations, and every 
                                person in this world has a vibration 
                                charateristic to him that is distinct from 
                                others. The details of the person's life is 
                                written in the name and date of birth. The 
                                complete numerological analysis of your Name and 
                                date of birth.


                                
                                

                                
                                
Chinese astrology and your 
                                forecast for this year We 
                                have made the complete detailed analysis of your 
                                current year on the basis of principles of 
                                Chinese Astrology.


                                
                                

                                
                                
Weekly Vedic 
                                Forecast Free Weekly Prediction on 
                                Vedic Principles. Compiled by expert Astrologers 
                                at Aryabhatt. Click to know about health, money 
                                and family 
                            life.








                    
                      

                    
                      
                         Links 


                    
                      
                        
                          
                            
                              
                                
                                
                                
Indian Astrology 
                                 Astro 
                                Dictionary - GemMantras 
                                - K.P.Astrology 
                                - Lal 
                                Kitab - Marriage 
                                compatibility - Money matters - Varshphal 
                                - Vedic 
                                Astrology - Vedic 
                                Lessons - Women &amp; 
                                Astrology 

                                
                                Western Astrology 
                                 Gemnology 
                                - Health 
                                &amp; astrology

                                
                                
Occult  Charms 
                                - Dreams 
                                - Kundalini 
                                - Tantra 
                                - Mantra 
                                - Yantra 
                                Meditation 
                                

                                
                                
Other  Astrology &amp; 
                                fun - Astrology 
                                Articles - Chinese 
                                Astrology - Graphology 
                                - Numerology 
                                - Palmistry 
                                - Physiognomy Men 
                                - Physiognomy 
                                women - Vastu 
                                

                                
                                
Religion 
                                 Bhagwad Gita 
                                - Krishna 
                                Lilas - Vedas 
                                

                                
                                Health  Yoga for all 
                                - Sun 
                                salutation

                                
                                
                                
                                
                                
                                
Links Partners 
                                

                                
                                
Indiangyan.com, Goldenamerica.net, 
                                
                                
Orientaljewels.com, Goldenindia.com 
                                










                    
                      

                    
                      

                    
                      
Copyright Sapphire International, Opp. 
                        Hawamahal, Jaipur - 302002, India  Email : admin@aryabhatt.com 
                          aryabhatt_india@yahoo.com



                

              

                
                
                



 

          
          
             
            
            
              
              
                
                numerology 
                palmistry
                

              
                
                

                 
                  
                  
                    
                    
                    
                    
                    
                    
                      
                        
                          
                          
                          
                          
                          
                          
                            
                              
                              
                              
                                
                                
                                

                                
                                  Login
                                Password

                                
                                  

                                
  
                                 


                                
                                   New 
                                User

                                Forgot 
                                Password

                                
                                
                                






                          
                            

                          
                            
                               Know 
                              Your Day 


                          
                          
                          
                          
                          
                            
                            
                               
                              
                              
                                
                                
                                Aries
                                Taurus
                                Gemini

                                
                                Cancer
                                Leo
                                Virgo

                                
                                Libra
                                Scorpio
                                Sagittarius

                                
                                Capricorn
                                Aquarius
                                Pisces



 



                          
                            
                            


                          
                            Aryabhatt 
                              Matrimony

                          
                            

                          
                            Register Fast to 
                              Avail special benefits

                          
                              *  Free 
                              Horoscope Matching (Online)   *  Photo 
                              Profile (new Feature)   *  Most of 
                              the services are free   *  Only 
                              one payment scheme       and 
                              lots lots more unique features

                          
                            
                               Register 
                              Now 










                    
                      

                    
                      
                        
                      
                       
                        
                        
                         
                        
                        
                         
                        
                        
                         
                        
                        
                          
                            
                               
                              User`s Astrological 
                              Article  





                    
                      

                    
                      
                        
                          
                            
Live help  
                               Now you can contact us ONLINE 
                              to know about any of our services, status of your 
                              order, any suggestion, or Business idea... Add following 
                              into messenger: aryabhatt1@yahoo.com (yahoo) aryabhatt1@hotmail.com (MSN) (Contact 
                              Timings : 11.00 to 19.00 
                          I.S.T)





                    
                      

                    
                      
                        
                          
                            Horoscope 
                              Matching

                          
                            

                          
                            
Free Marriage Compatibility (Only for 
                              limited time period)


                          
                            




                    
                      

                    
                      
                         
                        
                          
                          
                            
                             
                            
                            
                            Aryabhatt 
                            Astrology 
                            Software 
                             
                            
                            
                            
                            The complete Astrology software 

                            
                          
                          
                             
                             

                          
                          
                            
                            

                            Surya Namaskara (Sun 
                              Salutation) is an exercise sequence, which has 
                              both the physical and the 
                              spiritual 
                              aspects.


 


                    
                      

                    
                      
                         
                        
                          
                          
                            
                            
                             Books Corner The largest 
                              collection of astrology and occult science books. 
                              You can find new and old books 
                          here.


 


                    
                      

                    
                      
                         
                        
                          
                          
                            
                            Four Pillars of Destiny The 3000 yrs. old 
                              technique, re-analysed by the Japanese Couple for 
                              the benefit of Aryabhatt Visitors. Working out the 
                              relationship between human and 
                            nature.


 


                    
                      

                    
                      
                         
                        
                          
                          
                            
                            Women 
                              &amp; Astrology, ladies basic nature, 
                              Education, Profession, Husband and lover. 
                              Children, Sex Nature and Sex life. The detailed 
                              analysis as per Indian 
                          Astrology.


 


                    
                      

                    
                      
                         
                        
                          
                          
                            
                            Vastushastra, ancient 
                              indian construction 
                              technology and techniques for building 
                              environment friendly dwellings in harmony to 
                              nature, environment, cosmic energy, gravitation 
                              and the 
                        universe.


 


                    
                      

                    
                      
                         
                        
                          
                          
                            
                            The Science of Pranayama  Different types of 
                              Pranas, Mudras, Exercises with importance, 
                              benefits and special instructions. 
                          


 


                    
                      

                    
                      
                         
                        
                          
                          
                            
                            

                            Yoga for all  The centuries' old 
                              way to physical, mental, and emotional well-being. 
                              A guide, bringing the benefits of yoga safely and 
                              effective to 
                        all.


 


                    
                      

                    
                      
                         
                        
                          
                          
                            
                            

                            Love &amp; Marriage 
                              compatibility find the 
                              compatibility between male/female partners on 
                              Vedic and 
                              Western 
                              Concepts


 


                    
                      

                    
                      
                         
                        
                          
                          
                            
                            

                            Women Physiognomy Beauty is nature's 
                              gift and is admired by everybody. The analysis of 
                              womans nature, luck and health on the basis of her 
                              body 
                    parts.


 


                    
                      

                    
                      
                        
                          
                          
                            
                            Daily Routine Few basic tips to 
                              keep your mind, body and soul healthy. A guide to 
                              start a wonderful 
                        day




                    
                      

                    
                      
                        
                          
                          
                            
                            MANTRAS FOR ATTRACTION, LOVE 
                              ,CURE DISEASES ETC. Mantra, set of words 
                              from the Vedas attributed to the deities or Devas. 
                              Mantras are the  ways to attain one's 
                              desires, provided one recite them with complete 
                              faith and prescribed methods and 
                            rules.




                    
                      

                    
                      
                        
                          
                          
                            
                            MEDITATION, DISCOVER YOUR 
                              INNERSELF Discover the inner 
                              of you, Discover the secrets of meditation. Its 
                              utility in daily life. Learn the art of 
                              meditation. How to use it for recharging your 
                              life. Living to the full extent of your energy. 
                              The yogic method of 
                          meditation.




                    
                      

                    
                      
                        
                          
                          
                            
                            Games Mind Reader, Choose 
                              your number, after making some calculations it 
                              will show corresponding Symbol. 
                          

                          
                          









 
                

              
                
                
                

                
                    





 




       
      
      
        
        
          
            
              
              
                About Us
                Advertise with Us
                Links
                Contact 
                  Us
                Privacy
                Disclaimer
                






 

 





 



