





MacFixIt - Security Update 2005-006 (#5): Problems connecting to secure site, potential solutions; Confirmation for Safari performance fix










 







        
                
        



                        
                                
                                
				
                                
                                        
                                        
                                        

                                            
                                                    
                                                            						Advertise | Support | Contact Us
                                                    

                                            
                                        
                                
                        
                                
                        
                
                
                
                                
                                        
                                                
                                                        
                                                        
                                                
                                        
                                        


Advanced Search 
 






                                        
                                
                                
                                        
                                
                        
                
                        
                                
                                        
                                                
                                                
                                                
                                        
                                
                                
                                        
                                
                        



							
								
							
							
								
								        
            
        
								
								

									 

										
									
										
											
												


This Content or feature is for MacFixIt Pro subscribers. 
If your subscription has expired you can renew online.  
Subscribe to MacFixit Pro and gain access to exclusive content and features including: 
 Troubleshooting Articles and special reports from 1996 to present 
 Advanced search options 
 Option to remove ads from the site 
 Email alerts- receive an immediate, daily or weekly email alert about products, developers and categories you care about. 
 
Learn More | Purchase | Renew



	
		

		    
				Login Here: 
				



Email Address:
 

 

Password:
 


 
 
Forgot your password?  Learn More | Purchase                                            

										
									
								
							
						


            
            
            
            
         

		
      

	
	
		 
	
	
		
	



	
		
 Problems with MacFixIt? 
		Send email here.  

	

						
						

	



	
		
			 
		
	
	
	
	
	
	
		
			
				Home |
				MFI Pro | 
				Search | 
				Forums | 
				Reports | 
				Archives | 
				Library | 
				Email | 
				About | 
				Ads | 
				Links |

			
		
		 
			
				 
 MacFixIt: Mac Troubleshooting and Forums (About MFI). Copyright 1996-2006, TechTracker, Inc. Privacy Policy | Member Agreement 
VersionTracker: Software Updates and Downloads | Best Mac &amp; Software Prices.
         
			
		
		 
			 
		
		
	
	

	
	
	






				
			
			
				
				
				
			
		
		
		









								 
								
								
							
							
								
							
						




