

















 













	
	
	 
	 
	 
	 

	
	
	
	

	
	

	
	

	
	

	
	

	
	

	
	


	
	

	
	

	
	
	
	
	

	
	

	
	

	
	

	
	

	
		
		
	
		

	
		

	
		

	
		

	 
	 
	 
	 

	
	
	
	
	
	
	
		
	

	
	 
	
	
	
	
	
	

	
	
	
	
	

	
	

	
	

	
	

	
	

	
	

	
	

	
	

	
	

	
	

	
	

	
	

	
	
	
	
	
	
	
	
	
	

	
	

	
	

	
	

	
	

	
	

	
	

	
	

	
	

	
	

	
	

	
	

	
	
	
	

	
	

	
	

	
	

		
	
	
	
	
	
	
	
	
	
	

	
	

	
	

	

	
	

	
	

	
	

	
	

	
	

	
	
	
	
	

	
	

	
	

	
	

	
	

	
	

	
	

	
	

	
	

	
	

	
	

	
	

	
	

	
	

	
	

	
	
	
	
	

	
	

	
	

	
	

	
	

	
		
		
	
		

	
		

	
		

	
		
	
	
		
		
	
		
	
	
		
	
	
	
		
	
	
	
	
	

	
	
	
	
	
		
		
			

		
		
		
		
		
		
		
		
		
		
		
		
		
		
		
		
		
		
		

		
		
		
		
		
		
		

		
		
			

		

		
		
		
		


		
		

		
		
		
		
		
		
		
		
		
		

		
		

		
	
	
	
	
	
	
		
		
	




	
	
	

	
	
	
	
	
	
	
	
	
	

	
	


	
	
		
			
		
	
	
	
	
	
		
	
	
		
			
			
			
			
			
		
	
	
	
	

 


	
	
	
		



		
		
		
		
		
		
		
		
		
		
		
		
		
		
		
		
		
		
		


		
		
			

		

		
		
		
		
		

		
		

		
		
		
		
			
		
		
		
			

		
		

		
		

		
		
		
		
		
		
		
			
				

		
		
		
		

		

		
		
		

			
				
			
		
		
		
		
		

		
		
		
		
		
		

		
		
		
		
				
		
		
		
				
		
			
		

		
		
		
		
		
		
	
		
			
			
			
		
		
		
	
		
			
			
		

		
		
		
		
			

		

		
		
		

			
				
			
		
		
		
		
		

		
		
		
		
		
		

		
					
						
		
		
				
		
		
		
		
		
				
		
		

		
		
		
		
		
		
		
		
			
			
				
			
		
		
		
		
		
			
			
		
		
		
		
		
			
			
		

		
		
		
			
			
		
		
		

		
			

			
		
		

		
		

		
				
		 
		
			
		
		
		

				
			
		
		

		
		
		
		
			

		
		

		
		

		
		
		
		
		
		
		
		

		
		
		
		
		
		
			

		
		

		
		

		
		
		
		
		
		
		
			
				

		
		
		
		
		
		
		
		
		
		
		
		
		
		
		
		
		
		
		

		
		
		
		
		
		
		

		
		
			

		

		
		
		
		


		
		

		
		
		
		
		
		
		
		
		
		

		

		

		
		
		
		
		
		
		
		
		
		
		
		

		
			
		
		

		
		
		
		


		
			

		

		
		
		

	
		
		
		
		

		



		
		

		
				
		
		

		
		
		
		

		

		
		
		

			
				
			
		
		
		
		
		

		
		
		
		
		
		
		

		
		
		
		
				
		
		
		
				
		
			
		

		
		
		
		
		
		
	
		
			
			
			
		
		
		
	
		
			
			
		

		
		
		
		
			

		

		
		
		

			
				
			
		
		
		
		
		

		
		
		
		
		
		

		
					
						
		
		
				
		
		
		
		
		
				
		
		

		
		
		
		
		
		
		
		
			
			
				
			
		
		
		
		
		
			
			
		
		
		
		
		
			
			
		

		
		
		
			
			
		
		
		

		
			

			
		
		

		
		

		
				
		 
		
			
		
		
		

		
		
		

		
		

		
		

		
		
		
		
		
		
		
			
				
				

				
				

		
		
		
		

		

		
		
		

			
				
			
		
		
		
		
		

		
		
		
		
		
		

		
		
		
		
				
		
		
		
				
		
			
		

		
		
		
		
		
		
	
		
			
			
			
		
		
		
	
		
			
			
		

		
		
		
		
			

		

		
		
		

			
				
			
		
		
		
		
		

		
		
		
		
		
		

		
					
						
		
		
				
		
		
		
		
		
				
		
		

		
		
		
		
		
		
		
		
			
			
				
			
		
		
		
		
		
			
			
		
		
		
		
		
			
			
		

		
		
		
			
			
		
		
		

		
			

			
		
		

		
		

		
				
		 
		
			
		
		
		

				
			
		
		

		
		
		

		


 

		
	

	
	
		





















 

	

 












	
	
		
	
	
	

	  
	  
	  
	  
	  
	  
	  
	  	
	  	 

	  	
		
		
			 
	  	 
			
			
			
			

			
			
			
			
				
			
						
					
			
			

			
			
				
						
		
	  
	 
	  
	  
	  
	  

	    
	  
	  
	  
	  
	  			
	  	  
	
		
		
		
		
		
		
			
				
			
			
				
			
			
			 
				
			
						
			
				
				
				
				
				
					
					
				
				
				
	 
	 
	 
	 

	
	
	
	

	
	

	
	

	
	

	
	

	
	

	
	


	
	

	
	

	
	
	
	
	

	
	

	
	

	
	

	
	

	
		
		
	
		

	
		

	
		

	
		

	 
	 
	 
	 
	
	
	
	
	
	
	
	

	
	

	
	

	
	

	
	

	
	

	
	
	
	
	


	
	

	
	

	
	

	
	
	
	
	

	
	

	
	

	
	

	
	
	
	

	
	
	
	
	

	
	
	
	
	
	
	
	

	
		
	
	
	
	
	
	
		
	
	
	

				
				
					
				
				
					
					
					
					
					
					
					
					
				

				
				
				
					
	
					
					
					
	 
	 
	 
	 

	
	
	
	

	
	

	
	

	
	

	
	

	
	

	
	


	
	

	
	

	
	
	
	
	

	
	

	
	

	
	

	
	

	
		
		
	
		

	
		

	
		

	
		

	 
	 
	 
	 

	
	
	
	
	
	
	
		
	

	
	 
	
	
	
	
	
	

	
	
	
	
	

	
	

	
	

	
	

	
	

	
	

	
	

	
	

	
	

	
	

	
	

	
	

	
	
	
	
	
	
	
	
	
	

	
	

	
	

	
	

	
	

	
	

	
	

	
	

	
	

	
	

	
	

	
	

	
	
	
	

	
	

	
	

	
	

		
	
	
	
	
	
	
	
	
	
	

	
	

	
	

	

	
	

	
	

	
	

	
	

	
	

	
	
	
	
	

	
	

	
	

	
	

	
	

	
	

	
	

	
	

	
	

	
	

	
	

	
	

	
	

	
	

	
	

	
	
	
	
	

	
	

	
	

	
	

	
	

	
		
		
	
		

	
		

	
		

	
		
	
	
		
		
	
		
	
	
		
	
	
	
		
	
	
	
	
	

					
					
										
					
					
					
					
					
	 
	 
	 
	 

	
	
	
	

	
	

	
	

	
	

	
	

	
	

	
	


	
	

	
	

	
	
	
	
	

	
	

	
	

	
	

	
	

	
		
		
	
		

	
		

	
		

	
		

	 
	 
	 
	 
	
	
	
	
	
	
	
	
	
	
	

	
	

	
	

	
	
	
	
	
	
	
	

	
	

	
	

	
	

	
	
	
	
	

	
	

	
	
	
	
	

	
	

	
	

	
	

	
	

	
	

	
	

	
	

	
	

	
	
	
	
	

	
	

	
	

	
	


					
		
		
		

		
			


	







	
  
	
	
	
	






	  









	



	
		

		
		
		
		

		

		
		
		

			
				
			
		
		
		
		
		

		
		
		
		
		
		
		

		
		
		
		

		

		
		
		

			
				
			
		
		
		
		
		

		
		
		
		
		
			
		

		
		
		
		
				
		
		
		
				
		
			
		

		
		
		
		
		
		
	
		
			
			
			
		
		
		
	
		
			
			
		

		
		
		
		
			

		

		
		
		

			
				
			
		
		
		
		
		

		
		
		
		
		
		

		
					
						
		
		
				
		
		
		
		
		
				
		
		

		
		
		
		
		
		
		
		
			
			
				
			
		
		
		
		
		
			
			
		
		
		
		
		
			
			
		

		
		
		
			
			
		
		
		

		
			

			
		
		

		
		

		
				
		 
		
			
		
		
		

		
		
		
	


	



	

		
		
		
		

		

		
		
		

			
				
			
		
		
		
		
		

		
		
		
		
		
			
	

		
		
		
		
				
		
		
		
				
		
			
		

		
		
		
		
		
		
	
		
			
			
			
		
		
		
	
		
			
			
		

		
		
		
		
			

		

		
		
		

			
				
			
		
		
		
		
		

		
		
		
		
		
		

		
					
						
		
		
				
		
		
		
		
		
				
		
		

		
		
		
		
		
		
		
		
			
			
				
			
		
		
		
		
		
			
			
		
		
		
		
		
			
			
		

		
		
		
			
			
		
		
		

		
			

			
		
		

		
		

		
				
		 
		
			
		
		
		

		
	



 

		
		
		
			
			
			
			
				
  404 : Page Not Found 
  

 

				


