




        
                  
 

 
	 
		  
		 
		 
			User Login
		 
				 
			Lost Password?
		 
				 
  
	 
 

 
	
 
 
	
 
 
	November 1st-30th 

	 
                  
 
 
   
 
Home
 
 Breaking News 
 Daily NaNo Q&amp;A 
 WrimoRadio 
 1000 Words 
 


 
 
About
 
 What is NaNoWriMo? 
 How it Works 
 History 
 Becoming an ML 
 Letter to Parents 
 Brought To You By... 
 Staff 
 Contact 
 Press Clippings 
 Media Kit 
 Help Wanted 
 


 
 
Authors
 
   Winners! 
 


 
 
My NaNoWriMo


 
 
FAQs
 
 The Basics 
 The Rules 
 The Community 
 The Finances 
 NaNo Technology 
 Help Desk 
 Cybele's Guide to the Forums 
 


 
 
Fun Stuff
 
 NaNoWriMo Blog 
 Participant Icons 
 Flyers for Downloading 
 Flickr  
 Archives 
 Word Count API 
 Word Count Widgets 
 


 
 
Donation/Store
 
 Donations 
 Store 
 


 
 Forums 
 
Our Programs
 
 Libraries in Southeast Asia 
 Young Writers Program 
 AlphaSmart + Laptop Loaners 
 The Sponsorship Program 
 NaNoWriMo 2006 Budget 
 


 
 
 

 

                  
                 

        
                

           



 Title generator? 



	
		National Novel Writing Month Forum Index -&gt; Plot Doctoring
	
	
	
		Topic options

		
		
		Print Topic
	
	
	
		View mode
				Threaded
				Compact
				Oldest First
			
	



	
	  


	 Login To Post




    








  
       
		 
			
				Mutant Goldfish
												Profile
											
		 
	
     Re: Title generator? 
    
    	 
	#3
	 
    
  

  
  	
  				
			  	 
 50007 / 50000 words 
			 
Joined: 11/9 2:22:34 
  	  	 
From Pennsylvannia 
  		  	 
Posts: 240 
  	  			         Posted on: 11/18 16:53:37 
	

    
     Thank you so much! I am at a loss of a title, too. Hopefully, those generators will give me something to build on. 
    
             
	_________________ 
	  Use of word "the:" 3,171.
	 
            
  



  
    
	          
    
     
        	 
     
    
  



  
       
		 
			
				danieljameswest
												Profile
											
		 
	
     Re: Title generator? 
    
    	 
	#2
	 
    
  

  
  	
  				  	 
 27994 / 50000 words 
			 
Joined: 2005/11/5 20:50 
  	  	 
From Newcaslte, England 
  		  	 
Posts: 18 
  	  			         Posted on: 11/18 16:51:13 
	

    
     A quick search on google reveals:  http://www.fictionalley.org/primer/title.html  http://mdbenoit.com/rtg.htm  And this fantasy title generator:  http://nine.frenchboys.net/novel.php  And there's loads more ... 
    
             
	_________________ 
	Daniel James West
	 
            	 
	 Edited by danieljameswest on 2006/11/18 16:52:29  
        
  



  
    
	          
    
     
        	 
     
    
  



  
       
		 
			
				Sashakat
												Profile
											
		 
	
     Title generator? 
    
    	 
	#1
	 
    
  

  
  	
  				  	 No Word Count Entered. 
			 
Joined: 2005/11/4 19:06 
  		  	 
Posts: 8 
  	  			         Posted on: 11/18 16:37:10 
	

    
     I've seen sites that have name generators or even plot generators.  Is there a title generator anyone knows of?  I am absolutely, completely at a loss for a title. 
    
            
  



  
    
	          
    
     
        	 
     
    
  








	
	  


	 Login To Post




 Toggle Fast Reply
 
 


Post Reply

Account
Name 
 Password 
 Login




Message:














 
 

 
 

 





-- Select a Forum --
                 
                NaNo Tips &amp; Strategies
-- Character and Plot Realism Q&amp;A
-- Plot Doctoring
-- Reaching 50,000!
-- Life After NaNoWriMo
                 
                NaNoWriMo, Etc.
-- Rules, Regulations, and Other Minutiae
-- Site and Message Board Feedback and Suggestions
-- Tech Help
                 
                Genre Lounges
-- Chick Lit
-- Erotic Fiction
-- Fantasy
-- Historical Fiction
-- Horror &amp; Thriller
-- Humor &amp; Satire
-- Literary Fiction
-- Mystery &amp; Suspense
-- Religious, Spiritual &amp; New Age
-- Romance
-- Science Fiction
-- Young Adult &amp; Youth
-- Other Genres
                 
                NaNo Groups
-- NaNoWriMo Alumni Lounge
-- Newbies!
-- Writing Groups and Clubs
-- Young Novelists
                 
                Life During NaNo
-- Games, Diversions, and Other Exciting Forms of Novel Procrastination
-- NaNoWriMo Ate My Soul
-- This is Going Better Than I'd Hoped
-- Word Wars, Prompts &amp; Sprints
                 
                Resources &amp; Support
-- All-Ages Coffee House
-- Helpful Orgs and Sites
-- Marketing, self-promotion and stuff for sale
-- NaNo Soundtracks
-- NaNo Technology
-- The Polling Booth
-- Writing 101
                 
                Off Topic
-- Off Topic
                 
                Regional Lounges - USA
-- Alabama :: Birmingham
-- Alabama :: Elsewhere
-- Alabama :: Mobile/Baldwin
-- Alabama :: North
-- Alaska
-- Arizona :: Elsewhere
-- Arizona :: Flagstaff
-- Arizona :: Phoenix
-- Arizona :: Tucson
-- Arkansas
-- California :: Antelope Valley
-- California :: Central Valley
-- California :: East Bay
-- California :: Elsewhere
-- California :: Inland Empire
-- California :: Lompoc
-- California :: Los Angeles
-- California :: Marin-Sonoma
-- California :: Monterey
-- California :: North San Diego County
-- California :: Orange County
-- California :: Sacramento
-- California :: San Diego
-- California :: San Francisco
-- California :: Santa Barbara
-- California :: Santa Clarita
-- California :: Santa Cruz
-- California :: SF Peninsula
-- California :: South Bay
-- California :: Stockton
-- Colorado :: Boulder
-- Colorado :: Colorado Springs
-- Colorado :: Denver
-- Colorado :: Elsewhere
-- Colorado :: Fort Collins
-- Colorado :: Greeley
-- Connecticut :: East
-- Connecticut :: North
-- Connecticut :: Shoreline
-- Delaware
-- District of Columbia
-- Florida :: Daytona Beach
-- Florida :: Elsewhere
-- Florida :: Ft. Lauderdale
-- Florida :: Gainesville
-- Florida :: Jacksonville
-- Florida :: Miami
-- Florida :: Northwest
-- Florida :: Orlando
-- Florida :: Palm Beaches
-- Florida :: Southwest
-- Florida :: St. Augustine
-- Florida :: Tallahassee
-- Florida :: Tampa
-- Florida :: Vero Beach
-- Georgia :: Athens
-- Georgia :: Atlanta
-- Georgia :: Elsewhere
-- Georgia :: Macon
-- Hawaii
-- Idaho :: Boise
-- Idaho :: Elsewhere
-- Illinois :: Champaign-Urbana
-- Illinois :: Chicago
-- Illinois :: Elsewhere
-- Illinois :: Naperville
-- Illinois :: Peoria
-- Illinois :: Southern
-- Indiana :: Bloomington
-- Indiana :: Elsewhere
-- Indiana :: Evansville
-- Indiana :: Indianapolis
-- Indiana :: North
-- Indiana :: Notre Dame
-- Indiana :: Richmond
-- Indiana :: Terre Haute
-- Iowa :: Des Moines
-- Iowa :: Elsewhere
-- Iowa :: Iowa City
-- Iowa :: Sioux City
-- Kansas
-- Kentucky :: Bowling Green
-- Kentucky :: Elsewhere
-- Kentucky :: Lexington
-- Kentucky :: Louisville
-- Louisiana :: Baton Rouge
-- Louisiana :: Elsewhere
-- Louisiana :: Lafayette
-- Louisiana :: New Orleans
-- Maine
-- Maryland
-- Massachusetts :: Berkshires
-- Massachusetts :: Boston
-- Massachusetts :: Elsewhere
-- Massachusetts :: Western Mass
-- Massachusetts :: Worcester
-- Michigan :: Ann Arbor
-- Michigan :: Detroit
-- Michigan :: Elsewhere
-- Michigan :: Flint
-- Michigan :: Grand Rapids
-- Michigan :: Lansing
-- Michigan :: Marquette and the UP
-- Minnesota :: Duluth
-- Minnesota :: Elsewhere
-- Minnesota :: Goodhue County
-- Minnesota :: Rochester
-- Minnesota :: Saint Cloud
-- Minnesota :: Twin Cities
-- Mississippi
-- Missouri :: Columbia
-- Missouri :: Elsewhere
-- Missouri :: Fulton
-- Missouri :: Kansas City
-- Missouri :: Springfield
-- Missouri :: St. Louis
-- Montana
-- Nebraska
-- Nevada :: Elsewhere
-- Nevada :: Las Vegas
-- New Hampshire
-- New Jersey :: Central
-- New Jersey :: Elsewhere
-- New Jersey :: Northeast
-- New Jersey :: Northwest
-- New Jersey :: South
-- New Mexico
-- New York :: Albany
-- New York :: Brooklyn and Queens
-- New York :: Buffalo
-- New York :: Dunkirk
-- New York :: Elsewhere
-- New York :: Ithaca
-- New York :: Long Island
-- New York :: Mohawk Valley
-- New York :: New York City
-- New York :: Plattsburgh
-- New York :: Rochester
-- North Carolina :: Asheville
-- North Carolina :: Chapel Hill
-- North Carolina :: Charlotte
-- North Carolina :: Elsewhere
-- North Carolina :: Fayetteville
-- North Carolina :: Raleigh-Durham
-- North Dakota
-- Ohio :: Ada
-- Ohio :: Canton/Akron
-- Ohio :: Cincinnati
-- Ohio :: Cleveland
-- Ohio :: Columbus
-- Ohio :: Dayton
-- Ohio :: Elsewhere
-- Ohio :: North Central
-- Ohio :: Toledo
-- Oklahoma
-- Oregon :: Albany
-- Oregon :: Elsewhere
-- Oregon :: Eugene
-- Oregon :: Newport
-- Oregon :: Portland
-- Oregon :: Salem
-- Pennsylvania :: Elsewhere
-- Pennsylvania :: Lehigh Valley
-- Pennsylvania :: Norristown
-- Pennsylvania :: Philadelphia
-- Pennsylvania :: Pittsburgh
-- Pennsylvania :: Williamsport
-- Puerto Rico
-- Rhode Island
-- South Carolina :: Charleston
-- South Carolina :: Columbia
-- South Carolina :: Elsewhere
-- South Carolina :: Greenville
-- South Dakota
-- Tennessee :: Elsewhere
-- Tennessee :: Knoxville
-- Tennessee :: Memphis
-- Tennessee :: Nashville
-- Texas :: Amarillo
-- Texas :: Austin
-- Texas :: Bell County
-- Texas :: Bryan-College Station
-- Texas :: Corpus Christi
-- Texas :: Dallas/Ft. Worth
-- Texas :: El Paso
-- Texas :: Elsewhere
-- Texas :: Galveston
-- Texas :: Houston
-- Texas :: Lubbock
-- Texas :: Odessa
-- Texas :: San Antonio
-- Texas :: Waco
-- Utah :: Elsewhere
-- Utah :: Ogden
-- Utah :: Salt Lake City
-- Vermont
-- Virginia :: Elsewhere
-- Virginia :: Northern
-- Virginia :: Richmond
-- Washington :: Bellingham
-- Washington :: Elsewhere
-- Washington :: Olympia
-- Washington :: Pullman
-- Washington :: Seattle
-- Washington :: Spokane
-- Washington :: Tacoma
-- Washington :: Tri-Cities
-- Washington :: Vancouver
-- West Virginia :: Elsewhere
-- West Virginia :: Huntington
-- Wisconsin :: Elsewhere
-- Wisconsin :: Madison
-- Wisconsin :: Milwaukee &amp; Waukesha
-- Wyoming
                 
                Regional Lounges - Canada
-- Alberta :: Calgary
-- Alberta :: Edmonton
-- Alberta :: Elsewhere
-- British Columbia :: Elsewhere
-- British Columbia :: Vancouver
-- British Columbia :: Victoria
-- Elsewhere
-- Manitoba
-- New Brunswick and Prince Edward Island
-- Newfoundland
-- Nova Scotia
-- Ontario :: Elsewhere
-- Ontario :: Hamilton
-- Ontario :: Kingston
-- Ontario :: London
-- Ontario :: Muskoka
-- Ontario :: Niagara
-- Ontario :: North Bay
-- Ontario :: Ottawa
-- Ontario :: Sudbury
-- Ontario :: Toronto
-- Ontario :: Windsor
-- Quebec :: Elsewhere
-- Quebec :: Montreal
-- Quebec :: Quebec
-- Saskatchewan
                 
                Regional Lounges - UK, Ireland &amp; Europe
-- Czech Republic
-- Denmark
-- Deutschland und ?sterreich
-- Elsewhere
-- England :: Birmingham
-- England :: Brighton
-- England :: Cambridge
-- England :: Derbyshire
-- England :: Elsewhere
-- England :: Gloucester &amp; Cheltenham
-- England :: London
-- England :: Manchester
-- England :: Newcastle
-- England :: Nottingham
-- England :: Oxfordshire
-- England :: York &amp; Leeds
-- Estonia
-- Finland
-- France
-- Holland &amp; Belgium
-- Iceland
-- Ireland :: Dublin
-- Ireland :: Elsewhere
-- Luxembourg
-- Norway
-- Scandinavia
-- Scotland
-- Sweden
-- Switzerland
-- Wales
                 
                Regional Lounges - Australia and New Zealand
-- Adelaide
-- Brisbane
-- Canberra and the ACT
-- Darwin
-- Elsewhere
-- Margaret River
-- Melbourne
-- New Zealand
-- Perth
-- Sydney
                 
                Regional Lounges - Asia
-- China
-- Elsewhere
-- Japan
-- Korea
-- Malaysia
-- Philippines
-- Singapore
-- Sri Lanka
-- Taiwan
                 
                Regional Lounges - Elsewhere
-- Africa and Elsewhere
-- Bahamas
-- Brazil
-- Caribbean
-- Egypt
-- Israel
-- Mexico, Central and South America
-- South Africa
-- Tunisia
-- Turkey 








 

      
        
                   
76 user(s) are online (48 user(s) are browsing Forums) 
Members: 23 
Guests: 53 
View online users
 
 
                  
 

 

Home :: 
About :: 
Authors :: 
My NaNoWriMo :: 
FAQs :: 
Fun Stuff :: 
Donation/Store :: 
Forums :: 
Our Programs 
Privacy Policy ::
Terms and Conditions ::
Returns Policy
 

Copyright © 2006 The Office of Letters and Light   ::   All posted novel excerpts remain copyright their authors. 

Powered by XOOPS 2.0.13 © 2001-2006 The XOOPS Project 

 
 
                   
                

      
      







